ARM GAS  C:\Users\SUZUKI~1\AppData\Local\Temp\ccMSp3Eg.s 			page 1


   1              		.syntax unified
   2              		.cpu cortex-m3
   3              		.fpu softvfp
   4              		.eabi_attribute 20, 1
   5              		.eabi_attribute 21, 1
   6              		.eabi_attribute 23, 3
   7              		.eabi_attribute 24, 1
   8              		.eabi_attribute 25, 1
   9              		.eabi_attribute 26, 1
  10              		.eabi_attribute 30, 4
  11              		.eabi_attribute 18, 4
  12              		.thumb
  13              		.file	"btmodule_1_rxfifo_softwarefifo.c"
  14              		.section	.debug_abbrev,"",%progbits
  15              	.Ldebug_abbrev0:
  16              		.section	.debug_info,"",%progbits
  17              	.Ldebug_info0:
  18              		.section	.debug_line,"",%progbits
  19              	.Ldebug_line0:
  20 0000 39010000 		.text
  20      02008400 
  20      00000201 
  20      FB0E0D00 
  20      01010101 
  21              	.Ltext0:
  22              		.cfi_sections	.debug_frame
  23              		.section	.text.btmodule_1_rxfifo_Stop,"ax",%progbits
  24              		.align	1
  25              		.global	btmodule_1_rxfifo_Stop
  26              		.thumb
  27              		.thumb_func
  28              		.type	btmodule_1_rxfifo_Stop, %function
  29              	btmodule_1_rxfifo_Stop:
  30              	.LFB30:
  31              		.file 1 ".\\Generated_Source\\PSoC5\\btmodule_1_rxfifo_softwarefifo.c"
   1:.\Generated_Source\PSoC5/btmodule_1_rxfifo_softwarefifo.c **** /* ========================================
   2:.\Generated_Source\PSoC5/btmodule_1_rxfifo_softwarefifo.c ****  *
   3:.\Generated_Source\PSoC5/btmodule_1_rxfifo_softwarefifo.c ****  * Copyright YOUR COMPANY, THE YEAR
   4:.\Generated_Source\PSoC5/btmodule_1_rxfifo_softwarefifo.c ****  * All Rights Reserved
   5:.\Generated_Source\PSoC5/btmodule_1_rxfifo_softwarefifo.c ****  * UNPUBLISHED, LICENSED SOFTWARE.
   6:.\Generated_Source\PSoC5/btmodule_1_rxfifo_softwarefifo.c ****  *
   7:.\Generated_Source\PSoC5/btmodule_1_rxfifo_softwarefifo.c ****  * CONFIDENTIAL AND PROPRIETARY INFORMATION
   8:.\Generated_Source\PSoC5/btmodule_1_rxfifo_softwarefifo.c ****  * WHICH IS THE PROPERTY OF your company.
   9:.\Generated_Source\PSoC5/btmodule_1_rxfifo_softwarefifo.c ****  *
  10:.\Generated_Source\PSoC5/btmodule_1_rxfifo_softwarefifo.c ****  * ========================================
  11:.\Generated_Source\PSoC5/btmodule_1_rxfifo_softwarefifo.c **** */
  12:.\Generated_Source\PSoC5/btmodule_1_rxfifo_softwarefifo.c **** 
  13:.\Generated_Source\PSoC5/btmodule_1_rxfifo_softwarefifo.c **** /* ========================================
  14:.\Generated_Source\PSoC5/btmodule_1_rxfifo_softwarefifo.c ****  *
  15:.\Generated_Source\PSoC5/btmodule_1_rxfifo_softwarefifo.c ****  * Copyright YOUR COMPANY, THE YEAR
  16:.\Generated_Source\PSoC5/btmodule_1_rxfifo_softwarefifo.c ****  * All Rights Reserved
  17:.\Generated_Source\PSoC5/btmodule_1_rxfifo_softwarefifo.c ****  * UNPUBLISHED, LICENSED SOFTWARE.
  18:.\Generated_Source\PSoC5/btmodule_1_rxfifo_softwarefifo.c ****  *
  19:.\Generated_Source\PSoC5/btmodule_1_rxfifo_softwarefifo.c ****  * CONFIDENTIAL AND PROPRIETARY INFORMATION
  20:.\Generated_Source\PSoC5/btmodule_1_rxfifo_softwarefifo.c ****  * WHICH IS THE PROPERTY OF your company.
  21:.\Generated_Source\PSoC5/btmodule_1_rxfifo_softwarefifo.c ****  *
  22:.\Generated_Source\PSoC5/btmodule_1_rxfifo_softwarefifo.c ****  * ========================================
ARM GAS  C:\Users\SUZUKI~1\AppData\Local\Temp\ccMSp3Eg.s 			page 2


  23:.\Generated_Source\PSoC5/btmodule_1_rxfifo_softwarefifo.c **** */
  24:.\Generated_Source\PSoC5/btmodule_1_rxfifo_softwarefifo.c **** 
  25:.\Generated_Source\PSoC5/btmodule_1_rxfifo_softwarefifo.c **** #include "device.h"
  26:.\Generated_Source\PSoC5/btmodule_1_rxfifo_softwarefifo.c **** 
  27:.\Generated_Source\PSoC5/btmodule_1_rxfifo_softwarefifo.c **** static char btmodule_1_rxfifo_fifo[btmodule_1_rxfifo_FIFO_SIZE];
  28:.\Generated_Source\PSoC5/btmodule_1_rxfifo_softwarefifo.c **** static int32 btmodule_1_rxfifo_rptr = 0, btmodule_1_rxfifo_wptr = 0;
  29:.\Generated_Source\PSoC5/btmodule_1_rxfifo_softwarefifo.c **** 
  30:.\Generated_Source\PSoC5/btmodule_1_rxfifo_softwarefifo.c **** void btmodule_1_rxfifo_Start(void)
  31:.\Generated_Source\PSoC5/btmodule_1_rxfifo_softwarefifo.c **** {
  32:.\Generated_Source\PSoC5/btmodule_1_rxfifo_softwarefifo.c **** 	btmodule_1_rxfifo_Clear(1);
  33:.\Generated_Source\PSoC5/btmodule_1_rxfifo_softwarefifo.c **** 	return;
  34:.\Generated_Source\PSoC5/btmodule_1_rxfifo_softwarefifo.c **** }
  35:.\Generated_Source\PSoC5/btmodule_1_rxfifo_softwarefifo.c **** 
  36:.\Generated_Source\PSoC5/btmodule_1_rxfifo_softwarefifo.c **** void btmodule_1_rxfifo_Stop(void)
  37:.\Generated_Source\PSoC5/btmodule_1_rxfifo_softwarefifo.c **** {
  32              		.loc 1 37 0
  33              		.cfi_startproc
  34              		@ args = 0, pretend = 0, frame = 0
  35              		@ frame_needed = 0, uses_anonymous_args = 0
  36              		@ link register save eliminated.
  38:.\Generated_Source\PSoC5/btmodule_1_rxfifo_softwarefifo.c **** 	/* nothing to do */
  39:.\Generated_Source\PSoC5/btmodule_1_rxfifo_softwarefifo.c **** 	return;
  40:.\Generated_Source\PSoC5/btmodule_1_rxfifo_softwarefifo.c **** }
  37              		.loc 1 40 0
  38 0000 7047     		bx	lr
  39              		.cfi_endproc
  40              	.LFE30:
  41              		.size	btmodule_1_rxfifo_Stop, .-btmodule_1_rxfifo_Stop
  42              		.section	.text.btmodule_1_rxfifo_PopChar,"ax",%progbits
  43              		.align	1
  44              		.global	btmodule_1_rxfifo_PopChar
  45              		.thumb
  46              		.thumb_func
  47              		.type	btmodule_1_rxfifo_PopChar, %function
  48              	btmodule_1_rxfifo_PopChar:
  49              	.LFB31:
  41:.\Generated_Source\PSoC5/btmodule_1_rxfifo_softwarefifo.c **** 
  42:.\Generated_Source\PSoC5/btmodule_1_rxfifo_softwarefifo.c **** inline char btmodule_1_rxfifo_PopChar(void)
  43:.\Generated_Source\PSoC5/btmodule_1_rxfifo_softwarefifo.c **** {
  50              		.loc 1 43 0
  51              		.cfi_startproc
  52              		@ args = 0, pretend = 0, frame = 0
  53              		@ frame_needed = 0, uses_anonymous_args = 0
  54              		@ link register save eliminated.
  44:.\Generated_Source\PSoC5/btmodule_1_rxfifo_softwarefifo.c **** 	register char c;
  45:.\Generated_Source\PSoC5/btmodule_1_rxfifo_softwarefifo.c **** 	c = btmodule_1_rxfifo_fifo[btmodule_1_rxfifo_rptr];
  55              		.loc 1 45 0
  56 0000 044B     		ldr	r3, .L5
  57 0002 1A68     		ldr	r2, [r3, #0]
  58 0004 D118     		adds	r1, r2, r3
  46:.\Generated_Source\PSoC5/btmodule_1_rxfifo_softwarefifo.c **** 	btmodule_1_rxfifo_rptr = (btmodule_1_rxfifo_rptr+1) & (btmodule_1_rxfifo_FIFO_SIZE-1);
  59              		.loc 1 46 0
  60 0006 0132     		adds	r2, r2, #1
  61 0008 9205     		lsls	r2, r2, #22
  62 000a 920D     		lsrs	r2, r2, #22
  63              		.loc 1 45 0
  64 000c 0879     		ldrb	r0, [r1, #4]	@ zero_extendqisi2
ARM GAS  C:\Users\SUZUKI~1\AppData\Local\Temp\ccMSp3Eg.s 			page 3


  65              	.LVL0:
  66              		.loc 1 46 0
  67 000e 1A60     		str	r2, [r3, #0]
  68              	.LVL1:
  47:.\Generated_Source\PSoC5/btmodule_1_rxfifo_softwarefifo.c **** 	return c;
  48:.\Generated_Source\PSoC5/btmodule_1_rxfifo_softwarefifo.c **** }
  69              		.loc 1 48 0
  70 0010 7047     		bx	lr
  71              	.L6:
  72 0012 00BF     		.align	2
  73              	.L5:
  74 0014 00000000 		.word	.LANCHOR0
  75              		.cfi_endproc
  76              	.LFE31:
  77              		.size	btmodule_1_rxfifo_PopChar, .-btmodule_1_rxfifo_PopChar
  78              		.section	.text.btmodule_1_rxfifo_PushChar,"ax",%progbits
  79              		.align	1
  80              		.global	btmodule_1_rxfifo_PushChar
  81              		.thumb
  82              		.thumb_func
  83              		.type	btmodule_1_rxfifo_PushChar, %function
  84              	btmodule_1_rxfifo_PushChar:
  85              	.LFB33:
  49:.\Generated_Source\PSoC5/btmodule_1_rxfifo_softwarefifo.c **** 
  50:.\Generated_Source\PSoC5/btmodule_1_rxfifo_softwarefifo.c **** /* 境界をまたぐとうまく動かない実装!!!!! */
  51:.\Generated_Source\PSoC5/btmodule_1_rxfifo_softwarefifo.c **** inline char* btmodule_1_rxfifo_PopString(void)
  52:.\Generated_Source\PSoC5/btmodule_1_rxfifo_softwarefifo.c **** {
  53:.\Generated_Source\PSoC5/btmodule_1_rxfifo_softwarefifo.c **** 	char *ptr = &btmodule_1_rxfifo_fifo[btmodule_1_rxfifo_rptr];
  54:.\Generated_Source\PSoC5/btmodule_1_rxfifo_softwarefifo.c **** 	btmodule_1_rxfifo_PushChar('\0');
  55:.\Generated_Source\PSoC5/btmodule_1_rxfifo_softwarefifo.c **** 	btmodule_1_rxfifo_rptr = btmodule_1_rxfifo_wptr;
  56:.\Generated_Source\PSoC5/btmodule_1_rxfifo_softwarefifo.c **** 	return(ptr);
  57:.\Generated_Source\PSoC5/btmodule_1_rxfifo_softwarefifo.c **** }
  58:.\Generated_Source\PSoC5/btmodule_1_rxfifo_softwarefifo.c **** 
  59:.\Generated_Source\PSoC5/btmodule_1_rxfifo_softwarefifo.c **** inline void btmodule_1_rxfifo_PushChar(char c)
  60:.\Generated_Source\PSoC5/btmodule_1_rxfifo_softwarefifo.c **** {
  86              		.loc 1 60 0
  87              		.cfi_startproc
  88              		@ args = 0, pretend = 0, frame = 0
  89              		@ frame_needed = 0, uses_anonymous_args = 0
  90              		@ link register save eliminated.
  91              	.LVL2:
  61:.\Generated_Source\PSoC5/btmodule_1_rxfifo_softwarefifo.c **** 	btmodule_1_rxfifo_fifo[btmodule_1_rxfifo_wptr] = c;
  92              		.loc 1 61 0
  93 0000 054B     		ldr	r3, .L9
  94 0002 D3F80424 		ldr	r2, [r3, #1028]
  95 0006 D118     		adds	r1, r2, r3
  62:.\Generated_Source\PSoC5/btmodule_1_rxfifo_softwarefifo.c **** 	btmodule_1_rxfifo_wptr = (btmodule_1_rxfifo_wptr+1) & (btmodule_1_rxfifo_FIFO_SIZE-1);
  96              		.loc 1 62 0
  97 0008 0132     		adds	r2, r2, #1
  98 000a 9205     		lsls	r2, r2, #22
  99 000c 920D     		lsrs	r2, r2, #22
 100              		.loc 1 61 0
 101 000e 0871     		strb	r0, [r1, #4]
 102              		.loc 1 62 0
 103 0010 C3F80424 		str	r2, [r3, #1028]
  63:.\Generated_Source\PSoC5/btmodule_1_rxfifo_softwarefifo.c **** 	return;
  64:.\Generated_Source\PSoC5/btmodule_1_rxfifo_softwarefifo.c **** }
ARM GAS  C:\Users\SUZUKI~1\AppData\Local\Temp\ccMSp3Eg.s 			page 4


 104              		.loc 1 64 0
 105 0014 7047     		bx	lr
 106              	.L10:
 107 0016 00BF     		.align	2
 108              	.L9:
 109 0018 00000000 		.word	.LANCHOR0
 110              		.cfi_endproc
 111              	.LFE33:
 112              		.size	btmodule_1_rxfifo_PushChar, .-btmodule_1_rxfifo_PushChar
 113              		.section	.text.btmodule_1_rxfifo_PopString,"ax",%progbits
 114              		.align	1
 115              		.global	btmodule_1_rxfifo_PopString
 116              		.thumb
 117              		.thumb_func
 118              		.type	btmodule_1_rxfifo_PopString, %function
 119              	btmodule_1_rxfifo_PopString:
 120              	.LFB32:
 121              		.loc 1 52 0
 122              		.cfi_startproc
 123              		@ args = 0, pretend = 0, frame = 0
 124              		@ frame_needed = 0, uses_anonymous_args = 0
 125 0000 38B5     		push	{r3, r4, r5, lr}
 126              	.LCFI0:
 127              		.cfi_def_cfa_offset 16
 128              		.loc 1 53 0
 129 0002 064C     		ldr	r4, .L13
 130              		.cfi_offset 14, -4
 131              		.cfi_offset 5, -8
 132              		.cfi_offset 4, -12
 133              		.cfi_offset 3, -16
 134              		.loc 1 54 0
 135 0004 0020     		movs	r0, #0
 136              		.loc 1 53 0
 137 0006 2368     		ldr	r3, [r4, #0]
 138 0008 251D     		adds	r5, r4, #4
 139 000a ED18     		adds	r5, r5, r3
 140              	.LVL3:
 141              		.loc 1 54 0
 142 000c FFF7FEFF 		bl	btmodule_1_rxfifo_PushChar
 143              		.loc 1 55 0
 144 0010 D4F80434 		ldr	r3, [r4, #1028]
 145              		.loc 1 57 0
 146 0014 2846     		mov	r0, r5
 147              		.loc 1 55 0
 148 0016 2360     		str	r3, [r4, #0]
 149              		.loc 1 57 0
 150 0018 38BD     		pop	{r3, r4, r5, pc}
 151              	.L14:
 152 001a 00BF     		.align	2
 153              	.L13:
 154 001c 00000000 		.word	.LANCHOR0
 155              		.cfi_endproc
 156              	.LFE32:
 157              		.size	btmodule_1_rxfifo_PopString, .-btmodule_1_rxfifo_PopString
 158              		.section	.text.btmodule_1_rxfifo_PushString,"ax",%progbits
 159              		.align	1
 160              		.global	btmodule_1_rxfifo_PushString
ARM GAS  C:\Users\SUZUKI~1\AppData\Local\Temp\ccMSp3Eg.s 			page 5


 161              		.thumb
 162              		.thumb_func
 163              		.type	btmodule_1_rxfifo_PushString, %function
 164              	btmodule_1_rxfifo_PushString:
 165              	.LFB34:
  65:.\Generated_Source\PSoC5/btmodule_1_rxfifo_softwarefifo.c **** 
  66:.\Generated_Source\PSoC5/btmodule_1_rxfifo_softwarefifo.c **** inline void btmodule_1_rxfifo_PushString(char *str)
  67:.\Generated_Source\PSoC5/btmodule_1_rxfifo_softwarefifo.c **** {
 166              		.loc 1 67 0
 167              		.cfi_startproc
 168              		@ args = 0, pretend = 0, frame = 0
 169              		@ frame_needed = 0, uses_anonymous_args = 0
 170              	.LVL4:
 171 0000 38B5     		push	{r3, r4, r5, lr}
 172              	.LCFI1:
 173              		.cfi_def_cfa_offset 16
 174              		.loc 1 67 0
 175 0002 0546     		mov	r5, r0
 176              		.cfi_offset 14, -4
 177              		.cfi_offset 5, -8
 178              		.cfi_offset 4, -12
 179              		.cfi_offset 3, -16
 180 0004 0024     		movs	r4, #0
  68:.\Generated_Source\PSoC5/btmodule_1_rxfifo_softwarefifo.c **** 	char c;
  69:.\Generated_Source\PSoC5/btmodule_1_rxfifo_softwarefifo.c **** 	while((c = *str++)) {
 181              		.loc 1 69 0
 182 0006 01E0     		b	.L16
 183              	.LVL5:
 184              	.L17:
  70:.\Generated_Source\PSoC5/btmodule_1_rxfifo_softwarefifo.c **** 		btmodule_1_rxfifo_PushChar(c);
 185              		.loc 1 70 0
 186 0008 FFF7FEFF 		bl	btmodule_1_rxfifo_PushChar
 187              	.LVL6:
 188              	.L16:
 189              		.loc 1 69 0
 190 000c 285D     		ldrb	r0, [r5, r4]	@ zero_extendqisi2
 191              	.LVL7:
 192 000e 0134     		adds	r4, r4, #1
 193 0010 0028     		cmp	r0, #0
 194 0012 F9D1     		bne	.L17
  71:.\Generated_Source\PSoC5/btmodule_1_rxfifo_softwarefifo.c **** 	}
  72:.\Generated_Source\PSoC5/btmodule_1_rxfifo_softwarefifo.c **** 	return;
  73:.\Generated_Source\PSoC5/btmodule_1_rxfifo_softwarefifo.c **** }
 195              		.loc 1 73 0
 196 0014 38BD     		pop	{r3, r4, r5, pc}
 197              		.cfi_endproc
 198              	.LFE34:
 199              		.size	btmodule_1_rxfifo_PushString, .-btmodule_1_rxfifo_PushString
 200              		.section	.text.btmodule_1_rxfifo_GetContentSize,"ax",%progbits
 201              		.align	1
 202              		.global	btmodule_1_rxfifo_GetContentSize
 203              		.thumb
 204              		.thumb_func
 205              		.type	btmodule_1_rxfifo_GetContentSize, %function
 206              	btmodule_1_rxfifo_GetContentSize:
 207              	.LFB35:
  74:.\Generated_Source\PSoC5/btmodule_1_rxfifo_softwarefifo.c **** 
ARM GAS  C:\Users\SUZUKI~1\AppData\Local\Temp\ccMSp3Eg.s 			page 6


  75:.\Generated_Source\PSoC5/btmodule_1_rxfifo_softwarefifo.c **** inline uint16 btmodule_1_rxfifo_GetContentSize(void)
  76:.\Generated_Source\PSoC5/btmodule_1_rxfifo_softwarefifo.c **** {
 208              		.loc 1 76 0
 209              		.cfi_startproc
 210              		@ args = 0, pretend = 0, frame = 0
 211              		@ frame_needed = 0, uses_anonymous_args = 0
 212              		@ link register save eliminated.
 213              		.loc 1 76 0
 214 0000 084B     		ldr	r3, .L23
 215 0002 0948     		ldr	r0, .L23+4
 216 0004 D3F80424 		ldr	r2, [r3, #1028]
 217 0008 1B68     		ldr	r3, [r3, #0]
 218 000a D31A     		subs	r3, r2, r3
 219 000c 03EA0000 		and	r0, r3, r0
 220 0010 0028     		cmp	r0, #0
 221 0012 05DA     		bge	.L21
 222 0014 0138     		subs	r0, r0, #1
 223 0016 6FEA8050 		mvn	r0, r0, lsl #22
 224 001a 6FEA9050 		mvn	r0, r0, lsr #22
 225 001e 0130     		adds	r0, r0, #1
 226              	.L21:
  77:.\Generated_Source\PSoC5/btmodule_1_rxfifo_softwarefifo.c **** 	return((btmodule_1_rxfifo_wptr - btmodule_1_rxfifo_rptr) % btmodule_1_rxfifo_FIFO_SIZE);
  78:.\Generated_Source\PSoC5/btmodule_1_rxfifo_softwarefifo.c **** }
 227              		.loc 1 78 0
 228 0020 80B2     		uxth	r0, r0
 229 0022 7047     		bx	lr
 230              	.L24:
 231              		.align	2
 232              	.L23:
 233 0024 00000000 		.word	.LANCHOR0
 234 0028 FF030080 		.word	-2147482625
 235              		.cfi_endproc
 236              	.LFE35:
 237              		.size	btmodule_1_rxfifo_GetContentSize, .-btmodule_1_rxfifo_GetContentSize
 238              		.section	.text.btmodule_1_rxfifo_GetVacancySize,"ax",%progbits
 239              		.align	1
 240              		.global	btmodule_1_rxfifo_GetVacancySize
 241              		.thumb
 242              		.thumb_func
 243              		.type	btmodule_1_rxfifo_GetVacancySize, %function
 244              	btmodule_1_rxfifo_GetVacancySize:
 245              	.LFB36:
  79:.\Generated_Source\PSoC5/btmodule_1_rxfifo_softwarefifo.c **** 
  80:.\Generated_Source\PSoC5/btmodule_1_rxfifo_softwarefifo.c **** inline uint16 btmodule_1_rxfifo_GetVacancySize(void)
  81:.\Generated_Source\PSoC5/btmodule_1_rxfifo_softwarefifo.c **** {
 246              		.loc 1 81 0
 247              		.cfi_startproc
 248              		@ args = 0, pretend = 0, frame = 0
 249              		@ frame_needed = 0, uses_anonymous_args = 0
 250              		@ link register save eliminated.
  82:.\Generated_Source\PSoC5/btmodule_1_rxfifo_softwarefifo.c **** 	int32 offset;
  83:.\Generated_Source\PSoC5/btmodule_1_rxfifo_softwarefifo.c **** 	offset = (btmodule_1_rxfifo_wptr >= btmodule_1_rxfifo_rptr) ? btmodule_1_rxfifo_FIFO_SIZE : 0;
 251              		.loc 1 83 0
 252 0000 064A     		ldr	r2, .L29
 253 0002 D2F80434 		ldr	r3, [r2, #1028]
 254 0006 1268     		ldr	r2, [r2, #0]
 255 0008 9342     		cmp	r3, r2
ARM GAS  C:\Users\SUZUKI~1\AppData\Local\Temp\ccMSp3Eg.s 			page 7


 256 000a ACBF     		ite	ge
 257 000c 4FF48061 		movge	r1, #1024
 258 0010 0021     		movlt	r1, #0
 259              	.LVL8:
 260 0012 D31A     		subs	r3, r2, r3
 261 0014 5818     		adds	r0, r3, r1
  84:.\Generated_Source\PSoC5/btmodule_1_rxfifo_softwarefifo.c **** 	return(btmodule_1_rxfifo_rptr + offset - btmodule_1_rxfifo_wptr);
  85:.\Generated_Source\PSoC5/btmodule_1_rxfifo_softwarefifo.c **** }
 262              		.loc 1 85 0
 263 0016 80B2     		uxth	r0, r0
 264 0018 7047     		bx	lr
 265              	.L30:
 266 001a 00BF     		.align	2
 267              	.L29:
 268 001c 00000000 		.word	.LANCHOR0
 269              		.cfi_endproc
 270              	.LFE36:
 271              		.size	btmodule_1_rxfifo_GetVacancySize, .-btmodule_1_rxfifo_GetVacancySize
 272              		.section	.text.btmodule_1_rxfifo_Clear,"ax",%progbits
 273              		.align	1
 274              		.global	btmodule_1_rxfifo_Clear
 275              		.thumb
 276              		.thumb_func
 277              		.type	btmodule_1_rxfifo_Clear, %function
 278              	btmodule_1_rxfifo_Clear:
 279              	.LFB37:
  86:.\Generated_Source\PSoC5/btmodule_1_rxfifo_softwarefifo.c **** 
  87:.\Generated_Source\PSoC5/btmodule_1_rxfifo_softwarefifo.c **** inline void btmodule_1_rxfifo_Clear(char bufc)
  88:.\Generated_Source\PSoC5/btmodule_1_rxfifo_softwarefifo.c **** {
 280              		.loc 1 88 0
 281              		.cfi_startproc
 282              		@ args = 0, pretend = 0, frame = 0
 283              		@ frame_needed = 0, uses_anonymous_args = 0
 284              		@ link register save eliminated.
 285              	.LVL9:
  89:.\Generated_Source\PSoC5/btmodule_1_rxfifo_softwarefifo.c **** 	int i;
  90:.\Generated_Source\PSoC5/btmodule_1_rxfifo_softwarefifo.c **** 	btmodule_1_rxfifo_rptr = 0;
 286              		.loc 1 90 0
 287 0000 064A     		ldr	r2, .L35
 288 0002 0023     		movs	r3, #0
 289 0004 1360     		str	r3, [r2, #0]
  91:.\Generated_Source\PSoC5/btmodule_1_rxfifo_softwarefifo.c **** 	btmodule_1_rxfifo_wptr = 0;
 290              		.loc 1 91 0
 291 0006 C2F80434 		str	r3, [r2, #1028]
  92:.\Generated_Source\PSoC5/btmodule_1_rxfifo_softwarefifo.c **** 	if(bufc) {
 292              		.loc 1 92 0
 293 000a 30B1     		cbz	r0, .L34
 294              	.L33:
  93:.\Generated_Source\PSoC5/btmodule_1_rxfifo_softwarefifo.c **** 		for(i = 0; i < btmodule_1_rxfifo_FIFO_SIZE; i++) {
  94:.\Generated_Source\PSoC5/btmodule_1_rxfifo_softwarefifo.c **** 			btmodule_1_rxfifo_fifo[i] = '\0';
 295              		.loc 1 94 0
 296 000c 044A     		ldr	r2, .L35+4
 297 000e 0021     		movs	r1, #0
 298 0010 D154     		strb	r1, [r2, r3]
 299              	.LVL10:
 300              		.loc 1 93 0
 301 0012 0133     		adds	r3, r3, #1
ARM GAS  C:\Users\SUZUKI~1\AppData\Local\Temp\ccMSp3Eg.s 			page 8


 302 0014 B3F5806F 		cmp	r3, #1024
 303 0018 F8D1     		bne	.L33
 304              	.L34:
 305 001a 7047     		bx	lr
 306              	.L36:
 307              		.align	2
 308              	.L35:
 309 001c 00000000 		.word	.LANCHOR0
 310 0020 04000000 		.word	.LANCHOR0+4
 311              		.cfi_endproc
 312              	.LFE37:
 313              		.size	btmodule_1_rxfifo_Clear, .-btmodule_1_rxfifo_Clear
 314              		.section	.text.btmodule_1_rxfifo_Start,"ax",%progbits
 315              		.align	1
 316              		.global	btmodule_1_rxfifo_Start
 317              		.thumb
 318              		.thumb_func
 319              		.type	btmodule_1_rxfifo_Start, %function
 320              	btmodule_1_rxfifo_Start:
 321              	.LFB29:
 322              		.loc 1 31 0
 323              		.cfi_startproc
 324              		@ args = 0, pretend = 0, frame = 0
 325              		@ frame_needed = 0, uses_anonymous_args = 0
 326              		@ link register save eliminated.
 327              		.loc 1 32 0
 328 0000 0120     		movs	r0, #1
 329              		.loc 1 34 0
 330              		.loc 1 32 0
 331 0002 FFF7FEBF 		b	btmodule_1_rxfifo_Clear
 332              		.cfi_endproc
 333              	.LFE29:
 334              		.size	btmodule_1_rxfifo_Start, .-btmodule_1_rxfifo_Start
 335              		.bss
 336              		.align	2
 337              		.set	.LANCHOR0,. + 0
 338              		.type	btmodule_1_rxfifo_rptr, %object
 339              		.size	btmodule_1_rxfifo_rptr, 4
 340              	btmodule_1_rxfifo_rptr:
 341 0000 00000000 		.space	4
 342              		.type	btmodule_1_rxfifo_fifo, %object
 343              		.size	btmodule_1_rxfifo_fifo, 1024
 344              	btmodule_1_rxfifo_fifo:
 345 0004 00000000 		.space	1024
 345      00000000 
 345      00000000 
 345      00000000 
 345      00000000 
 346              		.type	btmodule_1_rxfifo_wptr, %object
 347              		.size	btmodule_1_rxfifo_wptr, 4
 348              	btmodule_1_rxfifo_wptr:
 349 0404 00000000 		.space	4
 350              		.text
 351              	.Letext0:
 352              		.section	.debug_loc,"",%progbits
 353              	.Ldebug_loc0:
 354              	.LLST2:
ARM GAS  C:\Users\SUZUKI~1\AppData\Local\Temp\ccMSp3Eg.s 			page 9


 355 0000 0E000000 		.4byte	.LVL0
 356 0004 10000000 		.4byte	.LVL1
 357 0008 0100     		.2byte	0x1
 358 000a 50       		.byte	0x50
 359 000b 00000000 		.4byte	0x0
 360 000f 00000000 		.4byte	0x0
 361              	.LLST4:
 362 0013 00000000 		.4byte	.LFB32
 363 0017 02000000 		.4byte	.LCFI0
 364 001b 0100     		.2byte	0x1
 365 001d 5D       		.byte	0x5d
 366 001e 02000000 		.4byte	.LCFI0
 367 0022 20000000 		.4byte	.LFE32
 368 0026 0200     		.2byte	0x2
 369 0028 7D       		.byte	0x7d
 370 0029 10       		.sleb128 16
 371 002a 00000000 		.4byte	0x0
 372 002e 00000000 		.4byte	0x0
 373              	.LLST5:
 374 0032 00000000 		.4byte	.LFB34
 375 0036 02000000 		.4byte	.LCFI1
 376 003a 0100     		.2byte	0x1
 377 003c 5D       		.byte	0x5d
 378 003d 02000000 		.4byte	.LCFI1
 379 0041 16000000 		.4byte	.LFE34
 380 0045 0200     		.2byte	0x2
 381 0047 7D       		.byte	0x7d
 382 0048 10       		.sleb128 16
 383 0049 00000000 		.4byte	0x0
 384 004d 00000000 		.4byte	0x0
 385              	.LLST6:
 386 0051 00000000 		.4byte	.LVL4
 387 0055 08000000 		.4byte	.LVL5
 388 0059 0100     		.2byte	0x1
 389 005b 50       		.byte	0x50
 390 005c 08000000 		.4byte	.LVL5
 391 0060 16000000 		.4byte	.LFE34
 392 0064 0100     		.2byte	0x1
 393 0066 55       		.byte	0x55
 394 0067 00000000 		.4byte	0x0
 395 006b 00000000 		.4byte	0x0
 396              	.LLST7:
 397 006f 08000000 		.4byte	.LVL5
 398 0073 0C000000 		.4byte	.LVL6
 399 0077 0100     		.2byte	0x1
 400 0079 50       		.byte	0x50
 401 007a 0E000000 		.4byte	.LVL7
 402 007e 16000000 		.4byte	.LFE34
 403 0082 0100     		.2byte	0x1
 404 0084 50       		.byte	0x50
 405 0085 00000000 		.4byte	0x0
 406 0089 00000000 		.4byte	0x0
 407              		.file 2 "./Generated_Source/PSoC5/cytypes.h"
 408              		.file 3 "./Generated_Source/PSoC5/core_cm3.h"
 409              		.section	.debug_info
 410 0000 3A020000 		.4byte	0x23a
 411 0004 0200     		.2byte	0x2
ARM GAS  C:\Users\SUZUKI~1\AppData\Local\Temp\ccMSp3Eg.s 			page 10


 412 0006 00000000 		.4byte	.Ldebug_abbrev0
 413 000a 04       		.byte	0x4
 414 000b 01       		.uleb128 0x1
 415 000c 02020000 		.4byte	.LASF27
 416 0010 01       		.byte	0x1
 417 0011 C8010000 		.4byte	.LASF28
 418 0015 0E000000 		.4byte	.LASF29
 419 0019 00000000 		.4byte	0x0
 420 001d 00000000 		.4byte	0x0
 421 0021 00000000 		.4byte	.Ldebug_ranges0+0x0
 422 0025 00000000 		.4byte	.Ldebug_line0
 423 0029 02       		.uleb128 0x2
 424 002a 01       		.byte	0x1
 425 002b 06       		.byte	0x6
 426 002c 9C000000 		.4byte	.LASF0
 427 0030 02       		.uleb128 0x2
 428 0031 01       		.byte	0x1
 429 0032 08       		.byte	0x8
 430 0033 A8000000 		.4byte	.LASF1
 431 0037 02       		.uleb128 0x2
 432 0038 02       		.byte	0x2
 433 0039 05       		.byte	0x5
 434 003a 50010000 		.4byte	.LASF2
 435 003e 02       		.uleb128 0x2
 436 003f 02       		.byte	0x2
 437 0040 07       		.byte	0x7
 438 0041 55000000 		.4byte	.LASF3
 439 0045 02       		.uleb128 0x2
 440 0046 04       		.byte	0x4
 441 0047 05       		.byte	0x5
 442 0048 4C020000 		.4byte	.LASF4
 443 004c 02       		.uleb128 0x2
 444 004d 04       		.byte	0x4
 445 004e 07       		.byte	0x7
 446 004f 0F010000 		.4byte	.LASF5
 447 0053 02       		.uleb128 0x2
 448 0054 08       		.byte	0x8
 449 0055 05       		.byte	0x5
 450 0056 00000000 		.4byte	.LASF6
 451 005a 02       		.uleb128 0x2
 452 005b 08       		.byte	0x8
 453 005c 07       		.byte	0x7
 454 005d 95010000 		.4byte	.LASF7
 455 0061 03       		.uleb128 0x3
 456 0062 04       		.byte	0x4
 457 0063 05       		.byte	0x5
 458 0064 696E7400 		.ascii	"int\000"
 459 0068 02       		.uleb128 0x2
 460 0069 04       		.byte	0x4
 461 006a 07       		.byte	0x7
 462 006b 88010000 		.4byte	.LASF8
 463 006f 04       		.uleb128 0x4
 464 0070 5A010000 		.4byte	.LASF9
 465 0074 02       		.byte	0x2
 466 0075 4D       		.byte	0x4d
 467 0076 3E000000 		.4byte	0x3e
 468 007a 04       		.uleb128 0x4
ARM GAS  C:\Users\SUZUKI~1\AppData\Local\Temp\ccMSp3Eg.s 			page 11


 469 007b 21010000 		.4byte	.LASF10
 470 007f 02       		.byte	0x2
 471 0080 51       		.byte	0x51
 472 0081 45000000 		.4byte	0x45
 473 0085 02       		.uleb128 0x2
 474 0086 04       		.byte	0x4
 475 0087 04       		.byte	0x4
 476 0088 96000000 		.4byte	.LASF11
 477 008c 02       		.uleb128 0x2
 478 008d 08       		.byte	0x8
 479 008e 04       		.byte	0x4
 480 008f 49010000 		.4byte	.LASF12
 481 0093 02       		.uleb128 0x2
 482 0094 01       		.byte	0x1
 483 0095 08       		.byte	0x8
 484 0096 0E020000 		.4byte	.LASF13
 485 009a 05       		.uleb128 0x5
 486 009b 04       		.byte	0x4
 487 009c 07       		.byte	0x7
 488 009d 06       		.uleb128 0x6
 489 009e 04       		.byte	0x4
 490 009f 93000000 		.4byte	0x93
 491 00a3 07       		.uleb128 0x7
 492 00a4 01       		.byte	0x1
 493 00a5 D7000000 		.4byte	.LASF22
 494 00a9 01       		.byte	0x1
 495 00aa 24       		.byte	0x24
 496 00ab 01       		.byte	0x1
 497 00ac 00000000 		.4byte	.LFB30
 498 00b0 02000000 		.4byte	.LFE30
 499 00b4 01       		.byte	0x1
 500 00b5 5D       		.byte	0x5d
 501 00b6 08       		.uleb128 0x8
 502 00b7 01       		.byte	0x1
 503 00b8 61010000 		.4byte	.LASF14
 504 00bc 01       		.byte	0x1
 505 00bd 2A       		.byte	0x2a
 506 00be 01       		.byte	0x1
 507 00bf 93000000 		.4byte	0x93
 508 00c3 00000000 		.4byte	.LFB31
 509 00c7 18000000 		.4byte	.LFE31
 510 00cb 01       		.byte	0x1
 511 00cc 5D       		.byte	0x5d
 512 00cd DF000000 		.4byte	0xdf
 513 00d1 09       		.uleb128 0x9
 514 00d2 6300     		.ascii	"c\000"
 515 00d4 01       		.byte	0x1
 516 00d5 2C       		.byte	0x2c
 517 00d6 93000000 		.4byte	0x93
 518 00da 00000000 		.4byte	.LLST2
 519 00de 00       		.byte	0x0
 520 00df 0A       		.uleb128 0xa
 521 00e0 01       		.byte	0x1
 522 00e1 13020000 		.4byte	.LASF16
 523 00e5 01       		.byte	0x1
 524 00e6 3B       		.byte	0x3b
 525 00e7 01       		.byte	0x1
ARM GAS  C:\Users\SUZUKI~1\AppData\Local\Temp\ccMSp3Eg.s 			page 12


 526 00e8 00000000 		.4byte	.LFB33
 527 00ec 1C000000 		.4byte	.LFE33
 528 00f0 01       		.byte	0x1
 529 00f1 5D       		.byte	0x5d
 530 00f2 02010000 		.4byte	0x102
 531 00f6 0B       		.uleb128 0xb
 532 00f7 6300     		.ascii	"c\000"
 533 00f9 01       		.byte	0x1
 534 00fa 3B       		.byte	0x3b
 535 00fb 93000000 		.4byte	0x93
 536 00ff 01       		.byte	0x1
 537 0100 50       		.byte	0x50
 538 0101 00       		.byte	0x0
 539 0102 0C       		.uleb128 0xc
 540 0103 01       		.byte	0x1
 541 0104 AC010000 		.4byte	.LASF15
 542 0108 01       		.byte	0x1
 543 0109 33       		.byte	0x33
 544 010a 01       		.byte	0x1
 545 010b 9D000000 		.4byte	0x9d
 546 010f 00000000 		.4byte	.LFB32
 547 0113 20000000 		.4byte	.LFE32
 548 0117 13000000 		.4byte	.LLST4
 549 011b 2D010000 		.4byte	0x12d
 550 011f 0D       		.uleb128 0xd
 551 0120 70747200 		.ascii	"ptr\000"
 552 0124 01       		.byte	0x1
 553 0125 35       		.byte	0x35
 554 0126 9D000000 		.4byte	0x9d
 555 012a 01       		.byte	0x1
 556 012b 55       		.byte	0x55
 557 012c 00       		.byte	0x0
 558 012d 0E       		.uleb128 0xe
 559 012e 01       		.byte	0x1
 560 012f 2C010000 		.4byte	.LASF17
 561 0133 01       		.byte	0x1
 562 0134 42       		.byte	0x42
 563 0135 01       		.byte	0x1
 564 0136 00000000 		.4byte	.LFB34
 565 013a 16000000 		.4byte	.LFE34
 566 013e 32000000 		.4byte	.LLST5
 567 0142 63010000 		.4byte	0x163
 568 0146 0F       		.uleb128 0xf
 569 0147 73747200 		.ascii	"str\000"
 570 014b 01       		.byte	0x1
 571 014c 42       		.byte	0x42
 572 014d 9D000000 		.4byte	0x9d
 573 0151 51000000 		.4byte	.LLST6
 574 0155 09       		.uleb128 0x9
 575 0156 6300     		.ascii	"c\000"
 576 0158 01       		.byte	0x1
 577 0159 44       		.byte	0x44
 578 015a 93000000 		.4byte	0x93
 579 015e 6F000000 		.4byte	.LLST7
 580 0162 00       		.byte	0x0
 581 0163 10       		.uleb128 0x10
 582 0164 01       		.byte	0x1
ARM GAS  C:\Users\SUZUKI~1\AppData\Local\Temp\ccMSp3Eg.s 			page 13


 583 0165 EE000000 		.4byte	.LASF30
 584 0169 01       		.byte	0x1
 585 016a 4B       		.byte	0x4b
 586 016b 01       		.byte	0x1
 587 016c 6F000000 		.4byte	0x6f
 588 0170 00000000 		.4byte	.LFB35
 589 0174 2C000000 		.4byte	.LFE35
 590 0178 01       		.byte	0x1
 591 0179 5D       		.byte	0x5d
 592 017a 08       		.uleb128 0x8
 593 017b 01       		.byte	0x1
 594 017c B6000000 		.4byte	.LASF18
 595 0180 01       		.byte	0x1
 596 0181 50       		.byte	0x50
 597 0182 01       		.byte	0x1
 598 0183 6F000000 		.4byte	0x6f
 599 0187 00000000 		.4byte	.LFB36
 600 018b 20000000 		.4byte	.LFE36
 601 018f 01       		.byte	0x1
 602 0190 5D       		.byte	0x5d
 603 0191 A3010000 		.4byte	0x1a3
 604 0195 11       		.uleb128 0x11
 605 0196 2E020000 		.4byte	.LASF19
 606 019a 01       		.byte	0x1
 607 019b 52       		.byte	0x52
 608 019c 7A000000 		.4byte	0x7a
 609 01a0 01       		.byte	0x1
 610 01a1 51       		.byte	0x51
 611 01a2 00       		.byte	0x0
 612 01a3 0A       		.uleb128 0xa
 613 01a4 01       		.byte	0x1
 614 01a5 55020000 		.4byte	.LASF20
 615 01a9 01       		.byte	0x1
 616 01aa 57       		.byte	0x57
 617 01ab 01       		.byte	0x1
 618 01ac 00000000 		.4byte	.LFB37
 619 01b0 24000000 		.4byte	.LFE37
 620 01b4 01       		.byte	0x1
 621 01b5 5D       		.byte	0x5d
 622 01b6 D3010000 		.4byte	0x1d3
 623 01ba 12       		.uleb128 0x12
 624 01bb 27010000 		.4byte	.LASF21
 625 01bf 01       		.byte	0x1
 626 01c0 57       		.byte	0x57
 627 01c1 93000000 		.4byte	0x93
 628 01c5 01       		.byte	0x1
 629 01c6 50       		.byte	0x50
 630 01c7 0D       		.uleb128 0xd
 631 01c8 6900     		.ascii	"i\000"
 632 01ca 01       		.byte	0x1
 633 01cb 59       		.byte	0x59
 634 01cc 61000000 		.4byte	0x61
 635 01d0 01       		.byte	0x1
 636 01d1 53       		.byte	0x53
 637 01d2 00       		.byte	0x0
 638 01d3 07       		.uleb128 0x7
 639 01d4 01       		.byte	0x1
ARM GAS  C:\Users\SUZUKI~1\AppData\Local\Temp\ccMSp3Eg.s 			page 14


 640 01d5 3D000000 		.4byte	.LASF23
 641 01d9 01       		.byte	0x1
 642 01da 1E       		.byte	0x1e
 643 01db 01       		.byte	0x1
 644 01dc 00000000 		.4byte	.LFB29
 645 01e0 06000000 		.4byte	.LFE29
 646 01e4 01       		.byte	0x1
 647 01e5 5D       		.byte	0x5d
 648 01e6 13       		.uleb128 0x13
 649 01e7 93000000 		.4byte	0x93
 650 01eb F7010000 		.4byte	0x1f7
 651 01ef 14       		.uleb128 0x14
 652 01f0 9A000000 		.4byte	0x9a
 653 01f4 FF03     		.2byte	0x3ff
 654 01f6 00       		.byte	0x0
 655 01f7 11       		.uleb128 0x11
 656 01f8 35020000 		.4byte	.LASF24
 657 01fc 01       		.byte	0x1
 658 01fd 1B       		.byte	0x1b
 659 01fe E6010000 		.4byte	0x1e6
 660 0202 05       		.byte	0x5
 661 0203 03       		.byte	0x3
 662 0204 04000000 		.4byte	btmodule_1_rxfifo_fifo
 663 0208 11       		.uleb128 0x11
 664 0209 68000000 		.4byte	.LASF25
 665 020d 01       		.byte	0x1
 666 020e 1C       		.byte	0x1c
 667 020f 7A000000 		.4byte	0x7a
 668 0213 05       		.byte	0x5
 669 0214 03       		.byte	0x3
 670 0215 00000000 		.4byte	btmodule_1_rxfifo_rptr
 671 0219 11       		.uleb128 0x11
 672 021a 7F000000 		.4byte	.LASF26
 673 021e 01       		.byte	0x1
 674 021f 1C       		.byte	0x1c
 675 0220 7A000000 		.4byte	0x7a
 676 0224 05       		.byte	0x5
 677 0225 03       		.byte	0x3
 678 0226 04040000 		.4byte	btmodule_1_rxfifo_wptr
 679 022a 15       		.uleb128 0x15
 680 022b 7B010000 		.4byte	.LASF31
 681 022f 03       		.byte	0x3
 682 0230 CE06     		.2byte	0x6ce
 683 0232 38020000 		.4byte	0x238
 684 0236 01       		.byte	0x1
 685 0237 01       		.byte	0x1
 686 0238 16       		.uleb128 0x16
 687 0239 61000000 		.4byte	0x61
 688 023d 00       		.byte	0x0
 689              		.section	.debug_abbrev
 690 0000 01       		.uleb128 0x1
 691 0001 11       		.uleb128 0x11
 692 0002 01       		.byte	0x1
 693 0003 25       		.uleb128 0x25
 694 0004 0E       		.uleb128 0xe
 695 0005 13       		.uleb128 0x13
 696 0006 0B       		.uleb128 0xb
ARM GAS  C:\Users\SUZUKI~1\AppData\Local\Temp\ccMSp3Eg.s 			page 15


 697 0007 03       		.uleb128 0x3
 698 0008 0E       		.uleb128 0xe
 699 0009 1B       		.uleb128 0x1b
 700 000a 0E       		.uleb128 0xe
 701 000b 11       		.uleb128 0x11
 702 000c 01       		.uleb128 0x1
 703 000d 52       		.uleb128 0x52
 704 000e 01       		.uleb128 0x1
 705 000f 55       		.uleb128 0x55
 706 0010 06       		.uleb128 0x6
 707 0011 10       		.uleb128 0x10
 708 0012 06       		.uleb128 0x6
 709 0013 00       		.byte	0x0
 710 0014 00       		.byte	0x0
 711 0015 02       		.uleb128 0x2
 712 0016 24       		.uleb128 0x24
 713 0017 00       		.byte	0x0
 714 0018 0B       		.uleb128 0xb
 715 0019 0B       		.uleb128 0xb
 716 001a 3E       		.uleb128 0x3e
 717 001b 0B       		.uleb128 0xb
 718 001c 03       		.uleb128 0x3
 719 001d 0E       		.uleb128 0xe
 720 001e 00       		.byte	0x0
 721 001f 00       		.byte	0x0
 722 0020 03       		.uleb128 0x3
 723 0021 24       		.uleb128 0x24
 724 0022 00       		.byte	0x0
 725 0023 0B       		.uleb128 0xb
 726 0024 0B       		.uleb128 0xb
 727 0025 3E       		.uleb128 0x3e
 728 0026 0B       		.uleb128 0xb
 729 0027 03       		.uleb128 0x3
 730 0028 08       		.uleb128 0x8
 731 0029 00       		.byte	0x0
 732 002a 00       		.byte	0x0
 733 002b 04       		.uleb128 0x4
 734 002c 16       		.uleb128 0x16
 735 002d 00       		.byte	0x0
 736 002e 03       		.uleb128 0x3
 737 002f 0E       		.uleb128 0xe
 738 0030 3A       		.uleb128 0x3a
 739 0031 0B       		.uleb128 0xb
 740 0032 3B       		.uleb128 0x3b
 741 0033 0B       		.uleb128 0xb
 742 0034 49       		.uleb128 0x49
 743 0035 13       		.uleb128 0x13
 744 0036 00       		.byte	0x0
 745 0037 00       		.byte	0x0
 746 0038 05       		.uleb128 0x5
 747 0039 24       		.uleb128 0x24
 748 003a 00       		.byte	0x0
 749 003b 0B       		.uleb128 0xb
 750 003c 0B       		.uleb128 0xb
 751 003d 3E       		.uleb128 0x3e
 752 003e 0B       		.uleb128 0xb
 753 003f 00       		.byte	0x0
ARM GAS  C:\Users\SUZUKI~1\AppData\Local\Temp\ccMSp3Eg.s 			page 16


 754 0040 00       		.byte	0x0
 755 0041 06       		.uleb128 0x6
 756 0042 0F       		.uleb128 0xf
 757 0043 00       		.byte	0x0
 758 0044 0B       		.uleb128 0xb
 759 0045 0B       		.uleb128 0xb
 760 0046 49       		.uleb128 0x49
 761 0047 13       		.uleb128 0x13
 762 0048 00       		.byte	0x0
 763 0049 00       		.byte	0x0
 764 004a 07       		.uleb128 0x7
 765 004b 2E       		.uleb128 0x2e
 766 004c 00       		.byte	0x0
 767 004d 3F       		.uleb128 0x3f
 768 004e 0C       		.uleb128 0xc
 769 004f 03       		.uleb128 0x3
 770 0050 0E       		.uleb128 0xe
 771 0051 3A       		.uleb128 0x3a
 772 0052 0B       		.uleb128 0xb
 773 0053 3B       		.uleb128 0x3b
 774 0054 0B       		.uleb128 0xb
 775 0055 27       		.uleb128 0x27
 776 0056 0C       		.uleb128 0xc
 777 0057 11       		.uleb128 0x11
 778 0058 01       		.uleb128 0x1
 779 0059 12       		.uleb128 0x12
 780 005a 01       		.uleb128 0x1
 781 005b 40       		.uleb128 0x40
 782 005c 0A       		.uleb128 0xa
 783 005d 00       		.byte	0x0
 784 005e 00       		.byte	0x0
 785 005f 08       		.uleb128 0x8
 786 0060 2E       		.uleb128 0x2e
 787 0061 01       		.byte	0x1
 788 0062 3F       		.uleb128 0x3f
 789 0063 0C       		.uleb128 0xc
 790 0064 03       		.uleb128 0x3
 791 0065 0E       		.uleb128 0xe
 792 0066 3A       		.uleb128 0x3a
 793 0067 0B       		.uleb128 0xb
 794 0068 3B       		.uleb128 0x3b
 795 0069 0B       		.uleb128 0xb
 796 006a 27       		.uleb128 0x27
 797 006b 0C       		.uleb128 0xc
 798 006c 49       		.uleb128 0x49
 799 006d 13       		.uleb128 0x13
 800 006e 11       		.uleb128 0x11
 801 006f 01       		.uleb128 0x1
 802 0070 12       		.uleb128 0x12
 803 0071 01       		.uleb128 0x1
 804 0072 40       		.uleb128 0x40
 805 0073 0A       		.uleb128 0xa
 806 0074 01       		.uleb128 0x1
 807 0075 13       		.uleb128 0x13
 808 0076 00       		.byte	0x0
 809 0077 00       		.byte	0x0
 810 0078 09       		.uleb128 0x9
ARM GAS  C:\Users\SUZUKI~1\AppData\Local\Temp\ccMSp3Eg.s 			page 17


 811 0079 34       		.uleb128 0x34
 812 007a 00       		.byte	0x0
 813 007b 03       		.uleb128 0x3
 814 007c 08       		.uleb128 0x8
 815 007d 3A       		.uleb128 0x3a
 816 007e 0B       		.uleb128 0xb
 817 007f 3B       		.uleb128 0x3b
 818 0080 0B       		.uleb128 0xb
 819 0081 49       		.uleb128 0x49
 820 0082 13       		.uleb128 0x13
 821 0083 02       		.uleb128 0x2
 822 0084 06       		.uleb128 0x6
 823 0085 00       		.byte	0x0
 824 0086 00       		.byte	0x0
 825 0087 0A       		.uleb128 0xa
 826 0088 2E       		.uleb128 0x2e
 827 0089 01       		.byte	0x1
 828 008a 3F       		.uleb128 0x3f
 829 008b 0C       		.uleb128 0xc
 830 008c 03       		.uleb128 0x3
 831 008d 0E       		.uleb128 0xe
 832 008e 3A       		.uleb128 0x3a
 833 008f 0B       		.uleb128 0xb
 834 0090 3B       		.uleb128 0x3b
 835 0091 0B       		.uleb128 0xb
 836 0092 27       		.uleb128 0x27
 837 0093 0C       		.uleb128 0xc
 838 0094 11       		.uleb128 0x11
 839 0095 01       		.uleb128 0x1
 840 0096 12       		.uleb128 0x12
 841 0097 01       		.uleb128 0x1
 842 0098 40       		.uleb128 0x40
 843 0099 0A       		.uleb128 0xa
 844 009a 01       		.uleb128 0x1
 845 009b 13       		.uleb128 0x13
 846 009c 00       		.byte	0x0
 847 009d 00       		.byte	0x0
 848 009e 0B       		.uleb128 0xb
 849 009f 05       		.uleb128 0x5
 850 00a0 00       		.byte	0x0
 851 00a1 03       		.uleb128 0x3
 852 00a2 08       		.uleb128 0x8
 853 00a3 3A       		.uleb128 0x3a
 854 00a4 0B       		.uleb128 0xb
 855 00a5 3B       		.uleb128 0x3b
 856 00a6 0B       		.uleb128 0xb
 857 00a7 49       		.uleb128 0x49
 858 00a8 13       		.uleb128 0x13
 859 00a9 02       		.uleb128 0x2
 860 00aa 0A       		.uleb128 0xa
 861 00ab 00       		.byte	0x0
 862 00ac 00       		.byte	0x0
 863 00ad 0C       		.uleb128 0xc
 864 00ae 2E       		.uleb128 0x2e
 865 00af 01       		.byte	0x1
 866 00b0 3F       		.uleb128 0x3f
 867 00b1 0C       		.uleb128 0xc
ARM GAS  C:\Users\SUZUKI~1\AppData\Local\Temp\ccMSp3Eg.s 			page 18


 868 00b2 03       		.uleb128 0x3
 869 00b3 0E       		.uleb128 0xe
 870 00b4 3A       		.uleb128 0x3a
 871 00b5 0B       		.uleb128 0xb
 872 00b6 3B       		.uleb128 0x3b
 873 00b7 0B       		.uleb128 0xb
 874 00b8 27       		.uleb128 0x27
 875 00b9 0C       		.uleb128 0xc
 876 00ba 49       		.uleb128 0x49
 877 00bb 13       		.uleb128 0x13
 878 00bc 11       		.uleb128 0x11
 879 00bd 01       		.uleb128 0x1
 880 00be 12       		.uleb128 0x12
 881 00bf 01       		.uleb128 0x1
 882 00c0 40       		.uleb128 0x40
 883 00c1 06       		.uleb128 0x6
 884 00c2 01       		.uleb128 0x1
 885 00c3 13       		.uleb128 0x13
 886 00c4 00       		.byte	0x0
 887 00c5 00       		.byte	0x0
 888 00c6 0D       		.uleb128 0xd
 889 00c7 34       		.uleb128 0x34
 890 00c8 00       		.byte	0x0
 891 00c9 03       		.uleb128 0x3
 892 00ca 08       		.uleb128 0x8
 893 00cb 3A       		.uleb128 0x3a
 894 00cc 0B       		.uleb128 0xb
 895 00cd 3B       		.uleb128 0x3b
 896 00ce 0B       		.uleb128 0xb
 897 00cf 49       		.uleb128 0x49
 898 00d0 13       		.uleb128 0x13
 899 00d1 02       		.uleb128 0x2
 900 00d2 0A       		.uleb128 0xa
 901 00d3 00       		.byte	0x0
 902 00d4 00       		.byte	0x0
 903 00d5 0E       		.uleb128 0xe
 904 00d6 2E       		.uleb128 0x2e
 905 00d7 01       		.byte	0x1
 906 00d8 3F       		.uleb128 0x3f
 907 00d9 0C       		.uleb128 0xc
 908 00da 03       		.uleb128 0x3
 909 00db 0E       		.uleb128 0xe
 910 00dc 3A       		.uleb128 0x3a
 911 00dd 0B       		.uleb128 0xb
 912 00de 3B       		.uleb128 0x3b
 913 00df 0B       		.uleb128 0xb
 914 00e0 27       		.uleb128 0x27
 915 00e1 0C       		.uleb128 0xc
 916 00e2 11       		.uleb128 0x11
 917 00e3 01       		.uleb128 0x1
 918 00e4 12       		.uleb128 0x12
 919 00e5 01       		.uleb128 0x1
 920 00e6 40       		.uleb128 0x40
 921 00e7 06       		.uleb128 0x6
 922 00e8 01       		.uleb128 0x1
 923 00e9 13       		.uleb128 0x13
 924 00ea 00       		.byte	0x0
ARM GAS  C:\Users\SUZUKI~1\AppData\Local\Temp\ccMSp3Eg.s 			page 19


 925 00eb 00       		.byte	0x0
 926 00ec 0F       		.uleb128 0xf
 927 00ed 05       		.uleb128 0x5
 928 00ee 00       		.byte	0x0
 929 00ef 03       		.uleb128 0x3
 930 00f0 08       		.uleb128 0x8
 931 00f1 3A       		.uleb128 0x3a
 932 00f2 0B       		.uleb128 0xb
 933 00f3 3B       		.uleb128 0x3b
 934 00f4 0B       		.uleb128 0xb
 935 00f5 49       		.uleb128 0x49
 936 00f6 13       		.uleb128 0x13
 937 00f7 02       		.uleb128 0x2
 938 00f8 06       		.uleb128 0x6
 939 00f9 00       		.byte	0x0
 940 00fa 00       		.byte	0x0
 941 00fb 10       		.uleb128 0x10
 942 00fc 2E       		.uleb128 0x2e
 943 00fd 00       		.byte	0x0
 944 00fe 3F       		.uleb128 0x3f
 945 00ff 0C       		.uleb128 0xc
 946 0100 03       		.uleb128 0x3
 947 0101 0E       		.uleb128 0xe
 948 0102 3A       		.uleb128 0x3a
 949 0103 0B       		.uleb128 0xb
 950 0104 3B       		.uleb128 0x3b
 951 0105 0B       		.uleb128 0xb
 952 0106 27       		.uleb128 0x27
 953 0107 0C       		.uleb128 0xc
 954 0108 49       		.uleb128 0x49
 955 0109 13       		.uleb128 0x13
 956 010a 11       		.uleb128 0x11
 957 010b 01       		.uleb128 0x1
 958 010c 12       		.uleb128 0x12
 959 010d 01       		.uleb128 0x1
 960 010e 40       		.uleb128 0x40
 961 010f 0A       		.uleb128 0xa
 962 0110 00       		.byte	0x0
 963 0111 00       		.byte	0x0
 964 0112 11       		.uleb128 0x11
 965 0113 34       		.uleb128 0x34
 966 0114 00       		.byte	0x0
 967 0115 03       		.uleb128 0x3
 968 0116 0E       		.uleb128 0xe
 969 0117 3A       		.uleb128 0x3a
 970 0118 0B       		.uleb128 0xb
 971 0119 3B       		.uleb128 0x3b
 972 011a 0B       		.uleb128 0xb
 973 011b 49       		.uleb128 0x49
 974 011c 13       		.uleb128 0x13
 975 011d 02       		.uleb128 0x2
 976 011e 0A       		.uleb128 0xa
 977 011f 00       		.byte	0x0
 978 0120 00       		.byte	0x0
 979 0121 12       		.uleb128 0x12
 980 0122 05       		.uleb128 0x5
 981 0123 00       		.byte	0x0
ARM GAS  C:\Users\SUZUKI~1\AppData\Local\Temp\ccMSp3Eg.s 			page 20


 982 0124 03       		.uleb128 0x3
 983 0125 0E       		.uleb128 0xe
 984 0126 3A       		.uleb128 0x3a
 985 0127 0B       		.uleb128 0xb
 986 0128 3B       		.uleb128 0x3b
 987 0129 0B       		.uleb128 0xb
 988 012a 49       		.uleb128 0x49
 989 012b 13       		.uleb128 0x13
 990 012c 02       		.uleb128 0x2
 991 012d 0A       		.uleb128 0xa
 992 012e 00       		.byte	0x0
 993 012f 00       		.byte	0x0
 994 0130 13       		.uleb128 0x13
 995 0131 01       		.uleb128 0x1
 996 0132 01       		.byte	0x1
 997 0133 49       		.uleb128 0x49
 998 0134 13       		.uleb128 0x13
 999 0135 01       		.uleb128 0x1
 1000 0136 13       		.uleb128 0x13
 1001 0137 00       		.byte	0x0
 1002 0138 00       		.byte	0x0
 1003 0139 14       		.uleb128 0x14
 1004 013a 21       		.uleb128 0x21
 1005 013b 00       		.byte	0x0
 1006 013c 49       		.uleb128 0x49
 1007 013d 13       		.uleb128 0x13
 1008 013e 2F       		.uleb128 0x2f
 1009 013f 05       		.uleb128 0x5
 1010 0140 00       		.byte	0x0
 1011 0141 00       		.byte	0x0
 1012 0142 15       		.uleb128 0x15
 1013 0143 34       		.uleb128 0x34
 1014 0144 00       		.byte	0x0
 1015 0145 03       		.uleb128 0x3
 1016 0146 0E       		.uleb128 0xe
 1017 0147 3A       		.uleb128 0x3a
 1018 0148 0B       		.uleb128 0xb
 1019 0149 3B       		.uleb128 0x3b
 1020 014a 05       		.uleb128 0x5
 1021 014b 49       		.uleb128 0x49
 1022 014c 13       		.uleb128 0x13
 1023 014d 3F       		.uleb128 0x3f
 1024 014e 0C       		.uleb128 0xc
 1025 014f 3C       		.uleb128 0x3c
 1026 0150 0C       		.uleb128 0xc
 1027 0151 00       		.byte	0x0
 1028 0152 00       		.byte	0x0
 1029 0153 16       		.uleb128 0x16
 1030 0154 35       		.uleb128 0x35
 1031 0155 00       		.byte	0x0
 1032 0156 49       		.uleb128 0x49
 1033 0157 13       		.uleb128 0x13
 1034 0158 00       		.byte	0x0
 1035 0159 00       		.byte	0x0
 1036 015a 00       		.byte	0x0
 1037              		.section	.debug_pubnames,"",%progbits
 1038 0000 29010000 		.4byte	0x129
ARM GAS  C:\Users\SUZUKI~1\AppData\Local\Temp\ccMSp3Eg.s 			page 21


 1039 0004 0200     		.2byte	0x2
 1040 0006 00000000 		.4byte	.Ldebug_info0
 1041 000a 3E020000 		.4byte	0x23e
 1042 000e A3000000 		.4byte	0xa3
 1043 0012 62746D6F 		.ascii	"btmodule_1_rxfifo_Stop\000"
 1043      64756C65 
 1043      5F315F72 
 1043      78666966 
 1043      6F5F5374 
 1044 0029 B6000000 		.4byte	0xb6
 1045 002d 62746D6F 		.ascii	"btmodule_1_rxfifo_PopChar\000"
 1045      64756C65 
 1045      5F315F72 
 1045      78666966 
 1045      6F5F506F 
 1046 0047 DF000000 		.4byte	0xdf
 1047 004b 62746D6F 		.ascii	"btmodule_1_rxfifo_PushChar\000"
 1047      64756C65 
 1047      5F315F72 
 1047      78666966 
 1047      6F5F5075 
 1048 0066 02010000 		.4byte	0x102
 1049 006a 62746D6F 		.ascii	"btmodule_1_rxfifo_PopString\000"
 1049      64756C65 
 1049      5F315F72 
 1049      78666966 
 1049      6F5F506F 
 1050 0086 2D010000 		.4byte	0x12d
 1051 008a 62746D6F 		.ascii	"btmodule_1_rxfifo_PushString\000"
 1051      64756C65 
 1051      5F315F72 
 1051      78666966 
 1051      6F5F5075 
 1052 00a7 63010000 		.4byte	0x163
 1053 00ab 62746D6F 		.ascii	"btmodule_1_rxfifo_GetContentSize\000"
 1053      64756C65 
 1053      5F315F72 
 1053      78666966 
 1053      6F5F4765 
 1054 00cc 7A010000 		.4byte	0x17a
 1055 00d0 62746D6F 		.ascii	"btmodule_1_rxfifo_GetVacancySize\000"
 1055      64756C65 
 1055      5F315F72 
 1055      78666966 
 1055      6F5F4765 
 1056 00f1 A3010000 		.4byte	0x1a3
 1057 00f5 62746D6F 		.ascii	"btmodule_1_rxfifo_Clear\000"
 1057      64756C65 
 1057      5F315F72 
 1057      78666966 
 1057      6F5F436C 
 1058 010d D3010000 		.4byte	0x1d3
 1059 0111 62746D6F 		.ascii	"btmodule_1_rxfifo_Start\000"
 1059      64756C65 
 1059      5F315F72 
 1059      78666966 
 1059      6F5F5374 
ARM GAS  C:\Users\SUZUKI~1\AppData\Local\Temp\ccMSp3Eg.s 			page 22


 1060 0129 00000000 		.4byte	0x0
 1061              		.section	.debug_aranges,"",%progbits
 1062 0000 5C000000 		.4byte	0x5c
 1063 0004 0200     		.2byte	0x2
 1064 0006 00000000 		.4byte	.Ldebug_info0
 1065 000a 04       		.byte	0x4
 1066 000b 00       		.byte	0x0
 1067 000c 0000     		.2byte	0x0
 1068 000e 0000     		.2byte	0x0
 1069 0010 00000000 		.4byte	.LFB30
 1070 0014 02000000 		.4byte	.LFE30-.LFB30
 1071 0018 00000000 		.4byte	.LFB31
 1072 001c 18000000 		.4byte	.LFE31-.LFB31
 1073 0020 00000000 		.4byte	.LFB33
 1074 0024 1C000000 		.4byte	.LFE33-.LFB33
 1075 0028 00000000 		.4byte	.LFB32
 1076 002c 20000000 		.4byte	.LFE32-.LFB32
 1077 0030 00000000 		.4byte	.LFB34
 1078 0034 16000000 		.4byte	.LFE34-.LFB34
 1079 0038 00000000 		.4byte	.LFB35
 1080 003c 2C000000 		.4byte	.LFE35-.LFB35
 1081 0040 00000000 		.4byte	.LFB36
 1082 0044 20000000 		.4byte	.LFE36-.LFB36
 1083 0048 00000000 		.4byte	.LFB37
 1084 004c 24000000 		.4byte	.LFE37-.LFB37
 1085 0050 00000000 		.4byte	.LFB29
 1086 0054 06000000 		.4byte	.LFE29-.LFB29
 1087 0058 00000000 		.4byte	0x0
 1088 005c 00000000 		.4byte	0x0
 1089              		.section	.debug_ranges,"",%progbits
 1090              	.Ldebug_ranges0:
 1091 0000 00000000 		.4byte	.Ltext0
 1092 0004 00000000 		.4byte	.Letext0
 1093 0008 00000000 		.4byte	.LFB30
 1094 000c 02000000 		.4byte	.LFE30
 1095 0010 00000000 		.4byte	.LFB31
 1096 0014 18000000 		.4byte	.LFE31
 1097 0018 00000000 		.4byte	.LFB33
 1098 001c 1C000000 		.4byte	.LFE33
 1099 0020 00000000 		.4byte	.LFB32
 1100 0024 20000000 		.4byte	.LFE32
 1101 0028 00000000 		.4byte	.LFB34
 1102 002c 16000000 		.4byte	.LFE34
 1103 0030 00000000 		.4byte	.LFB35
 1104 0034 2C000000 		.4byte	.LFE35
 1105 0038 00000000 		.4byte	.LFB36
 1106 003c 20000000 		.4byte	.LFE36
 1107 0040 00000000 		.4byte	.LFB37
 1108 0044 24000000 		.4byte	.LFE37
 1109 0048 00000000 		.4byte	.LFB29
 1110 004c 06000000 		.4byte	.LFE29
 1111 0050 00000000 		.4byte	0x0
 1112 0054 00000000 		.4byte	0x0
 1113              		.section	.debug_str,"MS",%progbits,1
 1114              	.LASF6:
 1115 0000 6C6F6E67 		.ascii	"long long int\000"
 1115      206C6F6E 
ARM GAS  C:\Users\SUZUKI~1\AppData\Local\Temp\ccMSp3Eg.s 			page 23


 1115      6720696E 
 1115      7400
 1116              	.LASF29:
 1117 000e 5C5C5642 		.ascii	"\\\\VBOXSVR\\PSoC_Creator\\tfexpbrd\\tfexpbrd.cydsn"
 1117      4F585356 
 1117      525C5053 
 1117      6F435F43 
 1117      72656174 
 1118 003c 00       		.ascii	"\000"
 1119              	.LASF23:
 1120 003d 62746D6F 		.ascii	"btmodule_1_rxfifo_Start\000"
 1120      64756C65 
 1120      5F315F72 
 1120      78666966 
 1120      6F5F5374 
 1121              	.LASF3:
 1122 0055 73686F72 		.ascii	"short unsigned int\000"
 1122      7420756E 
 1122      7369676E 
 1122      65642069 
 1122      6E7400
 1123              	.LASF25:
 1124 0068 62746D6F 		.ascii	"btmodule_1_rxfifo_rptr\000"
 1124      64756C65 
 1124      5F315F72 
 1124      78666966 
 1124      6F5F7270 
 1125              	.LASF26:
 1126 007f 62746D6F 		.ascii	"btmodule_1_rxfifo_wptr\000"
 1126      64756C65 
 1126      5F315F72 
 1126      78666966 
 1126      6F5F7770 
 1127              	.LASF11:
 1128 0096 666C6F61 		.ascii	"float\000"
 1128      7400
 1129              	.LASF0:
 1130 009c 7369676E 		.ascii	"signed char\000"
 1130      65642063 
 1130      68617200 
 1131              	.LASF1:
 1132 00a8 756E7369 		.ascii	"unsigned char\000"
 1132      676E6564 
 1132      20636861 
 1132      7200
 1133              	.LASF18:
 1134 00b6 62746D6F 		.ascii	"btmodule_1_rxfifo_GetVacancySize\000"
 1134      64756C65 
 1134      5F315F72 
 1134      78666966 
 1134      6F5F4765 
 1135              	.LASF22:
 1136 00d7 62746D6F 		.ascii	"btmodule_1_rxfifo_Stop\000"
 1136      64756C65 
 1136      5F315F72 
 1136      78666966 
 1136      6F5F5374 
ARM GAS  C:\Users\SUZUKI~1\AppData\Local\Temp\ccMSp3Eg.s 			page 24


 1137              	.LASF30:
 1138 00ee 62746D6F 		.ascii	"btmodule_1_rxfifo_GetContentSize\000"
 1138      64756C65 
 1138      5F315F72 
 1138      78666966 
 1138      6F5F4765 
 1139              	.LASF5:
 1140 010f 6C6F6E67 		.ascii	"long unsigned int\000"
 1140      20756E73 
 1140      69676E65 
 1140      6420696E 
 1140      7400
 1141              	.LASF10:
 1142 0121 696E7433 		.ascii	"int32\000"
 1142      3200
 1143              	.LASF21:
 1144 0127 62756663 		.ascii	"bufc\000"
 1144      00
 1145              	.LASF17:
 1146 012c 62746D6F 		.ascii	"btmodule_1_rxfifo_PushString\000"
 1146      64756C65 
 1146      5F315F72 
 1146      78666966 
 1146      6F5F5075 
 1147              	.LASF12:
 1148 0149 646F7562 		.ascii	"double\000"
 1148      6C6500
 1149              	.LASF2:
 1150 0150 73686F72 		.ascii	"short int\000"
 1150      7420696E 
 1150      7400
 1151              	.LASF9:
 1152 015a 75696E74 		.ascii	"uint16\000"
 1152      313600
 1153              	.LASF14:
 1154 0161 62746D6F 		.ascii	"btmodule_1_rxfifo_PopChar\000"
 1154      64756C65 
 1154      5F315F72 
 1154      78666966 
 1154      6F5F506F 
 1155              	.LASF31:
 1156 017b 49544D5F 		.ascii	"ITM_RxBuffer\000"
 1156      52784275 
 1156      66666572 
 1156      00
 1157              	.LASF8:
 1158 0188 756E7369 		.ascii	"unsigned int\000"
 1158      676E6564 
 1158      20696E74 
 1158      00
 1159              	.LASF7:
 1160 0195 6C6F6E67 		.ascii	"long long unsigned int\000"
 1160      206C6F6E 
 1160      6720756E 
 1160      7369676E 
 1160      65642069 
 1161              	.LASF15:
ARM GAS  C:\Users\SUZUKI~1\AppData\Local\Temp\ccMSp3Eg.s 			page 25


 1162 01ac 62746D6F 		.ascii	"btmodule_1_rxfifo_PopString\000"
 1162      64756C65 
 1162      5F315F72 
 1162      78666966 
 1162      6F5F506F 
 1163              	.LASF28:
 1164 01c8 2E5C4765 		.ascii	".\\Generated_Source\\PSoC5\\btmodule_1_rxfifo_softw"
 1164      6E657261 
 1164      7465645F 
 1164      536F7572 
 1164      63655C50 
 1165 01f8 61726566 		.ascii	"arefifo.c\000"
 1165      69666F2E 
 1165      6300
 1166              	.LASF27:
 1167 0202 474E5520 		.ascii	"GNU C 4.4.1\000"
 1167      4320342E 
 1167      342E3100 
 1168              	.LASF13:
 1169 020e 63686172 		.ascii	"char\000"
 1169      00
 1170              	.LASF16:
 1171 0213 62746D6F 		.ascii	"btmodule_1_rxfifo_PushChar\000"
 1171      64756C65 
 1171      5F315F72 
 1171      78666966 
 1171      6F5F5075 
 1172              	.LASF19:
 1173 022e 6F666673 		.ascii	"offset\000"
 1173      657400
 1174              	.LASF24:
 1175 0235 62746D6F 		.ascii	"btmodule_1_rxfifo_fifo\000"
 1175      64756C65 
 1175      5F315F72 
 1175      78666966 
 1175      6F5F6669 
 1176              	.LASF4:
 1177 024c 6C6F6E67 		.ascii	"long int\000"
 1177      20696E74 
 1177      00
 1178              	.LASF20:
 1179 0255 62746D6F 		.ascii	"btmodule_1_rxfifo_Clear\000"
 1179      64756C65 
 1179      5F315F72 
 1179      78666966 
 1179      6F5F436C 
 1180              		.ident	"GCC: (Sourcery G++ Lite 2010q1-188) 4.4.1"
