ARM GAS  C:\Users\SUZUKI~1\AppData\Local\Temp\cctA21yr.s 			page 1


   1              		.syntax unified
   2              		.cpu cortex-m3
   3              		.fpu softvfp
   4              		.eabi_attribute 20, 1
   5              		.eabi_attribute 21, 1
   6              		.eabi_attribute 23, 3
   7              		.eabi_attribute 24, 1
   8              		.eabi_attribute 25, 1
   9              		.eabi_attribute 26, 1
  10              		.eabi_attribute 30, 4
  11              		.eabi_attribute 18, 4
  12              		.thumb
  13              		.file	"Clock_4.c"
  14              		.section	.debug_abbrev,"",%progbits
  15              	.Ldebug_abbrev0:
  16              		.section	.debug_info,"",%progbits
  17              	.Ldebug_info0:
  18              		.section	.debug_line,"",%progbits
  19              	.Ldebug_line0:
  20 0000 59010000 		.text
  20      02005F00 
  20      00000201 
  20      FB0E0D00 
  20      01010101 
  21              	.Ltext0:
  22              		.cfi_sections	.debug_frame
  23              		.section	.text.Clock_4_Start,"ax",%progbits
  24              		.align	1
  25              		.global	Clock_4_Start
  26              		.thumb
  27              		.thumb_func
  28              		.type	Clock_4_Start, %function
  29              	Clock_4_Start:
  30              	.LFB0:
  31              		.file 1 ".\\Generated_Source\\PSoC5\\Clock_4.c"
   1:.\Generated_Source\PSoC5/Clock_4.c **** /*******************************************************************************
   2:.\Generated_Source\PSoC5/Clock_4.c **** * File Name: Clock_4.c
   3:.\Generated_Source\PSoC5/Clock_4.c **** * Version 2.0
   4:.\Generated_Source\PSoC5/Clock_4.c **** *
   5:.\Generated_Source\PSoC5/Clock_4.c **** *  Description:
   6:.\Generated_Source\PSoC5/Clock_4.c **** *   This file provides the source code to the API for the clock component.
   7:.\Generated_Source\PSoC5/Clock_4.c **** *
   8:.\Generated_Source\PSoC5/Clock_4.c **** *  Note:
   9:.\Generated_Source\PSoC5/Clock_4.c **** *
  10:.\Generated_Source\PSoC5/Clock_4.c **** ********************************************************************************
  11:.\Generated_Source\PSoC5/Clock_4.c **** * Copyright 2008-2012, Cypress Semiconductor Corporation.  All rights reserved.
  12:.\Generated_Source\PSoC5/Clock_4.c **** * You may use this file only in accordance with the license, terms, conditions, 
  13:.\Generated_Source\PSoC5/Clock_4.c **** * disclaimers, and limitations in the end user license agreement accompanying 
  14:.\Generated_Source\PSoC5/Clock_4.c **** * the software package with which this file was provided.
  15:.\Generated_Source\PSoC5/Clock_4.c **** *******************************************************************************/
  16:.\Generated_Source\PSoC5/Clock_4.c **** 
  17:.\Generated_Source\PSoC5/Clock_4.c **** #include <cydevice_trm.h>
  18:.\Generated_Source\PSoC5/Clock_4.c **** #include "Clock_4.h"
  19:.\Generated_Source\PSoC5/Clock_4.c **** 
  20:.\Generated_Source\PSoC5/Clock_4.c **** /* Clock Distribution registers. */
  21:.\Generated_Source\PSoC5/Clock_4.c **** #define CLK_DIST_LD              (* (reg8 *) CYREG_CLKDIST_LD)
  22:.\Generated_Source\PSoC5/Clock_4.c **** #define CLK_DIST_BCFG2           (* (reg8 *) CYREG_CLKDIST_BCFG2)
ARM GAS  C:\Users\SUZUKI~1\AppData\Local\Temp\cctA21yr.s 			page 2


  23:.\Generated_Source\PSoC5/Clock_4.c **** #define BCFG2_MASK               (0x80u)
  24:.\Generated_Source\PSoC5/Clock_4.c **** #define CLK_DIST_DMASK           (* (reg8 *) CYREG_CLKDIST_DMASK)
  25:.\Generated_Source\PSoC5/Clock_4.c **** #define CLK_DIST_AMASK           (* (reg8 *) CYREG_CLKDIST_AMASK)
  26:.\Generated_Source\PSoC5/Clock_4.c **** 
  27:.\Generated_Source\PSoC5/Clock_4.c **** #define HAS_CLKDIST_LD_DISABLE   (CY_PSOC3 || CY_PSOC5LP)
  28:.\Generated_Source\PSoC5/Clock_4.c **** 
  29:.\Generated_Source\PSoC5/Clock_4.c **** 
  30:.\Generated_Source\PSoC5/Clock_4.c **** /*******************************************************************************
  31:.\Generated_Source\PSoC5/Clock_4.c **** * Function Name: Clock_4_Start
  32:.\Generated_Source\PSoC5/Clock_4.c **** ********************************************************************************
  33:.\Generated_Source\PSoC5/Clock_4.c **** *
  34:.\Generated_Source\PSoC5/Clock_4.c **** * Summary:
  35:.\Generated_Source\PSoC5/Clock_4.c **** *  Starts the clock. Note that on startup, clocks may be already running if the
  36:.\Generated_Source\PSoC5/Clock_4.c **** *  "Start on Reset" option is enabled in the DWR.
  37:.\Generated_Source\PSoC5/Clock_4.c **** *
  38:.\Generated_Source\PSoC5/Clock_4.c **** * Parameters:
  39:.\Generated_Source\PSoC5/Clock_4.c **** *  None
  40:.\Generated_Source\PSoC5/Clock_4.c **** *
  41:.\Generated_Source\PSoC5/Clock_4.c **** * Returns:
  42:.\Generated_Source\PSoC5/Clock_4.c **** *  None
  43:.\Generated_Source\PSoC5/Clock_4.c **** *
  44:.\Generated_Source\PSoC5/Clock_4.c **** *******************************************************************************/
  45:.\Generated_Source\PSoC5/Clock_4.c **** void Clock_4_Start(void) 
  46:.\Generated_Source\PSoC5/Clock_4.c **** {
  32              		.loc 1 46 0
  33              		.cfi_startproc
  34              		@ args = 0, pretend = 0, frame = 0
  35              		@ frame_needed = 0, uses_anonymous_args = 0
  36              		@ link register save eliminated.
  47:.\Generated_Source\PSoC5/Clock_4.c ****     /* Set the bit to enable the clock. */
  48:.\Generated_Source\PSoC5/Clock_4.c ****     Clock_4_CLKEN |= Clock_4_CLKEN_MASK;
  37              		.loc 1 48 0
  38 0000 054B     		ldr	r3, .L3
  39 0002 1A78     		ldrb	r2, [r3, #0]	@ zero_extendqisi2
  40 0004 42F04002 		orr	r2, r2, #64
  41 0008 1A70     		strb	r2, [r3, #0]
  49:.\Generated_Source\PSoC5/Clock_4.c **** 	Clock_4_CLKSTBY |= Clock_4_CLKSTBY_MASK;
  42              		.loc 1 49 0
  43 000a 1033     		adds	r3, r3, #16
  44 000c 1A78     		ldrb	r2, [r3, #0]	@ zero_extendqisi2
  45 000e 42F04002 		orr	r2, r2, #64
  46 0012 1A70     		strb	r2, [r3, #0]
  50:.\Generated_Source\PSoC5/Clock_4.c **** }
  47              		.loc 1 50 0
  48 0014 7047     		bx	lr
  49              	.L4:
  50 0016 00BF     		.align	2
  51              	.L3:
  52 0018 A2430040 		.word	1073759138
  53              		.cfi_endproc
  54              	.LFE0:
  55              		.size	Clock_4_Start, .-Clock_4_Start
  56              		.section	.text.Clock_4_Stop,"ax",%progbits
  57              		.align	1
  58              		.global	Clock_4_Stop
  59              		.thumb
  60              		.thumb_func
ARM GAS  C:\Users\SUZUKI~1\AppData\Local\Temp\cctA21yr.s 			page 3


  61              		.type	Clock_4_Stop, %function
  62              	Clock_4_Stop:
  63              	.LFB1:
  51:.\Generated_Source\PSoC5/Clock_4.c **** 
  52:.\Generated_Source\PSoC5/Clock_4.c **** 
  53:.\Generated_Source\PSoC5/Clock_4.c **** /*******************************************************************************
  54:.\Generated_Source\PSoC5/Clock_4.c **** * Function Name: Clock_4_Stop
  55:.\Generated_Source\PSoC5/Clock_4.c **** ********************************************************************************
  56:.\Generated_Source\PSoC5/Clock_4.c **** *
  57:.\Generated_Source\PSoC5/Clock_4.c **** * Summary:
  58:.\Generated_Source\PSoC5/Clock_4.c **** *  Stops the clock and returns immediately. This API does not require the
  59:.\Generated_Source\PSoC5/Clock_4.c **** *  source clock to be running but may return before the hardware is actually
  60:.\Generated_Source\PSoC5/Clock_4.c **** *  disabled. If the settings of the clock are changed after calling this
  61:.\Generated_Source\PSoC5/Clock_4.c **** *  function, the clock may glitch when it is started. To avoid the clock
  62:.\Generated_Source\PSoC5/Clock_4.c **** *  glitch, use the StopBlock function.
  63:.\Generated_Source\PSoC5/Clock_4.c **** *
  64:.\Generated_Source\PSoC5/Clock_4.c **** * Parameters:
  65:.\Generated_Source\PSoC5/Clock_4.c **** *  None
  66:.\Generated_Source\PSoC5/Clock_4.c **** *
  67:.\Generated_Source\PSoC5/Clock_4.c **** * Returns:
  68:.\Generated_Source\PSoC5/Clock_4.c **** *  None
  69:.\Generated_Source\PSoC5/Clock_4.c **** *
  70:.\Generated_Source\PSoC5/Clock_4.c **** *******************************************************************************/
  71:.\Generated_Source\PSoC5/Clock_4.c **** void Clock_4_Stop(void) 
  72:.\Generated_Source\PSoC5/Clock_4.c **** {
  64              		.loc 1 72 0
  65              		.cfi_startproc
  66              		@ args = 0, pretend = 0, frame = 0
  67              		@ frame_needed = 0, uses_anonymous_args = 0
  68              		@ link register save eliminated.
  73:.\Generated_Source\PSoC5/Clock_4.c ****     /* Clear the bit to disable the clock. */
  74:.\Generated_Source\PSoC5/Clock_4.c ****     Clock_4_CLKEN &= (uint8)(~Clock_4_CLKEN_MASK);
  69              		.loc 1 74 0
  70 0000 054B     		ldr	r3, .L7
  71 0002 1A78     		ldrb	r2, [r3, #0]	@ zero_extendqisi2
  72 0004 02F0BF02 		and	r2, r2, #191
  73 0008 1A70     		strb	r2, [r3, #0]
  75:.\Generated_Source\PSoC5/Clock_4.c **** 	Clock_4_CLKSTBY &= (uint8)(~Clock_4_CLKSTBY_MASK);
  74              		.loc 1 75 0
  75 000a 1033     		adds	r3, r3, #16
  76 000c 1A78     		ldrb	r2, [r3, #0]	@ zero_extendqisi2
  77 000e 02F0BF02 		and	r2, r2, #191
  78 0012 1A70     		strb	r2, [r3, #0]
  76:.\Generated_Source\PSoC5/Clock_4.c **** }
  79              		.loc 1 76 0
  80 0014 7047     		bx	lr
  81              	.L8:
  82 0016 00BF     		.align	2
  83              	.L7:
  84 0018 A2430040 		.word	1073759138
  85              		.cfi_endproc
  86              	.LFE1:
  87              		.size	Clock_4_Stop, .-Clock_4_Stop
  88              		.section	.text.Clock_4_StandbyPower,"ax",%progbits
  89              		.align	1
  90              		.global	Clock_4_StandbyPower
  91              		.thumb
ARM GAS  C:\Users\SUZUKI~1\AppData\Local\Temp\cctA21yr.s 			page 4


  92              		.thumb_func
  93              		.type	Clock_4_StandbyPower, %function
  94              	Clock_4_StandbyPower:
  95              	.LFB2:
  77:.\Generated_Source\PSoC5/Clock_4.c **** 
  78:.\Generated_Source\PSoC5/Clock_4.c **** 
  79:.\Generated_Source\PSoC5/Clock_4.c **** #if(CY_PSOC3 || CY_PSOC5LP)
  80:.\Generated_Source\PSoC5/Clock_4.c **** 
  81:.\Generated_Source\PSoC5/Clock_4.c **** 
  82:.\Generated_Source\PSoC5/Clock_4.c **** /*******************************************************************************
  83:.\Generated_Source\PSoC5/Clock_4.c **** * Function Name: Clock_4_StopBlock
  84:.\Generated_Source\PSoC5/Clock_4.c **** ********************************************************************************
  85:.\Generated_Source\PSoC5/Clock_4.c **** *
  86:.\Generated_Source\PSoC5/Clock_4.c **** * Summary:
  87:.\Generated_Source\PSoC5/Clock_4.c **** *  Stops the clock and waits for the hardware to actually be disabled before
  88:.\Generated_Source\PSoC5/Clock_4.c **** *  returning. This ensures that the clock is never truncated (high part of the
  89:.\Generated_Source\PSoC5/Clock_4.c **** *  cycle will terminate before the clock is disabled and the API returns).
  90:.\Generated_Source\PSoC5/Clock_4.c **** *  Note that the source clock must be running or this API will never return as
  91:.\Generated_Source\PSoC5/Clock_4.c **** *  a stopped clock cannot be disabled.
  92:.\Generated_Source\PSoC5/Clock_4.c **** *
  93:.\Generated_Source\PSoC5/Clock_4.c **** * Parameters:
  94:.\Generated_Source\PSoC5/Clock_4.c **** *  None
  95:.\Generated_Source\PSoC5/Clock_4.c **** *
  96:.\Generated_Source\PSoC5/Clock_4.c **** * Returns:
  97:.\Generated_Source\PSoC5/Clock_4.c **** *  None
  98:.\Generated_Source\PSoC5/Clock_4.c **** *
  99:.\Generated_Source\PSoC5/Clock_4.c **** *******************************************************************************/
 100:.\Generated_Source\PSoC5/Clock_4.c **** void Clock_4_StopBlock(void) 
 101:.\Generated_Source\PSoC5/Clock_4.c **** {
 102:.\Generated_Source\PSoC5/Clock_4.c ****     if ((Clock_4_CLKEN & Clock_4_CLKEN_MASK) != 0u)
 103:.\Generated_Source\PSoC5/Clock_4.c ****     {
 104:.\Generated_Source\PSoC5/Clock_4.c **** #if HAS_CLKDIST_LD_DISABLE
 105:.\Generated_Source\PSoC5/Clock_4.c ****         uint16 oldDivider;
 106:.\Generated_Source\PSoC5/Clock_4.c **** 
 107:.\Generated_Source\PSoC5/Clock_4.c ****         CLK_DIST_LD = 0u;
 108:.\Generated_Source\PSoC5/Clock_4.c **** 
 109:.\Generated_Source\PSoC5/Clock_4.c ****         /* Clear all the mask bits except ours. */
 110:.\Generated_Source\PSoC5/Clock_4.c **** #if defined(Clock_4__CFG3)
 111:.\Generated_Source\PSoC5/Clock_4.c ****         CLK_DIST_AMASK = Clock_4_CLKEN_MASK;
 112:.\Generated_Source\PSoC5/Clock_4.c ****         CLK_DIST_DMASK = 0x00u;
 113:.\Generated_Source\PSoC5/Clock_4.c **** #else
 114:.\Generated_Source\PSoC5/Clock_4.c ****         CLK_DIST_DMASK = Clock_4_CLKEN_MASK;
 115:.\Generated_Source\PSoC5/Clock_4.c ****         CLK_DIST_AMASK = 0x00u;
 116:.\Generated_Source\PSoC5/Clock_4.c **** #endif /* Clock_4__CFG3 */
 117:.\Generated_Source\PSoC5/Clock_4.c **** 
 118:.\Generated_Source\PSoC5/Clock_4.c ****         /* Clear mask of bus clock. */
 119:.\Generated_Source\PSoC5/Clock_4.c ****         CLK_DIST_BCFG2 &= (uint8)(~BCFG2_MASK);
 120:.\Generated_Source\PSoC5/Clock_4.c **** 
 121:.\Generated_Source\PSoC5/Clock_4.c ****         oldDivider = CY_GET_REG16(Clock_4_DIV_PTR);
 122:.\Generated_Source\PSoC5/Clock_4.c ****         CY_SET_REG16(CYREG_CLKDIST_WRK0, oldDivider);
 123:.\Generated_Source\PSoC5/Clock_4.c ****         CLK_DIST_LD = CYCLK_LD_DISABLE | CYCLK_LD_SYNC_EN | CYCLK_LD_LOAD;
 124:.\Generated_Source\PSoC5/Clock_4.c **** 
 125:.\Generated_Source\PSoC5/Clock_4.c ****         /* Wait for clock to be disabled */
 126:.\Generated_Source\PSoC5/Clock_4.c ****         while ((CLK_DIST_LD & CYCLK_LD_LOAD) != 0u) { }
 127:.\Generated_Source\PSoC5/Clock_4.c **** #endif /* HAS_CLKDIST_LD_DISABLE */
 128:.\Generated_Source\PSoC5/Clock_4.c **** 
 129:.\Generated_Source\PSoC5/Clock_4.c ****         /* Clear the bit to disable the clock. */
ARM GAS  C:\Users\SUZUKI~1\AppData\Local\Temp\cctA21yr.s 			page 5


 130:.\Generated_Source\PSoC5/Clock_4.c ****         Clock_4_CLKEN &= (uint8)(~Clock_4_CLKEN_MASK);
 131:.\Generated_Source\PSoC5/Clock_4.c ****         Clock_4_CLKSTBY &= (uint8)(~Clock_4_CLKSTBY_MASK);
 132:.\Generated_Source\PSoC5/Clock_4.c **** 
 133:.\Generated_Source\PSoC5/Clock_4.c **** #if HAS_CLKDIST_LD_DISABLE
 134:.\Generated_Source\PSoC5/Clock_4.c ****         /* Clear the disable bit */
 135:.\Generated_Source\PSoC5/Clock_4.c ****         CLK_DIST_LD = 0x00u;
 136:.\Generated_Source\PSoC5/Clock_4.c ****         CY_SET_REG16(Clock_4_DIV_PTR, oldDivider);
 137:.\Generated_Source\PSoC5/Clock_4.c **** #endif /* HAS_CLKDIST_LD_DISABLE */
 138:.\Generated_Source\PSoC5/Clock_4.c ****     }
 139:.\Generated_Source\PSoC5/Clock_4.c **** }
 140:.\Generated_Source\PSoC5/Clock_4.c **** #endif /* (CY_PSOC3 || CY_PSOC5LP) */
 141:.\Generated_Source\PSoC5/Clock_4.c **** 
 142:.\Generated_Source\PSoC5/Clock_4.c **** 
 143:.\Generated_Source\PSoC5/Clock_4.c **** /*******************************************************************************
 144:.\Generated_Source\PSoC5/Clock_4.c **** * Function Name: Clock_4_StandbyPower
 145:.\Generated_Source\PSoC5/Clock_4.c **** ********************************************************************************
 146:.\Generated_Source\PSoC5/Clock_4.c **** *
 147:.\Generated_Source\PSoC5/Clock_4.c **** * Summary:
 148:.\Generated_Source\PSoC5/Clock_4.c **** *  Sets whether the clock is active in standby mode.
 149:.\Generated_Source\PSoC5/Clock_4.c **** *
 150:.\Generated_Source\PSoC5/Clock_4.c **** * Parameters:
 151:.\Generated_Source\PSoC5/Clock_4.c **** *  state:  0 to disable clock during standby, nonzero to enable.
 152:.\Generated_Source\PSoC5/Clock_4.c **** *
 153:.\Generated_Source\PSoC5/Clock_4.c **** * Returns:
 154:.\Generated_Source\PSoC5/Clock_4.c **** *  None
 155:.\Generated_Source\PSoC5/Clock_4.c **** *
 156:.\Generated_Source\PSoC5/Clock_4.c **** *******************************************************************************/
 157:.\Generated_Source\PSoC5/Clock_4.c **** void Clock_4_StandbyPower(uint8 state) 
 158:.\Generated_Source\PSoC5/Clock_4.c **** {
  96              		.loc 1 158 0
  97              		.cfi_startproc
  98              		@ args = 0, pretend = 0, frame = 0
  99              		@ frame_needed = 0, uses_anonymous_args = 0
 100              		@ link register save eliminated.
 101              	.LVL0:
 159:.\Generated_Source\PSoC5/Clock_4.c ****     if(state == 0u)
 102              		.loc 1 159 0
 103 0000 20B9     		cbnz	r0, .L10
 160:.\Generated_Source\PSoC5/Clock_4.c ****     {
 161:.\Generated_Source\PSoC5/Clock_4.c ****         Clock_4_CLKSTBY &= (uint8)(~Clock_4_CLKSTBY_MASK);
 104              		.loc 1 161 0
 105 0002 054B     		ldr	r3, .L15
 106 0004 1A78     		ldrb	r2, [r3, #0]	@ zero_extendqisi2
 107 0006 02F0BF02 		and	r2, r2, #191
 108 000a 03E0     		b	.L13
 109              	.L10:
 162:.\Generated_Source\PSoC5/Clock_4.c ****     }
 163:.\Generated_Source\PSoC5/Clock_4.c ****     else
 164:.\Generated_Source\PSoC5/Clock_4.c ****     {
 165:.\Generated_Source\PSoC5/Clock_4.c ****         Clock_4_CLKSTBY |= Clock_4_CLKSTBY_MASK;
 110              		.loc 1 165 0
 111 000c 024B     		ldr	r3, .L15
 112 000e 1A78     		ldrb	r2, [r3, #0]	@ zero_extendqisi2
 113 0010 42F04002 		orr	r2, r2, #64
 114              	.L13:
 115 0014 1A70     		strb	r2, [r3, #0]
 116 0016 7047     		bx	lr
ARM GAS  C:\Users\SUZUKI~1\AppData\Local\Temp\cctA21yr.s 			page 6


 117              	.L16:
 118              		.align	2
 119              	.L15:
 120 0018 B2430040 		.word	1073759154
 121              		.cfi_endproc
 122              	.LFE2:
 123              		.size	Clock_4_StandbyPower, .-Clock_4_StandbyPower
 124              		.section	.text.Clock_4_GetDividerRegister,"ax",%progbits
 125              		.align	1
 126              		.global	Clock_4_GetDividerRegister
 127              		.thumb
 128              		.thumb_func
 129              		.type	Clock_4_GetDividerRegister, %function
 130              	Clock_4_GetDividerRegister:
 131              	.LFB4:
 166:.\Generated_Source\PSoC5/Clock_4.c ****     }
 167:.\Generated_Source\PSoC5/Clock_4.c **** }
 168:.\Generated_Source\PSoC5/Clock_4.c **** 
 169:.\Generated_Source\PSoC5/Clock_4.c **** 
 170:.\Generated_Source\PSoC5/Clock_4.c **** /*******************************************************************************
 171:.\Generated_Source\PSoC5/Clock_4.c **** * Function Name: Clock_4_SetDividerRegister
 172:.\Generated_Source\PSoC5/Clock_4.c **** ********************************************************************************
 173:.\Generated_Source\PSoC5/Clock_4.c **** *
 174:.\Generated_Source\PSoC5/Clock_4.c **** * Summary:
 175:.\Generated_Source\PSoC5/Clock_4.c **** *  Modifies the clock divider and, thus, the frequency. When the clock divider
 176:.\Generated_Source\PSoC5/Clock_4.c **** *  register is set to zero or changed from zero, the clock will be temporarily
 177:.\Generated_Source\PSoC5/Clock_4.c **** *  disabled in order to change the SSS mode bit. If the clock is enabled when
 178:.\Generated_Source\PSoC5/Clock_4.c **** *  SetDividerRegister is called, then the source clock must be running.
 179:.\Generated_Source\PSoC5/Clock_4.c **** *
 180:.\Generated_Source\PSoC5/Clock_4.c **** * Parameters:
 181:.\Generated_Source\PSoC5/Clock_4.c **** *  clkDivider:  Divider register value (0-65,535). This value is NOT the
 182:.\Generated_Source\PSoC5/Clock_4.c **** *    divider; the clock hardware divides by clkDivider plus one. For example,
 183:.\Generated_Source\PSoC5/Clock_4.c **** *    to divide the clock by 2, this parameter should be set to 1.
 184:.\Generated_Source\PSoC5/Clock_4.c **** *  restart:  If nonzero, restarts the clock divider: the current clock cycle
 185:.\Generated_Source\PSoC5/Clock_4.c **** *   will be truncated and the new divide value will take effect immediately. If
 186:.\Generated_Source\PSoC5/Clock_4.c **** *   zero, the new divide value will take effect at the end of the current clock
 187:.\Generated_Source\PSoC5/Clock_4.c **** *   cycle.
 188:.\Generated_Source\PSoC5/Clock_4.c **** *
 189:.\Generated_Source\PSoC5/Clock_4.c **** * Returns:
 190:.\Generated_Source\PSoC5/Clock_4.c **** *  None
 191:.\Generated_Source\PSoC5/Clock_4.c **** *
 192:.\Generated_Source\PSoC5/Clock_4.c **** *******************************************************************************/
 193:.\Generated_Source\PSoC5/Clock_4.c **** void Clock_4_SetDividerRegister(uint16 clkDivider, uint8 restart)
 194:.\Generated_Source\PSoC5/Clock_4.c ****                                 
 195:.\Generated_Source\PSoC5/Clock_4.c **** {
 196:.\Generated_Source\PSoC5/Clock_4.c ****     uint8 enabled;
 197:.\Generated_Source\PSoC5/Clock_4.c **** 
 198:.\Generated_Source\PSoC5/Clock_4.c ****     uint8 currSrc = Clock_4_GetSourceRegister();
 199:.\Generated_Source\PSoC5/Clock_4.c ****     uint16 oldDivider = Clock_4_GetDividerRegister();
 200:.\Generated_Source\PSoC5/Clock_4.c **** 
 201:.\Generated_Source\PSoC5/Clock_4.c ****     if (clkDivider != oldDivider)
 202:.\Generated_Source\PSoC5/Clock_4.c ****     {
 203:.\Generated_Source\PSoC5/Clock_4.c ****         enabled = Clock_4_CLKEN & Clock_4_CLKEN_MASK;
 204:.\Generated_Source\PSoC5/Clock_4.c **** 
 205:.\Generated_Source\PSoC5/Clock_4.c ****         if ((currSrc == (uint8)CYCLK_SRC_SEL_CLK_SYNC_D) && ((oldDivider == 0u) || (clkDivider == 0
 206:.\Generated_Source\PSoC5/Clock_4.c ****         {
 207:.\Generated_Source\PSoC5/Clock_4.c ****             /* Moving to/from SSS requires correct ordering to prevent halting the clock    */
ARM GAS  C:\Users\SUZUKI~1\AppData\Local\Temp\cctA21yr.s 			page 7


 208:.\Generated_Source\PSoC5/Clock_4.c ****             if (oldDivider == 0u)
 209:.\Generated_Source\PSoC5/Clock_4.c ****             {
 210:.\Generated_Source\PSoC5/Clock_4.c ****                 /* Moving away from SSS, set the divider first so when SSS is cleared we    */
 211:.\Generated_Source\PSoC5/Clock_4.c ****                 /* don't halt the clock.  Using the shadow load isn't required as the       */
 212:.\Generated_Source\PSoC5/Clock_4.c ****                 /* divider is ignored while SSS is set.                                     */
 213:.\Generated_Source\PSoC5/Clock_4.c ****                 CY_SET_REG16(Clock_4_DIV_PTR, clkDivider);
 214:.\Generated_Source\PSoC5/Clock_4.c ****                 Clock_4_MOD_SRC &= (uint8)(~CYCLK_SSS);
 215:.\Generated_Source\PSoC5/Clock_4.c ****             }
 216:.\Generated_Source\PSoC5/Clock_4.c ****             else
 217:.\Generated_Source\PSoC5/Clock_4.c ****             {
 218:.\Generated_Source\PSoC5/Clock_4.c ****                 /* Moving to SSS, set SSS which then ignores the divider and we can set     */
 219:.\Generated_Source\PSoC5/Clock_4.c ****                 /* it without bothering with the shadow load.                               */
 220:.\Generated_Source\PSoC5/Clock_4.c ****                 Clock_4_MOD_SRC |= CYCLK_SSS;
 221:.\Generated_Source\PSoC5/Clock_4.c ****                 CY_SET_REG16(Clock_4_DIV_PTR, clkDivider);
 222:.\Generated_Source\PSoC5/Clock_4.c ****             }
 223:.\Generated_Source\PSoC5/Clock_4.c ****         }
 224:.\Generated_Source\PSoC5/Clock_4.c ****         else
 225:.\Generated_Source\PSoC5/Clock_4.c ****         {
 226:.\Generated_Source\PSoC5/Clock_4.c **** 			
 227:.\Generated_Source\PSoC5/Clock_4.c ****             if (enabled != 0u)
 228:.\Generated_Source\PSoC5/Clock_4.c ****             {
 229:.\Generated_Source\PSoC5/Clock_4.c ****                 CLK_DIST_LD = 0x00u;
 230:.\Generated_Source\PSoC5/Clock_4.c **** 
 231:.\Generated_Source\PSoC5/Clock_4.c ****                 /* Clear all the mask bits except ours. */
 232:.\Generated_Source\PSoC5/Clock_4.c **** #if defined(Clock_4__CFG3)
 233:.\Generated_Source\PSoC5/Clock_4.c ****                 CLK_DIST_AMASK = Clock_4_CLKEN_MASK;
 234:.\Generated_Source\PSoC5/Clock_4.c ****                 CLK_DIST_DMASK = 0x00u;
 235:.\Generated_Source\PSoC5/Clock_4.c **** #else
 236:.\Generated_Source\PSoC5/Clock_4.c ****                 CLK_DIST_DMASK = Clock_4_CLKEN_MASK;
 237:.\Generated_Source\PSoC5/Clock_4.c ****                 CLK_DIST_AMASK = 0x00u;
 238:.\Generated_Source\PSoC5/Clock_4.c **** #endif /* Clock_4__CFG3 */
 239:.\Generated_Source\PSoC5/Clock_4.c ****                 /* Clear mask of bus clock. */
 240:.\Generated_Source\PSoC5/Clock_4.c ****                 CLK_DIST_BCFG2 &= (uint8)(~BCFG2_MASK);
 241:.\Generated_Source\PSoC5/Clock_4.c **** 
 242:.\Generated_Source\PSoC5/Clock_4.c ****                 /* If clock is currently enabled, disable it if async or going from N-to-1*/
 243:.\Generated_Source\PSoC5/Clock_4.c ****                 if (((Clock_4_MOD_SRC & CYCLK_SYNC) == 0u) || (clkDivider == 0u))
 244:.\Generated_Source\PSoC5/Clock_4.c ****                 {
 245:.\Generated_Source\PSoC5/Clock_4.c **** #if HAS_CLKDIST_LD_DISABLE
 246:.\Generated_Source\PSoC5/Clock_4.c ****                     CY_SET_REG16(CYREG_CLKDIST_WRK0, oldDivider);
 247:.\Generated_Source\PSoC5/Clock_4.c ****                     CLK_DIST_LD = CYCLK_LD_DISABLE|CYCLK_LD_SYNC_EN|CYCLK_LD_LOAD;
 248:.\Generated_Source\PSoC5/Clock_4.c **** 
 249:.\Generated_Source\PSoC5/Clock_4.c ****                     /* Wait for clock to be disabled */
 250:.\Generated_Source\PSoC5/Clock_4.c ****                     while ((CLK_DIST_LD & CYCLK_LD_LOAD) != 0u) { }
 251:.\Generated_Source\PSoC5/Clock_4.c **** #endif /* HAS_CLKDIST_LD_DISABLE */
 252:.\Generated_Source\PSoC5/Clock_4.c **** 
 253:.\Generated_Source\PSoC5/Clock_4.c ****                     Clock_4_CLKEN &= (uint8)(~Clock_4_CLKEN_MASK);
 254:.\Generated_Source\PSoC5/Clock_4.c **** 
 255:.\Generated_Source\PSoC5/Clock_4.c **** #if HAS_CLKDIST_LD_DISABLE
 256:.\Generated_Source\PSoC5/Clock_4.c ****                     /* Clear the disable bit */
 257:.\Generated_Source\PSoC5/Clock_4.c ****                     CLK_DIST_LD = 0x00u;
 258:.\Generated_Source\PSoC5/Clock_4.c **** #endif /* HAS_CLKDIST_LD_DISABLE */
 259:.\Generated_Source\PSoC5/Clock_4.c ****                 }
 260:.\Generated_Source\PSoC5/Clock_4.c ****             }
 261:.\Generated_Source\PSoC5/Clock_4.c **** 
 262:.\Generated_Source\PSoC5/Clock_4.c ****             /* Load divide value. */
 263:.\Generated_Source\PSoC5/Clock_4.c ****             if ((Clock_4_CLKEN & Clock_4_CLKEN_MASK) != 0u)
 264:.\Generated_Source\PSoC5/Clock_4.c ****             {
ARM GAS  C:\Users\SUZUKI~1\AppData\Local\Temp\cctA21yr.s 			page 8


 265:.\Generated_Source\PSoC5/Clock_4.c ****                 /* If the clock is still enabled, use the shadow registers */
 266:.\Generated_Source\PSoC5/Clock_4.c ****                 CY_SET_REG16(CYREG_CLKDIST_WRK0, clkDivider);
 267:.\Generated_Source\PSoC5/Clock_4.c **** 
 268:.\Generated_Source\PSoC5/Clock_4.c ****                 CLK_DIST_LD = (CYCLK_LD_LOAD | ((restart != 0u) ? CYCLK_LD_SYNC_EN : 0x00u));
 269:.\Generated_Source\PSoC5/Clock_4.c ****                 while ((CLK_DIST_LD & CYCLK_LD_LOAD) != 0u) { }
 270:.\Generated_Source\PSoC5/Clock_4.c ****             }
 271:.\Generated_Source\PSoC5/Clock_4.c ****             else
 272:.\Generated_Source\PSoC5/Clock_4.c ****             {
 273:.\Generated_Source\PSoC5/Clock_4.c ****                 /* If the clock is disabled, set the divider directly */
 274:.\Generated_Source\PSoC5/Clock_4.c ****                 CY_SET_REG16(Clock_4_DIV_PTR, clkDivider);
 275:.\Generated_Source\PSoC5/Clock_4.c **** 				Clock_4_CLKEN |= enabled;
 276:.\Generated_Source\PSoC5/Clock_4.c ****             }
 277:.\Generated_Source\PSoC5/Clock_4.c ****         }
 278:.\Generated_Source\PSoC5/Clock_4.c ****     }
 279:.\Generated_Source\PSoC5/Clock_4.c **** }
 280:.\Generated_Source\PSoC5/Clock_4.c **** 
 281:.\Generated_Source\PSoC5/Clock_4.c **** 
 282:.\Generated_Source\PSoC5/Clock_4.c **** /*******************************************************************************
 283:.\Generated_Source\PSoC5/Clock_4.c **** * Function Name: Clock_4_GetDividerRegister
 284:.\Generated_Source\PSoC5/Clock_4.c **** ********************************************************************************
 285:.\Generated_Source\PSoC5/Clock_4.c **** *
 286:.\Generated_Source\PSoC5/Clock_4.c **** * Summary:
 287:.\Generated_Source\PSoC5/Clock_4.c **** *  Gets the clock divider register value.
 288:.\Generated_Source\PSoC5/Clock_4.c **** *
 289:.\Generated_Source\PSoC5/Clock_4.c **** * Parameters:
 290:.\Generated_Source\PSoC5/Clock_4.c **** *  None
 291:.\Generated_Source\PSoC5/Clock_4.c **** *
 292:.\Generated_Source\PSoC5/Clock_4.c **** * Returns:
 293:.\Generated_Source\PSoC5/Clock_4.c **** *  Divide value of the clock minus 1. For example, if the clock is set to
 294:.\Generated_Source\PSoC5/Clock_4.c **** *  divide by 2, the return value will be 1.
 295:.\Generated_Source\PSoC5/Clock_4.c **** *
 296:.\Generated_Source\PSoC5/Clock_4.c **** *******************************************************************************/
 297:.\Generated_Source\PSoC5/Clock_4.c **** uint16 Clock_4_GetDividerRegister(void) 
 298:.\Generated_Source\PSoC5/Clock_4.c **** {
 132              		.loc 1 298 0
 133              		.cfi_startproc
 134              		@ args = 0, pretend = 0, frame = 0
 135              		@ frame_needed = 0, uses_anonymous_args = 0
 136              		@ link register save eliminated.
 299:.\Generated_Source\PSoC5/Clock_4.c ****     return CY_GET_REG16(Clock_4_DIV_PTR);
 137              		.loc 1 299 0
 138 0000 014B     		ldr	r3, .L19
 139 0002 1888     		ldrh	r0, [r3, #0]
 300:.\Generated_Source\PSoC5/Clock_4.c **** }
 140              		.loc 1 300 0
 141 0004 80B2     		uxth	r0, r0
 142 0006 7047     		bx	lr
 143              	.L20:
 144              		.align	2
 145              	.L19:
 146 0008 98400040 		.word	1073758360
 147              		.cfi_endproc
 148              	.LFE4:
 149              		.size	Clock_4_GetDividerRegister, .-Clock_4_GetDividerRegister
 150              		.section	.text.Clock_4_SetModeRegister,"ax",%progbits
 151              		.align	1
 152              		.global	Clock_4_SetModeRegister
ARM GAS  C:\Users\SUZUKI~1\AppData\Local\Temp\cctA21yr.s 			page 9


 153              		.thumb
 154              		.thumb_func
 155              		.type	Clock_4_SetModeRegister, %function
 156              	Clock_4_SetModeRegister:
 157              	.LFB5:
 301:.\Generated_Source\PSoC5/Clock_4.c **** 
 302:.\Generated_Source\PSoC5/Clock_4.c **** 
 303:.\Generated_Source\PSoC5/Clock_4.c **** /*******************************************************************************
 304:.\Generated_Source\PSoC5/Clock_4.c **** * Function Name: Clock_4_SetModeRegister
 305:.\Generated_Source\PSoC5/Clock_4.c **** ********************************************************************************
 306:.\Generated_Source\PSoC5/Clock_4.c **** *
 307:.\Generated_Source\PSoC5/Clock_4.c **** * Summary:
 308:.\Generated_Source\PSoC5/Clock_4.c **** *  Sets flags that control the operating mode of the clock. This function only
 309:.\Generated_Source\PSoC5/Clock_4.c **** *  changes flags from 0 to 1; flags that are already 1 will remain unchanged.
 310:.\Generated_Source\PSoC5/Clock_4.c **** *  To clear flags, use the ClearModeRegister function. The clock must be
 311:.\Generated_Source\PSoC5/Clock_4.c **** *  disabled before changing the mode.
 312:.\Generated_Source\PSoC5/Clock_4.c **** *
 313:.\Generated_Source\PSoC5/Clock_4.c **** * Parameters:
 314:.\Generated_Source\PSoC5/Clock_4.c **** *  clkMode: Bit mask containing the bits to set. For PSoC 3 and PSoC 5,
 315:.\Generated_Source\PSoC5/Clock_4.c **** *   clkMode should be a set of the following optional bits or'ed together.
 316:.\Generated_Source\PSoC5/Clock_4.c **** *   - CYCLK_EARLY Enable early phase mode. Rising edge of output clock will
 317:.\Generated_Source\PSoC5/Clock_4.c **** *                 occur when the divider count reaches half of the divide
 318:.\Generated_Source\PSoC5/Clock_4.c **** *                 value.
 319:.\Generated_Source\PSoC5/Clock_4.c **** *   - CYCLK_DUTY  Enable 50% duty cycle output. When enabled, the output clock
 320:.\Generated_Source\PSoC5/Clock_4.c **** *                 is asserted for approximately half of its period. When
 321:.\Generated_Source\PSoC5/Clock_4.c **** *                 disabled, the output clock is asserted for one period of the
 322:.\Generated_Source\PSoC5/Clock_4.c **** *                 source clock.
 323:.\Generated_Source\PSoC5/Clock_4.c **** *   - CYCLK_SYNC  Enable output synchronization to master clock. This should
 324:.\Generated_Source\PSoC5/Clock_4.c **** *                 be enabled for all synchronous clocks.
 325:.\Generated_Source\PSoC5/Clock_4.c **** *   See the Technical Reference Manual for details about setting the mode of
 326:.\Generated_Source\PSoC5/Clock_4.c **** *   the clock. Specifically, see the CLKDIST.DCFG.CFG2 register.
 327:.\Generated_Source\PSoC5/Clock_4.c **** *
 328:.\Generated_Source\PSoC5/Clock_4.c **** * Returns:
 329:.\Generated_Source\PSoC5/Clock_4.c **** *  None
 330:.\Generated_Source\PSoC5/Clock_4.c **** *
 331:.\Generated_Source\PSoC5/Clock_4.c **** *******************************************************************************/
 332:.\Generated_Source\PSoC5/Clock_4.c **** void Clock_4_SetModeRegister(uint8 modeBitMask) 
 333:.\Generated_Source\PSoC5/Clock_4.c **** {
 158              		.loc 1 333 0
 159              		.cfi_startproc
 160              		@ args = 0, pretend = 0, frame = 0
 161              		@ frame_needed = 0, uses_anonymous_args = 0
 162              		@ link register save eliminated.
 163              	.LVL1:
 334:.\Generated_Source\PSoC5/Clock_4.c ****     Clock_4_MOD_SRC |= modeBitMask & (uint8)Clock_4_MODE_MASK;
 164              		.loc 1 334 0
 165 0000 034B     		ldr	r3, .L23
 166 0002 00F0F800 		and	r0, r0, #248
 167              	.LVL2:
 168 0006 1A78     		ldrb	r2, [r3, #0]	@ zero_extendqisi2
 169 0008 40EA0202 		orr	r2, r0, r2
 170 000c 1A70     		strb	r2, [r3, #0]
 335:.\Generated_Source\PSoC5/Clock_4.c **** }
 171              		.loc 1 335 0
 172 000e 7047     		bx	lr
 173              	.L24:
 174              		.align	2
ARM GAS  C:\Users\SUZUKI~1\AppData\Local\Temp\cctA21yr.s 			page 10


 175              	.L23:
 176 0010 9A400040 		.word	1073758362
 177              		.cfi_endproc
 178              	.LFE5:
 179              		.size	Clock_4_SetModeRegister, .-Clock_4_SetModeRegister
 180              		.section	.text.Clock_4_ClearModeRegister,"ax",%progbits
 181              		.align	1
 182              		.global	Clock_4_ClearModeRegister
 183              		.thumb
 184              		.thumb_func
 185              		.type	Clock_4_ClearModeRegister, %function
 186              	Clock_4_ClearModeRegister:
 187              	.LFB6:
 336:.\Generated_Source\PSoC5/Clock_4.c **** 
 337:.\Generated_Source\PSoC5/Clock_4.c **** 
 338:.\Generated_Source\PSoC5/Clock_4.c **** /*******************************************************************************
 339:.\Generated_Source\PSoC5/Clock_4.c **** * Function Name: Clock_4_ClearModeRegister
 340:.\Generated_Source\PSoC5/Clock_4.c **** ********************************************************************************
 341:.\Generated_Source\PSoC5/Clock_4.c **** *
 342:.\Generated_Source\PSoC5/Clock_4.c **** * Summary:
 343:.\Generated_Source\PSoC5/Clock_4.c **** *  Clears flags that control the operating mode of the clock. This function
 344:.\Generated_Source\PSoC5/Clock_4.c **** *  only changes flags from 1 to 0; flags that are already 0 will remain
 345:.\Generated_Source\PSoC5/Clock_4.c **** *  unchanged. To set flags, use the SetModeRegister function. The clock must be
 346:.\Generated_Source\PSoC5/Clock_4.c **** *  disabled before changing the mode.
 347:.\Generated_Source\PSoC5/Clock_4.c **** *
 348:.\Generated_Source\PSoC5/Clock_4.c **** * Parameters:
 349:.\Generated_Source\PSoC5/Clock_4.c **** *  clkMode: Bit mask containing the bits to clear. For PSoC 3 and PSoC 5,
 350:.\Generated_Source\PSoC5/Clock_4.c **** *   clkMode should be a set of the following optional bits or'ed together.
 351:.\Generated_Source\PSoC5/Clock_4.c **** *   - CYCLK_EARLY Enable early phase mode. Rising edge of output clock will
 352:.\Generated_Source\PSoC5/Clock_4.c **** *                 occur when the divider count reaches half of the divide
 353:.\Generated_Source\PSoC5/Clock_4.c **** *                 value.
 354:.\Generated_Source\PSoC5/Clock_4.c **** *   - CYCLK_DUTY  Enable 50% duty cycle output. When enabled, the output clock
 355:.\Generated_Source\PSoC5/Clock_4.c **** *                 is asserted for approximately half of its period. When
 356:.\Generated_Source\PSoC5/Clock_4.c **** *                 disabled, the output clock is asserted for one period of the
 357:.\Generated_Source\PSoC5/Clock_4.c **** *                 source clock.
 358:.\Generated_Source\PSoC5/Clock_4.c **** *   - CYCLK_SYNC  Enable output synchronization to master clock. This should
 359:.\Generated_Source\PSoC5/Clock_4.c **** *                 be enabled for all synchronous clocks.
 360:.\Generated_Source\PSoC5/Clock_4.c **** *   See the Technical Reference Manual for details about setting the mode of
 361:.\Generated_Source\PSoC5/Clock_4.c **** *   the clock. Specifically, see the CLKDIST.DCFG.CFG2 register.
 362:.\Generated_Source\PSoC5/Clock_4.c **** *
 363:.\Generated_Source\PSoC5/Clock_4.c **** * Returns:
 364:.\Generated_Source\PSoC5/Clock_4.c **** *  None
 365:.\Generated_Source\PSoC5/Clock_4.c **** *
 366:.\Generated_Source\PSoC5/Clock_4.c **** *******************************************************************************/
 367:.\Generated_Source\PSoC5/Clock_4.c **** void Clock_4_ClearModeRegister(uint8 modeBitMask) 
 368:.\Generated_Source\PSoC5/Clock_4.c **** {
 188              		.loc 1 368 0
 189              		.cfi_startproc
 190              		@ args = 0, pretend = 0, frame = 0
 191              		@ frame_needed = 0, uses_anonymous_args = 0
 192              		@ link register save eliminated.
 193              	.LVL3:
 369:.\Generated_Source\PSoC5/Clock_4.c ****     Clock_4_MOD_SRC &= (uint8)(~modeBitMask) | (uint8)(~(uint8)(Clock_4_MODE_MASK));
 194              		.loc 1 369 0
 195 0000 034B     		ldr	r3, .L27
 196 0002 C043     		mvns	r0, r0
 197              	.LVL4:
ARM GAS  C:\Users\SUZUKI~1\AppData\Local\Temp\cctA21yr.s 			page 11


 198 0004 1A78     		ldrb	r2, [r3, #0]	@ zero_extendqisi2
 199 0006 40F00700 		orr	r0, r0, #7
 200 000a 0240     		ands	r2, r2, r0
 201 000c 1A70     		strb	r2, [r3, #0]
 370:.\Generated_Source\PSoC5/Clock_4.c **** }
 202              		.loc 1 370 0
 203 000e 7047     		bx	lr
 204              	.L28:
 205              		.align	2
 206              	.L27:
 207 0010 9A400040 		.word	1073758362
 208              		.cfi_endproc
 209              	.LFE6:
 210              		.size	Clock_4_ClearModeRegister, .-Clock_4_ClearModeRegister
 211              		.section	.text.Clock_4_GetModeRegister,"ax",%progbits
 212              		.align	1
 213              		.global	Clock_4_GetModeRegister
 214              		.thumb
 215              		.thumb_func
 216              		.type	Clock_4_GetModeRegister, %function
 217              	Clock_4_GetModeRegister:
 218              	.LFB7:
 371:.\Generated_Source\PSoC5/Clock_4.c **** 
 372:.\Generated_Source\PSoC5/Clock_4.c **** 
 373:.\Generated_Source\PSoC5/Clock_4.c **** /*******************************************************************************
 374:.\Generated_Source\PSoC5/Clock_4.c **** * Function Name: Clock_4_GetModeRegister
 375:.\Generated_Source\PSoC5/Clock_4.c **** ********************************************************************************
 376:.\Generated_Source\PSoC5/Clock_4.c **** *
 377:.\Generated_Source\PSoC5/Clock_4.c **** * Summary:
 378:.\Generated_Source\PSoC5/Clock_4.c **** *  Gets the clock mode register value.
 379:.\Generated_Source\PSoC5/Clock_4.c **** *
 380:.\Generated_Source\PSoC5/Clock_4.c **** * Parameters:
 381:.\Generated_Source\PSoC5/Clock_4.c **** *  None
 382:.\Generated_Source\PSoC5/Clock_4.c **** *
 383:.\Generated_Source\PSoC5/Clock_4.c **** * Returns:
 384:.\Generated_Source\PSoC5/Clock_4.c **** *  Bit mask representing the enabled mode bits. See the SetModeRegister and
 385:.\Generated_Source\PSoC5/Clock_4.c **** *  ClearModeRegister descriptions for details about the mode bits.
 386:.\Generated_Source\PSoC5/Clock_4.c **** *
 387:.\Generated_Source\PSoC5/Clock_4.c **** *******************************************************************************/
 388:.\Generated_Source\PSoC5/Clock_4.c **** uint8 Clock_4_GetModeRegister(void) 
 389:.\Generated_Source\PSoC5/Clock_4.c **** {
 219              		.loc 1 389 0
 220              		.cfi_startproc
 221              		@ args = 0, pretend = 0, frame = 0
 222              		@ frame_needed = 0, uses_anonymous_args = 0
 223              		@ link register save eliminated.
 390:.\Generated_Source\PSoC5/Clock_4.c ****     return Clock_4_MOD_SRC & (uint8)(Clock_4_MODE_MASK);
 224              		.loc 1 390 0
 225 0000 024B     		ldr	r3, .L31
 226 0002 1878     		ldrb	r0, [r3, #0]	@ zero_extendqisi2
 391:.\Generated_Source\PSoC5/Clock_4.c **** }
 227              		.loc 1 391 0
 228 0004 00F0F800 		and	r0, r0, #248
 229 0008 7047     		bx	lr
 230              	.L32:
 231 000a 00BF     		.align	2
 232              	.L31:
ARM GAS  C:\Users\SUZUKI~1\AppData\Local\Temp\cctA21yr.s 			page 12


 233 000c 9A400040 		.word	1073758362
 234              		.cfi_endproc
 235              	.LFE7:
 236              		.size	Clock_4_GetModeRegister, .-Clock_4_GetModeRegister
 237              		.section	.text.Clock_4_GetSourceRegister,"ax",%progbits
 238              		.align	1
 239              		.global	Clock_4_GetSourceRegister
 240              		.thumb
 241              		.thumb_func
 242              		.type	Clock_4_GetSourceRegister, %function
 243              	Clock_4_GetSourceRegister:
 244              	.LFB9:
 392:.\Generated_Source\PSoC5/Clock_4.c **** 
 393:.\Generated_Source\PSoC5/Clock_4.c **** 
 394:.\Generated_Source\PSoC5/Clock_4.c **** /*******************************************************************************
 395:.\Generated_Source\PSoC5/Clock_4.c **** * Function Name: Clock_4_SetSourceRegister
 396:.\Generated_Source\PSoC5/Clock_4.c **** ********************************************************************************
 397:.\Generated_Source\PSoC5/Clock_4.c **** *
 398:.\Generated_Source\PSoC5/Clock_4.c **** * Summary:
 399:.\Generated_Source\PSoC5/Clock_4.c **** *  Sets the input source of the clock. The clock must be disabled before
 400:.\Generated_Source\PSoC5/Clock_4.c **** *  changing the source. The old and new clock sources must be running.
 401:.\Generated_Source\PSoC5/Clock_4.c **** *
 402:.\Generated_Source\PSoC5/Clock_4.c **** * Parameters:
 403:.\Generated_Source\PSoC5/Clock_4.c **** *  clkSource:  For PSoC 3 and PSoC 5 devices, clkSource should be one of the
 404:.\Generated_Source\PSoC5/Clock_4.c **** *   following input sources:
 405:.\Generated_Source\PSoC5/Clock_4.c **** *   - CYCLK_SRC_SEL_SYNC_DIG
 406:.\Generated_Source\PSoC5/Clock_4.c **** *   - CYCLK_SRC_SEL_IMO
 407:.\Generated_Source\PSoC5/Clock_4.c **** *   - CYCLK_SRC_SEL_XTALM
 408:.\Generated_Source\PSoC5/Clock_4.c **** *   - CYCLK_SRC_SEL_ILO
 409:.\Generated_Source\PSoC5/Clock_4.c **** *   - CYCLK_SRC_SEL_PLL
 410:.\Generated_Source\PSoC5/Clock_4.c **** *   - CYCLK_SRC_SEL_XTALK
 411:.\Generated_Source\PSoC5/Clock_4.c **** *   - CYCLK_SRC_SEL_DSI_G
 412:.\Generated_Source\PSoC5/Clock_4.c **** *   - CYCLK_SRC_SEL_DSI_D/CYCLK_SRC_SEL_DSI_A
 413:.\Generated_Source\PSoC5/Clock_4.c **** *   See the Technical Reference Manual for details on clock sources.
 414:.\Generated_Source\PSoC5/Clock_4.c **** *
 415:.\Generated_Source\PSoC5/Clock_4.c **** * Returns:
 416:.\Generated_Source\PSoC5/Clock_4.c **** *  None
 417:.\Generated_Source\PSoC5/Clock_4.c **** *
 418:.\Generated_Source\PSoC5/Clock_4.c **** *******************************************************************************/
 419:.\Generated_Source\PSoC5/Clock_4.c **** void Clock_4_SetSourceRegister(uint8 clkSource) 
 420:.\Generated_Source\PSoC5/Clock_4.c **** {
 421:.\Generated_Source\PSoC5/Clock_4.c ****     uint16 currDiv = Clock_4_GetDividerRegister();
 422:.\Generated_Source\PSoC5/Clock_4.c ****     uint8 oldSrc = Clock_4_GetSourceRegister();
 423:.\Generated_Source\PSoC5/Clock_4.c **** 
 424:.\Generated_Source\PSoC5/Clock_4.c ****     if (((oldSrc != ((uint8)CYCLK_SRC_SEL_CLK_SYNC_D)) && 
 425:.\Generated_Source\PSoC5/Clock_4.c ****         (clkSource == ((uint8)CYCLK_SRC_SEL_CLK_SYNC_D))) && (currDiv == 0u))
 426:.\Generated_Source\PSoC5/Clock_4.c ****     {
 427:.\Generated_Source\PSoC5/Clock_4.c ****         /* Switching to Master and divider is 1, set SSS, which will output master, */
 428:.\Generated_Source\PSoC5/Clock_4.c ****         /* then set the source so we are consistent.                                */
 429:.\Generated_Source\PSoC5/Clock_4.c ****         Clock_4_MOD_SRC |= CYCLK_SSS;
 430:.\Generated_Source\PSoC5/Clock_4.c ****         Clock_4_MOD_SRC =
 431:.\Generated_Source\PSoC5/Clock_4.c ****             (Clock_4_MOD_SRC & (uint8)(~Clock_4_SRC_SEL_MSK)) | clkSource;
 432:.\Generated_Source\PSoC5/Clock_4.c ****     }
 433:.\Generated_Source\PSoC5/Clock_4.c ****     else if (((oldSrc == ((uint8)CYCLK_SRC_SEL_CLK_SYNC_D)) && 
 434:.\Generated_Source\PSoC5/Clock_4.c ****             (clkSource != ((uint8)CYCLK_SRC_SEL_CLK_SYNC_D))) && (currDiv == 0u))
 435:.\Generated_Source\PSoC5/Clock_4.c ****     {
 436:.\Generated_Source\PSoC5/Clock_4.c ****         /* Switching from Master to not and divider is 1, set source, so we don't   */
ARM GAS  C:\Users\SUZUKI~1\AppData\Local\Temp\cctA21yr.s 			page 13


 437:.\Generated_Source\PSoC5/Clock_4.c ****         /* lock when we clear SSS.                                                  */
 438:.\Generated_Source\PSoC5/Clock_4.c ****         Clock_4_MOD_SRC =
 439:.\Generated_Source\PSoC5/Clock_4.c ****             (Clock_4_MOD_SRC & (uint8)(~Clock_4_SRC_SEL_MSK)) | clkSource;
 440:.\Generated_Source\PSoC5/Clock_4.c ****         Clock_4_MOD_SRC &= (uint8)(~CYCLK_SSS);
 441:.\Generated_Source\PSoC5/Clock_4.c ****     }
 442:.\Generated_Source\PSoC5/Clock_4.c ****     else
 443:.\Generated_Source\PSoC5/Clock_4.c ****     {
 444:.\Generated_Source\PSoC5/Clock_4.c ****         Clock_4_MOD_SRC =
 445:.\Generated_Source\PSoC5/Clock_4.c ****             (Clock_4_MOD_SRC & (uint8)(~Clock_4_SRC_SEL_MSK)) | clkSource;
 446:.\Generated_Source\PSoC5/Clock_4.c ****     }
 447:.\Generated_Source\PSoC5/Clock_4.c **** }
 448:.\Generated_Source\PSoC5/Clock_4.c **** 
 449:.\Generated_Source\PSoC5/Clock_4.c **** 
 450:.\Generated_Source\PSoC5/Clock_4.c **** /*******************************************************************************
 451:.\Generated_Source\PSoC5/Clock_4.c **** * Function Name: Clock_4_GetSourceRegister
 452:.\Generated_Source\PSoC5/Clock_4.c **** ********************************************************************************
 453:.\Generated_Source\PSoC5/Clock_4.c **** *
 454:.\Generated_Source\PSoC5/Clock_4.c **** * Summary:
 455:.\Generated_Source\PSoC5/Clock_4.c **** *  Gets the input source of the clock.
 456:.\Generated_Source\PSoC5/Clock_4.c **** *
 457:.\Generated_Source\PSoC5/Clock_4.c **** * Parameters:
 458:.\Generated_Source\PSoC5/Clock_4.c **** *  None
 459:.\Generated_Source\PSoC5/Clock_4.c **** *
 460:.\Generated_Source\PSoC5/Clock_4.c **** * Returns:
 461:.\Generated_Source\PSoC5/Clock_4.c **** *  The input source of the clock. See SetSourceRegister for details.
 462:.\Generated_Source\PSoC5/Clock_4.c **** *
 463:.\Generated_Source\PSoC5/Clock_4.c **** *******************************************************************************/
 464:.\Generated_Source\PSoC5/Clock_4.c **** uint8 Clock_4_GetSourceRegister(void) 
 465:.\Generated_Source\PSoC5/Clock_4.c **** {
 245              		.loc 1 465 0
 246              		.cfi_startproc
 247              		@ args = 0, pretend = 0, frame = 0
 248              		@ frame_needed = 0, uses_anonymous_args = 0
 249              		@ link register save eliminated.
 466:.\Generated_Source\PSoC5/Clock_4.c ****     return Clock_4_MOD_SRC & Clock_4_SRC_SEL_MSK;
 250              		.loc 1 466 0
 251 0000 024B     		ldr	r3, .L35
 252 0002 1878     		ldrb	r0, [r3, #0]	@ zero_extendqisi2
 467:.\Generated_Source\PSoC5/Clock_4.c **** }
 253              		.loc 1 467 0
 254 0004 00F00700 		and	r0, r0, #7
 255 0008 7047     		bx	lr
 256              	.L36:
 257 000a 00BF     		.align	2
 258              	.L35:
 259 000c 9A400040 		.word	1073758362
 260              		.cfi_endproc
 261              	.LFE9:
 262              		.size	Clock_4_GetSourceRegister, .-Clock_4_GetSourceRegister
 263              		.section	.text.Clock_4_SetSourceRegister,"ax",%progbits
 264              		.align	1
 265              		.global	Clock_4_SetSourceRegister
 266              		.thumb
 267              		.thumb_func
 268              		.type	Clock_4_SetSourceRegister, %function
 269              	Clock_4_SetSourceRegister:
 270              	.LFB8:
ARM GAS  C:\Users\SUZUKI~1\AppData\Local\Temp\cctA21yr.s 			page 14


 271              		.loc 1 420 0
 272              		.cfi_startproc
 273              		@ args = 0, pretend = 0, frame = 0
 274              		@ frame_needed = 0, uses_anonymous_args = 0
 275              	.LVL5:
 276 0000 38B5     		push	{r3, r4, r5, lr}
 277              	.LCFI0:
 278              		.cfi_def_cfa_offset 16
 279              	.LBB6:
 280              	.LBB7:
 281              		.loc 1 299 0
 282 0002 134B     		ldr	r3, .L43
 283              		.cfi_offset 14, -4
 284              		.cfi_offset 5, -8
 285              		.cfi_offset 4, -12
 286              		.cfi_offset 3, -16
 287              	.LBE7:
 288              	.LBE6:
 289              		.loc 1 420 0
 290 0004 0446     		mov	r4, r0
 291              	.LBB9:
 292              	.LBB8:
 293              		.loc 1 299 0
 294 0006 1D88     		ldrh	r5, [r3, #0]
 295 0008 ADB2     		uxth	r5, r5
 296              	.LVL6:
 297              	.LBE8:
 298              	.LBE9:
 299              		.loc 1 422 0
 300 000a FFF7FEFF 		bl	Clock_4_GetSourceRegister
 301              	.LVL7:
 302              		.loc 1 424 0
 303 000e 50B1     		cbz	r0, .L38
 304 0010 B4B9     		cbnz	r4, .L39
 305 0012 ADB9     		cbnz	r5, .L39
 306              		.loc 1 429 0
 307 0014 0F4B     		ldr	r3, .L43+4
 308 0016 1A78     		ldrb	r2, [r3, #0]	@ zero_extendqisi2
 309 0018 42F04002 		orr	r2, r2, #64
 310 001c 1A70     		strb	r2, [r3, #0]
 311              		.loc 1 431 0
 312 001e 1A78     		ldrb	r2, [r3, #0]	@ zero_extendqisi2
 313              		.loc 1 430 0
 314 0020 02F0F802 		and	r2, r2, #248
 315 0024 0AE0     		b	.L42
 316              	.L38:
 317              		.loc 1 433 0
 318 0026 5CB1     		cbz	r4, .L39
 319 0028 55B9     		cbnz	r5, .L39
 320              		.loc 1 439 0
 321 002a 0A4B     		ldr	r3, .L43+4
 322 002c 1A78     		ldrb	r2, [r3, #0]	@ zero_extendqisi2
 323              		.loc 1 438 0
 324 002e 02F0F802 		and	r2, r2, #248
 325 0032 1443     		orrs	r4, r4, r2
 326              	.LVL8:
 327 0034 1C70     		strb	r4, [r3, #0]
ARM GAS  C:\Users\SUZUKI~1\AppData\Local\Temp\cctA21yr.s 			page 15


 328              		.loc 1 440 0
 329 0036 1A78     		ldrb	r2, [r3, #0]	@ zero_extendqisi2
 330 0038 02F0BF02 		and	r2, r2, #191
 331              	.LVL9:
 332              	.L42:
 333 003c 1A70     		strb	r2, [r3, #0]
 334              		.loc 1 433 0
 335 003e 38BD     		pop	{r3, r4, r5, pc}
 336              	.L39:
 337              		.loc 1 445 0
 338 0040 044B     		ldr	r3, .L43+4
 339 0042 1A78     		ldrb	r2, [r3, #0]	@ zero_extendqisi2
 340              		.loc 1 444 0
 341 0044 02F0F802 		and	r2, r2, #248
 342 0048 1443     		orrs	r4, r4, r2
 343              	.LVL10:
 344 004a 1C70     		strb	r4, [r3, #0]
 345 004c 38BD     		pop	{r3, r4, r5, pc}
 346              	.L44:
 347 004e 00BF     		.align	2
 348              	.L43:
 349 0050 98400040 		.word	1073758360
 350 0054 9A400040 		.word	1073758362
 351              		.cfi_endproc
 352              	.LFE8:
 353              		.size	Clock_4_SetSourceRegister, .-Clock_4_SetSourceRegister
 354              		.section	.text.Clock_4_SetDividerRegister,"ax",%progbits
 355              		.align	1
 356              		.global	Clock_4_SetDividerRegister
 357              		.thumb
 358              		.thumb_func
 359              		.type	Clock_4_SetDividerRegister, %function
 360              	Clock_4_SetDividerRegister:
 361              	.LFB3:
 362              		.loc 1 195 0
 363              		.cfi_startproc
 364              		@ args = 0, pretend = 0, frame = 0
 365              		@ frame_needed = 0, uses_anonymous_args = 0
 366              	.LVL11:
 367 0000 38B5     		push	{r3, r4, r5, lr}
 368              	.LCFI1:
 369              		.cfi_def_cfa_offset 16
 370              		.loc 1 195 0
 371 0002 0446     		mov	r4, r0
 372              		.cfi_offset 14, -4
 373              		.cfi_offset 5, -8
 374              		.cfi_offset 4, -12
 375              		.cfi_offset 3, -16
 376 0004 0D46     		mov	r5, r1
 377              		.loc 1 198 0
 378 0006 FFF7FEFF 		bl	Clock_4_GetSourceRegister
 379              	.LVL12:
 380              	.LBB10:
 381              	.LBB11:
 382              		.loc 1 299 0
 383 000a 264B     		ldr	r3, .L57
 384 000c 1988     		ldrh	r1, [r3, #0]
ARM GAS  C:\Users\SUZUKI~1\AppData\Local\Temp\cctA21yr.s 			page 16


 385 000e 89B2     		uxth	r1, r1
 386              	.LVL13:
 387              	.LBE11:
 388              	.LBE10:
 389              		.loc 1 201 0
 390 0010 8C42     		cmp	r4, r1
 391 0012 46D0     		beq	.L56
 392              		.loc 1 203 0
 393 0014 244A     		ldr	r2, .L57+4
 394 0016 1278     		ldrb	r2, [r2, #0]	@ zero_extendqisi2
 395              		.loc 1 205 0
 396 0018 80B9     		cbnz	r0, .L47
 397 001a 09B1     		cbz	r1, .L48
 398 001c 3CB1     		cbz	r4, .L49
 399 001e 0DE0     		b	.L47
 400              	.L48:
 401              		.loc 1 213 0
 402 0020 1C80     		strh	r4, [r3, #0]	@ movhi
 403              		.loc 1 214 0
 404 0022 224B     		ldr	r3, .L57+8
 405 0024 1A78     		ldrb	r2, [r3, #0]	@ zero_extendqisi2
 406 0026 02F0BF02 		and	r2, r2, #191
 407 002a 1A70     		strb	r2, [r3, #0]
 408 002c 38BD     		pop	{r3, r4, r5, pc}
 409              	.L49:
 410              		.loc 1 220 0
 411 002e 1F4A     		ldr	r2, .L57+8
 412 0030 1178     		ldrb	r1, [r2, #0]	@ zero_extendqisi2
 413              	.LVL14:
 414 0032 41F04001 		orr	r1, r1, #64
 415 0036 1170     		strb	r1, [r2, #0]
 416              		.loc 1 221 0
 417 0038 1C80     		strh	r4, [r3, #0]	@ movhi
 418 003a 38BD     		pop	{r3, r4, r5, pc}
 419              	.LVL15:
 420              	.L47:
 421              		.loc 1 227 0
 422 003c 12F04002 		ands	r2, r2, #64
 423              	.LVL16:
 424 0040 17D0     		beq	.L50
 425              		.loc 1 229 0
 426 0042 1B49     		ldr	r1, .L57+12
 427              	.LVL17:
 428 0044 0023     		movs	r3, #0
 429 0046 0B70     		strb	r3, [r1, #0]
 430              		.loc 1 236 0
 431 0048 4020     		movs	r0, #64
 432 004a 0F31     		adds	r1, r1, #15
 433 004c 0870     		strb	r0, [r1, #0]
 434              		.loc 1 237 0
 435 004e 0431     		adds	r1, r1, #4
 436 0050 0B70     		strb	r3, [r1, #0]
 437              		.loc 1 240 0
 438 0052 184B     		ldr	r3, .L57+16
 439 0054 1978     		ldrb	r1, [r3, #0]	@ zero_extendqisi2
 440 0056 01F07F01 		and	r1, r1, #127
 441 005a 1970     		strb	r1, [r3, #0]
ARM GAS  C:\Users\SUZUKI~1\AppData\Local\Temp\cctA21yr.s 			page 17


 442              		.loc 1 243 0
 443 005c 9233     		adds	r3, r3, #146
 444 005e 1B78     		ldrb	r3, [r3, #0]	@ zero_extendqisi2
 445 0060 13F0080F 		tst	r3, #8
 446 0064 00D0     		beq	.L51
 447 0066 24B9     		cbnz	r4, .L50
 448              	.L51:
 449              		.loc 1 253 0
 450 0068 0F4B     		ldr	r3, .L57+4
 451 006a 1978     		ldrb	r1, [r3, #0]	@ zero_extendqisi2
 452 006c 01F0BF01 		and	r1, r1, #191
 453 0070 1970     		strb	r1, [r3, #0]
 454              	.LVL18:
 455              	.L50:
 456              		.loc 1 263 0
 457 0072 0D4B     		ldr	r3, .L57+4
 458 0074 1978     		ldrb	r1, [r3, #0]	@ zero_extendqisi2
 459              	.LVL19:
 460 0076 11F0400F 		tst	r1, #64
 461 007a 0DD0     		beq	.L52
 462              		.loc 1 266 0
 463 007c 0E4B     		ldr	r3, .L57+20
 464              		.loc 1 268 0
 465 007e 002D     		cmp	r5, #0
 466 0080 14BF     		ite	ne
 467 0082 0325     		movne	r5, #3
 468 0084 0125     		moveq	r5, #1
 469              	.LVL20:
 470              		.loc 1 266 0
 471 0086 1C80     		strh	r4, [r3, #0]	@ movhi
 472              		.loc 1 268 0
 473 0088 013B     		subs	r3, r3, #1
 474 008a 1D70     		strb	r5, [r3, #0]
 475              	.L55:
 476              		.loc 1 269 0
 477 008c 084B     		ldr	r3, .L57+12
 478 008e 1B78     		ldrb	r3, [r3, #0]	@ zero_extendqisi2
 479 0090 13F0010F 		tst	r3, #1
 480 0094 FAD1     		bne	.L55
 481 0096 38BD     		pop	{r3, r4, r5, pc}
 482              	.LVL21:
 483              	.L52:
 484              		.loc 1 274 0
 485 0098 0249     		ldr	r1, .L57
 486 009a 0C80     		strh	r4, [r1, #0]	@ movhi
 487              		.loc 1 275 0
 488 009c 1978     		ldrb	r1, [r3, #0]	@ zero_extendqisi2
 489 009e 0A43     		orrs	r2, r2, r1
 490              	.LVL22:
 491 00a0 1A70     		strb	r2, [r3, #0]
 492              	.LVL23:
 493              	.L56:
 494 00a2 38BD     		pop	{r3, r4, r5, pc}
 495              	.L58:
 496              		.align	2
 497              	.L57:
 498 00a4 98400040 		.word	1073758360
ARM GAS  C:\Users\SUZUKI~1\AppData\Local\Temp\cctA21yr.s 			page 18


 499 00a8 A2430040 		.word	1073759138
 500 00ac 9A400040 		.word	1073758362
 501 00b0 01400040 		.word	1073758209
 502 00b4 08400040 		.word	1073758216
 503 00b8 02400040 		.word	1073758210
 504              		.cfi_endproc
 505              	.LFE3:
 506              		.size	Clock_4_SetDividerRegister, .-Clock_4_SetDividerRegister
 507              		.text
 508              	.Letext0:
 509              		.section	.debug_loc,"",%progbits
 510              	.Ldebug_loc0:
 511              	.LLST5:
 512 0000 00000000 		.4byte	.LVL1
 513 0004 06000000 		.4byte	.LVL2
 514 0008 0100     		.2byte	0x1
 515 000a 50       		.byte	0x50
 516 000b 00000000 		.4byte	0x0
 517 000f 00000000 		.4byte	0x0
 518              	.LLST7:
 519 0013 00000000 		.4byte	.LVL3
 520 0017 04000000 		.4byte	.LVL4
 521 001b 0100     		.2byte	0x1
 522 001d 50       		.byte	0x50
 523 001e 00000000 		.4byte	0x0
 524 0022 00000000 		.4byte	0x0
 525              	.LLST10:
 526 0026 00000000 		.4byte	.LFB8
 527 002a 02000000 		.4byte	.LCFI0
 528 002e 0100     		.2byte	0x1
 529 0030 5D       		.byte	0x5d
 530 0031 02000000 		.4byte	.LCFI0
 531 0035 58000000 		.4byte	.LFE8
 532 0039 0200     		.2byte	0x2
 533 003b 7D       		.byte	0x7d
 534 003c 10       		.sleb128 16
 535 003d 00000000 		.4byte	0x0
 536 0041 00000000 		.4byte	0x0
 537              	.LLST11:
 538 0045 00000000 		.4byte	.LVL5
 539 0049 0E000000 		.4byte	.LVL7
 540 004d 0100     		.2byte	0x1
 541 004f 50       		.byte	0x50
 542 0050 0E000000 		.4byte	.LVL7
 543 0054 34000000 		.4byte	.LVL8
 544 0058 0100     		.2byte	0x1
 545 005a 54       		.byte	0x54
 546 005b 3C000000 		.4byte	.LVL9
 547 005f 4A000000 		.4byte	.LVL10
 548 0063 0100     		.2byte	0x1
 549 0065 54       		.byte	0x54
 550 0066 00000000 		.4byte	0x0
 551 006a 00000000 		.4byte	0x0
 552              	.LLST12:
 553 006e 00000000 		.4byte	.LFB3
 554 0072 02000000 		.4byte	.LCFI1
 555 0076 0100     		.2byte	0x1
ARM GAS  C:\Users\SUZUKI~1\AppData\Local\Temp\cctA21yr.s 			page 19


 556 0078 5D       		.byte	0x5d
 557 0079 02000000 		.4byte	.LCFI1
 558 007d BC000000 		.4byte	.LFE3
 559 0081 0200     		.2byte	0x2
 560 0083 7D       		.byte	0x7d
 561 0084 10       		.sleb128 16
 562 0085 00000000 		.4byte	0x0
 563 0089 00000000 		.4byte	0x0
 564              	.LLST13:
 565 008d 00000000 		.4byte	.LVL11
 566 0091 0A000000 		.4byte	.LVL12
 567 0095 0100     		.2byte	0x1
 568 0097 50       		.byte	0x50
 569 0098 0A000000 		.4byte	.LVL12
 570 009c BC000000 		.4byte	.LFE3
 571 00a0 0100     		.2byte	0x1
 572 00a2 54       		.byte	0x54
 573 00a3 00000000 		.4byte	0x0
 574 00a7 00000000 		.4byte	0x0
 575              	.LLST14:
 576 00ab 00000000 		.4byte	.LVL11
 577 00af 0A000000 		.4byte	.LVL12
 578 00b3 0100     		.2byte	0x1
 579 00b5 51       		.byte	0x51
 580 00b6 0A000000 		.4byte	.LVL12
 581 00ba 86000000 		.4byte	.LVL20
 582 00be 0100     		.2byte	0x1
 583 00c0 55       		.byte	0x55
 584 00c1 98000000 		.4byte	.LVL21
 585 00c5 BC000000 		.4byte	.LFE3
 586 00c9 0100     		.2byte	0x1
 587 00cb 55       		.byte	0x55
 588 00cc 00000000 		.4byte	0x0
 589 00d0 00000000 		.4byte	0x0
 590              	.LLST15:
 591 00d4 40000000 		.4byte	.LVL16
 592 00d8 A0000000 		.4byte	.LVL22
 593 00dc 0100     		.2byte	0x1
 594 00de 52       		.byte	0x52
 595 00df 00000000 		.4byte	0x0
 596 00e3 00000000 		.4byte	0x0
 597              	.LLST16:
 598 00e7 10000000 		.4byte	.LVL13
 599 00eb 32000000 		.4byte	.LVL14
 600 00ef 0100     		.2byte	0x1
 601 00f1 51       		.byte	0x51
 602 00f2 3C000000 		.4byte	.LVL15
 603 00f6 44000000 		.4byte	.LVL17
 604 00fa 0100     		.2byte	0x1
 605 00fc 51       		.byte	0x51
 606 00fd 72000000 		.4byte	.LVL18
 607 0101 76000000 		.4byte	.LVL19
 608 0105 0100     		.2byte	0x1
 609 0107 51       		.byte	0x51
 610 0108 A2000000 		.4byte	.LVL23
 611 010c BC000000 		.4byte	.LFE3
 612 0110 0100     		.2byte	0x1
ARM GAS  C:\Users\SUZUKI~1\AppData\Local\Temp\cctA21yr.s 			page 20


 613 0112 51       		.byte	0x51
 614 0113 00000000 		.4byte	0x0
 615 0117 00000000 		.4byte	0x0
 616              		.file 2 "./Generated_Source/PSoC5/cytypes.h"
 617              		.section	.debug_info
 618 0000 43020000 		.4byte	0x243
 619 0004 0200     		.2byte	0x2
 620 0006 00000000 		.4byte	.Ldebug_abbrev0
 621 000a 04       		.byte	0x4
 622 000b 01       		.uleb128 0x1
 623 000c CB010000 		.4byte	.LASF32
 624 0010 01       		.byte	0x1
 625 0011 54000000 		.4byte	.LASF33
 626 0015 0E010000 		.4byte	.LASF34
 627 0019 00000000 		.4byte	0x0
 628 001d 00000000 		.4byte	0x0
 629 0021 18000000 		.4byte	.Ldebug_ranges0+0x18
 630 0025 00000000 		.4byte	.Ldebug_line0
 631 0029 02       		.uleb128 0x2
 632 002a 01       		.byte	0x1
 633 002b 06       		.byte	0x6
 634 002c 2E020000 		.4byte	.LASF0
 635 0030 02       		.uleb128 0x2
 636 0031 01       		.byte	0x1
 637 0032 08       		.byte	0x8
 638 0033 9F000000 		.4byte	.LASF1
 639 0037 02       		.uleb128 0x2
 640 0038 02       		.byte	0x2
 641 0039 05       		.byte	0x5
 642 003a 03020000 		.4byte	.LASF2
 643 003e 02       		.uleb128 0x2
 644 003f 02       		.byte	0x2
 645 0040 07       		.byte	0x7
 646 0041 DA000000 		.4byte	.LASF3
 647 0045 02       		.uleb128 0x2
 648 0046 04       		.byte	0x4
 649 0047 05       		.byte	0x5
 650 0048 1B020000 		.4byte	.LASF4
 651 004c 02       		.uleb128 0x2
 652 004d 04       		.byte	0x4
 653 004e 07       		.byte	0x7
 654 004f C8000000 		.4byte	.LASF5
 655 0053 02       		.uleb128 0x2
 656 0054 08       		.byte	0x8
 657 0055 05       		.byte	0x5
 658 0056 00000000 		.4byte	.LASF6
 659 005a 02       		.uleb128 0x2
 660 005b 08       		.byte	0x8
 661 005c 07       		.byte	0x7
 662 005d 55010000 		.4byte	.LASF7
 663 0061 03       		.uleb128 0x3
 664 0062 04       		.byte	0x4
 665 0063 05       		.byte	0x5
 666 0064 696E7400 		.ascii	"int\000"
 667 0068 02       		.uleb128 0x2
 668 0069 04       		.byte	0x4
 669 006a 07       		.byte	0x7
ARM GAS  C:\Users\SUZUKI~1\AppData\Local\Temp\cctA21yr.s 			page 21


 670 006b 40010000 		.4byte	.LASF8
 671 006f 04       		.uleb128 0x4
 672 0070 0D020000 		.4byte	.LASF9
 673 0074 02       		.byte	0x2
 674 0075 4C       		.byte	0x4c
 675 0076 30000000 		.4byte	0x30
 676 007a 04       		.uleb128 0x4
 677 007b 07010000 		.4byte	.LASF10
 678 007f 02       		.byte	0x2
 679 0080 4D       		.byte	0x4d
 680 0081 3E000000 		.4byte	0x3e
 681 0085 02       		.uleb128 0x2
 682 0086 04       		.byte	0x4
 683 0087 04       		.byte	0x4
 684 0088 99000000 		.4byte	.LASF11
 685 008c 02       		.uleb128 0x2
 686 008d 08       		.byte	0x8
 687 008e 04       		.byte	0x4
 688 008f F8000000 		.4byte	.LASF12
 689 0093 02       		.uleb128 0x2
 690 0094 01       		.byte	0x1
 691 0095 08       		.byte	0x8
 692 0096 E4010000 		.4byte	.LASF13
 693 009a 05       		.uleb128 0x5
 694 009b 01       		.byte	0x1
 695 009c AD000000 		.4byte	.LASF35
 696 00a0 01       		.byte	0x1
 697 00a1 2901     		.2byte	0x129
 698 00a3 01       		.byte	0x1
 699 00a4 7A000000 		.4byte	0x7a
 700 00a8 01       		.byte	0x1
 701 00a9 06       		.uleb128 0x6
 702 00aa 01       		.byte	0x1
 703 00ab 6C010000 		.4byte	.LASF14
 704 00af 01       		.byte	0x1
 705 00b0 2D       		.byte	0x2d
 706 00b1 01       		.byte	0x1
 707 00b2 00000000 		.4byte	.LFB0
 708 00b6 1C000000 		.4byte	.LFE0
 709 00ba 01       		.byte	0x1
 710 00bb 5D       		.byte	0x5d
 711 00bc 06       		.uleb128 0x6
 712 00bd 01       		.byte	0x1
 713 00be D7010000 		.4byte	.LASF15
 714 00c2 01       		.byte	0x1
 715 00c3 47       		.byte	0x47
 716 00c4 01       		.byte	0x1
 717 00c5 00000000 		.4byte	.LFB1
 718 00c9 1C000000 		.4byte	.LFE1
 719 00cd 01       		.byte	0x1
 720 00ce 5D       		.byte	0x5d
 721 00cf 07       		.uleb128 0x7
 722 00d0 01       		.byte	0x1
 723 00d1 92010000 		.4byte	.LASF16
 724 00d5 01       		.byte	0x1
 725 00d6 9D       		.byte	0x9d
 726 00d7 01       		.byte	0x1
ARM GAS  C:\Users\SUZUKI~1\AppData\Local\Temp\cctA21yr.s 			page 22


 727 00d8 00000000 		.4byte	.LFB2
 728 00dc 1C000000 		.4byte	.LFE2
 729 00e0 01       		.byte	0x1
 730 00e1 5D       		.byte	0x5d
 731 00e2 F4000000 		.4byte	0xf4
 732 00e6 08       		.uleb128 0x8
 733 00e7 0E000000 		.4byte	.LASF18
 734 00eb 01       		.byte	0x1
 735 00ec 9D       		.byte	0x9d
 736 00ed 6F000000 		.4byte	0x6f
 737 00f1 01       		.byte	0x1
 738 00f2 50       		.byte	0x50
 739 00f3 00       		.byte	0x0
 740 00f4 09       		.uleb128 0x9
 741 00f5 9A000000 		.4byte	0x9a
 742 00f9 00000000 		.4byte	.LFB4
 743 00fd 0C000000 		.4byte	.LFE4
 744 0101 01       		.byte	0x1
 745 0102 5D       		.byte	0x5d
 746 0103 0A       		.uleb128 0xa
 747 0104 01       		.byte	0x1
 748 0105 A7010000 		.4byte	.LASF17
 749 0109 01       		.byte	0x1
 750 010a 4C01     		.2byte	0x14c
 751 010c 01       		.byte	0x1
 752 010d 00000000 		.4byte	.LFB5
 753 0111 14000000 		.4byte	.LFE5
 754 0115 01       		.byte	0x1
 755 0116 5D       		.byte	0x5d
 756 0117 2C010000 		.4byte	0x12c
 757 011b 0B       		.uleb128 0xb
 758 011c BF010000 		.4byte	.LASF19
 759 0120 01       		.byte	0x1
 760 0121 4C01     		.2byte	0x14c
 761 0123 6F000000 		.4byte	0x6f
 762 0127 00000000 		.4byte	.LLST5
 763 012b 00       		.byte	0x0
 764 012c 0A       		.uleb128 0xa
 765 012d 01       		.byte	0x1
 766 012e E9010000 		.4byte	.LASF20
 767 0132 01       		.byte	0x1
 768 0133 6F01     		.2byte	0x16f
 769 0135 01       		.byte	0x1
 770 0136 00000000 		.4byte	.LFB6
 771 013a 14000000 		.4byte	.LFE6
 772 013e 01       		.byte	0x1
 773 013f 5D       		.byte	0x5d
 774 0140 55010000 		.4byte	0x155
 775 0144 0B       		.uleb128 0xb
 776 0145 BF010000 		.4byte	.LASF19
 777 0149 01       		.byte	0x1
 778 014a 6F01     		.2byte	0x16f
 779 014c 6F000000 		.4byte	0x6f
 780 0150 13000000 		.4byte	.LLST7
 781 0154 00       		.byte	0x0
 782 0155 0C       		.uleb128 0xc
 783 0156 01       		.byte	0x1
ARM GAS  C:\Users\SUZUKI~1\AppData\Local\Temp\cctA21yr.s 			page 23


 784 0157 7A010000 		.4byte	.LASF21
 785 015b 01       		.byte	0x1
 786 015c 8401     		.2byte	0x184
 787 015e 01       		.byte	0x1
 788 015f 6F000000 		.4byte	0x6f
 789 0163 00000000 		.4byte	.LFB7
 790 0167 10000000 		.4byte	.LFE7
 791 016b 01       		.byte	0x1
 792 016c 5D       		.byte	0x5d
 793 016d 0C       		.uleb128 0xc
 794 016e 01       		.byte	0x1
 795 016f 77000000 		.4byte	.LASF22
 796 0173 01       		.byte	0x1
 797 0174 D001     		.2byte	0x1d0
 798 0176 01       		.byte	0x1
 799 0177 6F000000 		.4byte	0x6f
 800 017b 00000000 		.4byte	.LFB9
 801 017f 10000000 		.4byte	.LFE9
 802 0183 01       		.byte	0x1
 803 0184 5D       		.byte	0x5d
 804 0185 0D       		.uleb128 0xd
 805 0186 01       		.byte	0x1
 806 0187 2F000000 		.4byte	.LASF23
 807 018b 01       		.byte	0x1
 808 018c A301     		.2byte	0x1a3
 809 018e 01       		.byte	0x1
 810 018f 00000000 		.4byte	.LFB8
 811 0193 58000000 		.4byte	.LFE8
 812 0197 26000000 		.4byte	.LLST10
 813 019b DA010000 		.4byte	0x1da
 814 019f 0B       		.uleb128 0xb
 815 01a0 24020000 		.4byte	.LASF24
 816 01a4 01       		.byte	0x1
 817 01a5 A301     		.2byte	0x1a3
 818 01a7 6F000000 		.4byte	0x6f
 819 01ab 45000000 		.4byte	.LLST11
 820 01af 0E       		.uleb128 0xe
 821 01b0 91000000 		.4byte	.LASF27
 822 01b4 01       		.byte	0x1
 823 01b5 A501     		.2byte	0x1a5
 824 01b7 7A000000 		.4byte	0x7a
 825 01bb 01       		.byte	0x1
 826 01bc 55       		.byte	0x55
 827 01bd 0F       		.uleb128 0xf
 828 01be 3A020000 		.4byte	.LASF29
 829 01c2 01       		.byte	0x1
 830 01c3 A601     		.2byte	0x1a6
 831 01c5 6F000000 		.4byte	0x6f
 832 01c9 10       		.uleb128 0x10
 833 01ca 9A000000 		.4byte	0x9a
 834 01ce 02000000 		.4byte	.LBB6
 835 01d2 00000000 		.4byte	.Ldebug_ranges0+0x0
 836 01d6 01       		.byte	0x1
 837 01d7 A501     		.2byte	0x1a5
 838 01d9 00       		.byte	0x0
 839 01da 11       		.uleb128 0x11
 840 01db 01       		.byte	0x1
ARM GAS  C:\Users\SUZUKI~1\AppData\Local\Temp\cctA21yr.s 			page 24


 841 01dc 14000000 		.4byte	.LASF36
 842 01e0 01       		.byte	0x1
 843 01e1 C1       		.byte	0xc1
 844 01e2 01       		.byte	0x1
 845 01e3 00000000 		.4byte	.LFB3
 846 01e7 BC000000 		.4byte	.LFE3
 847 01eb 6E000000 		.4byte	.LLST12
 848 01ef 12       		.uleb128 0x12
 849 01f0 ED000000 		.4byte	.LASF25
 850 01f4 01       		.byte	0x1
 851 01f5 C1       		.byte	0xc1
 852 01f6 7A000000 		.4byte	0x7a
 853 01fa 8D000000 		.4byte	.LLST13
 854 01fe 12       		.uleb128 0x12
 855 01ff FF000000 		.4byte	.LASF26
 856 0203 01       		.byte	0x1
 857 0204 C1       		.byte	0xc1
 858 0205 6F000000 		.4byte	0x6f
 859 0209 AB000000 		.4byte	.LLST14
 860 020d 13       		.uleb128 0x13
 861 020e 13020000 		.4byte	.LASF28
 862 0212 01       		.byte	0x1
 863 0213 C4       		.byte	0xc4
 864 0214 6F000000 		.4byte	0x6f
 865 0218 D4000000 		.4byte	.LLST15
 866 021c 14       		.uleb128 0x14
 867 021d 4D010000 		.4byte	.LASF30
 868 0221 01       		.byte	0x1
 869 0222 C6       		.byte	0xc6
 870 0223 6F000000 		.4byte	0x6f
 871 0227 13       		.uleb128 0x13
 872 0228 49000000 		.4byte	.LASF31
 873 022c 01       		.byte	0x1
 874 022d C7       		.byte	0xc7
 875 022e 7A000000 		.4byte	0x7a
 876 0232 E7000000 		.4byte	.LLST16
 877 0236 15       		.uleb128 0x15
 878 0237 9A000000 		.4byte	0x9a
 879 023b 0A000000 		.4byte	.LBB10
 880 023f 10000000 		.4byte	.LBE10
 881 0243 01       		.byte	0x1
 882 0244 C7       		.byte	0xc7
 883 0245 00       		.byte	0x0
 884 0246 00       		.byte	0x0
 885              		.section	.debug_abbrev
 886 0000 01       		.uleb128 0x1
 887 0001 11       		.uleb128 0x11
 888 0002 01       		.byte	0x1
 889 0003 25       		.uleb128 0x25
 890 0004 0E       		.uleb128 0xe
 891 0005 13       		.uleb128 0x13
 892 0006 0B       		.uleb128 0xb
 893 0007 03       		.uleb128 0x3
 894 0008 0E       		.uleb128 0xe
 895 0009 1B       		.uleb128 0x1b
 896 000a 0E       		.uleb128 0xe
 897 000b 11       		.uleb128 0x11
ARM GAS  C:\Users\SUZUKI~1\AppData\Local\Temp\cctA21yr.s 			page 25


 898 000c 01       		.uleb128 0x1
 899 000d 52       		.uleb128 0x52
 900 000e 01       		.uleb128 0x1
 901 000f 55       		.uleb128 0x55
 902 0010 06       		.uleb128 0x6
 903 0011 10       		.uleb128 0x10
 904 0012 06       		.uleb128 0x6
 905 0013 00       		.byte	0x0
 906 0014 00       		.byte	0x0
 907 0015 02       		.uleb128 0x2
 908 0016 24       		.uleb128 0x24
 909 0017 00       		.byte	0x0
 910 0018 0B       		.uleb128 0xb
 911 0019 0B       		.uleb128 0xb
 912 001a 3E       		.uleb128 0x3e
 913 001b 0B       		.uleb128 0xb
 914 001c 03       		.uleb128 0x3
 915 001d 0E       		.uleb128 0xe
 916 001e 00       		.byte	0x0
 917 001f 00       		.byte	0x0
 918 0020 03       		.uleb128 0x3
 919 0021 24       		.uleb128 0x24
 920 0022 00       		.byte	0x0
 921 0023 0B       		.uleb128 0xb
 922 0024 0B       		.uleb128 0xb
 923 0025 3E       		.uleb128 0x3e
 924 0026 0B       		.uleb128 0xb
 925 0027 03       		.uleb128 0x3
 926 0028 08       		.uleb128 0x8
 927 0029 00       		.byte	0x0
 928 002a 00       		.byte	0x0
 929 002b 04       		.uleb128 0x4
 930 002c 16       		.uleb128 0x16
 931 002d 00       		.byte	0x0
 932 002e 03       		.uleb128 0x3
 933 002f 0E       		.uleb128 0xe
 934 0030 3A       		.uleb128 0x3a
 935 0031 0B       		.uleb128 0xb
 936 0032 3B       		.uleb128 0x3b
 937 0033 0B       		.uleb128 0xb
 938 0034 49       		.uleb128 0x49
 939 0035 13       		.uleb128 0x13
 940 0036 00       		.byte	0x0
 941 0037 00       		.byte	0x0
 942 0038 05       		.uleb128 0x5
 943 0039 2E       		.uleb128 0x2e
 944 003a 00       		.byte	0x0
 945 003b 3F       		.uleb128 0x3f
 946 003c 0C       		.uleb128 0xc
 947 003d 03       		.uleb128 0x3
 948 003e 0E       		.uleb128 0xe
 949 003f 3A       		.uleb128 0x3a
 950 0040 0B       		.uleb128 0xb
 951 0041 3B       		.uleb128 0x3b
 952 0042 05       		.uleb128 0x5
 953 0043 27       		.uleb128 0x27
 954 0044 0C       		.uleb128 0xc
ARM GAS  C:\Users\SUZUKI~1\AppData\Local\Temp\cctA21yr.s 			page 26


 955 0045 49       		.uleb128 0x49
 956 0046 13       		.uleb128 0x13
 957 0047 20       		.uleb128 0x20
 958 0048 0B       		.uleb128 0xb
 959 0049 00       		.byte	0x0
 960 004a 00       		.byte	0x0
 961 004b 06       		.uleb128 0x6
 962 004c 2E       		.uleb128 0x2e
 963 004d 00       		.byte	0x0
 964 004e 3F       		.uleb128 0x3f
 965 004f 0C       		.uleb128 0xc
 966 0050 03       		.uleb128 0x3
 967 0051 0E       		.uleb128 0xe
 968 0052 3A       		.uleb128 0x3a
 969 0053 0B       		.uleb128 0xb
 970 0054 3B       		.uleb128 0x3b
 971 0055 0B       		.uleb128 0xb
 972 0056 27       		.uleb128 0x27
 973 0057 0C       		.uleb128 0xc
 974 0058 11       		.uleb128 0x11
 975 0059 01       		.uleb128 0x1
 976 005a 12       		.uleb128 0x12
 977 005b 01       		.uleb128 0x1
 978 005c 40       		.uleb128 0x40
 979 005d 0A       		.uleb128 0xa
 980 005e 00       		.byte	0x0
 981 005f 00       		.byte	0x0
 982 0060 07       		.uleb128 0x7
 983 0061 2E       		.uleb128 0x2e
 984 0062 01       		.byte	0x1
 985 0063 3F       		.uleb128 0x3f
 986 0064 0C       		.uleb128 0xc
 987 0065 03       		.uleb128 0x3
 988 0066 0E       		.uleb128 0xe
 989 0067 3A       		.uleb128 0x3a
 990 0068 0B       		.uleb128 0xb
 991 0069 3B       		.uleb128 0x3b
 992 006a 0B       		.uleb128 0xb
 993 006b 27       		.uleb128 0x27
 994 006c 0C       		.uleb128 0xc
 995 006d 11       		.uleb128 0x11
 996 006e 01       		.uleb128 0x1
 997 006f 12       		.uleb128 0x12
 998 0070 01       		.uleb128 0x1
 999 0071 40       		.uleb128 0x40
 1000 0072 0A       		.uleb128 0xa
 1001 0073 01       		.uleb128 0x1
 1002 0074 13       		.uleb128 0x13
 1003 0075 00       		.byte	0x0
 1004 0076 00       		.byte	0x0
 1005 0077 08       		.uleb128 0x8
 1006 0078 05       		.uleb128 0x5
 1007 0079 00       		.byte	0x0
 1008 007a 03       		.uleb128 0x3
 1009 007b 0E       		.uleb128 0xe
 1010 007c 3A       		.uleb128 0x3a
 1011 007d 0B       		.uleb128 0xb
ARM GAS  C:\Users\SUZUKI~1\AppData\Local\Temp\cctA21yr.s 			page 27


 1012 007e 3B       		.uleb128 0x3b
 1013 007f 0B       		.uleb128 0xb
 1014 0080 49       		.uleb128 0x49
 1015 0081 13       		.uleb128 0x13
 1016 0082 02       		.uleb128 0x2
 1017 0083 0A       		.uleb128 0xa
 1018 0084 00       		.byte	0x0
 1019 0085 00       		.byte	0x0
 1020 0086 09       		.uleb128 0x9
 1021 0087 2E       		.uleb128 0x2e
 1022 0088 00       		.byte	0x0
 1023 0089 31       		.uleb128 0x31
 1024 008a 13       		.uleb128 0x13
 1025 008b 11       		.uleb128 0x11
 1026 008c 01       		.uleb128 0x1
 1027 008d 12       		.uleb128 0x12
 1028 008e 01       		.uleb128 0x1
 1029 008f 40       		.uleb128 0x40
 1030 0090 0A       		.uleb128 0xa
 1031 0091 00       		.byte	0x0
 1032 0092 00       		.byte	0x0
 1033 0093 0A       		.uleb128 0xa
 1034 0094 2E       		.uleb128 0x2e
 1035 0095 01       		.byte	0x1
 1036 0096 3F       		.uleb128 0x3f
 1037 0097 0C       		.uleb128 0xc
 1038 0098 03       		.uleb128 0x3
 1039 0099 0E       		.uleb128 0xe
 1040 009a 3A       		.uleb128 0x3a
 1041 009b 0B       		.uleb128 0xb
 1042 009c 3B       		.uleb128 0x3b
 1043 009d 05       		.uleb128 0x5
 1044 009e 27       		.uleb128 0x27
 1045 009f 0C       		.uleb128 0xc
 1046 00a0 11       		.uleb128 0x11
 1047 00a1 01       		.uleb128 0x1
 1048 00a2 12       		.uleb128 0x12
 1049 00a3 01       		.uleb128 0x1
 1050 00a4 40       		.uleb128 0x40
 1051 00a5 0A       		.uleb128 0xa
 1052 00a6 01       		.uleb128 0x1
 1053 00a7 13       		.uleb128 0x13
 1054 00a8 00       		.byte	0x0
 1055 00a9 00       		.byte	0x0
 1056 00aa 0B       		.uleb128 0xb
 1057 00ab 05       		.uleb128 0x5
 1058 00ac 00       		.byte	0x0
 1059 00ad 03       		.uleb128 0x3
 1060 00ae 0E       		.uleb128 0xe
 1061 00af 3A       		.uleb128 0x3a
 1062 00b0 0B       		.uleb128 0xb
 1063 00b1 3B       		.uleb128 0x3b
 1064 00b2 05       		.uleb128 0x5
 1065 00b3 49       		.uleb128 0x49
 1066 00b4 13       		.uleb128 0x13
 1067 00b5 02       		.uleb128 0x2
 1068 00b6 06       		.uleb128 0x6
ARM GAS  C:\Users\SUZUKI~1\AppData\Local\Temp\cctA21yr.s 			page 28


 1069 00b7 00       		.byte	0x0
 1070 00b8 00       		.byte	0x0
 1071 00b9 0C       		.uleb128 0xc
 1072 00ba 2E       		.uleb128 0x2e
 1073 00bb 00       		.byte	0x0
 1074 00bc 3F       		.uleb128 0x3f
 1075 00bd 0C       		.uleb128 0xc
 1076 00be 03       		.uleb128 0x3
 1077 00bf 0E       		.uleb128 0xe
 1078 00c0 3A       		.uleb128 0x3a
 1079 00c1 0B       		.uleb128 0xb
 1080 00c2 3B       		.uleb128 0x3b
 1081 00c3 05       		.uleb128 0x5
 1082 00c4 27       		.uleb128 0x27
 1083 00c5 0C       		.uleb128 0xc
 1084 00c6 49       		.uleb128 0x49
 1085 00c7 13       		.uleb128 0x13
 1086 00c8 11       		.uleb128 0x11
 1087 00c9 01       		.uleb128 0x1
 1088 00ca 12       		.uleb128 0x12
 1089 00cb 01       		.uleb128 0x1
 1090 00cc 40       		.uleb128 0x40
 1091 00cd 0A       		.uleb128 0xa
 1092 00ce 00       		.byte	0x0
 1093 00cf 00       		.byte	0x0
 1094 00d0 0D       		.uleb128 0xd
 1095 00d1 2E       		.uleb128 0x2e
 1096 00d2 01       		.byte	0x1
 1097 00d3 3F       		.uleb128 0x3f
 1098 00d4 0C       		.uleb128 0xc
 1099 00d5 03       		.uleb128 0x3
 1100 00d6 0E       		.uleb128 0xe
 1101 00d7 3A       		.uleb128 0x3a
 1102 00d8 0B       		.uleb128 0xb
 1103 00d9 3B       		.uleb128 0x3b
 1104 00da 05       		.uleb128 0x5
 1105 00db 27       		.uleb128 0x27
 1106 00dc 0C       		.uleb128 0xc
 1107 00dd 11       		.uleb128 0x11
 1108 00de 01       		.uleb128 0x1
 1109 00df 12       		.uleb128 0x12
 1110 00e0 01       		.uleb128 0x1
 1111 00e1 40       		.uleb128 0x40
 1112 00e2 06       		.uleb128 0x6
 1113 00e3 01       		.uleb128 0x1
 1114 00e4 13       		.uleb128 0x13
 1115 00e5 00       		.byte	0x0
 1116 00e6 00       		.byte	0x0
 1117 00e7 0E       		.uleb128 0xe
 1118 00e8 34       		.uleb128 0x34
 1119 00e9 00       		.byte	0x0
 1120 00ea 03       		.uleb128 0x3
 1121 00eb 0E       		.uleb128 0xe
 1122 00ec 3A       		.uleb128 0x3a
 1123 00ed 0B       		.uleb128 0xb
 1124 00ee 3B       		.uleb128 0x3b
 1125 00ef 05       		.uleb128 0x5
ARM GAS  C:\Users\SUZUKI~1\AppData\Local\Temp\cctA21yr.s 			page 29


 1126 00f0 49       		.uleb128 0x49
 1127 00f1 13       		.uleb128 0x13
 1128 00f2 02       		.uleb128 0x2
 1129 00f3 0A       		.uleb128 0xa
 1130 00f4 00       		.byte	0x0
 1131 00f5 00       		.byte	0x0
 1132 00f6 0F       		.uleb128 0xf
 1133 00f7 34       		.uleb128 0x34
 1134 00f8 00       		.byte	0x0
 1135 00f9 03       		.uleb128 0x3
 1136 00fa 0E       		.uleb128 0xe
 1137 00fb 3A       		.uleb128 0x3a
 1138 00fc 0B       		.uleb128 0xb
 1139 00fd 3B       		.uleb128 0x3b
 1140 00fe 05       		.uleb128 0x5
 1141 00ff 49       		.uleb128 0x49
 1142 0100 13       		.uleb128 0x13
 1143 0101 00       		.byte	0x0
 1144 0102 00       		.byte	0x0
 1145 0103 10       		.uleb128 0x10
 1146 0104 1D       		.uleb128 0x1d
 1147 0105 00       		.byte	0x0
 1148 0106 31       		.uleb128 0x31
 1149 0107 13       		.uleb128 0x13
 1150 0108 52       		.uleb128 0x52
 1151 0109 01       		.uleb128 0x1
 1152 010a 55       		.uleb128 0x55
 1153 010b 06       		.uleb128 0x6
 1154 010c 58       		.uleb128 0x58
 1155 010d 0B       		.uleb128 0xb
 1156 010e 59       		.uleb128 0x59
 1157 010f 05       		.uleb128 0x5
 1158 0110 00       		.byte	0x0
 1159 0111 00       		.byte	0x0
 1160 0112 11       		.uleb128 0x11
 1161 0113 2E       		.uleb128 0x2e
 1162 0114 01       		.byte	0x1
 1163 0115 3F       		.uleb128 0x3f
 1164 0116 0C       		.uleb128 0xc
 1165 0117 03       		.uleb128 0x3
 1166 0118 0E       		.uleb128 0xe
 1167 0119 3A       		.uleb128 0x3a
 1168 011a 0B       		.uleb128 0xb
 1169 011b 3B       		.uleb128 0x3b
 1170 011c 0B       		.uleb128 0xb
 1171 011d 27       		.uleb128 0x27
 1172 011e 0C       		.uleb128 0xc
 1173 011f 11       		.uleb128 0x11
 1174 0120 01       		.uleb128 0x1
 1175 0121 12       		.uleb128 0x12
 1176 0122 01       		.uleb128 0x1
 1177 0123 40       		.uleb128 0x40
 1178 0124 06       		.uleb128 0x6
 1179 0125 00       		.byte	0x0
 1180 0126 00       		.byte	0x0
 1181 0127 12       		.uleb128 0x12
 1182 0128 05       		.uleb128 0x5
ARM GAS  C:\Users\SUZUKI~1\AppData\Local\Temp\cctA21yr.s 			page 30


 1183 0129 00       		.byte	0x0
 1184 012a 03       		.uleb128 0x3
 1185 012b 0E       		.uleb128 0xe
 1186 012c 3A       		.uleb128 0x3a
 1187 012d 0B       		.uleb128 0xb
 1188 012e 3B       		.uleb128 0x3b
 1189 012f 0B       		.uleb128 0xb
 1190 0130 49       		.uleb128 0x49
 1191 0131 13       		.uleb128 0x13
 1192 0132 02       		.uleb128 0x2
 1193 0133 06       		.uleb128 0x6
 1194 0134 00       		.byte	0x0
 1195 0135 00       		.byte	0x0
 1196 0136 13       		.uleb128 0x13
 1197 0137 34       		.uleb128 0x34
 1198 0138 00       		.byte	0x0
 1199 0139 03       		.uleb128 0x3
 1200 013a 0E       		.uleb128 0xe
 1201 013b 3A       		.uleb128 0x3a
 1202 013c 0B       		.uleb128 0xb
 1203 013d 3B       		.uleb128 0x3b
 1204 013e 0B       		.uleb128 0xb
 1205 013f 49       		.uleb128 0x49
 1206 0140 13       		.uleb128 0x13
 1207 0141 02       		.uleb128 0x2
 1208 0142 06       		.uleb128 0x6
 1209 0143 00       		.byte	0x0
 1210 0144 00       		.byte	0x0
 1211 0145 14       		.uleb128 0x14
 1212 0146 34       		.uleb128 0x34
 1213 0147 00       		.byte	0x0
 1214 0148 03       		.uleb128 0x3
 1215 0149 0E       		.uleb128 0xe
 1216 014a 3A       		.uleb128 0x3a
 1217 014b 0B       		.uleb128 0xb
 1218 014c 3B       		.uleb128 0x3b
 1219 014d 0B       		.uleb128 0xb
 1220 014e 49       		.uleb128 0x49
 1221 014f 13       		.uleb128 0x13
 1222 0150 00       		.byte	0x0
 1223 0151 00       		.byte	0x0
 1224 0152 15       		.uleb128 0x15
 1225 0153 1D       		.uleb128 0x1d
 1226 0154 00       		.byte	0x0
 1227 0155 31       		.uleb128 0x31
 1228 0156 13       		.uleb128 0x13
 1229 0157 11       		.uleb128 0x11
 1230 0158 01       		.uleb128 0x1
 1231 0159 12       		.uleb128 0x12
 1232 015a 01       		.uleb128 0x1
 1233 015b 58       		.uleb128 0x58
 1234 015c 0B       		.uleb128 0xb
 1235 015d 59       		.uleb128 0x59
 1236 015e 0B       		.uleb128 0xb
 1237 015f 00       		.byte	0x0
 1238 0160 00       		.byte	0x0
 1239 0161 00       		.byte	0x0
ARM GAS  C:\Users\SUZUKI~1\AppData\Local\Temp\cctA21yr.s 			page 31


 1240              		.section	.debug_pubnames,"",%progbits
 1241 0000 1A010000 		.4byte	0x11a
 1242 0004 0200     		.2byte	0x2
 1243 0006 00000000 		.4byte	.Ldebug_info0
 1244 000a 47020000 		.4byte	0x247
 1245 000e A9000000 		.4byte	0xa9
 1246 0012 436C6F63 		.ascii	"Clock_4_Start\000"
 1246      6B5F345F 
 1246      53746172 
 1246      7400
 1247 0020 BC000000 		.4byte	0xbc
 1248 0024 436C6F63 		.ascii	"Clock_4_Stop\000"
 1248      6B5F345F 
 1248      53746F70 
 1248      00
 1249 0031 CF000000 		.4byte	0xcf
 1250 0035 436C6F63 		.ascii	"Clock_4_StandbyPower\000"
 1250      6B5F345F 
 1250      5374616E 
 1250      64627950 
 1250      6F776572 
 1251 004a F4000000 		.4byte	0xf4
 1252 004e 436C6F63 		.ascii	"Clock_4_GetDividerRegister\000"
 1252      6B5F345F 
 1252      47657444 
 1252      69766964 
 1252      65725265 
 1253 0069 03010000 		.4byte	0x103
 1254 006d 436C6F63 		.ascii	"Clock_4_SetModeRegister\000"
 1254      6B5F345F 
 1254      5365744D 
 1254      6F646552 
 1254      65676973 
 1255 0085 2C010000 		.4byte	0x12c
 1256 0089 436C6F63 		.ascii	"Clock_4_ClearModeRegister\000"
 1256      6B5F345F 
 1256      436C6561 
 1256      724D6F64 
 1256      65526567 
 1257 00a3 55010000 		.4byte	0x155
 1258 00a7 436C6F63 		.ascii	"Clock_4_GetModeRegister\000"
 1258      6B5F345F 
 1258      4765744D 
 1258      6F646552 
 1258      65676973 
 1259 00bf 6D010000 		.4byte	0x16d
 1260 00c3 436C6F63 		.ascii	"Clock_4_GetSourceRegister\000"
 1260      6B5F345F 
 1260      47657453 
 1260      6F757263 
 1260      65526567 
 1261 00dd 85010000 		.4byte	0x185
 1262 00e1 436C6F63 		.ascii	"Clock_4_SetSourceRegister\000"
 1262      6B5F345F 
 1262      53657453 
 1262      6F757263 
 1262      65526567 
ARM GAS  C:\Users\SUZUKI~1\AppData\Local\Temp\cctA21yr.s 			page 32


 1263 00fb DA010000 		.4byte	0x1da
 1264 00ff 436C6F63 		.ascii	"Clock_4_SetDividerRegister\000"
 1264      6B5F345F 
 1264      53657444 
 1264      69766964 
 1264      65725265 
 1265 011a 00000000 		.4byte	0x0
 1266              		.section	.debug_aranges,"",%progbits
 1267 0000 64000000 		.4byte	0x64
 1268 0004 0200     		.2byte	0x2
 1269 0006 00000000 		.4byte	.Ldebug_info0
 1270 000a 04       		.byte	0x4
 1271 000b 00       		.byte	0x0
 1272 000c 0000     		.2byte	0x0
 1273 000e 0000     		.2byte	0x0
 1274 0010 00000000 		.4byte	.LFB0
 1275 0014 1C000000 		.4byte	.LFE0-.LFB0
 1276 0018 00000000 		.4byte	.LFB1
 1277 001c 1C000000 		.4byte	.LFE1-.LFB1
 1278 0020 00000000 		.4byte	.LFB2
 1279 0024 1C000000 		.4byte	.LFE2-.LFB2
 1280 0028 00000000 		.4byte	.LFB4
 1281 002c 0C000000 		.4byte	.LFE4-.LFB4
 1282 0030 00000000 		.4byte	.LFB5
 1283 0034 14000000 		.4byte	.LFE5-.LFB5
 1284 0038 00000000 		.4byte	.LFB6
 1285 003c 14000000 		.4byte	.LFE6-.LFB6
 1286 0040 00000000 		.4byte	.LFB7
 1287 0044 10000000 		.4byte	.LFE7-.LFB7
 1288 0048 00000000 		.4byte	.LFB9
 1289 004c 10000000 		.4byte	.LFE9-.LFB9
 1290 0050 00000000 		.4byte	.LFB8
 1291 0054 58000000 		.4byte	.LFE8-.LFB8
 1292 0058 00000000 		.4byte	.LFB3
 1293 005c BC000000 		.4byte	.LFE3-.LFB3
 1294 0060 00000000 		.4byte	0x0
 1295 0064 00000000 		.4byte	0x0
 1296              		.section	.debug_ranges,"",%progbits
 1297              	.Ldebug_ranges0:
 1298 0000 02000000 		.4byte	.LBB6
 1299 0004 04000000 		.4byte	.LBE6
 1300 0008 06000000 		.4byte	.LBB9
 1301 000c 0A000000 		.4byte	.LBE9
 1302 0010 00000000 		.4byte	0x0
 1303 0014 00000000 		.4byte	0x0
 1304 0018 00000000 		.4byte	.Ltext0
 1305 001c 00000000 		.4byte	.Letext0
 1306 0020 00000000 		.4byte	.LFB0
 1307 0024 1C000000 		.4byte	.LFE0
 1308 0028 00000000 		.4byte	.LFB1
 1309 002c 1C000000 		.4byte	.LFE1
 1310 0030 00000000 		.4byte	.LFB2
 1311 0034 1C000000 		.4byte	.LFE2
 1312 0038 00000000 		.4byte	.LFB4
 1313 003c 0C000000 		.4byte	.LFE4
 1314 0040 00000000 		.4byte	.LFB5
 1315 0044 14000000 		.4byte	.LFE5
ARM GAS  C:\Users\SUZUKI~1\AppData\Local\Temp\cctA21yr.s 			page 33


 1316 0048 00000000 		.4byte	.LFB6
 1317 004c 14000000 		.4byte	.LFE6
 1318 0050 00000000 		.4byte	.LFB7
 1319 0054 10000000 		.4byte	.LFE7
 1320 0058 00000000 		.4byte	.LFB9
 1321 005c 10000000 		.4byte	.LFE9
 1322 0060 00000000 		.4byte	.LFB8
 1323 0064 58000000 		.4byte	.LFE8
 1324 0068 00000000 		.4byte	.LFB3
 1325 006c BC000000 		.4byte	.LFE3
 1326 0070 00000000 		.4byte	0x0
 1327 0074 00000000 		.4byte	0x0
 1328              		.section	.debug_str,"MS",%progbits,1
 1329              	.LASF6:
 1330 0000 6C6F6E67 		.ascii	"long long int\000"
 1330      206C6F6E 
 1330      6720696E 
 1330      7400
 1331              	.LASF18:
 1332 000e 73746174 		.ascii	"state\000"
 1332      6500
 1333              	.LASF36:
 1334 0014 436C6F63 		.ascii	"Clock_4_SetDividerRegister\000"
 1334      6B5F345F 
 1334      53657444 
 1334      69766964 
 1334      65725265 
 1335              	.LASF23:
 1336 002f 436C6F63 		.ascii	"Clock_4_SetSourceRegister\000"
 1336      6B5F345F 
 1336      53657453 
 1336      6F757263 
 1336      65526567 
 1337              	.LASF31:
 1338 0049 6F6C6444 		.ascii	"oldDivider\000"
 1338      69766964 
 1338      657200
 1339              	.LASF33:
 1340 0054 2E5C4765 		.ascii	".\\Generated_Source\\PSoC5\\Clock_4.c\000"
 1340      6E657261 
 1340      7465645F 
 1340      536F7572 
 1340      63655C50 
 1341              	.LASF22:
 1342 0077 436C6F63 		.ascii	"Clock_4_GetSourceRegister\000"
 1342      6B5F345F 
 1342      47657453 
 1342      6F757263 
 1342      65526567 
 1343              	.LASF27:
 1344 0091 63757272 		.ascii	"currDiv\000"
 1344      44697600 
 1345              	.LASF11:
 1346 0099 666C6F61 		.ascii	"float\000"
 1346      7400
 1347              	.LASF1:
 1348 009f 756E7369 		.ascii	"unsigned char\000"
ARM GAS  C:\Users\SUZUKI~1\AppData\Local\Temp\cctA21yr.s 			page 34


 1348      676E6564 
 1348      20636861 
 1348      7200
 1349              	.LASF35:
 1350 00ad 436C6F63 		.ascii	"Clock_4_GetDividerRegister\000"
 1350      6B5F345F 
 1350      47657444 
 1350      69766964 
 1350      65725265 
 1351              	.LASF5:
 1352 00c8 6C6F6E67 		.ascii	"long unsigned int\000"
 1352      20756E73 
 1352      69676E65 
 1352      6420696E 
 1352      7400
 1353              	.LASF3:
 1354 00da 73686F72 		.ascii	"short unsigned int\000"
 1354      7420756E 
 1354      7369676E 
 1354      65642069 
 1354      6E7400
 1355              	.LASF25:
 1356 00ed 636C6B44 		.ascii	"clkDivider\000"
 1356      69766964 
 1356      657200
 1357              	.LASF12:
 1358 00f8 646F7562 		.ascii	"double\000"
 1358      6C6500
 1359              	.LASF26:
 1360 00ff 72657374 		.ascii	"restart\000"
 1360      61727400 
 1361              	.LASF10:
 1362 0107 75696E74 		.ascii	"uint16\000"
 1362      313600
 1363              	.LASF34:
 1364 010e 463A5C44 		.ascii	"F:\\Documents\\PSoC_Creator\\tfexpbrd\\tfexpbrd.cyd"
 1364      6F63756D 
 1364      656E7473 
 1364      5C50536F 
 1364      435F4372 
 1365 013d 736E00   		.ascii	"sn\000"
 1366              	.LASF8:
 1367 0140 756E7369 		.ascii	"unsigned int\000"
 1367      676E6564 
 1367      20696E74 
 1367      00
 1368              	.LASF30:
 1369 014d 63757272 		.ascii	"currSrc\000"
 1369      53726300 
 1370              	.LASF7:
 1371 0155 6C6F6E67 		.ascii	"long long unsigned int\000"
 1371      206C6F6E 
 1371      6720756E 
 1371      7369676E 
 1371      65642069 
 1372              	.LASF14:
 1373 016c 436C6F63 		.ascii	"Clock_4_Start\000"
ARM GAS  C:\Users\SUZUKI~1\AppData\Local\Temp\cctA21yr.s 			page 35


 1373      6B5F345F 
 1373      53746172 
 1373      7400
 1374              	.LASF21:
 1375 017a 436C6F63 		.ascii	"Clock_4_GetModeRegister\000"
 1375      6B5F345F 
 1375      4765744D 
 1375      6F646552 
 1375      65676973 
 1376              	.LASF16:
 1377 0192 436C6F63 		.ascii	"Clock_4_StandbyPower\000"
 1377      6B5F345F 
 1377      5374616E 
 1377      64627950 
 1377      6F776572 
 1378              	.LASF17:
 1379 01a7 436C6F63 		.ascii	"Clock_4_SetModeRegister\000"
 1379      6B5F345F 
 1379      5365744D 
 1379      6F646552 
 1379      65676973 
 1380              	.LASF19:
 1381 01bf 6D6F6465 		.ascii	"modeBitMask\000"
 1381      4269744D 
 1381      61736B00 
 1382              	.LASF32:
 1383 01cb 474E5520 		.ascii	"GNU C 4.4.1\000"
 1383      4320342E 
 1383      342E3100 
 1384              	.LASF15:
 1385 01d7 436C6F63 		.ascii	"Clock_4_Stop\000"
 1385      6B5F345F 
 1385      53746F70 
 1385      00
 1386              	.LASF13:
 1387 01e4 63686172 		.ascii	"char\000"
 1387      00
 1388              	.LASF20:
 1389 01e9 436C6F63 		.ascii	"Clock_4_ClearModeRegister\000"
 1389      6B5F345F 
 1389      436C6561 
 1389      724D6F64 
 1389      65526567 
 1390              	.LASF2:
 1391 0203 73686F72 		.ascii	"short int\000"
 1391      7420696E 
 1391      7400
 1392              	.LASF9:
 1393 020d 75696E74 		.ascii	"uint8\000"
 1393      3800
 1394              	.LASF28:
 1395 0213 656E6162 		.ascii	"enabled\000"
 1395      6C656400 
 1396              	.LASF4:
 1397 021b 6C6F6E67 		.ascii	"long int\000"
 1397      20696E74 
 1397      00
ARM GAS  C:\Users\SUZUKI~1\AppData\Local\Temp\cctA21yr.s 			page 36


 1398              	.LASF24:
 1399 0224 636C6B53 		.ascii	"clkSource\000"
 1399      6F757263 
 1399      6500
 1400              	.LASF0:
 1401 022e 7369676E 		.ascii	"signed char\000"
 1401      65642063 
 1401      68617200 
 1402              	.LASF29:
 1403 023a 6F6C6453 		.ascii	"oldSrc\000"
 1403      726300
 1404              		.ident	"GCC: (Sourcery G++ Lite 2010q1-188) 4.4.1"
