ARM GAS  C:\Users\SUZUKI~1\AppData\Local\Temp\ccwGukP6.s 			page 1


   1              		.syntax unified
   2              		.cpu cortex-m3
   3              		.fpu softvfp
   4              		.eabi_attribute 20, 1
   5              		.eabi_attribute 21, 1
   6              		.eabi_attribute 23, 3
   7              		.eabi_attribute 24, 1
   8              		.eabi_attribute 25, 1
   9              		.eabi_attribute 26, 1
  10              		.eabi_attribute 30, 4
  11              		.eabi_attribute 18, 4
  12              		.thumb
  13              		.file	"Cm3Start.c"
  14              		.section	.debug_abbrev,"",%progbits
  15              	.Ldebug_abbrev0:
  16              		.section	.debug_info,"",%progbits
  17              	.Ldebug_info0:
  18              		.section	.debug_line,"",%progbits
  19              	.Ldebug_line0:
  20 0000 B2000000 		.text
  20      02006C00 
  20      00000201 
  20      FB0E0D00 
  20      01010101 
  21              	.Ltext0:
  22              		.cfi_sections	.debug_frame
  23              		.section	.text.IntDefaultHandler,"ax",%progbits
  24              		.align	1
  25              		.global	IntDefaultHandler
  26              		.thumb
  27              		.thumb_func
  28              		.type	IntDefaultHandler, %function
  29              	IntDefaultHandler:
  30              	.LFB0:
  31              		.file 1 ".\\Generated_Source\\PSoC5\\Cm3Start.c"
   1:.\Generated_Source\PSoC5/Cm3Start.c **** /*******************************************************************************
   2:.\Generated_Source\PSoC5/Cm3Start.c **** * File Name: Cm3Start.c
   3:.\Generated_Source\PSoC5/Cm3Start.c **** * Version 3.30
   4:.\Generated_Source\PSoC5/Cm3Start.c **** *
   5:.\Generated_Source\PSoC5/Cm3Start.c **** *  Description:
   6:.\Generated_Source\PSoC5/Cm3Start.c **** *  Startup code for the ARM CM3.
   7:.\Generated_Source\PSoC5/Cm3Start.c **** *
   8:.\Generated_Source\PSoC5/Cm3Start.c **** ********************************************************************************
   9:.\Generated_Source\PSoC5/Cm3Start.c **** * Copyright 2008-2012, Cypress Semiconductor Corporation. All rights reserved.
  10:.\Generated_Source\PSoC5/Cm3Start.c **** * You may use this file only in accordance with the license, terms, conditions,
  11:.\Generated_Source\PSoC5/Cm3Start.c **** * disclaimers, and limitations in the end user license agreement accompanying
  12:.\Generated_Source\PSoC5/Cm3Start.c **** * the software package with which this file was provided.
  13:.\Generated_Source\PSoC5/Cm3Start.c **** *******************************************************************************/
  14:.\Generated_Source\PSoC5/Cm3Start.c **** 
  15:.\Generated_Source\PSoC5/Cm3Start.c **** #include "cydevice_trm.h"
  16:.\Generated_Source\PSoC5/Cm3Start.c **** #include "cytypes.h"
  17:.\Generated_Source\PSoC5/Cm3Start.c **** #include "cyfitter_cfg.h"
  18:.\Generated_Source\PSoC5/Cm3Start.c **** #include "CyLib.h"
  19:.\Generated_Source\PSoC5/Cm3Start.c **** #include "CyDmac.h"
  20:.\Generated_Source\PSoC5/Cm3Start.c **** #include "cyfitter.h"
  21:.\Generated_Source\PSoC5/Cm3Start.c **** 
  22:.\Generated_Source\PSoC5/Cm3Start.c **** 
ARM GAS  C:\Users\SUZUKI~1\AppData\Local\Temp\ccwGukP6.s 			page 2


  23:.\Generated_Source\PSoC5/Cm3Start.c **** #define NUM_INTERRUPTS              32u
  24:.\Generated_Source\PSoC5/Cm3Start.c **** #define NUM_VECTORS                 (CYINT_IRQ_BASE+NUM_INTERRUPTS)
  25:.\Generated_Source\PSoC5/Cm3Start.c **** #define NVIC_APINT                  ((reg32 *) CYREG_NVIC_APPLN_INTR)
  26:.\Generated_Source\PSoC5/Cm3Start.c **** #define NVIC_CFG_CTRL               ((reg32 *) CYREG_NVIC_CFG_CONTROL)
  27:.\Generated_Source\PSoC5/Cm3Start.c **** #define NVIC_APINT_PRIGROUP_3_5     0x00000400u  /* Priority group 3.5 split */
  28:.\Generated_Source\PSoC5/Cm3Start.c **** #define NVIC_APINT_VECTKEY          0x05FA0000u  /* This key is required in order to write the NVIC
  29:.\Generated_Source\PSoC5/Cm3Start.c **** #define NVIC_CFG_STACKALIGN         0x00000200u  /* This specifies that the exception stack must be
  30:.\Generated_Source\PSoC5/Cm3Start.c **** 
  31:.\Generated_Source\PSoC5/Cm3Start.c **** /* Extern functions */
  32:.\Generated_Source\PSoC5/Cm3Start.c **** extern void CyBtldr_CheckLaunch(void);
  33:.\Generated_Source\PSoC5/Cm3Start.c **** 
  34:.\Generated_Source\PSoC5/Cm3Start.c **** /* Function prototypes */
  35:.\Generated_Source\PSoC5/Cm3Start.c **** void initialize_psoc(void);
  36:.\Generated_Source\PSoC5/Cm3Start.c **** CY_ISR(IntDefaultHandler);
  37:.\Generated_Source\PSoC5/Cm3Start.c **** void Reset(void);
  38:.\Generated_Source\PSoC5/Cm3Start.c **** CY_ISR(IntDefaultHandler);
  39:.\Generated_Source\PSoC5/Cm3Start.c **** 
  40:.\Generated_Source\PSoC5/Cm3Start.c **** 
  41:.\Generated_Source\PSoC5/Cm3Start.c **** /*******************************************************************************
  42:.\Generated_Source\PSoC5/Cm3Start.c **** * Default Ram Interrupt Vector table storage area. Must be 256-byte aligned.
  43:.\Generated_Source\PSoC5/Cm3Start.c **** *******************************************************************************/
  44:.\Generated_Source\PSoC5/Cm3Start.c **** __attribute__ ((section(".ramvectors")))
  45:.\Generated_Source\PSoC5/Cm3Start.c **** #if defined(__ARMCC_VERSION)
  46:.\Generated_Source\PSoC5/Cm3Start.c **** __align(256)
  47:.\Generated_Source\PSoC5/Cm3Start.c **** #elif defined (__GNUC__)
  48:.\Generated_Source\PSoC5/Cm3Start.c **** __attribute__ ((aligned(256)))
  49:.\Generated_Source\PSoC5/Cm3Start.c **** #endif
  50:.\Generated_Source\PSoC5/Cm3Start.c **** cyisraddress CyRamVectors[NUM_VECTORS];
  51:.\Generated_Source\PSoC5/Cm3Start.c **** 
  52:.\Generated_Source\PSoC5/Cm3Start.c **** 
  53:.\Generated_Source\PSoC5/Cm3Start.c **** /*******************************************************************************
  54:.\Generated_Source\PSoC5/Cm3Start.c **** * Function Name: IntDefaultHandler
  55:.\Generated_Source\PSoC5/Cm3Start.c **** ********************************************************************************
  56:.\Generated_Source\PSoC5/Cm3Start.c **** * Summary:
  57:.\Generated_Source\PSoC5/Cm3Start.c **** *  This function is called for all interrupts, other than reset, that get
  58:.\Generated_Source\PSoC5/Cm3Start.c **** *  called before the system is setup.
  59:.\Generated_Source\PSoC5/Cm3Start.c **** *
  60:.\Generated_Source\PSoC5/Cm3Start.c **** * Parameters:
  61:.\Generated_Source\PSoC5/Cm3Start.c **** *  None
  62:.\Generated_Source\PSoC5/Cm3Start.c **** *
  63:.\Generated_Source\PSoC5/Cm3Start.c **** * Return:
  64:.\Generated_Source\PSoC5/Cm3Start.c **** *  None
  65:.\Generated_Source\PSoC5/Cm3Start.c **** *
  66:.\Generated_Source\PSoC5/Cm3Start.c **** * Theory:
  67:.\Generated_Source\PSoC5/Cm3Start.c **** *  Any value other than zero is acceptable.
  68:.\Generated_Source\PSoC5/Cm3Start.c **** *
  69:.\Generated_Source\PSoC5/Cm3Start.c **** *******************************************************************************/
  70:.\Generated_Source\PSoC5/Cm3Start.c **** CY_ISR(IntDefaultHandler)
  71:.\Generated_Source\PSoC5/Cm3Start.c **** {
  32              		.loc 1 71 0
  33              		.cfi_startproc
  34              		@ args = 0, pretend = 0, frame = 0
  35              		@ frame_needed = 0, uses_anonymous_args = 0
  36              		@ link register save eliminated.
  37              	.L2:
  38 0000 FEE7     		b	.L2
  39              		.cfi_endproc
ARM GAS  C:\Users\SUZUKI~1\AppData\Local\Temp\ccwGukP6.s 			page 3


  40              	.LFE0:
  41              		.size	IntDefaultHandler, .-IntDefaultHandler
  42              		.section	.text.Reset,"ax",%progbits
  43              		.align	1
  44              		.global	Reset
  45              		.thumb
  46              		.thumb_func
  47              		.type	Reset, %function
  48              	Reset:
  49              	.LFB1:
  72:.\Generated_Source\PSoC5/Cm3Start.c **** 
  73:.\Generated_Source\PSoC5/Cm3Start.c ****     while(1)
  74:.\Generated_Source\PSoC5/Cm3Start.c ****     {
  75:.\Generated_Source\PSoC5/Cm3Start.c ****         /***********************************************************************
  76:.\Generated_Source\PSoC5/Cm3Start.c ****         * We should never get here. If we do, a serious problem occured, so go
  77:.\Generated_Source\PSoC5/Cm3Start.c ****         * into an infinite loop.
  78:.\Generated_Source\PSoC5/Cm3Start.c ****         ***********************************************************************/
  79:.\Generated_Source\PSoC5/Cm3Start.c ****     }
  80:.\Generated_Source\PSoC5/Cm3Start.c **** }
  81:.\Generated_Source\PSoC5/Cm3Start.c **** 
  82:.\Generated_Source\PSoC5/Cm3Start.c **** #if defined(__ARMCC_VERSION)
  83:.\Generated_Source\PSoC5/Cm3Start.c **** 
  84:.\Generated_Source\PSoC5/Cm3Start.c **** /* Local function for the device reset. */
  85:.\Generated_Source\PSoC5/Cm3Start.c **** extern void Reset(void);
  86:.\Generated_Source\PSoC5/Cm3Start.c **** 
  87:.\Generated_Source\PSoC5/Cm3Start.c **** /* Application entry point. */
  88:.\Generated_Source\PSoC5/Cm3Start.c **** extern void $Super$$main(void);
  89:.\Generated_Source\PSoC5/Cm3Start.c **** 
  90:.\Generated_Source\PSoC5/Cm3Start.c **** /* Linker-generated Stack Base addresses, Two Region and One Region */
  91:.\Generated_Source\PSoC5/Cm3Start.c **** extern uint32 Image$$ARM_LIB_STACK$$ZI$$Limit;
  92:.\Generated_Source\PSoC5/Cm3Start.c **** 
  93:.\Generated_Source\PSoC5/Cm3Start.c **** /* RealView C Library initialization. */
  94:.\Generated_Source\PSoC5/Cm3Start.c **** extern int __main(void);
  95:.\Generated_Source\PSoC5/Cm3Start.c **** 
  96:.\Generated_Source\PSoC5/Cm3Start.c **** /*******************************************************************************
  97:.\Generated_Source\PSoC5/Cm3Start.c **** *
  98:.\Generated_Source\PSoC5/Cm3Start.c **** * Default Rom Interrupt Vector table.
  99:.\Generated_Source\PSoC5/Cm3Start.c **** *
 100:.\Generated_Source\PSoC5/Cm3Start.c **** *******************************************************************************/
 101:.\Generated_Source\PSoC5/Cm3Start.c **** #pragma diag_suppress 1296
 102:.\Generated_Source\PSoC5/Cm3Start.c **** __attribute__ ((section(".romvectors")))
 103:.\Generated_Source\PSoC5/Cm3Start.c **** const cyisraddress RomVectors[NUM_VECTORS] =
 104:.\Generated_Source\PSoC5/Cm3Start.c **** {
 105:.\Generated_Source\PSoC5/Cm3Start.c ****     (cyisraddress)(uint32)&Image$$ARM_LIB_STACK$$ZI$$Limit,             /* The initial stack pointe
 106:.\Generated_Source\PSoC5/Cm3Start.c ****     (cyisraddress)Reset,                                                /* The reset handler       
 107:.\Generated_Source\PSoC5/Cm3Start.c ****     IntDefaultHandler,                                                  /* The NMI handler         
 108:.\Generated_Source\PSoC5/Cm3Start.c ****     IntDefaultHandler,                                                  /* The hard fault handler  
 109:.\Generated_Source\PSoC5/Cm3Start.c ****     IntDefaultHandler,                                                  /* The MPU fault handler   
 110:.\Generated_Source\PSoC5/Cm3Start.c ****     IntDefaultHandler,                                                  /* The bus fault handler   
 111:.\Generated_Source\PSoC5/Cm3Start.c ****     IntDefaultHandler,                                                  /* The usage fault handler 
 112:.\Generated_Source\PSoC5/Cm3Start.c ****     IntDefaultHandler,                                                  /* Reserved                
 113:.\Generated_Source\PSoC5/Cm3Start.c ****     IntDefaultHandler,                                                  /* Reserved                
 114:.\Generated_Source\PSoC5/Cm3Start.c ****     IntDefaultHandler,                                                  /* Reserved                
 115:.\Generated_Source\PSoC5/Cm3Start.c ****     IntDefaultHandler,                                                  /* Reserved                
 116:.\Generated_Source\PSoC5/Cm3Start.c ****     IntDefaultHandler,                                                  /* SVCall handler          
 117:.\Generated_Source\PSoC5/Cm3Start.c ****     IntDefaultHandler,                                                  /* Debug monitor handler   
 118:.\Generated_Source\PSoC5/Cm3Start.c ****     IntDefaultHandler,                                                  /* Reserved                
ARM GAS  C:\Users\SUZUKI~1\AppData\Local\Temp\ccwGukP6.s 			page 4


 119:.\Generated_Source\PSoC5/Cm3Start.c ****     IntDefaultHandler,                                                  /* The PendSV handler      
 120:.\Generated_Source\PSoC5/Cm3Start.c ****     IntDefaultHandler,                                                  /* The SysTick handler     
 121:.\Generated_Source\PSoC5/Cm3Start.c ****     IntDefaultHandler,                                                  /* External Interrupt(0)   
 122:.\Generated_Source\PSoC5/Cm3Start.c ****     IntDefaultHandler,                                                  /* External Interrupt(1)   
 123:.\Generated_Source\PSoC5/Cm3Start.c ****     IntDefaultHandler,                                                  /* External Interrupt(2)   
 124:.\Generated_Source\PSoC5/Cm3Start.c ****     IntDefaultHandler,                                                  /* External Interrupt(3)   
 125:.\Generated_Source\PSoC5/Cm3Start.c ****     IntDefaultHandler,                                                  /* External Interrupt(4)   
 126:.\Generated_Source\PSoC5/Cm3Start.c ****     IntDefaultHandler,                                                  /* External Interrupt(5)   
 127:.\Generated_Source\PSoC5/Cm3Start.c ****     IntDefaultHandler,                                                  /* External Interrupt(6)   
 128:.\Generated_Source\PSoC5/Cm3Start.c ****     IntDefaultHandler,                                                  /* External Interrupt(7)   
 129:.\Generated_Source\PSoC5/Cm3Start.c ****     IntDefaultHandler,                                                  /* External Interrupt(8)   
 130:.\Generated_Source\PSoC5/Cm3Start.c ****     IntDefaultHandler,                                                  /* External Interrupt(9)   
 131:.\Generated_Source\PSoC5/Cm3Start.c ****     IntDefaultHandler,                                                  /* External Interrupt(A)   
 132:.\Generated_Source\PSoC5/Cm3Start.c ****     IntDefaultHandler,                                                  /* External Interrupt(B)   
 133:.\Generated_Source\PSoC5/Cm3Start.c ****     IntDefaultHandler,                                                  /* External Interrupt(C)   
 134:.\Generated_Source\PSoC5/Cm3Start.c ****     IntDefaultHandler,                                                  /* External Interrupt(D)   
 135:.\Generated_Source\PSoC5/Cm3Start.c ****     IntDefaultHandler,                                                  /* External Interrupt(E)   
 136:.\Generated_Source\PSoC5/Cm3Start.c ****     IntDefaultHandler,                                                  /* External Interrupt(F)   
 137:.\Generated_Source\PSoC5/Cm3Start.c ****     IntDefaultHandler,                                                  /* External Interrupt(10)  
 138:.\Generated_Source\PSoC5/Cm3Start.c ****     IntDefaultHandler,                                                  /* External Interrupt(11)  
 139:.\Generated_Source\PSoC5/Cm3Start.c ****     IntDefaultHandler,                                                  /* External Interrupt(12)  
 140:.\Generated_Source\PSoC5/Cm3Start.c ****     IntDefaultHandler,                                                  /* External Interrupt(13)  
 141:.\Generated_Source\PSoC5/Cm3Start.c ****     IntDefaultHandler,                                                  /* External Interrupt(14)  
 142:.\Generated_Source\PSoC5/Cm3Start.c ****     IntDefaultHandler,                                                  /* External Interrupt(15)  
 143:.\Generated_Source\PSoC5/Cm3Start.c ****     IntDefaultHandler,                                                  /* External Interrupt(16)  
 144:.\Generated_Source\PSoC5/Cm3Start.c ****     IntDefaultHandler,                                                  /* External Interrupt(17)  
 145:.\Generated_Source\PSoC5/Cm3Start.c ****     IntDefaultHandler,                                                  /* External Interrupt(18)  
 146:.\Generated_Source\PSoC5/Cm3Start.c ****     IntDefaultHandler,                                                  /* External Interrupt(19)  
 147:.\Generated_Source\PSoC5/Cm3Start.c ****     IntDefaultHandler,                                                  /* External Interrupt(1A)  
 148:.\Generated_Source\PSoC5/Cm3Start.c ****     IntDefaultHandler,                                                  /* External Interrupt(1B)  
 149:.\Generated_Source\PSoC5/Cm3Start.c ****     IntDefaultHandler,                                                  /* External Interrupt(1C)  
 150:.\Generated_Source\PSoC5/Cm3Start.c ****     IntDefaultHandler,                                                  /* External Interrupt(1D)  
 151:.\Generated_Source\PSoC5/Cm3Start.c ****     IntDefaultHandler,                                                  /* External Interrupt(1E)  
 152:.\Generated_Source\PSoC5/Cm3Start.c ****     IntDefaultHandler                                                   /* External Interrupt(1F)  
 153:.\Generated_Source\PSoC5/Cm3Start.c **** };
 154:.\Generated_Source\PSoC5/Cm3Start.c **** 
 155:.\Generated_Source\PSoC5/Cm3Start.c **** 
 156:.\Generated_Source\PSoC5/Cm3Start.c **** /*******************************************************************************
 157:.\Generated_Source\PSoC5/Cm3Start.c **** * Function Name: Reset
 158:.\Generated_Source\PSoC5/Cm3Start.c **** ********************************************************************************
 159:.\Generated_Source\PSoC5/Cm3Start.c **** * Summary:
 160:.\Generated_Source\PSoC5/Cm3Start.c **** *  This function handles the reset interrupt for the RVDS/MDK toolchains.
 161:.\Generated_Source\PSoC5/Cm3Start.c **** *  This is the first bit of code that is executed at startup.
 162:.\Generated_Source\PSoC5/Cm3Start.c **** *
 163:.\Generated_Source\PSoC5/Cm3Start.c **** * Parameters:
 164:.\Generated_Source\PSoC5/Cm3Start.c **** *  None
 165:.\Generated_Source\PSoC5/Cm3Start.c **** *
 166:.\Generated_Source\PSoC5/Cm3Start.c **** * Return:
 167:.\Generated_Source\PSoC5/Cm3Start.c **** *  None
 168:.\Generated_Source\PSoC5/Cm3Start.c **** *
 169:.\Generated_Source\PSoC5/Cm3Start.c **** *******************************************************************************/
 170:.\Generated_Source\PSoC5/Cm3Start.c **** __asm void Reset(void)
 171:.\Generated_Source\PSoC5/Cm3Start.c **** {
 172:.\Generated_Source\PSoC5/Cm3Start.c ****     PRESERVE8
 173:.\Generated_Source\PSoC5/Cm3Start.c ****     EXTERN __main
 174:.\Generated_Source\PSoC5/Cm3Start.c ****     EXTERN CyResetStatus
 175:.\Generated_Source\PSoC5/Cm3Start.c **** 
ARM GAS  C:\Users\SUZUKI~1\AppData\Local\Temp\ccwGukP6.s 			page 5


 176:.\Generated_Source\PSoC5/Cm3Start.c ****     #if(CYDEV_BOOTLOADER_ENABLE)
 177:.\Generated_Source\PSoC5/Cm3Start.c ****         EXTERN CyBtldr_CheckLaunch
 178:.\Generated_Source\PSoC5/Cm3Start.c ****     #endif  /* (CYDEV_BOOTLOADER_ENABLE) */
 179:.\Generated_Source\PSoC5/Cm3Start.c **** 
 180:.\Generated_Source\PSoC5/Cm3Start.c **** 
 181:.\Generated_Source\PSoC5/Cm3Start.c ****     #if(CYDEV_PROJ_TYPE != CYDEV_PROJ_TYPE_LOADABLE)
 182:.\Generated_Source\PSoC5/Cm3Start.c ****         #if(CYDEV_DEBUGGING_ENABLE)
 183:.\Generated_Source\PSoC5/Cm3Start.c ****     ldr  r3, =0x400046e8 /* CYDEV_DEBUG_ENABLE_REGISTER */
 184:.\Generated_Source\PSoC5/Cm3Start.c ****             ldrb r4, [r3, #0]
 185:.\Generated_Source\PSoC5/Cm3Start.c ****             orr  r4, r4, #01
 186:.\Generated_Source\PSoC5/Cm3Start.c ****             strb r4, [r3, #0]
 187:.\Generated_Source\PSoC5/Cm3Start.c **** debugEnabled
 188:.\Generated_Source\PSoC5/Cm3Start.c ****         #endif    /* (CYDEV_DEBUGGING_ENABLE) */
 189:.\Generated_Source\PSoC5/Cm3Start.c **** 
 190:.\Generated_Source\PSoC5/Cm3Start.c ****     ldr  r3, =0x400046f8 /* CYREG_RESET_SR0 */
 191:.\Generated_Source\PSoC5/Cm3Start.c ****         ldrb r2, [r3, #0]
 192:.\Generated_Source\PSoC5/Cm3Start.c **** 
 193:.\Generated_Source\PSoC5/Cm3Start.c ****     #endif  /* (CYDEV_PROJ_TYPE != CYDEV_PROJ_TYPE_LOADABLE) */
 194:.\Generated_Source\PSoC5/Cm3Start.c **** 
 195:.\Generated_Source\PSoC5/Cm3Start.c ****     ldr  r3, =0x400076BC /* CYREG_PHUB_CFGMEM23_CFG1 */
 196:.\Generated_Source\PSoC5/Cm3Start.c ****     strb r2, [r3, #0]
 197:.\Generated_Source\PSoC5/Cm3Start.c **** 
 198:.\Generated_Source\PSoC5/Cm3Start.c ****     #if(CYDEV_BOOTLOADER_ENABLE)
 199:.\Generated_Source\PSoC5/Cm3Start.c ****         bl CyBtldr_CheckLaunch
 200:.\Generated_Source\PSoC5/Cm3Start.c ****     #endif /* (CYDEV_BOOTLOADER_ENABLE) */
 201:.\Generated_Source\PSoC5/Cm3Start.c **** 
 202:.\Generated_Source\PSoC5/Cm3Start.c ****     /* Let RealView setup the libraries. */
 203:.\Generated_Source\PSoC5/Cm3Start.c ****     bl __main
 204:.\Generated_Source\PSoC5/Cm3Start.c **** 
 205:.\Generated_Source\PSoC5/Cm3Start.c ****     ALIGN
 206:.\Generated_Source\PSoC5/Cm3Start.c **** }
 207:.\Generated_Source\PSoC5/Cm3Start.c **** 
 208:.\Generated_Source\PSoC5/Cm3Start.c **** 
 209:.\Generated_Source\PSoC5/Cm3Start.c **** /*******************************************************************************
 210:.\Generated_Source\PSoC5/Cm3Start.c **** * Function Name: $Sub$$main
 211:.\Generated_Source\PSoC5/Cm3Start.c **** ********************************************************************************
 212:.\Generated_Source\PSoC5/Cm3Start.c **** * Summary:
 213:.\Generated_Source\PSoC5/Cm3Start.c **** *  This function is called imediatly before the users main
 214:.\Generated_Source\PSoC5/Cm3Start.c **** *
 215:.\Generated_Source\PSoC5/Cm3Start.c **** * Parameters:
 216:.\Generated_Source\PSoC5/Cm3Start.c **** *  None
 217:.\Generated_Source\PSoC5/Cm3Start.c **** *
 218:.\Generated_Source\PSoC5/Cm3Start.c **** * Return:
 219:.\Generated_Source\PSoC5/Cm3Start.c **** *  None
 220:.\Generated_Source\PSoC5/Cm3Start.c **** *
 221:.\Generated_Source\PSoC5/Cm3Start.c **** *******************************************************************************/
 222:.\Generated_Source\PSoC5/Cm3Start.c **** void $Sub$$main(void)
 223:.\Generated_Source\PSoC5/Cm3Start.c **** {
 224:.\Generated_Source\PSoC5/Cm3Start.c ****     initialize_psoc();
 225:.\Generated_Source\PSoC5/Cm3Start.c **** 
 226:.\Generated_Source\PSoC5/Cm3Start.c ****     /* Call original main */
 227:.\Generated_Source\PSoC5/Cm3Start.c ****     $Super$$main();
 228:.\Generated_Source\PSoC5/Cm3Start.c **** 
 229:.\Generated_Source\PSoC5/Cm3Start.c ****     /* If main returns it is undefined what we should do. */
 230:.\Generated_Source\PSoC5/Cm3Start.c ****     while (1);
 231:.\Generated_Source\PSoC5/Cm3Start.c **** }
 232:.\Generated_Source\PSoC5/Cm3Start.c **** 
ARM GAS  C:\Users\SUZUKI~1\AppData\Local\Temp\ccwGukP6.s 			page 6


 233:.\Generated_Source\PSoC5/Cm3Start.c **** #elif defined(__GNUC__)
 234:.\Generated_Source\PSoC5/Cm3Start.c **** 
 235:.\Generated_Source\PSoC5/Cm3Start.c **** extern uint32 __cs3_interrupt_vector;
 236:.\Generated_Source\PSoC5/Cm3Start.c **** extern void __cs3_start_c(void);
 237:.\Generated_Source\PSoC5/Cm3Start.c **** 
 238:.\Generated_Source\PSoC5/Cm3Start.c **** #define RomVectors (cyisraddress)(&__cs3_interrupt_vector)
 239:.\Generated_Source\PSoC5/Cm3Start.c **** 
 240:.\Generated_Source\PSoC5/Cm3Start.c **** 
 241:.\Generated_Source\PSoC5/Cm3Start.c **** /*******************************************************************************
 242:.\Generated_Source\PSoC5/Cm3Start.c **** * Function Name: Reset
 243:.\Generated_Source\PSoC5/Cm3Start.c **** ********************************************************************************
 244:.\Generated_Source\PSoC5/Cm3Start.c **** * Summary:
 245:.\Generated_Source\PSoC5/Cm3Start.c **** *  This function handles the reset interrupt for the GCC toolchain.  This is the
 246:.\Generated_Source\PSoC5/Cm3Start.c **** *  first bit of code that is executed at startup.
 247:.\Generated_Source\PSoC5/Cm3Start.c **** *
 248:.\Generated_Source\PSoC5/Cm3Start.c **** * Parameters:
 249:.\Generated_Source\PSoC5/Cm3Start.c **** *  None
 250:.\Generated_Source\PSoC5/Cm3Start.c **** *
 251:.\Generated_Source\PSoC5/Cm3Start.c **** * Return:
 252:.\Generated_Source\PSoC5/Cm3Start.c **** *  None
 253:.\Generated_Source\PSoC5/Cm3Start.c **** *
 254:.\Generated_Source\PSoC5/Cm3Start.c **** *******************************************************************************/
 255:.\Generated_Source\PSoC5/Cm3Start.c **** __attribute__ ((naked))
 256:.\Generated_Source\PSoC5/Cm3Start.c **** void Reset(void)
 257:.\Generated_Source\PSoC5/Cm3Start.c **** {
  50              		.loc 1 257 0
  51              		.cfi_startproc
  52              		@ Naked Function: prologue and epilogue provided by programmer.
  53              		@ args = 0, pretend = 0, frame = 0
  54              		@ frame_needed = 0, uses_anonymous_args = 0
 258:.\Generated_Source\PSoC5/Cm3Start.c ****     __asm volatile(
  55              		.loc 1 258 0
  56              	@ 258 ".\Generated_Source\PSoC5\Cm3Start.c" 1
  57 0000 054B     		    ldr  r3, =#1073759976
  58 0002 1C78     	    ldrb r4, [r3, #0]
  59 0004 44F00104 	    orr  r4, r4, #01
  60 0008 1C70     	    strb r4, [r3, #0]
  61              	debugEnabled:
  62 000a 044B     	    ldr  r3, =#1073759992
  63 000c 1A78     	    ldrb r2, [r3, #0]
  64 000e D2B2     	    uxtb r2, r2
  65 0010 034B     	    ldr  r3, =#1073772220
  66 0012 1A70     	    strb r2, [r3, #0]
  67 0014 FFF7FEFF 	    bl __cs3_start_c
  68              	
  69              	@ 0 "" 2
 259:.\Generated_Source\PSoC5/Cm3Start.c **** #if(CYDEV_PROJ_TYPE != CYDEV_PROJ_TYPE_LOADABLE)
 260:.\Generated_Source\PSoC5/Cm3Start.c **** 
 261:.\Generated_Source\PSoC5/Cm3Start.c ****   #if(CYDEV_DEBUGGING_ENABLE)
 262:.\Generated_Source\PSoC5/Cm3Start.c ****     "    ldr  r3, =%0\n"
 263:.\Generated_Source\PSoC5/Cm3Start.c ****     "    ldrb r4, [r3, #0]\n"
 264:.\Generated_Source\PSoC5/Cm3Start.c ****     "    orr  r4, r4, #01\n"
 265:.\Generated_Source\PSoC5/Cm3Start.c ****     "    strb r4, [r3, #0]\n"
 266:.\Generated_Source\PSoC5/Cm3Start.c ****     "debugEnabled:\n"
 267:.\Generated_Source\PSoC5/Cm3Start.c ****   #endif    /* (CYDEV_DEBUGGING_ENABLE) */
 268:.\Generated_Source\PSoC5/Cm3Start.c **** 
 269:.\Generated_Source\PSoC5/Cm3Start.c ****     "    ldr  r3, =%1\n"
ARM GAS  C:\Users\SUZUKI~1\AppData\Local\Temp\ccwGukP6.s 			page 7


 270:.\Generated_Source\PSoC5/Cm3Start.c ****     "    ldrb r2, [r3, #0]\n"
 271:.\Generated_Source\PSoC5/Cm3Start.c ****     "    uxtb r2, r2\n"
 272:.\Generated_Source\PSoC5/Cm3Start.c **** #endif  /* (CYDEV_PROJ_TYPE != CYDEV_PROJ_TYPE_LOADABLE) */
 273:.\Generated_Source\PSoC5/Cm3Start.c **** 
 274:.\Generated_Source\PSoC5/Cm3Start.c ****     "    ldr  r3, =%2\n"
 275:.\Generated_Source\PSoC5/Cm3Start.c ****     "    strb r2, [r3, #0]\n"
 276:.\Generated_Source\PSoC5/Cm3Start.c **** 
 277:.\Generated_Source\PSoC5/Cm3Start.c **** #if(CYDEV_BOOTLOADER_ENABLE)
 278:.\Generated_Source\PSoC5/Cm3Start.c ****     "    bl CyBtldr_CheckLaunch\n"
 279:.\Generated_Source\PSoC5/Cm3Start.c **** #endif /* (CYDEV_BOOTLOADER_ENABLE) */
 280:.\Generated_Source\PSoC5/Cm3Start.c **** 
 281:.\Generated_Source\PSoC5/Cm3Start.c ****     /*  Switch to C initialization phase */
 282:.\Generated_Source\PSoC5/Cm3Start.c ****     "    bl __cs3_start_c\n" : : "i" (CYDEV_DEBUG_ENABLE_REGISTER), "i" (CYREG_RESET_SR0), "i" (CYR
 283:.\Generated_Source\PSoC5/Cm3Start.c **** }
  70              		.loc 1 283 0
  71              		.thumb
  72              		.cfi_endproc
  73              	.LFE1:
  74              		.size	Reset, .-Reset
  75              		.section	.text.initialize_psoc,"ax",%progbits
  76              		.align	1
  77              		.global	initialize_psoc
  78              		.thumb
  79              		.thumb_func
  80              		.type	initialize_psoc, %function
  81              	initialize_psoc:
  82              	.LFB2:
 284:.\Generated_Source\PSoC5/Cm3Start.c **** 
 285:.\Generated_Source\PSoC5/Cm3Start.c **** #endif /* __GNUC__ */
 286:.\Generated_Source\PSoC5/Cm3Start.c **** 
 287:.\Generated_Source\PSoC5/Cm3Start.c **** /*******************************************************************************
 288:.\Generated_Source\PSoC5/Cm3Start.c **** * Function Name: initialize_psoc
 289:.\Generated_Source\PSoC5/Cm3Start.c **** ********************************************************************************
 290:.\Generated_Source\PSoC5/Cm3Start.c **** * Summary:
 291:.\Generated_Source\PSoC5/Cm3Start.c **** *  This function used to initialize the PSoC chip before calling main.
 292:.\Generated_Source\PSoC5/Cm3Start.c **** *
 293:.\Generated_Source\PSoC5/Cm3Start.c **** * Parameters:
 294:.\Generated_Source\PSoC5/Cm3Start.c **** *  None
 295:.\Generated_Source\PSoC5/Cm3Start.c **** *
 296:.\Generated_Source\PSoC5/Cm3Start.c **** * Return:
 297:.\Generated_Source\PSoC5/Cm3Start.c **** *  None
 298:.\Generated_Source\PSoC5/Cm3Start.c **** *
 299:.\Generated_Source\PSoC5/Cm3Start.c **** *******************************************************************************/
 300:.\Generated_Source\PSoC5/Cm3Start.c **** #if (defined(__GNUC__) && !defined(__ARMCC_VERSION))
 301:.\Generated_Source\PSoC5/Cm3Start.c **** __attribute__ ((constructor(101)))
 302:.\Generated_Source\PSoC5/Cm3Start.c **** #endif
 303:.\Generated_Source\PSoC5/Cm3Start.c **** 
 304:.\Generated_Source\PSoC5/Cm3Start.c **** void initialize_psoc(void)
 305:.\Generated_Source\PSoC5/Cm3Start.c **** {
  83              		.loc 1 305 0
  84              		.cfi_startproc
  85              		@ args = 0, pretend = 0, frame = 0
  86              		@ frame_needed = 0, uses_anonymous_args = 0
 306:.\Generated_Source\PSoC5/Cm3Start.c ****     uint32 i;
 307:.\Generated_Source\PSoC5/Cm3Start.c **** 
 308:.\Generated_Source\PSoC5/Cm3Start.c ****     /* Set Priority group 5. */
 309:.\Generated_Source\PSoC5/Cm3Start.c **** 
ARM GAS  C:\Users\SUZUKI~1\AppData\Local\Temp\ccwGukP6.s 			page 8


 310:.\Generated_Source\PSoC5/Cm3Start.c ****     /* Writes to NVIC_APINT register require the VECTKEY in the upper half */
 311:.\Generated_Source\PSoC5/Cm3Start.c ****     *NVIC_APINT = NVIC_APINT_VECTKEY | NVIC_APINT_PRIGROUP_3_5;
  87              		.loc 1 311 0
  88 0000 0E4A     		ldr	r2, .L10
  89 0002 0F4B     		ldr	r3, .L10+4
  90              		.loc 1 305 0
  91 0004 10B5     		push	{r4, lr}
  92              	.LCFI0:
  93              		.cfi_def_cfa_offset 8
  94              		.loc 1 311 0
  95 0006 1A60     		str	r2, [r3, #0]
 312:.\Generated_Source\PSoC5/Cm3Start.c ****     *NVIC_CFG_CTRL |= NVIC_CFG_STACKALIGN;
  96              		.loc 1 312 0
  97 0008 0833     		adds	r3, r3, #8
  98 000a 1A68     		ldr	r2, [r3, #0]
  99 000c 42F40072 		orr	r2, r2, #512
 100 0010 1A60     		str	r2, [r3, #0]
 101 0012 0023     		movs	r3, #0
 102              	.L7:
 313:.\Generated_Source\PSoC5/Cm3Start.c **** 
 314:.\Generated_Source\PSoC5/Cm3Start.c ****     /* Set Ram interrupt vectors to default functions. */
 315:.\Generated_Source\PSoC5/Cm3Start.c ****     for(i = 0u; i < NUM_VECTORS; i++)
 316:.\Generated_Source\PSoC5/Cm3Start.c ****     {
 317:.\Generated_Source\PSoC5/Cm3Start.c ****         CyRamVectors[i] = RomVectors[i];
 103              		.loc 1 317 0
 104 0014 0B49     		ldr	r1, .L10+8
 105 0016 0C4A     		ldr	r2, .L10+12
 106 0018 5958     		ldr	r1, [r3, r1]
 107 001a D150     		str	r1, [r2, r3]
 108 001c 0433     		adds	r3, r3, #4
 109              		.loc 1 315 0
 110 001e C02B     		cmp	r3, #192
 111 0020 F8D1     		bne	.L7
 112              		.cfi_offset 14, -4
 113              		.cfi_offset 4, -8
 318:.\Generated_Source\PSoC5/Cm3Start.c ****     }
 319:.\Generated_Source\PSoC5/Cm3Start.c **** 
 320:.\Generated_Source\PSoC5/Cm3Start.c ****     /* Was stored in CFGMEM to avoid being cleared while SRAM gets cleared */
 321:.\Generated_Source\PSoC5/Cm3Start.c ****     CyResetStatus = CY_GET_REG8(CYREG_PHUB_CFGMEM23_CFG1);
 114              		.loc 1 321 0
 115 0022 0A4B     		ldr	r3, .L10+16
 116 0024 1978     		ldrb	r1, [r3, #0]	@ zero_extendqisi2
 117 0026 0A4B     		ldr	r3, .L10+20
 118 0028 1970     		strb	r1, [r3, #0]
 322:.\Generated_Source\PSoC5/Cm3Start.c **** 
 323:.\Generated_Source\PSoC5/Cm3Start.c ****     /* Point NVIC at the RAM vector table. */
 324:.\Generated_Source\PSoC5/Cm3Start.c ****     *CYINT_VECT_TABLE = CyRamVectors;
 119              		.loc 1 324 0
 120 002a 0A4B     		ldr	r3, .L10+24
 121 002c 1A60     		str	r2, [r3, #0]
 325:.\Generated_Source\PSoC5/Cm3Start.c **** 
 326:.\Generated_Source\PSoC5/Cm3Start.c ****     /* Initialize the configuration registers. */
 327:.\Generated_Source\PSoC5/Cm3Start.c ****     cyfitter_cfg();
 122              		.loc 1 327 0
 123 002e FFF7FEFF 		bl	cyfitter_cfg
 328:.\Generated_Source\PSoC5/Cm3Start.c **** 
 329:.\Generated_Source\PSoC5/Cm3Start.c ****     #if(0u != DMA_CHANNELS_USED__MASK0)
ARM GAS  C:\Users\SUZUKI~1\AppData\Local\Temp\ccwGukP6.s 			page 9


 330:.\Generated_Source\PSoC5/Cm3Start.c **** 
 331:.\Generated_Source\PSoC5/Cm3Start.c ****         /* Setup DMA - only necessary if the design contains a DMA component. */
 332:.\Generated_Source\PSoC5/Cm3Start.c ****         CyDmacConfigure();
 333:.\Generated_Source\PSoC5/Cm3Start.c **** 
 334:.\Generated_Source\PSoC5/Cm3Start.c ****     #endif  /* (0u != DMA_CHANNELS_USED__MASK0) */
 335:.\Generated_Source\PSoC5/Cm3Start.c **** }
 124              		.loc 1 335 0
 125 0032 BDE81040 		pop	{r4, lr}
 126              		.loc 1 332 0
 127 0036 FFF7FEBF 		b	CyDmacConfigure
 128              	.L11:
 129 003a 00BF     		.align	2
 130              	.L10:
 131 003c 0004FA05 		.word	100271104
 132 0040 0CED00E0 		.word	-536810228
 133 0044 00000000 		.word	__cs3_interrupt_vector
 134 0048 00000000 		.word	.LANCHOR0
 135 004c BC760040 		.word	1073772220
 136 0050 00000000 		.word	CyResetStatus
 137 0054 08ED00E0 		.word	-536810232
 138              		.cfi_endproc
 139              	.LFE2:
 140              		.size	initialize_psoc, .-initialize_psoc
 141              		.section	.init_array,"aw",%init_array
 142              		.align	2
 143 0000 00000000 		.word	initialize_psoc(target1)
 144              		.global	CyRamVectors
 145              		.section	.ramvectors,"aw",%progbits
 146              		.align	8
 147              		.set	.LANCHOR0,. + 0
 148              		.type	CyRamVectors, %object
 149              		.size	CyRamVectors, 192
 150              	CyRamVectors:
 151 0000 00000000 		.space	192
 151      00000000 
 151      00000000 
 151      00000000 
 151      00000000 
 152 00c0 00000000 		.text
 152      00000000 
 152      00000000 
 152      00000000 
 152      00000000 
 153              	.Letext0:
 154              		.section	.debug_loc,"",%progbits
 155              	.Ldebug_loc0:
 156              	.LLST2:
 157 0000 00000000 		.4byte	.LFB2
 158 0004 06000000 		.4byte	.LCFI0
 159 0008 0100     		.2byte	0x1
 160 000a 5D       		.byte	0x5d
 161 000b 06000000 		.4byte	.LCFI0
 162 000f 58000000 		.4byte	.LFE2
 163 0013 0200     		.2byte	0x2
 164 0015 7D       		.byte	0x7d
 165 0016 08       		.sleb128 8
 166 0017 00000000 		.4byte	0x0
ARM GAS  C:\Users\SUZUKI~1\AppData\Local\Temp\ccwGukP6.s 			page 10


 167 001b 00000000 		.4byte	0x0
 168              		.file 2 ".\\Generated_Source\\PSoC5\\/cytypes.h"
 169              		.file 3 ".\\Generated_Source\\PSoC5\\/CyLib.h"
 170              		.section	.debug_info
 171 0000 35010000 		.4byte	0x135
 172 0004 0200     		.2byte	0x2
 173 0006 00000000 		.4byte	.Ldebug_abbrev0
 174 000a 04       		.byte	0x4
 175 000b 01       		.uleb128 0x1
 176 000c B9000000 		.4byte	.LASF20
 177 0010 01       		.byte	0x1
 178 0011 45010000 		.4byte	.LASF21
 179 0015 34000000 		.4byte	.LASF22
 180 0019 00000000 		.4byte	0x0
 181 001d 00000000 		.4byte	0x0
 182 0021 00000000 		.4byte	.Ldebug_ranges0+0x0
 183 0025 00000000 		.4byte	.Ldebug_line0
 184 0029 02       		.uleb128 0x2
 185 002a 01       		.byte	0x1
 186 002b 06       		.byte	0x6
 187 002c 20010000 		.4byte	.LASF0
 188 0030 02       		.uleb128 0x2
 189 0031 01       		.byte	0x1
 190 0032 08       		.byte	0x8
 191 0033 D3000000 		.4byte	.LASF1
 192 0037 02       		.uleb128 0x2
 193 0038 02       		.byte	0x2
 194 0039 05       		.byte	0x5
 195 003a FC000000 		.4byte	.LASF2
 196 003e 02       		.uleb128 0x2
 197 003f 02       		.byte	0x2
 198 0040 07       		.byte	0x7
 199 0041 0D010000 		.4byte	.LASF3
 200 0045 02       		.uleb128 0x2
 201 0046 04       		.byte	0x4
 202 0047 05       		.byte	0x5
 203 0048 E6000000 		.4byte	.LASF4
 204 004c 02       		.uleb128 0x2
 205 004d 04       		.byte	0x4
 206 004e 07       		.byte	0x7
 207 004f 79000000 		.4byte	.LASF5
 208 0053 02       		.uleb128 0x2
 209 0054 08       		.byte	0x8
 210 0055 05       		.byte	0x5
 211 0056 00000000 		.4byte	.LASF6
 212 005a 02       		.uleb128 0x2
 213 005b 08       		.byte	0x8
 214 005c 07       		.byte	0x7
 215 005d 8B000000 		.4byte	.LASF7
 216 0061 03       		.uleb128 0x3
 217 0062 04       		.byte	0x4
 218 0063 05       		.byte	0x5
 219 0064 696E7400 		.ascii	"int\000"
 220 0068 02       		.uleb128 0x2
 221 0069 04       		.byte	0x4
 222 006a 07       		.byte	0x7
 223 006b 15000000 		.4byte	.LASF8
ARM GAS  C:\Users\SUZUKI~1\AppData\Local\Temp\ccwGukP6.s 			page 11


 224 006f 04       		.uleb128 0x4
 225 0070 73000000 		.4byte	.LASF9
 226 0074 02       		.byte	0x2
 227 0075 4C       		.byte	0x4c
 228 0076 30000000 		.4byte	0x30
 229 007a 04       		.uleb128 0x4
 230 007b 0E000000 		.4byte	.LASF10
 231 007f 02       		.byte	0x2
 232 0080 4E       		.byte	0x4e
 233 0081 4C000000 		.4byte	0x4c
 234 0085 02       		.uleb128 0x2
 235 0086 04       		.byte	0x4
 236 0087 04       		.byte	0x4
 237 0088 2C010000 		.4byte	.LASF11
 238 008c 02       		.uleb128 0x2
 239 008d 08       		.byte	0x8
 240 008e 04       		.byte	0x4
 241 008f 06010000 		.4byte	.LASF12
 242 0093 02       		.uleb128 0x2
 243 0094 01       		.byte	0x1
 244 0095 08       		.byte	0x8
 245 0096 E1000000 		.4byte	.LASF13
 246 009a 04       		.uleb128 0x4
 247 009b EF000000 		.4byte	.LASF14
 248 009f 02       		.byte	0x2
 249 00a0 E0       		.byte	0xe0
 250 00a1 A5000000 		.4byte	0xa5
 251 00a5 05       		.uleb128 0x5
 252 00a6 04       		.byte	0x4
 253 00a7 AB000000 		.4byte	0xab
 254 00ab 06       		.uleb128 0x6
 255 00ac 01       		.byte	0x1
 256 00ad 07       		.uleb128 0x7
 257 00ae 04       		.byte	0x4
 258 00af 07       		.byte	0x7
 259 00b0 08       		.uleb128 0x8
 260 00b1 01       		.byte	0x1
 261 00b2 22000000 		.4byte	.LASF15
 262 00b6 01       		.byte	0x1
 263 00b7 46       		.byte	0x46
 264 00b8 01       		.byte	0x1
 265 00b9 00000000 		.4byte	.LFB0
 266 00bd 02000000 		.4byte	.LFE0
 267 00c1 01       		.byte	0x1
 268 00c2 5D       		.byte	0x5d
 269 00c3 09       		.uleb128 0x9
 270 00c4 01       		.byte	0x1
 271 00c5 3F010000 		.4byte	.LASF16
 272 00c9 01       		.byte	0x1
 273 00ca 0001     		.2byte	0x100
 274 00cc 01       		.byte	0x1
 275 00cd 00000000 		.4byte	.LFB1
 276 00d1 18000000 		.4byte	.LFE1
 277 00d5 01       		.byte	0x1
 278 00d6 5D       		.byte	0x5d
 279 00d7 0A       		.uleb128 0xa
 280 00d8 01       		.byte	0x1
ARM GAS  C:\Users\SUZUKI~1\AppData\Local\Temp\ccwGukP6.s 			page 12


 281 00d9 63000000 		.4byte	.LASF23
 282 00dd 01       		.byte	0x1
 283 00de 3001     		.2byte	0x130
 284 00e0 01       		.byte	0x1
 285 00e1 00000000 		.4byte	.LFB2
 286 00e5 58000000 		.4byte	.LFE2
 287 00e9 00000000 		.4byte	.LLST2
 288 00ed FC000000 		.4byte	0xfc
 289 00f1 0B       		.uleb128 0xb
 290 00f2 6900     		.ascii	"i\000"
 291 00f4 01       		.byte	0x1
 292 00f5 3201     		.2byte	0x132
 293 00f7 7A000000 		.4byte	0x7a
 294 00fb 00       		.byte	0x0
 295 00fc 0C       		.uleb128 0xc
 296 00fd C5000000 		.4byte	.LASF17
 297 0101 03       		.byte	0x3
 298 0102 31       		.byte	0x31
 299 0103 6F000000 		.4byte	0x6f
 300 0107 01       		.byte	0x1
 301 0108 01       		.byte	0x1
 302 0109 0D       		.uleb128 0xd
 303 010a 9A000000 		.4byte	0x9a
 304 010e 19010000 		.4byte	0x119
 305 0112 0E       		.uleb128 0xe
 306 0113 AD000000 		.4byte	0xad
 307 0117 2F       		.byte	0x2f
 308 0118 00       		.byte	0x0
 309 0119 0F       		.uleb128 0xf
 310 011a 32010000 		.4byte	.LASF18
 311 011e 01       		.byte	0x1
 312 011f 32       		.byte	0x32
 313 0120 09010000 		.4byte	0x109
 314 0124 01       		.byte	0x1
 315 0125 05       		.byte	0x5
 316 0126 03       		.byte	0x3
 317 0127 00000000 		.4byte	CyRamVectors
 318 012b 0C       		.uleb128 0xc
 319 012c A2000000 		.4byte	.LASF19
 320 0130 01       		.byte	0x1
 321 0131 EB       		.byte	0xeb
 322 0132 7A000000 		.4byte	0x7a
 323 0136 01       		.byte	0x1
 324 0137 01       		.byte	0x1
 325 0138 00       		.byte	0x0
 326              		.section	.debug_abbrev
 327 0000 01       		.uleb128 0x1
 328 0001 11       		.uleb128 0x11
 329 0002 01       		.byte	0x1
 330 0003 25       		.uleb128 0x25
 331 0004 0E       		.uleb128 0xe
 332 0005 13       		.uleb128 0x13
 333 0006 0B       		.uleb128 0xb
 334 0007 03       		.uleb128 0x3
 335 0008 0E       		.uleb128 0xe
 336 0009 1B       		.uleb128 0x1b
 337 000a 0E       		.uleb128 0xe
ARM GAS  C:\Users\SUZUKI~1\AppData\Local\Temp\ccwGukP6.s 			page 13


 338 000b 11       		.uleb128 0x11
 339 000c 01       		.uleb128 0x1
 340 000d 52       		.uleb128 0x52
 341 000e 01       		.uleb128 0x1
 342 000f 55       		.uleb128 0x55
 343 0010 06       		.uleb128 0x6
 344 0011 10       		.uleb128 0x10
 345 0012 06       		.uleb128 0x6
 346 0013 00       		.byte	0x0
 347 0014 00       		.byte	0x0
 348 0015 02       		.uleb128 0x2
 349 0016 24       		.uleb128 0x24
 350 0017 00       		.byte	0x0
 351 0018 0B       		.uleb128 0xb
 352 0019 0B       		.uleb128 0xb
 353 001a 3E       		.uleb128 0x3e
 354 001b 0B       		.uleb128 0xb
 355 001c 03       		.uleb128 0x3
 356 001d 0E       		.uleb128 0xe
 357 001e 00       		.byte	0x0
 358 001f 00       		.byte	0x0
 359 0020 03       		.uleb128 0x3
 360 0021 24       		.uleb128 0x24
 361 0022 00       		.byte	0x0
 362 0023 0B       		.uleb128 0xb
 363 0024 0B       		.uleb128 0xb
 364 0025 3E       		.uleb128 0x3e
 365 0026 0B       		.uleb128 0xb
 366 0027 03       		.uleb128 0x3
 367 0028 08       		.uleb128 0x8
 368 0029 00       		.byte	0x0
 369 002a 00       		.byte	0x0
 370 002b 04       		.uleb128 0x4
 371 002c 16       		.uleb128 0x16
 372 002d 00       		.byte	0x0
 373 002e 03       		.uleb128 0x3
 374 002f 0E       		.uleb128 0xe
 375 0030 3A       		.uleb128 0x3a
 376 0031 0B       		.uleb128 0xb
 377 0032 3B       		.uleb128 0x3b
 378 0033 0B       		.uleb128 0xb
 379 0034 49       		.uleb128 0x49
 380 0035 13       		.uleb128 0x13
 381 0036 00       		.byte	0x0
 382 0037 00       		.byte	0x0
 383 0038 05       		.uleb128 0x5
 384 0039 0F       		.uleb128 0xf
 385 003a 00       		.byte	0x0
 386 003b 0B       		.uleb128 0xb
 387 003c 0B       		.uleb128 0xb
 388 003d 49       		.uleb128 0x49
 389 003e 13       		.uleb128 0x13
 390 003f 00       		.byte	0x0
 391 0040 00       		.byte	0x0
 392 0041 06       		.uleb128 0x6
 393 0042 15       		.uleb128 0x15
 394 0043 00       		.byte	0x0
ARM GAS  C:\Users\SUZUKI~1\AppData\Local\Temp\ccwGukP6.s 			page 14


 395 0044 27       		.uleb128 0x27
 396 0045 0C       		.uleb128 0xc
 397 0046 00       		.byte	0x0
 398 0047 00       		.byte	0x0
 399 0048 07       		.uleb128 0x7
 400 0049 24       		.uleb128 0x24
 401 004a 00       		.byte	0x0
 402 004b 0B       		.uleb128 0xb
 403 004c 0B       		.uleb128 0xb
 404 004d 3E       		.uleb128 0x3e
 405 004e 0B       		.uleb128 0xb
 406 004f 00       		.byte	0x0
 407 0050 00       		.byte	0x0
 408 0051 08       		.uleb128 0x8
 409 0052 2E       		.uleb128 0x2e
 410 0053 00       		.byte	0x0
 411 0054 3F       		.uleb128 0x3f
 412 0055 0C       		.uleb128 0xc
 413 0056 03       		.uleb128 0x3
 414 0057 0E       		.uleb128 0xe
 415 0058 3A       		.uleb128 0x3a
 416 0059 0B       		.uleb128 0xb
 417 005a 3B       		.uleb128 0x3b
 418 005b 0B       		.uleb128 0xb
 419 005c 27       		.uleb128 0x27
 420 005d 0C       		.uleb128 0xc
 421 005e 11       		.uleb128 0x11
 422 005f 01       		.uleb128 0x1
 423 0060 12       		.uleb128 0x12
 424 0061 01       		.uleb128 0x1
 425 0062 40       		.uleb128 0x40
 426 0063 0A       		.uleb128 0xa
 427 0064 00       		.byte	0x0
 428 0065 00       		.byte	0x0
 429 0066 09       		.uleb128 0x9
 430 0067 2E       		.uleb128 0x2e
 431 0068 00       		.byte	0x0
 432 0069 3F       		.uleb128 0x3f
 433 006a 0C       		.uleb128 0xc
 434 006b 03       		.uleb128 0x3
 435 006c 0E       		.uleb128 0xe
 436 006d 3A       		.uleb128 0x3a
 437 006e 0B       		.uleb128 0xb
 438 006f 3B       		.uleb128 0x3b
 439 0070 05       		.uleb128 0x5
 440 0071 27       		.uleb128 0x27
 441 0072 0C       		.uleb128 0xc
 442 0073 11       		.uleb128 0x11
 443 0074 01       		.uleb128 0x1
 444 0075 12       		.uleb128 0x12
 445 0076 01       		.uleb128 0x1
 446 0077 40       		.uleb128 0x40
 447 0078 0A       		.uleb128 0xa
 448 0079 00       		.byte	0x0
 449 007a 00       		.byte	0x0
 450 007b 0A       		.uleb128 0xa
 451 007c 2E       		.uleb128 0x2e
ARM GAS  C:\Users\SUZUKI~1\AppData\Local\Temp\ccwGukP6.s 			page 15


 452 007d 01       		.byte	0x1
 453 007e 3F       		.uleb128 0x3f
 454 007f 0C       		.uleb128 0xc
 455 0080 03       		.uleb128 0x3
 456 0081 0E       		.uleb128 0xe
 457 0082 3A       		.uleb128 0x3a
 458 0083 0B       		.uleb128 0xb
 459 0084 3B       		.uleb128 0x3b
 460 0085 05       		.uleb128 0x5
 461 0086 27       		.uleb128 0x27
 462 0087 0C       		.uleb128 0xc
 463 0088 11       		.uleb128 0x11
 464 0089 01       		.uleb128 0x1
 465 008a 12       		.uleb128 0x12
 466 008b 01       		.uleb128 0x1
 467 008c 40       		.uleb128 0x40
 468 008d 06       		.uleb128 0x6
 469 008e 01       		.uleb128 0x1
 470 008f 13       		.uleb128 0x13
 471 0090 00       		.byte	0x0
 472 0091 00       		.byte	0x0
 473 0092 0B       		.uleb128 0xb
 474 0093 34       		.uleb128 0x34
 475 0094 00       		.byte	0x0
 476 0095 03       		.uleb128 0x3
 477 0096 08       		.uleb128 0x8
 478 0097 3A       		.uleb128 0x3a
 479 0098 0B       		.uleb128 0xb
 480 0099 3B       		.uleb128 0x3b
 481 009a 05       		.uleb128 0x5
 482 009b 49       		.uleb128 0x49
 483 009c 13       		.uleb128 0x13
 484 009d 00       		.byte	0x0
 485 009e 00       		.byte	0x0
 486 009f 0C       		.uleb128 0xc
 487 00a0 34       		.uleb128 0x34
 488 00a1 00       		.byte	0x0
 489 00a2 03       		.uleb128 0x3
 490 00a3 0E       		.uleb128 0xe
 491 00a4 3A       		.uleb128 0x3a
 492 00a5 0B       		.uleb128 0xb
 493 00a6 3B       		.uleb128 0x3b
 494 00a7 0B       		.uleb128 0xb
 495 00a8 49       		.uleb128 0x49
 496 00a9 13       		.uleb128 0x13
 497 00aa 3F       		.uleb128 0x3f
 498 00ab 0C       		.uleb128 0xc
 499 00ac 3C       		.uleb128 0x3c
 500 00ad 0C       		.uleb128 0xc
 501 00ae 00       		.byte	0x0
 502 00af 00       		.byte	0x0
 503 00b0 0D       		.uleb128 0xd
 504 00b1 01       		.uleb128 0x1
 505 00b2 01       		.byte	0x1
 506 00b3 49       		.uleb128 0x49
 507 00b4 13       		.uleb128 0x13
 508 00b5 01       		.uleb128 0x1
ARM GAS  C:\Users\SUZUKI~1\AppData\Local\Temp\ccwGukP6.s 			page 16


 509 00b6 13       		.uleb128 0x13
 510 00b7 00       		.byte	0x0
 511 00b8 00       		.byte	0x0
 512 00b9 0E       		.uleb128 0xe
 513 00ba 21       		.uleb128 0x21
 514 00bb 00       		.byte	0x0
 515 00bc 49       		.uleb128 0x49
 516 00bd 13       		.uleb128 0x13
 517 00be 2F       		.uleb128 0x2f
 518 00bf 0B       		.uleb128 0xb
 519 00c0 00       		.byte	0x0
 520 00c1 00       		.byte	0x0
 521 00c2 0F       		.uleb128 0xf
 522 00c3 34       		.uleb128 0x34
 523 00c4 00       		.byte	0x0
 524 00c5 03       		.uleb128 0x3
 525 00c6 0E       		.uleb128 0xe
 526 00c7 3A       		.uleb128 0x3a
 527 00c8 0B       		.uleb128 0xb
 528 00c9 3B       		.uleb128 0x3b
 529 00ca 0B       		.uleb128 0xb
 530 00cb 49       		.uleb128 0x49
 531 00cc 13       		.uleb128 0x13
 532 00cd 3F       		.uleb128 0x3f
 533 00ce 0C       		.uleb128 0xc
 534 00cf 02       		.uleb128 0x2
 535 00d0 0A       		.uleb128 0xa
 536 00d1 00       		.byte	0x0
 537 00d2 00       		.byte	0x0
 538 00d3 00       		.byte	0x0
 539              		.section	.debug_pubnames,"",%progbits
 540 0000 53000000 		.4byte	0x53
 541 0004 0200     		.2byte	0x2
 542 0006 00000000 		.4byte	.Ldebug_info0
 543 000a 39010000 		.4byte	0x139
 544 000e B0000000 		.4byte	0xb0
 545 0012 496E7444 		.ascii	"IntDefaultHandler\000"
 545      65666175 
 545      6C744861 
 545      6E646C65 
 545      7200
 546 0024 C3000000 		.4byte	0xc3
 547 0028 52657365 		.ascii	"Reset\000"
 547      7400
 548 002e D7000000 		.4byte	0xd7
 549 0032 696E6974 		.ascii	"initialize_psoc\000"
 549      69616C69 
 549      7A655F70 
 549      736F6300 
 550 0042 19010000 		.4byte	0x119
 551 0046 43795261 		.ascii	"CyRamVectors\000"
 551      6D566563 
 551      746F7273 
 551      00
 552 0053 00000000 		.4byte	0x0
 553              		.section	.debug_aranges,"",%progbits
 554 0000 2C000000 		.4byte	0x2c
ARM GAS  C:\Users\SUZUKI~1\AppData\Local\Temp\ccwGukP6.s 			page 17


 555 0004 0200     		.2byte	0x2
 556 0006 00000000 		.4byte	.Ldebug_info0
 557 000a 04       		.byte	0x4
 558 000b 00       		.byte	0x0
 559 000c 0000     		.2byte	0x0
 560 000e 0000     		.2byte	0x0
 561 0010 00000000 		.4byte	.LFB0
 562 0014 02000000 		.4byte	.LFE0-.LFB0
 563 0018 00000000 		.4byte	.LFB1
 564 001c 18000000 		.4byte	.LFE1-.LFB1
 565 0020 00000000 		.4byte	.LFB2
 566 0024 58000000 		.4byte	.LFE2-.LFB2
 567 0028 00000000 		.4byte	0x0
 568 002c 00000000 		.4byte	0x0
 569              		.section	.debug_ranges,"",%progbits
 570              	.Ldebug_ranges0:
 571 0000 00000000 		.4byte	.Ltext0
 572 0004 00000000 		.4byte	.Letext0
 573 0008 00000000 		.4byte	.LFB0
 574 000c 02000000 		.4byte	.LFE0
 575 0010 00000000 		.4byte	.LFB1
 576 0014 18000000 		.4byte	.LFE1
 577 0018 00000000 		.4byte	.LFB2
 578 001c 58000000 		.4byte	.LFE2
 579 0020 00000000 		.4byte	0x0
 580 0024 00000000 		.4byte	0x0
 581              		.section	.debug_str,"MS",%progbits,1
 582              	.LASF6:
 583 0000 6C6F6E67 		.ascii	"long long int\000"
 583      206C6F6E 
 583      6720696E 
 583      7400
 584              	.LASF10:
 585 000e 75696E74 		.ascii	"uint32\000"
 585      333200
 586              	.LASF8:
 587 0015 756E7369 		.ascii	"unsigned int\000"
 587      676E6564 
 587      20696E74 
 587      00
 588              	.LASF15:
 589 0022 496E7444 		.ascii	"IntDefaultHandler\000"
 589      65666175 
 589      6C744861 
 589      6E646C65 
 589      7200
 590              	.LASF22:
 591 0034 5C5C5642 		.ascii	"\\\\VBOXSVR\\PSoC_Creator\\tfexpbrd\\tfexpbrd.cydsn"
 591      4F585356 
 591      525C5053 
 591      6F435F43 
 591      72656174 
 592 0062 00       		.ascii	"\000"
 593              	.LASF23:
 594 0063 696E6974 		.ascii	"initialize_psoc\000"
 594      69616C69 
 594      7A655F70 
ARM GAS  C:\Users\SUZUKI~1\AppData\Local\Temp\ccwGukP6.s 			page 18


 594      736F6300 
 595              	.LASF9:
 596 0073 75696E74 		.ascii	"uint8\000"
 596      3800
 597              	.LASF5:
 598 0079 6C6F6E67 		.ascii	"long unsigned int\000"
 598      20756E73 
 598      69676E65 
 598      6420696E 
 598      7400
 599              	.LASF7:
 600 008b 6C6F6E67 		.ascii	"long long unsigned int\000"
 600      206C6F6E 
 600      6720756E 
 600      7369676E 
 600      65642069 
 601              	.LASF19:
 602 00a2 5F5F6373 		.ascii	"__cs3_interrupt_vector\000"
 602      335F696E 
 602      74657272 
 602      7570745F 
 602      76656374 
 603              	.LASF20:
 604 00b9 474E5520 		.ascii	"GNU C 4.4.1\000"
 604      4320342E 
 604      342E3100 
 605              	.LASF17:
 606 00c5 43795265 		.ascii	"CyResetStatus\000"
 606      73657453 
 606      74617475 
 606      7300
 607              	.LASF1:
 608 00d3 756E7369 		.ascii	"unsigned char\000"
 608      676E6564 
 608      20636861 
 608      7200
 609              	.LASF13:
 610 00e1 63686172 		.ascii	"char\000"
 610      00
 611              	.LASF4:
 612 00e6 6C6F6E67 		.ascii	"long int\000"
 612      20696E74 
 612      00
 613              	.LASF14:
 614 00ef 63796973 		.ascii	"cyisraddress\000"
 614      72616464 
 614      72657373 
 614      00
 615              	.LASF2:
 616 00fc 73686F72 		.ascii	"short int\000"
 616      7420696E 
 616      7400
 617              	.LASF12:
 618 0106 646F7562 		.ascii	"double\000"
 618      6C6500
 619              	.LASF3:
 620 010d 73686F72 		.ascii	"short unsigned int\000"
ARM GAS  C:\Users\SUZUKI~1\AppData\Local\Temp\ccwGukP6.s 			page 19


 620      7420756E 
 620      7369676E 
 620      65642069 
 620      6E7400
 621              	.LASF0:
 622 0120 7369676E 		.ascii	"signed char\000"
 622      65642063 
 622      68617200 
 623              	.LASF11:
 624 012c 666C6F61 		.ascii	"float\000"
 624      7400
 625              	.LASF18:
 626 0132 43795261 		.ascii	"CyRamVectors\000"
 626      6D566563 
 626      746F7273 
 626      00
 627              	.LASF16:
 628 013f 52657365 		.ascii	"Reset\000"
 628      7400
 629              	.LASF21:
 630 0145 2E5C4765 		.ascii	".\\Generated_Source\\PSoC5\\Cm3Start.c\000"
 630      6E657261 
 630      7465645F 
 630      536F7572 
 630      63655C50 
 631              		.ident	"GCC: (Sourcery G++ Lite 2010q1-188) 4.4.1"
