ARM GAS  C:\Users\SUZUKI~1\AppData\Local\Temp\ccX7ormo.s 			page 1


   1              		.syntax unified
   2              		.cpu cortex-m3
   3              		.fpu softvfp
   4              		.eabi_attribute 20, 1
   5              		.eabi_attribute 21, 1
   6              		.eabi_attribute 23, 3
   7              		.eabi_attribute 24, 1
   8              		.eabi_attribute 25, 1
   9              		.eabi_attribute 26, 1
  10              		.eabi_attribute 30, 4
  11              		.eabi_attribute 18, 4
  12              		.thumb
  13              		.file	"dmauart_1_dmauart.c"
  14              		.section	.debug_abbrev,"",%progbits
  15              	.Ldebug_abbrev0:
  16              		.section	.debug_info,"",%progbits
  17              	.Ldebug_info0:
  18              		.section	.debug_line,"",%progbits
  19              	.Ldebug_line0:
  20 0000 69000000 		.text
  20      02004300 
  20      00000201 
  20      FB0E0D00 
  20      01010101 
  21              	.Ltext0:
  22              		.cfi_sections	.debug_frame
  23              		.section	.text.dmauart_1_Start,"ax",%progbits
  24              		.align	1
  25              		.global	dmauart_1_Start
  26              		.thumb
  27              		.thumb_func
  28              		.type	dmauart_1_Start, %function
  29              	dmauart_1_Start:
  30              	.LFB0:
  31              		.file 1 ".\\Generated_Source\\PSoC5\\dmauart_1_dmauart.c"
   1:.\Generated_Source\PSoC5/dmauart_1_dmauart.c **** /* ========================================
   2:.\Generated_Source\PSoC5/dmauart_1_dmauart.c ****  *
   3:.\Generated_Source\PSoC5/dmauart_1_dmauart.c ****  * Copyright YOUR COMPANY, THE YEAR
   4:.\Generated_Source\PSoC5/dmauart_1_dmauart.c ****  * All Rights Reserved
   5:.\Generated_Source\PSoC5/dmauart_1_dmauart.c ****  * UNPUBLISHED, LICENSED SOFTWARE.
   6:.\Generated_Source\PSoC5/dmauart_1_dmauart.c ****  *
   7:.\Generated_Source\PSoC5/dmauart_1_dmauart.c ****  * CONFIDENTIAL AND PROPRIETARY INFORMATION
   8:.\Generated_Source\PSoC5/dmauart_1_dmauart.c ****  * WHICH IS THE PROPERTY OF your company.
   9:.\Generated_Source\PSoC5/dmauart_1_dmauart.c ****  *
  10:.\Generated_Source\PSoC5/dmauart_1_dmauart.c ****  * ========================================
  11:.\Generated_Source\PSoC5/dmauart_1_dmauart.c **** */
  12:.\Generated_Source\PSoC5/dmauart_1_dmauart.c **** 
  13:.\Generated_Source\PSoC5/dmauart_1_dmauart.c **** void dmauart_1_Start(void)
  14:.\Generated_Source\PSoC5/dmauart_1_dmauart.c **** {
  32              		.loc 1 14 0
  33              		.cfi_startproc
  34              		@ args = 0, pretend = 0, frame = 0
  35              		@ frame_needed = 0, uses_anonymous_args = 0
  36              		@ link register save eliminated.
  15:.\Generated_Source\PSoC5/dmauart_1_dmauart.c **** 	/*  */
  16:.\Generated_Source\PSoC5/dmauart_1_dmauart.c **** 	return;
  17:.\Generated_Source\PSoC5/dmauart_1_dmauart.c **** }
ARM GAS  C:\Users\SUZUKI~1\AppData\Local\Temp\ccX7ormo.s 			page 2


  37              		.loc 1 17 0
  38 0000 7047     		bx	lr
  39              		.cfi_endproc
  40              	.LFE0:
  41              		.size	dmauart_1_Start, .-dmauart_1_Start
  42              		.section	.text.dmauart_1_Stop,"ax",%progbits
  43              		.align	1
  44              		.global	dmauart_1_Stop
  45              		.thumb
  46              		.thumb_func
  47              		.type	dmauart_1_Stop, %function
  48              	dmauart_1_Stop:
  49              	.LFB1:
  18:.\Generated_Source\PSoC5/dmauart_1_dmauart.c **** 
  19:.\Generated_Source\PSoC5/dmauart_1_dmauart.c **** void dmauart_1_Stop(void)
  20:.\Generated_Source\PSoC5/dmauart_1_dmauart.c **** {
  50              		.loc 1 20 0
  51              		.cfi_startproc
  52              		@ args = 0, pretend = 0, frame = 0
  53              		@ frame_needed = 0, uses_anonymous_args = 0
  54              		@ link register save eliminated.
  21:.\Generated_Source\PSoC5/dmauart_1_dmauart.c **** 	return;
  22:.\Generated_Source\PSoC5/dmauart_1_dmauart.c **** }
  55              		.loc 1 22 0
  56 0000 7047     		bx	lr
  57              		.cfi_endproc
  58              	.LFE1:
  59              		.size	dmauart_1_Stop, .-dmauart_1_Stop
  60              		.text
  61              	.Letext0:
  62              		.section	.debug_info
  63 0000 4C000000 		.4byte	0x4c
  64 0004 0200     		.2byte	0x2
  65 0006 00000000 		.4byte	.Ldebug_abbrev0
  66 000a 04       		.byte	0x4
  67 000b 01       		.uleb128 0x1
  68 000c 32000000 		.4byte	.LASF2
  69 0010 01       		.byte	0x1
  70 0011 5D000000 		.4byte	.LASF3
  71 0015 00000000 		.4byte	.LASF4
  72 0019 00000000 		.4byte	0x0
  73 001d 00000000 		.4byte	0x0
  74 0021 00000000 		.4byte	.Ldebug_ranges0+0x0
  75 0025 00000000 		.4byte	.Ldebug_line0
  76 0029 02       		.uleb128 0x2
  77 002a 01       		.byte	0x1
  78 002b 4D000000 		.4byte	.LASF0
  79 002f 01       		.byte	0x1
  80 0030 0D       		.byte	0xd
  81 0031 01       		.byte	0x1
  82 0032 00000000 		.4byte	.LFB0
  83 0036 02000000 		.4byte	.LFE0
  84 003a 01       		.byte	0x1
  85 003b 5D       		.byte	0x5d
  86 003c 02       		.uleb128 0x2
  87 003d 01       		.byte	0x1
  88 003e 3E000000 		.4byte	.LASF1
ARM GAS  C:\Users\SUZUKI~1\AppData\Local\Temp\ccX7ormo.s 			page 3


  89 0042 01       		.byte	0x1
  90 0043 13       		.byte	0x13
  91 0044 01       		.byte	0x1
  92 0045 00000000 		.4byte	.LFB1
  93 0049 02000000 		.4byte	.LFE1
  94 004d 01       		.byte	0x1
  95 004e 5D       		.byte	0x5d
  96 004f 00       		.byte	0x0
  97              		.section	.debug_abbrev
  98 0000 01       		.uleb128 0x1
  99 0001 11       		.uleb128 0x11
 100 0002 01       		.byte	0x1
 101 0003 25       		.uleb128 0x25
 102 0004 0E       		.uleb128 0xe
 103 0005 13       		.uleb128 0x13
 104 0006 0B       		.uleb128 0xb
 105 0007 03       		.uleb128 0x3
 106 0008 0E       		.uleb128 0xe
 107 0009 1B       		.uleb128 0x1b
 108 000a 0E       		.uleb128 0xe
 109 000b 11       		.uleb128 0x11
 110 000c 01       		.uleb128 0x1
 111 000d 52       		.uleb128 0x52
 112 000e 01       		.uleb128 0x1
 113 000f 55       		.uleb128 0x55
 114 0010 06       		.uleb128 0x6
 115 0011 10       		.uleb128 0x10
 116 0012 06       		.uleb128 0x6
 117 0013 00       		.byte	0x0
 118 0014 00       		.byte	0x0
 119 0015 02       		.uleb128 0x2
 120 0016 2E       		.uleb128 0x2e
 121 0017 00       		.byte	0x0
 122 0018 3F       		.uleb128 0x3f
 123 0019 0C       		.uleb128 0xc
 124 001a 03       		.uleb128 0x3
 125 001b 0E       		.uleb128 0xe
 126 001c 3A       		.uleb128 0x3a
 127 001d 0B       		.uleb128 0xb
 128 001e 3B       		.uleb128 0x3b
 129 001f 0B       		.uleb128 0xb
 130 0020 27       		.uleb128 0x27
 131 0021 0C       		.uleb128 0xc
 132 0022 11       		.uleb128 0x11
 133 0023 01       		.uleb128 0x1
 134 0024 12       		.uleb128 0x12
 135 0025 01       		.uleb128 0x1
 136 0026 40       		.uleb128 0x40
 137 0027 0A       		.uleb128 0xa
 138 0028 00       		.byte	0x0
 139 0029 00       		.byte	0x0
 140 002a 00       		.byte	0x0
 141              		.section	.debug_pubnames,"",%progbits
 142 0000 35000000 		.4byte	0x35
 143 0004 0200     		.2byte	0x2
 144 0006 00000000 		.4byte	.Ldebug_info0
 145 000a 50000000 		.4byte	0x50
ARM GAS  C:\Users\SUZUKI~1\AppData\Local\Temp\ccX7ormo.s 			page 4


 146 000e 29000000 		.4byte	0x29
 147 0012 646D6175 		.ascii	"dmauart_1_Start\000"
 147      6172745F 
 147      315F5374 
 147      61727400 
 148 0022 3C000000 		.4byte	0x3c
 149 0026 646D6175 		.ascii	"dmauart_1_Stop\000"
 149      6172745F 
 149      315F5374 
 149      6F7000
 150 0035 00000000 		.4byte	0x0
 151              		.section	.debug_aranges,"",%progbits
 152 0000 24000000 		.4byte	0x24
 153 0004 0200     		.2byte	0x2
 154 0006 00000000 		.4byte	.Ldebug_info0
 155 000a 04       		.byte	0x4
 156 000b 00       		.byte	0x0
 157 000c 0000     		.2byte	0x0
 158 000e 0000     		.2byte	0x0
 159 0010 00000000 		.4byte	.LFB0
 160 0014 02000000 		.4byte	.LFE0-.LFB0
 161 0018 00000000 		.4byte	.LFB1
 162 001c 02000000 		.4byte	.LFE1-.LFB1
 163 0020 00000000 		.4byte	0x0
 164 0024 00000000 		.4byte	0x0
 165              		.section	.debug_ranges,"",%progbits
 166              	.Ldebug_ranges0:
 167 0000 00000000 		.4byte	.Ltext0
 168 0004 00000000 		.4byte	.Letext0
 169 0008 00000000 		.4byte	.LFB0
 170 000c 02000000 		.4byte	.LFE0
 171 0010 00000000 		.4byte	.LFB1
 172 0014 02000000 		.4byte	.LFE1
 173 0018 00000000 		.4byte	0x0
 174 001c 00000000 		.4byte	0x0
 175              		.section	.debug_str,"MS",%progbits,1
 176              	.LASF4:
 177 0000 463A5C44 		.ascii	"F:\\Documents\\PSoC_Creator\\tfexpbrd\\tfexpbrd.cyd"
 177      6F63756D 
 177      656E7473 
 177      5C50536F 
 177      435F4372 
 178 002f 736E00   		.ascii	"sn\000"
 179              	.LASF2:
 180 0032 474E5520 		.ascii	"GNU C 4.4.1\000"
 180      4320342E 
 180      342E3100 
 181              	.LASF1:
 182 003e 646D6175 		.ascii	"dmauart_1_Stop\000"
 182      6172745F 
 182      315F5374 
 182      6F7000
 183              	.LASF0:
 184 004d 646D6175 		.ascii	"dmauart_1_Start\000"
 184      6172745F 
 184      315F5374 
 184      61727400 
ARM GAS  C:\Users\SUZUKI~1\AppData\Local\Temp\ccX7ormo.s 			page 5


 185              	.LASF3:
 186 005d 2E5C4765 		.ascii	".\\Generated_Source\\PSoC5\\dmauart_1_dmauart.c\000"
 186      6E657261 
 186      7465645F 
 186      536F7572 
 186      63655C50 
 187              		.ident	"GCC: (Sourcery G++ Lite 2010q1-188) 4.4.1"
