ARM GAS  C:\Users\SUZUKI~1\AppData\Local\Temp\ccGcXBfL.s 			page 1


   1              		.syntax unified
   2              		.cpu cortex-m3
   3              		.fpu softvfp
   4              		.eabi_attribute 20, 1
   5              		.eabi_attribute 21, 1
   6              		.eabi_attribute 23, 3
   7              		.eabi_attribute 24, 1
   8              		.eabi_attribute 25, 1
   9              		.eabi_attribute 26, 1
  10              		.eabi_attribute 30, 4
  11              		.eabi_attribute 18, 4
  12              		.thumb
  13              		.file	"QuadDec_1.c"
  14              		.section	.debug_abbrev,"",%progbits
  15              	.Ldebug_abbrev0:
  16              		.section	.debug_info,"",%progbits
  17              	.Ldebug_info0:
  18              		.section	.debug_line,"",%progbits
  19              	.Ldebug_line0:
  20 0000 23010000 		.text
  20      02006200 
  20      00000201 
  20      FB0E0D00 
  20      01010101 
  21              	.Ltext0:
  22              		.cfi_sections	.debug_frame
  23              		.section	.text.QuadDec_1_Init,"ax",%progbits
  24              		.align	1
  25              		.global	QuadDec_1_Init
  26              		.thumb
  27              		.thumb_func
  28              		.type	QuadDec_1_Init, %function
  29              	QuadDec_1_Init:
  30              	.LFB0:
  31              		.file 1 ".\\Generated_Source\\PSoC5\\QuadDec_1.c"
   1:.\Generated_Source\PSoC5/QuadDec_1.c **** /*******************************************************************************
   2:.\Generated_Source\PSoC5/QuadDec_1.c **** * File Name: QuadDec_1.c  
   3:.\Generated_Source\PSoC5/QuadDec_1.c **** * Version 2.20
   4:.\Generated_Source\PSoC5/QuadDec_1.c **** *
   5:.\Generated_Source\PSoC5/QuadDec_1.c **** * Description:
   6:.\Generated_Source\PSoC5/QuadDec_1.c **** *  This file provides the source code to the API for the Quadrature Decoder
   7:.\Generated_Source\PSoC5/QuadDec_1.c **** *  component.
   8:.\Generated_Source\PSoC5/QuadDec_1.c **** *
   9:.\Generated_Source\PSoC5/QuadDec_1.c **** * Note:
  10:.\Generated_Source\PSoC5/QuadDec_1.c **** *  None.
  11:.\Generated_Source\PSoC5/QuadDec_1.c **** *   
  12:.\Generated_Source\PSoC5/QuadDec_1.c **** ********************************************************************************
  13:.\Generated_Source\PSoC5/QuadDec_1.c **** * Copyright 2008-2012, Cypress Semiconductor Corporation.  All rights reserved.
  14:.\Generated_Source\PSoC5/QuadDec_1.c **** * You may use this file only in accordance with the license, terms, conditions, 
  15:.\Generated_Source\PSoC5/QuadDec_1.c **** * disclaimers, and limitations in the end user license agreement accompanying 
  16:.\Generated_Source\PSoC5/QuadDec_1.c **** * the software package with which this file was provided.
  17:.\Generated_Source\PSoC5/QuadDec_1.c **** *******************************************************************************/
  18:.\Generated_Source\PSoC5/QuadDec_1.c **** 
  19:.\Generated_Source\PSoC5/QuadDec_1.c **** #include "QuadDec_1.h"
  20:.\Generated_Source\PSoC5/QuadDec_1.c **** 
  21:.\Generated_Source\PSoC5/QuadDec_1.c **** #if (QuadDec_1_COUNTER_SIZE == QuadDec_1_COUNTER_SIZE_32_BIT)
  22:.\Generated_Source\PSoC5/QuadDec_1.c ****     #include "QuadDec_1_PVT.h"
ARM GAS  C:\Users\SUZUKI~1\AppData\Local\Temp\ccGcXBfL.s 			page 2


  23:.\Generated_Source\PSoC5/QuadDec_1.c **** #endif /* QuadDec_1_COUNTER_SIZE == QuadDec_1_COUNTER_SIZE_32_BIT */
  24:.\Generated_Source\PSoC5/QuadDec_1.c **** 
  25:.\Generated_Source\PSoC5/QuadDec_1.c **** uint8 QuadDec_1_initVar = 0u;
  26:.\Generated_Source\PSoC5/QuadDec_1.c **** 
  27:.\Generated_Source\PSoC5/QuadDec_1.c **** 
  28:.\Generated_Source\PSoC5/QuadDec_1.c **** /*******************************************************************************
  29:.\Generated_Source\PSoC5/QuadDec_1.c **** * Function Name: QuadDec_1_Init
  30:.\Generated_Source\PSoC5/QuadDec_1.c **** ********************************************************************************
  31:.\Generated_Source\PSoC5/QuadDec_1.c **** *
  32:.\Generated_Source\PSoC5/QuadDec_1.c **** * Summary:
  33:.\Generated_Source\PSoC5/QuadDec_1.c **** *  Inits/Restores default QuadDec configuration provided with customizer.
  34:.\Generated_Source\PSoC5/QuadDec_1.c **** *
  35:.\Generated_Source\PSoC5/QuadDec_1.c **** * Parameters:
  36:.\Generated_Source\PSoC5/QuadDec_1.c **** *  None.
  37:.\Generated_Source\PSoC5/QuadDec_1.c **** *
  38:.\Generated_Source\PSoC5/QuadDec_1.c **** * Return:
  39:.\Generated_Source\PSoC5/QuadDec_1.c **** *  None.
  40:.\Generated_Source\PSoC5/QuadDec_1.c **** *
  41:.\Generated_Source\PSoC5/QuadDec_1.c **** *******************************************************************************/
  42:.\Generated_Source\PSoC5/QuadDec_1.c **** void QuadDec_1_Init(void) 
  43:.\Generated_Source\PSoC5/QuadDec_1.c **** {
  32              		.loc 1 43 0
  33              		.cfi_startproc
  34              		@ args = 0, pretend = 0, frame = 0
  35              		@ frame_needed = 0, uses_anonymous_args = 0
  36              		@ link register save eliminated.
  44:.\Generated_Source\PSoC5/QuadDec_1.c ****     #if (QuadDec_1_COUNTER_SIZE == QuadDec_1_COUNTER_SIZE_32_BIT)
  45:.\Generated_Source\PSoC5/QuadDec_1.c ****         /* Disable Interrupt. */
  46:.\Generated_Source\PSoC5/QuadDec_1.c ****         CyIntDisable(QuadDec_1_ISR_NUMBER);
  47:.\Generated_Source\PSoC5/QuadDec_1.c ****         /* Set the ISR to point to the QuadDec_1_isr Interrupt. */
  48:.\Generated_Source\PSoC5/QuadDec_1.c ****         (void) CyIntSetVector(QuadDec_1_ISR_NUMBER, & QuadDec_1_ISR);
  49:.\Generated_Source\PSoC5/QuadDec_1.c ****         /* Set the priority. */
  50:.\Generated_Source\PSoC5/QuadDec_1.c ****         CyIntSetPriority(QuadDec_1_ISR_NUMBER, QuadDec_1_ISR_PRIORITY);
  51:.\Generated_Source\PSoC5/QuadDec_1.c ****     #endif /* QuadDec_1_COUNTER_SIZE == QuadDec_1_COUNTER_SIZE_32_BIT */
  52:.\Generated_Source\PSoC5/QuadDec_1.c **** }
  37              		.loc 1 52 0
  38 0000 7047     		bx	lr
  39              		.cfi_endproc
  40              	.LFE0:
  41              		.size	QuadDec_1_Init, .-QuadDec_1_Init
  42              		.section	.text.QuadDec_1_GetEvents,"ax",%progbits
  43              		.align	1
  44              		.global	QuadDec_1_GetEvents
  45              		.thumb
  46              		.thumb_func
  47              		.type	QuadDec_1_GetEvents, %function
  48              	QuadDec_1_GetEvents:
  49              	.LFB6:
  53:.\Generated_Source\PSoC5/QuadDec_1.c **** 
  54:.\Generated_Source\PSoC5/QuadDec_1.c **** 
  55:.\Generated_Source\PSoC5/QuadDec_1.c **** /*******************************************************************************
  56:.\Generated_Source\PSoC5/QuadDec_1.c **** * Function Name: QuadDec_1_Enable
  57:.\Generated_Source\PSoC5/QuadDec_1.c **** ********************************************************************************
  58:.\Generated_Source\PSoC5/QuadDec_1.c **** *
  59:.\Generated_Source\PSoC5/QuadDec_1.c **** * Summary:
  60:.\Generated_Source\PSoC5/QuadDec_1.c **** *  This function enable interrupts from Component and also enable Component's
  61:.\Generated_Source\PSoC5/QuadDec_1.c **** *  ISR in case of 32-bit counter.
ARM GAS  C:\Users\SUZUKI~1\AppData\Local\Temp\ccGcXBfL.s 			page 3


  62:.\Generated_Source\PSoC5/QuadDec_1.c **** *
  63:.\Generated_Source\PSoC5/QuadDec_1.c **** * Parameters:
  64:.\Generated_Source\PSoC5/QuadDec_1.c **** *  None.
  65:.\Generated_Source\PSoC5/QuadDec_1.c **** *
  66:.\Generated_Source\PSoC5/QuadDec_1.c **** * Return:
  67:.\Generated_Source\PSoC5/QuadDec_1.c **** *  None.
  68:.\Generated_Source\PSoC5/QuadDec_1.c **** *
  69:.\Generated_Source\PSoC5/QuadDec_1.c **** *******************************************************************************/
  70:.\Generated_Source\PSoC5/QuadDec_1.c **** void QuadDec_1_Enable(void) 
  71:.\Generated_Source\PSoC5/QuadDec_1.c **** {
  72:.\Generated_Source\PSoC5/QuadDec_1.c ****     uint8 enableInterrupts;
  73:.\Generated_Source\PSoC5/QuadDec_1.c **** 
  74:.\Generated_Source\PSoC5/QuadDec_1.c ****     QuadDec_1_SetInterruptMask(QuadDec_1_INIT_INT_MASK);
  75:.\Generated_Source\PSoC5/QuadDec_1.c **** 
  76:.\Generated_Source\PSoC5/QuadDec_1.c ****     enableInterrupts = CyEnterCriticalSection();
  77:.\Generated_Source\PSoC5/QuadDec_1.c **** 
  78:.\Generated_Source\PSoC5/QuadDec_1.c ****     /* Enable interrupts from Statusi register */
  79:.\Generated_Source\PSoC5/QuadDec_1.c ****     QuadDec_1_SR_AUX_CONTROL |= QuadDec_1_INTERRUPTS_ENABLE;
  80:.\Generated_Source\PSoC5/QuadDec_1.c **** 
  81:.\Generated_Source\PSoC5/QuadDec_1.c ****     CyExitCriticalSection(enableInterrupts);
  82:.\Generated_Source\PSoC5/QuadDec_1.c **** 
  83:.\Generated_Source\PSoC5/QuadDec_1.c ****     #if (QuadDec_1_COUNTER_SIZE == QuadDec_1_COUNTER_SIZE_32_BIT)
  84:.\Generated_Source\PSoC5/QuadDec_1.c ****         /* Enable Component interrupts */
  85:.\Generated_Source\PSoC5/QuadDec_1.c ****         CyIntEnable(QuadDec_1_ISR_NUMBER);
  86:.\Generated_Source\PSoC5/QuadDec_1.c ****     #endif /* QuadDec_1_COUNTER_SIZE == QuadDec_1_COUNTER_SIZE_32_BIT */
  87:.\Generated_Source\PSoC5/QuadDec_1.c **** }
  88:.\Generated_Source\PSoC5/QuadDec_1.c **** 
  89:.\Generated_Source\PSoC5/QuadDec_1.c **** 
  90:.\Generated_Source\PSoC5/QuadDec_1.c **** /*******************************************************************************
  91:.\Generated_Source\PSoC5/QuadDec_1.c **** * Function Name: QuadDec_1_Start
  92:.\Generated_Source\PSoC5/QuadDec_1.c **** ********************************************************************************
  93:.\Generated_Source\PSoC5/QuadDec_1.c **** *
  94:.\Generated_Source\PSoC5/QuadDec_1.c **** * Summary:
  95:.\Generated_Source\PSoC5/QuadDec_1.c **** *  Initializes UDBs and other relevant hardware.
  96:.\Generated_Source\PSoC5/QuadDec_1.c **** *  Resets counter, enables or disables all relevant interrupts.
  97:.\Generated_Source\PSoC5/QuadDec_1.c **** *  Starts monitoring the inputs and counting.
  98:.\Generated_Source\PSoC5/QuadDec_1.c **** *
  99:.\Generated_Source\PSoC5/QuadDec_1.c **** * Parameters:
 100:.\Generated_Source\PSoC5/QuadDec_1.c **** *  None.
 101:.\Generated_Source\PSoC5/QuadDec_1.c **** *
 102:.\Generated_Source\PSoC5/QuadDec_1.c **** * Return:
 103:.\Generated_Source\PSoC5/QuadDec_1.c **** *  None.
 104:.\Generated_Source\PSoC5/QuadDec_1.c **** *
 105:.\Generated_Source\PSoC5/QuadDec_1.c **** * Global variables:
 106:.\Generated_Source\PSoC5/QuadDec_1.c **** *  QuadDec_1_initVar - used to check initial configuration, modified on
 107:.\Generated_Source\PSoC5/QuadDec_1.c **** *  first function call.
 108:.\Generated_Source\PSoC5/QuadDec_1.c **** *
 109:.\Generated_Source\PSoC5/QuadDec_1.c **** * Reentrant:
 110:.\Generated_Source\PSoC5/QuadDec_1.c **** *  No.
 111:.\Generated_Source\PSoC5/QuadDec_1.c **** *
 112:.\Generated_Source\PSoC5/QuadDec_1.c **** *******************************************************************************/
 113:.\Generated_Source\PSoC5/QuadDec_1.c **** void QuadDec_1_Start(void) 
 114:.\Generated_Source\PSoC5/QuadDec_1.c **** {
 115:.\Generated_Source\PSoC5/QuadDec_1.c ****     #if (QuadDec_1_COUNTER_SIZE == QuadDec_1_COUNTER_SIZE_8_BIT)
 116:.\Generated_Source\PSoC5/QuadDec_1.c ****         QuadDec_1_Cnt8_Start();
 117:.\Generated_Source\PSoC5/QuadDec_1.c ****         QuadDec_1_Cnt8_WriteCounter(QuadDec_1_COUNTER_INIT_VALUE);
 118:.\Generated_Source\PSoC5/QuadDec_1.c ****     #else 
ARM GAS  C:\Users\SUZUKI~1\AppData\Local\Temp\ccGcXBfL.s 			page 4


 119:.\Generated_Source\PSoC5/QuadDec_1.c ****         /* (QuadDec_1_COUNTER_SIZE == QuadDec_1_COUNTER_SIZE_16_BIT) || 
 120:.\Generated_Source\PSoC5/QuadDec_1.c ****         *  (QuadDec_1_COUNTER_SIZE == QuadDec_1_COUNTER_SIZE_32_BIT) 
 121:.\Generated_Source\PSoC5/QuadDec_1.c ****         */
 122:.\Generated_Source\PSoC5/QuadDec_1.c ****         QuadDec_1_Cnt16_Start();
 123:.\Generated_Source\PSoC5/QuadDec_1.c ****         QuadDec_1_Cnt16_WriteCounter(QuadDec_1_COUNTER_INIT_VALUE);
 124:.\Generated_Source\PSoC5/QuadDec_1.c ****     #endif /* QuadDec_1_COUNTER_SIZE == QuadDec_1_COUNTER_SIZE_8_BIT */
 125:.\Generated_Source\PSoC5/QuadDec_1.c **** 
 126:.\Generated_Source\PSoC5/QuadDec_1.c ****     if (QuadDec_1_initVar == 0u)
 127:.\Generated_Source\PSoC5/QuadDec_1.c ****     {
 128:.\Generated_Source\PSoC5/QuadDec_1.c ****         QuadDec_1_Init();
 129:.\Generated_Source\PSoC5/QuadDec_1.c ****         QuadDec_1_initVar = 1u;
 130:.\Generated_Source\PSoC5/QuadDec_1.c ****     }
 131:.\Generated_Source\PSoC5/QuadDec_1.c **** 
 132:.\Generated_Source\PSoC5/QuadDec_1.c ****     QuadDec_1_Enable();
 133:.\Generated_Source\PSoC5/QuadDec_1.c **** }
 134:.\Generated_Source\PSoC5/QuadDec_1.c **** 
 135:.\Generated_Source\PSoC5/QuadDec_1.c **** 
 136:.\Generated_Source\PSoC5/QuadDec_1.c **** /*******************************************************************************
 137:.\Generated_Source\PSoC5/QuadDec_1.c **** * Function Name: QuadDec_1_Stop
 138:.\Generated_Source\PSoC5/QuadDec_1.c **** ********************************************************************************
 139:.\Generated_Source\PSoC5/QuadDec_1.c **** *
 140:.\Generated_Source\PSoC5/QuadDec_1.c **** * Summary:
 141:.\Generated_Source\PSoC5/QuadDec_1.c **** *  Turns off UDBs and other relevant hardware.
 142:.\Generated_Source\PSoC5/QuadDec_1.c **** *
 143:.\Generated_Source\PSoC5/QuadDec_1.c **** * Parameters:
 144:.\Generated_Source\PSoC5/QuadDec_1.c **** *  None.
 145:.\Generated_Source\PSoC5/QuadDec_1.c **** *
 146:.\Generated_Source\PSoC5/QuadDec_1.c **** * Return:
 147:.\Generated_Source\PSoC5/QuadDec_1.c **** *  None.
 148:.\Generated_Source\PSoC5/QuadDec_1.c **** *
 149:.\Generated_Source\PSoC5/QuadDec_1.c **** *******************************************************************************/
 150:.\Generated_Source\PSoC5/QuadDec_1.c **** void QuadDec_1_Stop(void) 
 151:.\Generated_Source\PSoC5/QuadDec_1.c **** {
 152:.\Generated_Source\PSoC5/QuadDec_1.c ****     uint8 enableInterrupts;
 153:.\Generated_Source\PSoC5/QuadDec_1.c **** 
 154:.\Generated_Source\PSoC5/QuadDec_1.c ****     #if (QuadDec_1_COUNTER_SIZE == QuadDec_1_COUNTER_SIZE_8_BIT)
 155:.\Generated_Source\PSoC5/QuadDec_1.c ****         QuadDec_1_Cnt8_Stop();
 156:.\Generated_Source\PSoC5/QuadDec_1.c ****     #else 
 157:.\Generated_Source\PSoC5/QuadDec_1.c ****         /* (QuadDec_1_COUNTER_SIZE == QuadDec_1_COUNTER_SIZE_16_BIT) ||
 158:.\Generated_Source\PSoC5/QuadDec_1.c ****         *  (QuadDec_1_COUNTER_SIZE == QuadDec_1_COUNTER_SIZE_32_BIT)
 159:.\Generated_Source\PSoC5/QuadDec_1.c ****         */
 160:.\Generated_Source\PSoC5/QuadDec_1.c ****         QuadDec_1_Cnt16_Stop();    /* counter disable */
 161:.\Generated_Source\PSoC5/QuadDec_1.c ****     #endif /* (QuadDec_1_COUNTER_SIZE == QuadDec_1_COUNTER_SIZE_8_BIT) */
 162:.\Generated_Source\PSoC5/QuadDec_1.c ****  
 163:.\Generated_Source\PSoC5/QuadDec_1.c ****     enableInterrupts = CyEnterCriticalSection();
 164:.\Generated_Source\PSoC5/QuadDec_1.c **** 
 165:.\Generated_Source\PSoC5/QuadDec_1.c ****     /* Disable interrupts interrupts from Statusi register */
 166:.\Generated_Source\PSoC5/QuadDec_1.c ****     QuadDec_1_SR_AUX_CONTROL &= (uint8) (~QuadDec_1_INTERRUPTS_ENABLE);
 167:.\Generated_Source\PSoC5/QuadDec_1.c **** 
 168:.\Generated_Source\PSoC5/QuadDec_1.c ****     CyExitCriticalSection(enableInterrupts);
 169:.\Generated_Source\PSoC5/QuadDec_1.c **** 
 170:.\Generated_Source\PSoC5/QuadDec_1.c ****     #if (QuadDec_1_COUNTER_SIZE == QuadDec_1_COUNTER_SIZE_32_BIT)
 171:.\Generated_Source\PSoC5/QuadDec_1.c ****         CyIntDisable(QuadDec_1_ISR_NUMBER);    /* interrupt disable */
 172:.\Generated_Source\PSoC5/QuadDec_1.c ****     #endif /* QuadDec_1_COUNTER_SIZE == QuadDec_1_COUNTER_SIZE_32_BIT */
 173:.\Generated_Source\PSoC5/QuadDec_1.c **** }
 174:.\Generated_Source\PSoC5/QuadDec_1.c **** 
 175:.\Generated_Source\PSoC5/QuadDec_1.c **** 
ARM GAS  C:\Users\SUZUKI~1\AppData\Local\Temp\ccGcXBfL.s 			page 5


 176:.\Generated_Source\PSoC5/QuadDec_1.c **** /*******************************************************************************
 177:.\Generated_Source\PSoC5/QuadDec_1.c **** * Function Name: QuadDec_1_GetCounter
 178:.\Generated_Source\PSoC5/QuadDec_1.c **** ********************************************************************************
 179:.\Generated_Source\PSoC5/QuadDec_1.c **** *
 180:.\Generated_Source\PSoC5/QuadDec_1.c **** * Summary:
 181:.\Generated_Source\PSoC5/QuadDec_1.c **** *  Reports the current value of the counter.
 182:.\Generated_Source\PSoC5/QuadDec_1.c **** *
 183:.\Generated_Source\PSoC5/QuadDec_1.c **** * Parameters:
 184:.\Generated_Source\PSoC5/QuadDec_1.c **** *  None.
 185:.\Generated_Source\PSoC5/QuadDec_1.c **** *
 186:.\Generated_Source\PSoC5/QuadDec_1.c **** * Return:
 187:.\Generated_Source\PSoC5/QuadDec_1.c **** *  The counter value. Return type is signed and per the counter size setting.
 188:.\Generated_Source\PSoC5/QuadDec_1.c **** *  A positive value indicates clockwise movement (B before A).
 189:.\Generated_Source\PSoC5/QuadDec_1.c **** *
 190:.\Generated_Source\PSoC5/QuadDec_1.c **** * Global variables:
 191:.\Generated_Source\PSoC5/QuadDec_1.c **** *  QuadDec_1_count32SoftPart - used to get hi 16 bit for current value
 192:.\Generated_Source\PSoC5/QuadDec_1.c **** *  of the 32-bit counter, when Counter size equal 32-bit.
 193:.\Generated_Source\PSoC5/QuadDec_1.c **** *
 194:.\Generated_Source\PSoC5/QuadDec_1.c **** *******************************************************************************/
 195:.\Generated_Source\PSoC5/QuadDec_1.c **** int16 QuadDec_1_GetCounter(void) 
 196:.\Generated_Source\PSoC5/QuadDec_1.c **** {
 197:.\Generated_Source\PSoC5/QuadDec_1.c ****     int16 count;
 198:.\Generated_Source\PSoC5/QuadDec_1.c ****     uint16 tmpCnt;
 199:.\Generated_Source\PSoC5/QuadDec_1.c **** 
 200:.\Generated_Source\PSoC5/QuadDec_1.c ****     #if (QuadDec_1_COUNTER_SIZE == QuadDec_1_COUNTER_SIZE_32_BIT)
 201:.\Generated_Source\PSoC5/QuadDec_1.c ****         int16 hwCount;
 202:.\Generated_Source\PSoC5/QuadDec_1.c **** 
 203:.\Generated_Source\PSoC5/QuadDec_1.c ****         CyIntDisable(QuadDec_1_ISR_NUMBER);
 204:.\Generated_Source\PSoC5/QuadDec_1.c **** 
 205:.\Generated_Source\PSoC5/QuadDec_1.c ****         tmpCnt = QuadDec_1_Cnt16_ReadCounter();
 206:.\Generated_Source\PSoC5/QuadDec_1.c ****         hwCount = (int16) ((int32) tmpCnt - (int32) QuadDec_1_COUNTER_INIT_VALUE);
 207:.\Generated_Source\PSoC5/QuadDec_1.c ****         count = QuadDec_1_count32SoftPart + hwCount;
 208:.\Generated_Source\PSoC5/QuadDec_1.c **** 
 209:.\Generated_Source\PSoC5/QuadDec_1.c ****         CyIntEnable(QuadDec_1_ISR_NUMBER);
 210:.\Generated_Source\PSoC5/QuadDec_1.c ****     #else 
 211:.\Generated_Source\PSoC5/QuadDec_1.c ****         /* (QuadDec_1_COUNTER_SIZE == QuadDec_1_COUNTER_SIZE_8_BIT) || 
 212:.\Generated_Source\PSoC5/QuadDec_1.c ****         *  (QuadDec_1_COUNTER_SIZE == QuadDec_1_COUNTER_SIZE_16_BIT)
 213:.\Generated_Source\PSoC5/QuadDec_1.c ****         */
 214:.\Generated_Source\PSoC5/QuadDec_1.c ****         #if (QuadDec_1_COUNTER_SIZE == QuadDec_1_COUNTER_SIZE_8_BIT)
 215:.\Generated_Source\PSoC5/QuadDec_1.c ****             tmpCnt = QuadDec_1_Cnt8_ReadCounter();
 216:.\Generated_Source\PSoC5/QuadDec_1.c ****         #else /* (QuadDec_1_COUNTER_SIZE == QuadDec_1_COUNTER_SIZE_16_BIT) */
 217:.\Generated_Source\PSoC5/QuadDec_1.c ****             tmpCnt = QuadDec_1_Cnt16_ReadCounter();
 218:.\Generated_Source\PSoC5/QuadDec_1.c ****         #endif  /* QuadDec_1_COUNTER_SIZE == QuadDec_1_COUNTER_SIZE_8_BIT */
 219:.\Generated_Source\PSoC5/QuadDec_1.c **** 
 220:.\Generated_Source\PSoC5/QuadDec_1.c ****         count = (int16) ((int32) tmpCnt -
 221:.\Generated_Source\PSoC5/QuadDec_1.c ****                 (int32) QuadDec_1_COUNTER_INIT_VALUE);
 222:.\Generated_Source\PSoC5/QuadDec_1.c **** 
 223:.\Generated_Source\PSoC5/QuadDec_1.c ****     #endif /* QuadDec_1_COUNTER_SIZE == QuadDec_1_COUNTER_SIZE_32_BIT */ 
 224:.\Generated_Source\PSoC5/QuadDec_1.c **** 
 225:.\Generated_Source\PSoC5/QuadDec_1.c ****     return (count);
 226:.\Generated_Source\PSoC5/QuadDec_1.c **** }
 227:.\Generated_Source\PSoC5/QuadDec_1.c **** 
 228:.\Generated_Source\PSoC5/QuadDec_1.c **** 
 229:.\Generated_Source\PSoC5/QuadDec_1.c **** /*******************************************************************************
 230:.\Generated_Source\PSoC5/QuadDec_1.c **** * Function Name: QuadDec_1_SetCounter
 231:.\Generated_Source\PSoC5/QuadDec_1.c **** ********************************************************************************
 232:.\Generated_Source\PSoC5/QuadDec_1.c **** *
ARM GAS  C:\Users\SUZUKI~1\AppData\Local\Temp\ccGcXBfL.s 			page 6


 233:.\Generated_Source\PSoC5/QuadDec_1.c **** * Summary:
 234:.\Generated_Source\PSoC5/QuadDec_1.c **** *  Sets the current value of the counter.
 235:.\Generated_Source\PSoC5/QuadDec_1.c **** *
 236:.\Generated_Source\PSoC5/QuadDec_1.c **** * Parameters:
 237:.\Generated_Source\PSoC5/QuadDec_1.c **** *  value:  The new value. Parameter type is signed and per the counter size
 238:.\Generated_Source\PSoC5/QuadDec_1.c **** *  setting.
 239:.\Generated_Source\PSoC5/QuadDec_1.c **** *
 240:.\Generated_Source\PSoC5/QuadDec_1.c **** * Return:
 241:.\Generated_Source\PSoC5/QuadDec_1.c **** *  None.
 242:.\Generated_Source\PSoC5/QuadDec_1.c **** *
 243:.\Generated_Source\PSoC5/QuadDec_1.c **** * Global variables:
 244:.\Generated_Source\PSoC5/QuadDec_1.c **** *  QuadDec_1_count32SoftPart - modified to set hi 16 bit for current
 245:.\Generated_Source\PSoC5/QuadDec_1.c **** *  value of the 32-bit counter, when Counter size equal 32-bit.
 246:.\Generated_Source\PSoC5/QuadDec_1.c **** *
 247:.\Generated_Source\PSoC5/QuadDec_1.c **** * Reentrant:
 248:.\Generated_Source\PSoC5/QuadDec_1.c **** *  No.
 249:.\Generated_Source\PSoC5/QuadDec_1.c **** *
 250:.\Generated_Source\PSoC5/QuadDec_1.c **** *******************************************************************************/
 251:.\Generated_Source\PSoC5/QuadDec_1.c **** void QuadDec_1_SetCounter(int16 value) 
 252:.\Generated_Source\PSoC5/QuadDec_1.c **** {
 253:.\Generated_Source\PSoC5/QuadDec_1.c ****     #if ((QuadDec_1_COUNTER_SIZE == QuadDec_1_COUNTER_SIZE_8_BIT) || \
 254:.\Generated_Source\PSoC5/QuadDec_1.c ****          (QuadDec_1_COUNTER_SIZE == QuadDec_1_COUNTER_SIZE_16_BIT))
 255:.\Generated_Source\PSoC5/QuadDec_1.c ****         uint16 count;
 256:.\Generated_Source\PSoC5/QuadDec_1.c ****         
 257:.\Generated_Source\PSoC5/QuadDec_1.c ****         if (value >= 0)
 258:.\Generated_Source\PSoC5/QuadDec_1.c ****         {
 259:.\Generated_Source\PSoC5/QuadDec_1.c ****             count = (uint16) value + QuadDec_1_COUNTER_INIT_VALUE;
 260:.\Generated_Source\PSoC5/QuadDec_1.c ****         }
 261:.\Generated_Source\PSoC5/QuadDec_1.c ****         else
 262:.\Generated_Source\PSoC5/QuadDec_1.c ****         {
 263:.\Generated_Source\PSoC5/QuadDec_1.c ****             count = (uint16) (-value);
 264:.\Generated_Source\PSoC5/QuadDec_1.c ****         }
 265:.\Generated_Source\PSoC5/QuadDec_1.c ****         #if (QuadDec_1_COUNTER_SIZE == QuadDec_1_COUNTER_SIZE_8_BIT)
 266:.\Generated_Source\PSoC5/QuadDec_1.c ****             QuadDec_1_Cnt8_WriteCounter(count);
 267:.\Generated_Source\PSoC5/QuadDec_1.c ****         #else /* (QuadDec_1_COUNTER_SIZE == QuadDec_1_COUNTER_SIZE_16_BIT) */
 268:.\Generated_Source\PSoC5/QuadDec_1.c ****             QuadDec_1_Cnt16_WriteCounter(count);
 269:.\Generated_Source\PSoC5/QuadDec_1.c ****         #endif  /* QuadDec_1_COUNTER_SIZE == QuadDec_1_COUNTER_SIZE_8_BIT */
 270:.\Generated_Source\PSoC5/QuadDec_1.c ****     #else /* (QuadDec_1_COUNTER_SIZE == QuadDec_1_COUNTER_SIZE_32_BIT) */
 271:.\Generated_Source\PSoC5/QuadDec_1.c ****         CyIntDisable(QuadDec_1_ISR_NUMBER);
 272:.\Generated_Source\PSoC5/QuadDec_1.c **** 
 273:.\Generated_Source\PSoC5/QuadDec_1.c ****         QuadDec_1_Cnt16_WriteCounter(QuadDec_1_COUNTER_INIT_VALUE);
 274:.\Generated_Source\PSoC5/QuadDec_1.c ****         QuadDec_1_count32SoftPart = value;
 275:.\Generated_Source\PSoC5/QuadDec_1.c **** 
 276:.\Generated_Source\PSoC5/QuadDec_1.c ****         CyIntEnable(QuadDec_1_ISR_NUMBER);
 277:.\Generated_Source\PSoC5/QuadDec_1.c ****     #endif  /* (QuadDec_1_COUNTER_SIZE == QuadDec_1_COUNTER_SIZE_8_BIT) ||
 278:.\Generated_Source\PSoC5/QuadDec_1.c ****              * (QuadDec_1_COUNTER_SIZE == QuadDec_1_COUNTER_SIZE_16_BIT)
 279:.\Generated_Source\PSoC5/QuadDec_1.c ****              */
 280:.\Generated_Source\PSoC5/QuadDec_1.c **** }
 281:.\Generated_Source\PSoC5/QuadDec_1.c **** 
 282:.\Generated_Source\PSoC5/QuadDec_1.c **** 
 283:.\Generated_Source\PSoC5/QuadDec_1.c **** /*******************************************************************************
 284:.\Generated_Source\PSoC5/QuadDec_1.c **** * Function Name: QuadDec_1_GetEvents
 285:.\Generated_Source\PSoC5/QuadDec_1.c **** ********************************************************************************
 286:.\Generated_Source\PSoC5/QuadDec_1.c **** * 
 287:.\Generated_Source\PSoC5/QuadDec_1.c **** * Summary:
 288:.\Generated_Source\PSoC5/QuadDec_1.c **** *   Reports the current status of events.
 289:.\Generated_Source\PSoC5/QuadDec_1.c **** *
ARM GAS  C:\Users\SUZUKI~1\AppData\Local\Temp\ccGcXBfL.s 			page 7


 290:.\Generated_Source\PSoC5/QuadDec_1.c **** * Parameters:
 291:.\Generated_Source\PSoC5/QuadDec_1.c **** *  None.
 292:.\Generated_Source\PSoC5/QuadDec_1.c **** *
 293:.\Generated_Source\PSoC5/QuadDec_1.c **** * Return:
 294:.\Generated_Source\PSoC5/QuadDec_1.c **** *  The events, as bits in an unsigned 8-bit value:
 295:.\Generated_Source\PSoC5/QuadDec_1.c **** *    Bit      Description
 296:.\Generated_Source\PSoC5/QuadDec_1.c **** *     0        Counter overflow.
 297:.\Generated_Source\PSoC5/QuadDec_1.c **** *     1        Counter underflow.
 298:.\Generated_Source\PSoC5/QuadDec_1.c **** *     2        Counter reset due to index, if index input is used.
 299:.\Generated_Source\PSoC5/QuadDec_1.c **** *     3        Invalid A, B inputs state transition.
 300:.\Generated_Source\PSoC5/QuadDec_1.c **** *
 301:.\Generated_Source\PSoC5/QuadDec_1.c **** *******************************************************************************/
 302:.\Generated_Source\PSoC5/QuadDec_1.c **** uint8 QuadDec_1_GetEvents(void) 
 303:.\Generated_Source\PSoC5/QuadDec_1.c **** {
  50              		.loc 1 303 0
  51              		.cfi_startproc
  52              		@ args = 0, pretend = 0, frame = 0
  53              		@ frame_needed = 0, uses_anonymous_args = 0
  54              		@ link register save eliminated.
 304:.\Generated_Source\PSoC5/QuadDec_1.c ****     return (QuadDec_1_STATUS_REG & QuadDec_1_INIT_INT_MASK);
  55              		.loc 1 304 0
  56 0000 024B     		ldr	r3, .L5
  57 0002 1878     		ldrb	r0, [r3, #0]	@ zero_extendqisi2
 305:.\Generated_Source\PSoC5/QuadDec_1.c **** }
  58              		.loc 1 305 0
  59 0004 00F00F00 		and	r0, r0, #15
  60 0008 7047     		bx	lr
  61              	.L6:
  62 000a 00BF     		.align	2
  63              	.L5:
  64 000c 65650040 		.word	1073767781
  65              		.cfi_endproc
  66              	.LFE6:
  67              		.size	QuadDec_1_GetEvents, .-QuadDec_1_GetEvents
  68              		.section	.text.QuadDec_1_SetInterruptMask,"ax",%progbits
  69              		.align	1
  70              		.global	QuadDec_1_SetInterruptMask
  71              		.thumb
  72              		.thumb_func
  73              		.type	QuadDec_1_SetInterruptMask, %function
  74              	QuadDec_1_SetInterruptMask:
  75              	.LFB7:
 306:.\Generated_Source\PSoC5/QuadDec_1.c **** 
 307:.\Generated_Source\PSoC5/QuadDec_1.c **** 
 308:.\Generated_Source\PSoC5/QuadDec_1.c **** /*******************************************************************************
 309:.\Generated_Source\PSoC5/QuadDec_1.c **** * Function Name: QuadDec_1_SetInterruptMask
 310:.\Generated_Source\PSoC5/QuadDec_1.c **** ********************************************************************************
 311:.\Generated_Source\PSoC5/QuadDec_1.c **** *
 312:.\Generated_Source\PSoC5/QuadDec_1.c **** * Summary:
 313:.\Generated_Source\PSoC5/QuadDec_1.c **** *  Enables / disables interrupts due to the events.
 314:.\Generated_Source\PSoC5/QuadDec_1.c **** *  For the 32-bit counter, the overflow, underflow and reset interrupts cannot
 315:.\Generated_Source\PSoC5/QuadDec_1.c **** *  be disabled, these bits are ignored.
 316:.\Generated_Source\PSoC5/QuadDec_1.c **** *
 317:.\Generated_Source\PSoC5/QuadDec_1.c **** * Parameters:
 318:.\Generated_Source\PSoC5/QuadDec_1.c **** *  mask: Enable / disable bits in an 8-bit value, where 1 enables the interrupt.
 319:.\Generated_Source\PSoC5/QuadDec_1.c **** *
 320:.\Generated_Source\PSoC5/QuadDec_1.c **** * Return:
ARM GAS  C:\Users\SUZUKI~1\AppData\Local\Temp\ccGcXBfL.s 			page 8


 321:.\Generated_Source\PSoC5/QuadDec_1.c **** *  None.
 322:.\Generated_Source\PSoC5/QuadDec_1.c **** *
 323:.\Generated_Source\PSoC5/QuadDec_1.c **** *******************************************************************************/
 324:.\Generated_Source\PSoC5/QuadDec_1.c **** void QuadDec_1_SetInterruptMask(uint8 mask) 
 325:.\Generated_Source\PSoC5/QuadDec_1.c **** {
  76              		.loc 1 325 0
  77              		.cfi_startproc
  78              		@ args = 0, pretend = 0, frame = 0
  79              		@ frame_needed = 0, uses_anonymous_args = 0
  80              		@ link register save eliminated.
  81              	.LVL0:
 326:.\Generated_Source\PSoC5/QuadDec_1.c ****     #if (QuadDec_1_COUNTER_SIZE == QuadDec_1_COUNTER_SIZE_32_BIT)
 327:.\Generated_Source\PSoC5/QuadDec_1.c ****         /* Underflow, Overflow and Reset interrupts for 32-bit Counter are always enable */
 328:.\Generated_Source\PSoC5/QuadDec_1.c ****         mask |= (QuadDec_1_COUNTER_OVERFLOW | QuadDec_1_COUNTER_UNDERFLOW |
 329:.\Generated_Source\PSoC5/QuadDec_1.c ****                  QuadDec_1_COUNTER_RESET);
 330:.\Generated_Source\PSoC5/QuadDec_1.c ****     #endif /* QuadDec_1_COUNTER_SIZE == QuadDec_1_COUNTER_SIZE_32_BIT */
 331:.\Generated_Source\PSoC5/QuadDec_1.c **** 
 332:.\Generated_Source\PSoC5/QuadDec_1.c ****     QuadDec_1_STATUS_MASK = mask;
  82              		.loc 1 332 0
  83 0000 014B     		ldr	r3, .L9
  84 0002 1870     		strb	r0, [r3, #0]
 333:.\Generated_Source\PSoC5/QuadDec_1.c **** }
  85              		.loc 1 333 0
  86 0004 7047     		bx	lr
  87              	.L10:
  88 0006 00BF     		.align	2
  89              	.L9:
  90 0008 85650040 		.word	1073767813
  91              		.cfi_endproc
  92              	.LFE7:
  93              		.size	QuadDec_1_SetInterruptMask, .-QuadDec_1_SetInterruptMask
  94              		.section	.text.QuadDec_1_GetInterruptMask,"ax",%progbits
  95              		.align	1
  96              		.global	QuadDec_1_GetInterruptMask
  97              		.thumb
  98              		.thumb_func
  99              		.type	QuadDec_1_GetInterruptMask, %function
 100              	QuadDec_1_GetInterruptMask:
 101              	.LFB8:
 334:.\Generated_Source\PSoC5/QuadDec_1.c **** 
 335:.\Generated_Source\PSoC5/QuadDec_1.c **** 
 336:.\Generated_Source\PSoC5/QuadDec_1.c **** /*******************************************************************************
 337:.\Generated_Source\PSoC5/QuadDec_1.c **** * Function Name: QuadDec_1_GetInterruptMask
 338:.\Generated_Source\PSoC5/QuadDec_1.c **** ********************************************************************************
 339:.\Generated_Source\PSoC5/QuadDec_1.c **** *
 340:.\Generated_Source\PSoC5/QuadDec_1.c **** * Summary:
 341:.\Generated_Source\PSoC5/QuadDec_1.c **** *  Reports the current interrupt mask settings.
 342:.\Generated_Source\PSoC5/QuadDec_1.c **** *
 343:.\Generated_Source\PSoC5/QuadDec_1.c **** * Parameters:
 344:.\Generated_Source\PSoC5/QuadDec_1.c **** *  None.
 345:.\Generated_Source\PSoC5/QuadDec_1.c **** *
 346:.\Generated_Source\PSoC5/QuadDec_1.c **** * Return:
 347:.\Generated_Source\PSoC5/QuadDec_1.c **** *  Enable / disable bits in an 8-bit value, where 1 enables the interrupt.
 348:.\Generated_Source\PSoC5/QuadDec_1.c **** *  For the 32-bit counter, the overflow, underflow and reset enable bits are
 349:.\Generated_Source\PSoC5/QuadDec_1.c **** *  always set.
 350:.\Generated_Source\PSoC5/QuadDec_1.c **** *
 351:.\Generated_Source\PSoC5/QuadDec_1.c **** *******************************************************************************/
ARM GAS  C:\Users\SUZUKI~1\AppData\Local\Temp\ccGcXBfL.s 			page 9


 352:.\Generated_Source\PSoC5/QuadDec_1.c **** uint8 QuadDec_1_GetInterruptMask(void) 
 353:.\Generated_Source\PSoC5/QuadDec_1.c **** {
 102              		.loc 1 353 0
 103              		.cfi_startproc
 104              		@ args = 0, pretend = 0, frame = 0
 105              		@ frame_needed = 0, uses_anonymous_args = 0
 106              		@ link register save eliminated.
 354:.\Generated_Source\PSoC5/QuadDec_1.c ****     return (QuadDec_1_STATUS_MASK & QuadDec_1_INIT_INT_MASK);
 107              		.loc 1 354 0
 108 0000 024B     		ldr	r3, .L13
 109 0002 1878     		ldrb	r0, [r3, #0]	@ zero_extendqisi2
 355:.\Generated_Source\PSoC5/QuadDec_1.c **** }
 110              		.loc 1 355 0
 111 0004 00F00F00 		and	r0, r0, #15
 112 0008 7047     		bx	lr
 113              	.L14:
 114 000a 00BF     		.align	2
 115              	.L13:
 116 000c 85650040 		.word	1073767813
 117              		.cfi_endproc
 118              	.LFE8:
 119              		.size	QuadDec_1_GetInterruptMask, .-QuadDec_1_GetInterruptMask
 120              		.section	.text.QuadDec_1_SetCounter,"ax",%progbits
 121              		.align	1
 122              		.global	QuadDec_1_SetCounter
 123              		.thumb
 124              		.thumb_func
 125              		.type	QuadDec_1_SetCounter, %function
 126              	QuadDec_1_SetCounter:
 127              	.LFB5:
 128              		.loc 1 252 0
 129              		.cfi_startproc
 130              		@ args = 0, pretend = 0, frame = 0
 131              		@ frame_needed = 0, uses_anonymous_args = 0
 132              		@ link register save eliminated.
 133              	.LVL1:
 134              		.loc 1 257 0
 135 0000 0028     		cmp	r0, #0
 136              		.loc 1 259 0
 137 0002 ACBF     		ite	ge
 138 0004 A0F50040 		subge	r0, r0, #32768
 139              	.LVL2:
 140              		.loc 1 263 0
 141 0008 4042     		neglt	r0, r0
 142              	.LVL3:
 143 000a 80B2     		uxth	r0, r0
 144              	.LVL4:
 145              		.loc 1 280 0
 146              		.loc 1 268 0
 147 000c FFF7FEBF 		b	QuadDec_1_Cnt16_WriteCounter
 148              	.LVL5:
 149              		.cfi_endproc
 150              	.LFE5:
 151              		.size	QuadDec_1_SetCounter, .-QuadDec_1_SetCounter
 152              		.section	.text.QuadDec_1_GetCounter,"ax",%progbits
 153              		.align	1
 154              		.global	QuadDec_1_GetCounter
ARM GAS  C:\Users\SUZUKI~1\AppData\Local\Temp\ccGcXBfL.s 			page 10


 155              		.thumb
 156              		.thumb_func
 157              		.type	QuadDec_1_GetCounter, %function
 158              	QuadDec_1_GetCounter:
 159              	.LFB4:
 160              		.loc 1 196 0
 161              		.cfi_startproc
 162              		@ args = 0, pretend = 0, frame = 0
 163              		@ frame_needed = 0, uses_anonymous_args = 0
 164 0000 08B5     		push	{r3, lr}
 165              	.LCFI0:
 166              		.cfi_def_cfa_offset 8
 167              		.loc 1 217 0
 168              		.cfi_offset 14, -4
 169              		.cfi_offset 3, -8
 170 0002 FFF7FEFF 		bl	QuadDec_1_Cnt16_ReadCounter
 171 0006 A0F50040 		sub	r0, r0, #32768
 172              		.loc 1 226 0
 173 000a 00B2     		sxth	r0, r0
 174 000c 08BD     		pop	{r3, pc}
 175              		.cfi_endproc
 176              	.LFE4:
 177              		.size	QuadDec_1_GetCounter, .-QuadDec_1_GetCounter
 178              		.section	.text.QuadDec_1_Stop,"ax",%progbits
 179              		.align	1
 180              		.global	QuadDec_1_Stop
 181              		.thumb
 182              		.thumb_func
 183              		.type	QuadDec_1_Stop, %function
 184              	QuadDec_1_Stop:
 185              	.LFB3:
 186              		.loc 1 151 0
 187              		.cfi_startproc
 188              		@ args = 0, pretend = 0, frame = 0
 189              		@ frame_needed = 0, uses_anonymous_args = 0
 190 0000 10B5     		push	{r4, lr}
 191              	.LCFI1:
 192              		.cfi_def_cfa_offset 8
 193              		.loc 1 160 0
 194              		.cfi_offset 14, -4
 195              		.cfi_offset 4, -8
 196 0002 FFF7FEFF 		bl	QuadDec_1_Cnt16_Stop
 197              		.loc 1 163 0
 198 0006 FFF7FEFF 		bl	CyEnterCriticalSection
 199              		.loc 1 166 0
 200 000a 044B     		ldr	r3, .L24
 201 000c 1A78     		ldrb	r2, [r3, #0]	@ zero_extendqisi2
 202 000e 02F0EF02 		and	r2, r2, #239
 203 0012 1A70     		strb	r2, [r3, #0]
 204              		.loc 1 173 0
 205 0014 BDE81040 		pop	{r4, lr}
 206              		.loc 1 168 0
 207 0018 FFF7FEBF 		b	CyExitCriticalSection
 208              	.L25:
 209              		.align	2
 210              	.L24:
 211 001c 95650040 		.word	1073767829
ARM GAS  C:\Users\SUZUKI~1\AppData\Local\Temp\ccGcXBfL.s 			page 11


 212              		.cfi_endproc
 213              	.LFE3:
 214              		.size	QuadDec_1_Stop, .-QuadDec_1_Stop
 215              		.section	.text.QuadDec_1_Enable,"ax",%progbits
 216              		.align	1
 217              		.global	QuadDec_1_Enable
 218              		.thumb
 219              		.thumb_func
 220              		.type	QuadDec_1_Enable, %function
 221              	QuadDec_1_Enable:
 222              	.LFB1:
 223              		.loc 1 71 0
 224              		.cfi_startproc
 225              		@ args = 0, pretend = 0, frame = 0
 226              		@ frame_needed = 0, uses_anonymous_args = 0
 227 0000 10B5     		push	{r4, lr}
 228              	.LCFI2:
 229              		.cfi_def_cfa_offset 8
 230              		.loc 1 74 0
 231 0002 0F20     		movs	r0, #15
 232              		.cfi_offset 14, -4
 233              		.cfi_offset 4, -8
 234 0004 FFF7FEFF 		bl	QuadDec_1_SetInterruptMask
 235              		.loc 1 76 0
 236 0008 FFF7FEFF 		bl	CyEnterCriticalSection
 237              		.loc 1 79 0
 238 000c 044B     		ldr	r3, .L28
 239 000e 1A78     		ldrb	r2, [r3, #0]	@ zero_extendqisi2
 240 0010 42F01002 		orr	r2, r2, #16
 241 0014 1A70     		strb	r2, [r3, #0]
 242              		.loc 1 87 0
 243 0016 BDE81040 		pop	{r4, lr}
 244              		.loc 1 81 0
 245 001a FFF7FEBF 		b	CyExitCriticalSection
 246              	.L29:
 247 001e 00BF     		.align	2
 248              	.L28:
 249 0020 95650040 		.word	1073767829
 250              		.cfi_endproc
 251              	.LFE1:
 252              		.size	QuadDec_1_Enable, .-QuadDec_1_Enable
 253              		.section	.text.QuadDec_1_Start,"ax",%progbits
 254              		.align	1
 255              		.global	QuadDec_1_Start
 256              		.thumb
 257              		.thumb_func
 258              		.type	QuadDec_1_Start, %function
 259              	QuadDec_1_Start:
 260              	.LFB2:
 261              		.loc 1 114 0
 262              		.cfi_startproc
 263              		@ args = 0, pretend = 0, frame = 0
 264              		@ frame_needed = 0, uses_anonymous_args = 0
 265 0000 10B5     		push	{r4, lr}
 266              	.LCFI3:
 267              		.cfi_def_cfa_offset 8
 268              		.loc 1 122 0
ARM GAS  C:\Users\SUZUKI~1\AppData\Local\Temp\ccGcXBfL.s 			page 12


 269              		.cfi_offset 14, -4
 270              		.cfi_offset 4, -8
 271 0002 FFF7FEFF 		bl	QuadDec_1_Cnt16_Start
 272              		.loc 1 123 0
 273 0006 4FF40040 		mov	r0, #32768
 274 000a FFF7FEFF 		bl	QuadDec_1_Cnt16_WriteCounter
 275              		.loc 1 126 0
 276 000e 044B     		ldr	r3, .L34
 277 0010 1A78     		ldrb	r2, [r3, #0]	@ zero_extendqisi2
 278 0012 0AB9     		cbnz	r2, .L31
 279              		.loc 1 129 0
 280 0014 0132     		adds	r2, r2, #1
 281 0016 1A70     		strb	r2, [r3, #0]
 282              	.L31:
 283              		.loc 1 133 0
 284 0018 BDE81040 		pop	{r4, lr}
 285              		.loc 1 132 0
 286 001c FFF7FEBF 		b	QuadDec_1_Enable
 287              	.L35:
 288              		.align	2
 289              	.L34:
 290 0020 00000000 		.word	.LANCHOR0
 291              		.cfi_endproc
 292              	.LFE2:
 293              		.size	QuadDec_1_Start, .-QuadDec_1_Start
 294              		.global	QuadDec_1_initVar
 295              		.bss
 296              		.set	.LANCHOR0,. + 0
 297              		.type	QuadDec_1_initVar, %object
 298              		.size	QuadDec_1_initVar, 1
 299              	QuadDec_1_initVar:
 300 0000 00       		.space	1
 301              		.text
 302              	.Letext0:
 303              		.section	.debug_loc,"",%progbits
 304              	.Ldebug_loc0:
 305              	.LLST5:
 306 0000 00000000 		.4byte	.LVL1
 307 0004 08000000 		.4byte	.LVL2
 308 0008 0100     		.2byte	0x1
 309 000a 50       		.byte	0x50
 310 000b 0A000000 		.4byte	.LVL3
 311 000f 10000000 		.4byte	.LFE5
 312 0013 0100     		.2byte	0x1
 313 0015 50       		.byte	0x50
 314 0016 00000000 		.4byte	0x0
 315 001a 00000000 		.4byte	0x0
 316              	.LLST6:
 317 001e 0C000000 		.4byte	.LVL4
 318 0022 10000000 		.4byte	.LVL5
 319 0026 0100     		.2byte	0x1
 320 0028 50       		.byte	0x50
 321 0029 00000000 		.4byte	0x0
 322 002d 00000000 		.4byte	0x0
 323              	.LLST7:
 324 0031 00000000 		.4byte	.LFB4
 325 0035 02000000 		.4byte	.LCFI0
ARM GAS  C:\Users\SUZUKI~1\AppData\Local\Temp\ccGcXBfL.s 			page 13


 326 0039 0100     		.2byte	0x1
 327 003b 5D       		.byte	0x5d
 328 003c 02000000 		.4byte	.LCFI0
 329 0040 0E000000 		.4byte	.LFE4
 330 0044 0200     		.2byte	0x2
 331 0046 7D       		.byte	0x7d
 332 0047 08       		.sleb128 8
 333 0048 00000000 		.4byte	0x0
 334 004c 00000000 		.4byte	0x0
 335              	.LLST8:
 336 0050 00000000 		.4byte	.LFB3
 337 0054 02000000 		.4byte	.LCFI1
 338 0058 0100     		.2byte	0x1
 339 005a 5D       		.byte	0x5d
 340 005b 02000000 		.4byte	.LCFI1
 341 005f 20000000 		.4byte	.LFE3
 342 0063 0200     		.2byte	0x2
 343 0065 7D       		.byte	0x7d
 344 0066 08       		.sleb128 8
 345 0067 00000000 		.4byte	0x0
 346 006b 00000000 		.4byte	0x0
 347              	.LLST9:
 348 006f 00000000 		.4byte	.LFB1
 349 0073 02000000 		.4byte	.LCFI2
 350 0077 0100     		.2byte	0x1
 351 0079 5D       		.byte	0x5d
 352 007a 02000000 		.4byte	.LCFI2
 353 007e 24000000 		.4byte	.LFE1
 354 0082 0200     		.2byte	0x2
 355 0084 7D       		.byte	0x7d
 356 0085 08       		.sleb128 8
 357 0086 00000000 		.4byte	0x0
 358 008a 00000000 		.4byte	0x0
 359              	.LLST10:
 360 008e 00000000 		.4byte	.LFB2
 361 0092 02000000 		.4byte	.LCFI3
 362 0096 0100     		.2byte	0x1
 363 0098 5D       		.byte	0x5d
 364 0099 02000000 		.4byte	.LCFI3
 365 009d 24000000 		.4byte	.LFE2
 366 00a1 0200     		.2byte	0x2
 367 00a3 7D       		.byte	0x7d
 368 00a4 08       		.sleb128 8
 369 00a5 00000000 		.4byte	0x0
 370 00a9 00000000 		.4byte	0x0
 371              		.file 2 ".\\Generated_Source\\PSoC5\\/cytypes.h"
 372              		.section	.debug_info
 373 0000 F0010000 		.4byte	0x1f0
 374 0004 0200     		.2byte	0x2
 375 0006 00000000 		.4byte	.Ldebug_abbrev0
 376 000a 04       		.byte	0x4
 377 000b 01       		.uleb128 0x1
 378 000c 73010000 		.4byte	.LASF26
 379 0010 01       		.byte	0x1
 380 0011 4E010000 		.4byte	.LASF27
 381 0015 1E000000 		.4byte	.LASF28
 382 0019 00000000 		.4byte	0x0
ARM GAS  C:\Users\SUZUKI~1\AppData\Local\Temp\ccGcXBfL.s 			page 14


 383 001d 00000000 		.4byte	0x0
 384 0021 00000000 		.4byte	.Ldebug_ranges0+0x0
 385 0025 00000000 		.4byte	.Ldebug_line0
 386 0029 02       		.uleb128 0x2
 387 002a 01       		.byte	0x1
 388 002b 06       		.byte	0x6
 389 002c DC010000 		.4byte	.LASF0
 390 0030 02       		.uleb128 0x2
 391 0031 01       		.byte	0x1
 392 0032 08       		.byte	0x8
 393 0033 87000000 		.4byte	.LASF1
 394 0037 02       		.uleb128 0x2
 395 0038 02       		.byte	0x2
 396 0039 05       		.byte	0x5
 397 003a 95010000 		.4byte	.LASF2
 398 003e 02       		.uleb128 0x2
 399 003f 02       		.byte	0x2
 400 0040 07       		.byte	0x7
 401 0041 59000000 		.4byte	.LASF3
 402 0045 03       		.uleb128 0x3
 403 0046 04       		.byte	0x4
 404 0047 05       		.byte	0x5
 405 0048 696E7400 		.ascii	"int\000"
 406 004c 02       		.uleb128 0x2
 407 004d 04       		.byte	0x4
 408 004e 07       		.byte	0x7
 409 004f FD000000 		.4byte	.LASF4
 410 0053 02       		.uleb128 0x2
 411 0054 08       		.byte	0x8
 412 0055 05       		.byte	0x5
 413 0056 00000000 		.4byte	.LASF5
 414 005a 02       		.uleb128 0x2
 415 005b 08       		.byte	0x8
 416 005c 07       		.byte	0x7
 417 005d 37010000 		.4byte	.LASF6
 418 0061 02       		.uleb128 0x2
 419 0062 04       		.byte	0x4
 420 0063 05       		.byte	0x5
 421 0064 CE010000 		.4byte	.LASF7
 422 0068 04       		.uleb128 0x4
 423 0069 04       		.byte	0x4
 424 006a 07       		.byte	0x7
 425 006b 02       		.uleb128 0x2
 426 006c 04       		.byte	0x4
 427 006d 07       		.byte	0x7
 428 006e AA000000 		.4byte	.LASF8
 429 0072 02       		.uleb128 0x2
 430 0073 01       		.byte	0x1
 431 0074 08       		.byte	0x8
 432 0075 D7010000 		.4byte	.LASF9
 433 0079 05       		.uleb128 0x5
 434 007a BC000000 		.4byte	.LASF10
 435 007e 02       		.byte	0x2
 436 007f 4C       		.byte	0x4c
 437 0080 30000000 		.4byte	0x30
 438 0084 05       		.uleb128 0x5
 439 0085 E1000000 		.4byte	.LASF11
ARM GAS  C:\Users\SUZUKI~1\AppData\Local\Temp\ccGcXBfL.s 			page 15


 440 0089 02       		.byte	0x2
 441 008a 4D       		.byte	0x4d
 442 008b 3E000000 		.4byte	0x3e
 443 008f 05       		.uleb128 0x5
 444 0090 A4000000 		.4byte	.LASF12
 445 0094 02       		.byte	0x2
 446 0095 50       		.byte	0x50
 447 0096 37000000 		.4byte	0x37
 448 009a 02       		.uleb128 0x2
 449 009b 04       		.byte	0x4
 450 009c 04       		.byte	0x4
 451 009d 81000000 		.4byte	.LASF13
 452 00a1 02       		.uleb128 0x2
 453 00a2 08       		.byte	0x8
 454 00a3 04       		.byte	0x4
 455 00a4 DA000000 		.4byte	.LASF14
 456 00a8 06       		.uleb128 0x6
 457 00a9 01       		.byte	0x1
 458 00aa E8010000 		.4byte	.LASF29
 459 00ae 01       		.byte	0x1
 460 00af 2A       		.byte	0x2a
 461 00b0 01       		.byte	0x1
 462 00b1 01       		.byte	0x1
 463 00b2 07       		.uleb128 0x7
 464 00b3 A8000000 		.4byte	0xa8
 465 00b7 00000000 		.4byte	.LFB0
 466 00bb 02000000 		.4byte	.LFE0
 467 00bf 01       		.byte	0x1
 468 00c0 5D       		.byte	0x5d
 469 00c1 08       		.uleb128 0x8
 470 00c2 01       		.byte	0x1
 471 00c3 9F010000 		.4byte	.LASF15
 472 00c7 01       		.byte	0x1
 473 00c8 2E01     		.2byte	0x12e
 474 00ca 01       		.byte	0x1
 475 00cb 79000000 		.4byte	0x79
 476 00cf 00000000 		.4byte	.LFB6
 477 00d3 10000000 		.4byte	.LFE6
 478 00d7 01       		.byte	0x1
 479 00d8 5D       		.byte	0x5d
 480 00d9 09       		.uleb128 0x9
 481 00da 01       		.byte	0x1
 482 00db B3010000 		.4byte	.LASF17
 483 00df 01       		.byte	0x1
 484 00e0 4401     		.2byte	0x144
 485 00e2 01       		.byte	0x1
 486 00e3 00000000 		.4byte	.LFB7
 487 00e7 0C000000 		.4byte	.LFE7
 488 00eb 01       		.byte	0x1
 489 00ec 5D       		.byte	0x5d
 490 00ed 00010000 		.4byte	0x100
 491 00f1 0A       		.uleb128 0xa
 492 00f2 7F010000 		.4byte	.LASF19
 493 00f6 01       		.byte	0x1
 494 00f7 4401     		.2byte	0x144
 495 00f9 79000000 		.4byte	0x79
 496 00fd 01       		.byte	0x1
ARM GAS  C:\Users\SUZUKI~1\AppData\Local\Temp\ccGcXBfL.s 			page 16


 497 00fe 50       		.byte	0x50
 498 00ff 00       		.byte	0x0
 499 0100 08       		.uleb128 0x8
 500 0101 01       		.byte	0x1
 501 0102 1C010000 		.4byte	.LASF16
 502 0106 01       		.byte	0x1
 503 0107 6001     		.2byte	0x160
 504 0109 01       		.byte	0x1
 505 010a 79000000 		.4byte	0x79
 506 010e 00000000 		.4byte	.LFB8
 507 0112 10000000 		.4byte	.LFE8
 508 0116 01       		.byte	0x1
 509 0117 5D       		.byte	0x5d
 510 0118 0B       		.uleb128 0xb
 511 0119 01       		.byte	0x1
 512 011a E8000000 		.4byte	.LASF18
 513 011e 01       		.byte	0x1
 514 011f FB       		.byte	0xfb
 515 0120 01       		.byte	0x1
 516 0121 00000000 		.4byte	.LFB5
 517 0125 10000000 		.4byte	.LFE5
 518 0129 01       		.byte	0x1
 519 012a 5D       		.byte	0x5d
 520 012b 4E010000 		.4byte	0x14e
 521 012f 0C       		.uleb128 0xc
 522 0130 4D000000 		.4byte	.LASF20
 523 0134 01       		.byte	0x1
 524 0135 FB       		.byte	0xfb
 525 0136 8F000000 		.4byte	0x8f
 526 013a 00000000 		.4byte	.LLST5
 527 013e 0D       		.uleb128 0xd
 528 013f 53000000 		.4byte	.LASF21
 529 0143 01       		.byte	0x1
 530 0144 FF       		.byte	0xff
 531 0145 84000000 		.4byte	0x84
 532 0149 1E000000 		.4byte	.LLST6
 533 014d 00       		.byte	0x0
 534 014e 0E       		.uleb128 0xe
 535 014f 01       		.byte	0x1
 536 0150 6C000000 		.4byte	.LASF30
 537 0154 01       		.byte	0x1
 538 0155 C3       		.byte	0xc3
 539 0156 01       		.byte	0x1
 540 0157 8F000000 		.4byte	0x8f
 541 015b 00000000 		.4byte	.LFB4
 542 015f 0E000000 		.4byte	.LFE4
 543 0163 31000000 		.4byte	.LLST7
 544 0167 82010000 		.4byte	0x182
 545 016b 0F       		.uleb128 0xf
 546 016c 53000000 		.4byte	.LASF21
 547 0170 01       		.byte	0x1
 548 0171 C5       		.byte	0xc5
 549 0172 8F000000 		.4byte	0x8f
 550 0176 0F       		.uleb128 0xf
 551 0177 C2000000 		.4byte	.LASF22
 552 017b 01       		.byte	0x1
 553 017c C6       		.byte	0xc6
ARM GAS  C:\Users\SUZUKI~1\AppData\Local\Temp\ccGcXBfL.s 			page 17


 554 017d 84000000 		.4byte	0x84
 555 0181 00       		.byte	0x0
 556 0182 10       		.uleb128 0x10
 557 0183 01       		.byte	0x1
 558 0184 95000000 		.4byte	.LASF23
 559 0188 01       		.byte	0x1
 560 0189 96       		.byte	0x96
 561 018a 01       		.byte	0x1
 562 018b 00000000 		.4byte	.LFB3
 563 018f 20000000 		.4byte	.LFE3
 564 0193 50000000 		.4byte	.LLST8
 565 0197 A7010000 		.4byte	0x1a7
 566 019b 0F       		.uleb128 0xf
 567 019c C9000000 		.4byte	.LASF24
 568 01a0 01       		.byte	0x1
 569 01a1 98       		.byte	0x98
 570 01a2 79000000 		.4byte	0x79
 571 01a6 00       		.byte	0x0
 572 01a7 10       		.uleb128 0x10
 573 01a8 01       		.byte	0x1
 574 01a9 84010000 		.4byte	.LASF25
 575 01ad 01       		.byte	0x1
 576 01ae 46       		.byte	0x46
 577 01af 01       		.byte	0x1
 578 01b0 00000000 		.4byte	.LFB1
 579 01b4 24000000 		.4byte	.LFE1
 580 01b8 6F000000 		.4byte	.LLST9
 581 01bc CC010000 		.4byte	0x1cc
 582 01c0 0F       		.uleb128 0xf
 583 01c1 C9000000 		.4byte	.LASF24
 584 01c5 01       		.byte	0x1
 585 01c6 48       		.byte	0x48
 586 01c7 79000000 		.4byte	0x79
 587 01cb 00       		.byte	0x0
 588 01cc 11       		.uleb128 0x11
 589 01cd 01       		.byte	0x1
 590 01ce 0E000000 		.4byte	.LASF31
 591 01d2 01       		.byte	0x1
 592 01d3 71       		.byte	0x71
 593 01d4 01       		.byte	0x1
 594 01d5 00000000 		.4byte	.LFB2
 595 01d9 24000000 		.4byte	.LFE2
 596 01dd 8E000000 		.4byte	.LLST10
 597 01e1 12       		.uleb128 0x12
 598 01e2 0A010000 		.4byte	.LASF32
 599 01e6 01       		.byte	0x1
 600 01e7 19       		.byte	0x19
 601 01e8 79000000 		.4byte	0x79
 602 01ec 01       		.byte	0x1
 603 01ed 05       		.byte	0x5
 604 01ee 03       		.byte	0x3
 605 01ef 00000000 		.4byte	QuadDec_1_initVar
 606 01f3 00       		.byte	0x0
 607              		.section	.debug_abbrev
 608 0000 01       		.uleb128 0x1
 609 0001 11       		.uleb128 0x11
 610 0002 01       		.byte	0x1
ARM GAS  C:\Users\SUZUKI~1\AppData\Local\Temp\ccGcXBfL.s 			page 18


 611 0003 25       		.uleb128 0x25
 612 0004 0E       		.uleb128 0xe
 613 0005 13       		.uleb128 0x13
 614 0006 0B       		.uleb128 0xb
 615 0007 03       		.uleb128 0x3
 616 0008 0E       		.uleb128 0xe
 617 0009 1B       		.uleb128 0x1b
 618 000a 0E       		.uleb128 0xe
 619 000b 11       		.uleb128 0x11
 620 000c 01       		.uleb128 0x1
 621 000d 52       		.uleb128 0x52
 622 000e 01       		.uleb128 0x1
 623 000f 55       		.uleb128 0x55
 624 0010 06       		.uleb128 0x6
 625 0011 10       		.uleb128 0x10
 626 0012 06       		.uleb128 0x6
 627 0013 00       		.byte	0x0
 628 0014 00       		.byte	0x0
 629 0015 02       		.uleb128 0x2
 630 0016 24       		.uleb128 0x24
 631 0017 00       		.byte	0x0
 632 0018 0B       		.uleb128 0xb
 633 0019 0B       		.uleb128 0xb
 634 001a 3E       		.uleb128 0x3e
 635 001b 0B       		.uleb128 0xb
 636 001c 03       		.uleb128 0x3
 637 001d 0E       		.uleb128 0xe
 638 001e 00       		.byte	0x0
 639 001f 00       		.byte	0x0
 640 0020 03       		.uleb128 0x3
 641 0021 24       		.uleb128 0x24
 642 0022 00       		.byte	0x0
 643 0023 0B       		.uleb128 0xb
 644 0024 0B       		.uleb128 0xb
 645 0025 3E       		.uleb128 0x3e
 646 0026 0B       		.uleb128 0xb
 647 0027 03       		.uleb128 0x3
 648 0028 08       		.uleb128 0x8
 649 0029 00       		.byte	0x0
 650 002a 00       		.byte	0x0
 651 002b 04       		.uleb128 0x4
 652 002c 24       		.uleb128 0x24
 653 002d 00       		.byte	0x0
 654 002e 0B       		.uleb128 0xb
 655 002f 0B       		.uleb128 0xb
 656 0030 3E       		.uleb128 0x3e
 657 0031 0B       		.uleb128 0xb
 658 0032 00       		.byte	0x0
 659 0033 00       		.byte	0x0
 660 0034 05       		.uleb128 0x5
 661 0035 16       		.uleb128 0x16
 662 0036 00       		.byte	0x0
 663 0037 03       		.uleb128 0x3
 664 0038 0E       		.uleb128 0xe
 665 0039 3A       		.uleb128 0x3a
 666 003a 0B       		.uleb128 0xb
 667 003b 3B       		.uleb128 0x3b
ARM GAS  C:\Users\SUZUKI~1\AppData\Local\Temp\ccGcXBfL.s 			page 19


 668 003c 0B       		.uleb128 0xb
 669 003d 49       		.uleb128 0x49
 670 003e 13       		.uleb128 0x13
 671 003f 00       		.byte	0x0
 672 0040 00       		.byte	0x0
 673 0041 06       		.uleb128 0x6
 674 0042 2E       		.uleb128 0x2e
 675 0043 00       		.byte	0x0
 676 0044 3F       		.uleb128 0x3f
 677 0045 0C       		.uleb128 0xc
 678 0046 03       		.uleb128 0x3
 679 0047 0E       		.uleb128 0xe
 680 0048 3A       		.uleb128 0x3a
 681 0049 0B       		.uleb128 0xb
 682 004a 3B       		.uleb128 0x3b
 683 004b 0B       		.uleb128 0xb
 684 004c 27       		.uleb128 0x27
 685 004d 0C       		.uleb128 0xc
 686 004e 20       		.uleb128 0x20
 687 004f 0B       		.uleb128 0xb
 688 0050 00       		.byte	0x0
 689 0051 00       		.byte	0x0
 690 0052 07       		.uleb128 0x7
 691 0053 2E       		.uleb128 0x2e
 692 0054 00       		.byte	0x0
 693 0055 31       		.uleb128 0x31
 694 0056 13       		.uleb128 0x13
 695 0057 11       		.uleb128 0x11
 696 0058 01       		.uleb128 0x1
 697 0059 12       		.uleb128 0x12
 698 005a 01       		.uleb128 0x1
 699 005b 40       		.uleb128 0x40
 700 005c 0A       		.uleb128 0xa
 701 005d 00       		.byte	0x0
 702 005e 00       		.byte	0x0
 703 005f 08       		.uleb128 0x8
 704 0060 2E       		.uleb128 0x2e
 705 0061 00       		.byte	0x0
 706 0062 3F       		.uleb128 0x3f
 707 0063 0C       		.uleb128 0xc
 708 0064 03       		.uleb128 0x3
 709 0065 0E       		.uleb128 0xe
 710 0066 3A       		.uleb128 0x3a
 711 0067 0B       		.uleb128 0xb
 712 0068 3B       		.uleb128 0x3b
 713 0069 05       		.uleb128 0x5
 714 006a 27       		.uleb128 0x27
 715 006b 0C       		.uleb128 0xc
 716 006c 49       		.uleb128 0x49
 717 006d 13       		.uleb128 0x13
 718 006e 11       		.uleb128 0x11
 719 006f 01       		.uleb128 0x1
 720 0070 12       		.uleb128 0x12
 721 0071 01       		.uleb128 0x1
 722 0072 40       		.uleb128 0x40
 723 0073 0A       		.uleb128 0xa
 724 0074 00       		.byte	0x0
ARM GAS  C:\Users\SUZUKI~1\AppData\Local\Temp\ccGcXBfL.s 			page 20


 725 0075 00       		.byte	0x0
 726 0076 09       		.uleb128 0x9
 727 0077 2E       		.uleb128 0x2e
 728 0078 01       		.byte	0x1
 729 0079 3F       		.uleb128 0x3f
 730 007a 0C       		.uleb128 0xc
 731 007b 03       		.uleb128 0x3
 732 007c 0E       		.uleb128 0xe
 733 007d 3A       		.uleb128 0x3a
 734 007e 0B       		.uleb128 0xb
 735 007f 3B       		.uleb128 0x3b
 736 0080 05       		.uleb128 0x5
 737 0081 27       		.uleb128 0x27
 738 0082 0C       		.uleb128 0xc
 739 0083 11       		.uleb128 0x11
 740 0084 01       		.uleb128 0x1
 741 0085 12       		.uleb128 0x12
 742 0086 01       		.uleb128 0x1
 743 0087 40       		.uleb128 0x40
 744 0088 0A       		.uleb128 0xa
 745 0089 01       		.uleb128 0x1
 746 008a 13       		.uleb128 0x13
 747 008b 00       		.byte	0x0
 748 008c 00       		.byte	0x0
 749 008d 0A       		.uleb128 0xa
 750 008e 05       		.uleb128 0x5
 751 008f 00       		.byte	0x0
 752 0090 03       		.uleb128 0x3
 753 0091 0E       		.uleb128 0xe
 754 0092 3A       		.uleb128 0x3a
 755 0093 0B       		.uleb128 0xb
 756 0094 3B       		.uleb128 0x3b
 757 0095 05       		.uleb128 0x5
 758 0096 49       		.uleb128 0x49
 759 0097 13       		.uleb128 0x13
 760 0098 02       		.uleb128 0x2
 761 0099 0A       		.uleb128 0xa
 762 009a 00       		.byte	0x0
 763 009b 00       		.byte	0x0
 764 009c 0B       		.uleb128 0xb
 765 009d 2E       		.uleb128 0x2e
 766 009e 01       		.byte	0x1
 767 009f 3F       		.uleb128 0x3f
 768 00a0 0C       		.uleb128 0xc
 769 00a1 03       		.uleb128 0x3
 770 00a2 0E       		.uleb128 0xe
 771 00a3 3A       		.uleb128 0x3a
 772 00a4 0B       		.uleb128 0xb
 773 00a5 3B       		.uleb128 0x3b
 774 00a6 0B       		.uleb128 0xb
 775 00a7 27       		.uleb128 0x27
 776 00a8 0C       		.uleb128 0xc
 777 00a9 11       		.uleb128 0x11
 778 00aa 01       		.uleb128 0x1
 779 00ab 12       		.uleb128 0x12
 780 00ac 01       		.uleb128 0x1
 781 00ad 40       		.uleb128 0x40
ARM GAS  C:\Users\SUZUKI~1\AppData\Local\Temp\ccGcXBfL.s 			page 21


 782 00ae 0A       		.uleb128 0xa
 783 00af 01       		.uleb128 0x1
 784 00b0 13       		.uleb128 0x13
 785 00b1 00       		.byte	0x0
 786 00b2 00       		.byte	0x0
 787 00b3 0C       		.uleb128 0xc
 788 00b4 05       		.uleb128 0x5
 789 00b5 00       		.byte	0x0
 790 00b6 03       		.uleb128 0x3
 791 00b7 0E       		.uleb128 0xe
 792 00b8 3A       		.uleb128 0x3a
 793 00b9 0B       		.uleb128 0xb
 794 00ba 3B       		.uleb128 0x3b
 795 00bb 0B       		.uleb128 0xb
 796 00bc 49       		.uleb128 0x49
 797 00bd 13       		.uleb128 0x13
 798 00be 02       		.uleb128 0x2
 799 00bf 06       		.uleb128 0x6
 800 00c0 00       		.byte	0x0
 801 00c1 00       		.byte	0x0
 802 00c2 0D       		.uleb128 0xd
 803 00c3 34       		.uleb128 0x34
 804 00c4 00       		.byte	0x0
 805 00c5 03       		.uleb128 0x3
 806 00c6 0E       		.uleb128 0xe
 807 00c7 3A       		.uleb128 0x3a
 808 00c8 0B       		.uleb128 0xb
 809 00c9 3B       		.uleb128 0x3b
 810 00ca 0B       		.uleb128 0xb
 811 00cb 49       		.uleb128 0x49
 812 00cc 13       		.uleb128 0x13
 813 00cd 02       		.uleb128 0x2
 814 00ce 06       		.uleb128 0x6
 815 00cf 00       		.byte	0x0
 816 00d0 00       		.byte	0x0
 817 00d1 0E       		.uleb128 0xe
 818 00d2 2E       		.uleb128 0x2e
 819 00d3 01       		.byte	0x1
 820 00d4 3F       		.uleb128 0x3f
 821 00d5 0C       		.uleb128 0xc
 822 00d6 03       		.uleb128 0x3
 823 00d7 0E       		.uleb128 0xe
 824 00d8 3A       		.uleb128 0x3a
 825 00d9 0B       		.uleb128 0xb
 826 00da 3B       		.uleb128 0x3b
 827 00db 0B       		.uleb128 0xb
 828 00dc 27       		.uleb128 0x27
 829 00dd 0C       		.uleb128 0xc
 830 00de 49       		.uleb128 0x49
 831 00df 13       		.uleb128 0x13
 832 00e0 11       		.uleb128 0x11
 833 00e1 01       		.uleb128 0x1
 834 00e2 12       		.uleb128 0x12
 835 00e3 01       		.uleb128 0x1
 836 00e4 40       		.uleb128 0x40
 837 00e5 06       		.uleb128 0x6
 838 00e6 01       		.uleb128 0x1
ARM GAS  C:\Users\SUZUKI~1\AppData\Local\Temp\ccGcXBfL.s 			page 22


 839 00e7 13       		.uleb128 0x13
 840 00e8 00       		.byte	0x0
 841 00e9 00       		.byte	0x0
 842 00ea 0F       		.uleb128 0xf
 843 00eb 34       		.uleb128 0x34
 844 00ec 00       		.byte	0x0
 845 00ed 03       		.uleb128 0x3
 846 00ee 0E       		.uleb128 0xe
 847 00ef 3A       		.uleb128 0x3a
 848 00f0 0B       		.uleb128 0xb
 849 00f1 3B       		.uleb128 0x3b
 850 00f2 0B       		.uleb128 0xb
 851 00f3 49       		.uleb128 0x49
 852 00f4 13       		.uleb128 0x13
 853 00f5 00       		.byte	0x0
 854 00f6 00       		.byte	0x0
 855 00f7 10       		.uleb128 0x10
 856 00f8 2E       		.uleb128 0x2e
 857 00f9 01       		.byte	0x1
 858 00fa 3F       		.uleb128 0x3f
 859 00fb 0C       		.uleb128 0xc
 860 00fc 03       		.uleb128 0x3
 861 00fd 0E       		.uleb128 0xe
 862 00fe 3A       		.uleb128 0x3a
 863 00ff 0B       		.uleb128 0xb
 864 0100 3B       		.uleb128 0x3b
 865 0101 0B       		.uleb128 0xb
 866 0102 27       		.uleb128 0x27
 867 0103 0C       		.uleb128 0xc
 868 0104 11       		.uleb128 0x11
 869 0105 01       		.uleb128 0x1
 870 0106 12       		.uleb128 0x12
 871 0107 01       		.uleb128 0x1
 872 0108 40       		.uleb128 0x40
 873 0109 06       		.uleb128 0x6
 874 010a 01       		.uleb128 0x1
 875 010b 13       		.uleb128 0x13
 876 010c 00       		.byte	0x0
 877 010d 00       		.byte	0x0
 878 010e 11       		.uleb128 0x11
 879 010f 2E       		.uleb128 0x2e
 880 0110 00       		.byte	0x0
 881 0111 3F       		.uleb128 0x3f
 882 0112 0C       		.uleb128 0xc
 883 0113 03       		.uleb128 0x3
 884 0114 0E       		.uleb128 0xe
 885 0115 3A       		.uleb128 0x3a
 886 0116 0B       		.uleb128 0xb
 887 0117 3B       		.uleb128 0x3b
 888 0118 0B       		.uleb128 0xb
 889 0119 27       		.uleb128 0x27
 890 011a 0C       		.uleb128 0xc
 891 011b 11       		.uleb128 0x11
 892 011c 01       		.uleb128 0x1
 893 011d 12       		.uleb128 0x12
 894 011e 01       		.uleb128 0x1
 895 011f 40       		.uleb128 0x40
ARM GAS  C:\Users\SUZUKI~1\AppData\Local\Temp\ccGcXBfL.s 			page 23


 896 0120 06       		.uleb128 0x6
 897 0121 00       		.byte	0x0
 898 0122 00       		.byte	0x0
 899 0123 12       		.uleb128 0x12
 900 0124 34       		.uleb128 0x34
 901 0125 00       		.byte	0x0
 902 0126 03       		.uleb128 0x3
 903 0127 0E       		.uleb128 0xe
 904 0128 3A       		.uleb128 0x3a
 905 0129 0B       		.uleb128 0xb
 906 012a 3B       		.uleb128 0x3b
 907 012b 0B       		.uleb128 0xb
 908 012c 49       		.uleb128 0x49
 909 012d 13       		.uleb128 0x13
 910 012e 3F       		.uleb128 0x3f
 911 012f 0C       		.uleb128 0xc
 912 0130 02       		.uleb128 0x2
 913 0131 0A       		.uleb128 0xa
 914 0132 00       		.byte	0x0
 915 0133 00       		.byte	0x0
 916 0134 00       		.byte	0x0
 917              		.section	.debug_pubnames,"",%progbits
 918 0000 FB000000 		.4byte	0xfb
 919 0004 0200     		.2byte	0x2
 920 0006 00000000 		.4byte	.Ldebug_info0
 921 000a F4010000 		.4byte	0x1f4
 922 000e B2000000 		.4byte	0xb2
 923 0012 51756164 		.ascii	"QuadDec_1_Init\000"
 923      4465635F 
 923      315F496E 
 923      697400
 924 0021 C1000000 		.4byte	0xc1
 925 0025 51756164 		.ascii	"QuadDec_1_GetEvents\000"
 925      4465635F 
 925      315F4765 
 925      74457665 
 925      6E747300 
 926 0039 D9000000 		.4byte	0xd9
 927 003d 51756164 		.ascii	"QuadDec_1_SetInterruptMask\000"
 927      4465635F 
 927      315F5365 
 927      74496E74 
 927      65727275 
 928 0058 00010000 		.4byte	0x100
 929 005c 51756164 		.ascii	"QuadDec_1_GetInterruptMask\000"
 929      4465635F 
 929      315F4765 
 929      74496E74 
 929      65727275 
 930 0077 18010000 		.4byte	0x118
 931 007b 51756164 		.ascii	"QuadDec_1_SetCounter\000"
 931      4465635F 
 931      315F5365 
 931      74436F75 
 931      6E746572 
 932 0090 4E010000 		.4byte	0x14e
 933 0094 51756164 		.ascii	"QuadDec_1_GetCounter\000"
ARM GAS  C:\Users\SUZUKI~1\AppData\Local\Temp\ccGcXBfL.s 			page 24


 933      4465635F 
 933      315F4765 
 933      74436F75 
 933      6E746572 
 934 00a9 82010000 		.4byte	0x182
 935 00ad 51756164 		.ascii	"QuadDec_1_Stop\000"
 935      4465635F 
 935      315F5374 
 935      6F7000
 936 00bc A7010000 		.4byte	0x1a7
 937 00c0 51756164 		.ascii	"QuadDec_1_Enable\000"
 937      4465635F 
 937      315F456E 
 937      61626C65 
 937      00
 938 00d1 CC010000 		.4byte	0x1cc
 939 00d5 51756164 		.ascii	"QuadDec_1_Start\000"
 939      4465635F 
 939      315F5374 
 939      61727400 
 940 00e5 E1010000 		.4byte	0x1e1
 941 00e9 51756164 		.ascii	"QuadDec_1_initVar\000"
 941      4465635F 
 941      315F696E 
 941      69745661 
 941      7200
 942 00fb 00000000 		.4byte	0x0
 943              		.section	.debug_aranges,"",%progbits
 944 0000 5C000000 		.4byte	0x5c
 945 0004 0200     		.2byte	0x2
 946 0006 00000000 		.4byte	.Ldebug_info0
 947 000a 04       		.byte	0x4
 948 000b 00       		.byte	0x0
 949 000c 0000     		.2byte	0x0
 950 000e 0000     		.2byte	0x0
 951 0010 00000000 		.4byte	.LFB0
 952 0014 02000000 		.4byte	.LFE0-.LFB0
 953 0018 00000000 		.4byte	.LFB6
 954 001c 10000000 		.4byte	.LFE6-.LFB6
 955 0020 00000000 		.4byte	.LFB7
 956 0024 0C000000 		.4byte	.LFE7-.LFB7
 957 0028 00000000 		.4byte	.LFB8
 958 002c 10000000 		.4byte	.LFE8-.LFB8
 959 0030 00000000 		.4byte	.LFB5
 960 0034 10000000 		.4byte	.LFE5-.LFB5
 961 0038 00000000 		.4byte	.LFB4
 962 003c 0E000000 		.4byte	.LFE4-.LFB4
 963 0040 00000000 		.4byte	.LFB3
 964 0044 20000000 		.4byte	.LFE3-.LFB3
 965 0048 00000000 		.4byte	.LFB1
 966 004c 24000000 		.4byte	.LFE1-.LFB1
 967 0050 00000000 		.4byte	.LFB2
 968 0054 24000000 		.4byte	.LFE2-.LFB2
 969 0058 00000000 		.4byte	0x0
 970 005c 00000000 		.4byte	0x0
 971              		.section	.debug_ranges,"",%progbits
 972              	.Ldebug_ranges0:
ARM GAS  C:\Users\SUZUKI~1\AppData\Local\Temp\ccGcXBfL.s 			page 25


 973 0000 00000000 		.4byte	.Ltext0
 974 0004 00000000 		.4byte	.Letext0
 975 0008 00000000 		.4byte	.LFB0
 976 000c 02000000 		.4byte	.LFE0
 977 0010 00000000 		.4byte	.LFB6
 978 0014 10000000 		.4byte	.LFE6
 979 0018 00000000 		.4byte	.LFB7
 980 001c 0C000000 		.4byte	.LFE7
 981 0020 00000000 		.4byte	.LFB8
 982 0024 10000000 		.4byte	.LFE8
 983 0028 00000000 		.4byte	.LFB5
 984 002c 10000000 		.4byte	.LFE5
 985 0030 00000000 		.4byte	.LFB4
 986 0034 0E000000 		.4byte	.LFE4
 987 0038 00000000 		.4byte	.LFB3
 988 003c 20000000 		.4byte	.LFE3
 989 0040 00000000 		.4byte	.LFB1
 990 0044 24000000 		.4byte	.LFE1
 991 0048 00000000 		.4byte	.LFB2
 992 004c 24000000 		.4byte	.LFE2
 993 0050 00000000 		.4byte	0x0
 994 0054 00000000 		.4byte	0x0
 995              		.section	.debug_str,"MS",%progbits,1
 996              	.LASF5:
 997 0000 6C6F6E67 		.ascii	"long long int\000"
 997      206C6F6E 
 997      6720696E 
 997      7400
 998              	.LASF31:
 999 000e 51756164 		.ascii	"QuadDec_1_Start\000"
 999      4465635F 
 999      315F5374 
 999      61727400 
 1000              	.LASF28:
 1001 001e 5C5C5642 		.ascii	"\\\\VBOXSVR\\PSoC_Creator\\tfexpbrd\\tfexpbrd.cydsn"
 1001      4F585356 
 1001      525C5053 
 1001      6F435F43 
 1001      72656174 
 1002 004c 00       		.ascii	"\000"
 1003              	.LASF20:
 1004 004d 76616C75 		.ascii	"value\000"
 1004      6500
 1005              	.LASF21:
 1006 0053 636F756E 		.ascii	"count\000"
 1006      7400
 1007              	.LASF3:
 1008 0059 73686F72 		.ascii	"short unsigned int\000"
 1008      7420756E 
 1008      7369676E 
 1008      65642069 
 1008      6E7400
 1009              	.LASF30:
 1010 006c 51756164 		.ascii	"QuadDec_1_GetCounter\000"
 1010      4465635F 
 1010      315F4765 
 1010      74436F75 
ARM GAS  C:\Users\SUZUKI~1\AppData\Local\Temp\ccGcXBfL.s 			page 26


 1010      6E746572 
 1011              	.LASF13:
 1012 0081 666C6F61 		.ascii	"float\000"
 1012      7400
 1013              	.LASF1:
 1014 0087 756E7369 		.ascii	"unsigned char\000"
 1014      676E6564 
 1014      20636861 
 1014      7200
 1015              	.LASF23:
 1016 0095 51756164 		.ascii	"QuadDec_1_Stop\000"
 1016      4465635F 
 1016      315F5374 
 1016      6F7000
 1017              	.LASF12:
 1018 00a4 696E7431 		.ascii	"int16\000"
 1018      3600
 1019              	.LASF8:
 1020 00aa 6C6F6E67 		.ascii	"long unsigned int\000"
 1020      20756E73 
 1020      69676E65 
 1020      6420696E 
 1020      7400
 1021              	.LASF10:
 1022 00bc 75696E74 		.ascii	"uint8\000"
 1022      3800
 1023              	.LASF22:
 1024 00c2 746D7043 		.ascii	"tmpCnt\000"
 1024      6E7400
 1025              	.LASF24:
 1026 00c9 656E6162 		.ascii	"enableInterrupts\000"
 1026      6C65496E 
 1026      74657272 
 1026      75707473 
 1026      00
 1027              	.LASF14:
 1028 00da 646F7562 		.ascii	"double\000"
 1028      6C6500
 1029              	.LASF11:
 1030 00e1 75696E74 		.ascii	"uint16\000"
 1030      313600
 1031              	.LASF18:
 1032 00e8 51756164 		.ascii	"QuadDec_1_SetCounter\000"
 1032      4465635F 
 1032      315F5365 
 1032      74436F75 
 1032      6E746572 
 1033              	.LASF4:
 1034 00fd 756E7369 		.ascii	"unsigned int\000"
 1034      676E6564 
 1034      20696E74 
 1034      00
 1035              	.LASF32:
 1036 010a 51756164 		.ascii	"QuadDec_1_initVar\000"
 1036      4465635F 
 1036      315F696E 
 1036      69745661 
ARM GAS  C:\Users\SUZUKI~1\AppData\Local\Temp\ccGcXBfL.s 			page 27


 1036      7200
 1037              	.LASF16:
 1038 011c 51756164 		.ascii	"QuadDec_1_GetInterruptMask\000"
 1038      4465635F 
 1038      315F4765 
 1038      74496E74 
 1038      65727275 
 1039              	.LASF6:
 1040 0137 6C6F6E67 		.ascii	"long long unsigned int\000"
 1040      206C6F6E 
 1040      6720756E 
 1040      7369676E 
 1040      65642069 
 1041              	.LASF27:
 1042 014e 2E5C4765 		.ascii	".\\Generated_Source\\PSoC5\\QuadDec_1.c\000"
 1042      6E657261 
 1042      7465645F 
 1042      536F7572 
 1042      63655C50 
 1043              	.LASF26:
 1044 0173 474E5520 		.ascii	"GNU C 4.4.1\000"
 1044      4320342E 
 1044      342E3100 
 1045              	.LASF19:
 1046 017f 6D61736B 		.ascii	"mask\000"
 1046      00
 1047              	.LASF25:
 1048 0184 51756164 		.ascii	"QuadDec_1_Enable\000"
 1048      4465635F 
 1048      315F456E 
 1048      61626C65 
 1048      00
 1049              	.LASF2:
 1050 0195 73686F72 		.ascii	"short int\000"
 1050      7420696E 
 1050      7400
 1051              	.LASF15:
 1052 019f 51756164 		.ascii	"QuadDec_1_GetEvents\000"
 1052      4465635F 
 1052      315F4765 
 1052      74457665 
 1052      6E747300 
 1053              	.LASF17:
 1054 01b3 51756164 		.ascii	"QuadDec_1_SetInterruptMask\000"
 1054      4465635F 
 1054      315F5365 
 1054      74496E74 
 1054      65727275 
 1055              	.LASF7:
 1056 01ce 6C6F6E67 		.ascii	"long int\000"
 1056      20696E74 
 1056      00
 1057              	.LASF9:
 1058 01d7 63686172 		.ascii	"char\000"
 1058      00
 1059              	.LASF0:
 1060 01dc 7369676E 		.ascii	"signed char\000"
ARM GAS  C:\Users\SUZUKI~1\AppData\Local\Temp\ccGcXBfL.s 			page 28


 1060      65642063 
 1060      68617200 
 1061              	.LASF29:
 1062 01e8 51756164 		.ascii	"QuadDec_1_Init\000"
 1062      4465635F 
 1062      315F496E 
 1062      697400
 1063              		.ident	"GCC: (Sourcery G++ Lite 2010q1-188) 4.4.1"
