ARM GAS  C:\Users\SUZUKI~1\AppData\Local\Temp\ccbvUd7n.s 			page 1


   1              		.syntax unified
   2              		.cpu cortex-m3
   3              		.fpu softvfp
   4              		.eabi_attribute 20, 1
   5              		.eabi_attribute 21, 1
   6              		.eabi_attribute 23, 3
   7              		.eabi_attribute 24, 1
   8              		.eabi_attribute 25, 1
   9              		.eabi_attribute 26, 1
  10              		.eabi_attribute 30, 4
  11              		.eabi_attribute 18, 4
  12              		.thumb
  13              		.file	"sdlogger_1_irq.c"
  14              		.section	.debug_abbrev,"",%progbits
  15              	.Ldebug_abbrev0:
  16              		.section	.debug_info,"",%progbits
  17              	.Ldebug_info0:
  18              		.section	.debug_line,"",%progbits
  19              	.Ldebug_line0:
  20 0000 8F000000 		.text
  20      02006700 
  20      00000201 
  20      FB0E0D00 
  20      01010101 
  21              	.Ltext0:
  22              		.cfi_sections	.debug_frame
  23              		.section	.text.sdlogger_1_irq_Write,"ax",%progbits
  24              		.align	1
  25              		.global	sdlogger_1_irq_Write
  26              		.thumb
  27              		.thumb_func
  28              		.type	sdlogger_1_irq_Write, %function
  29              	sdlogger_1_irq_Write:
  30              	.LFB0:
  31              		.file 1 ".\\Generated_Source\\PSoC5\\sdlogger_1_irq.c"
   1:.\Generated_Source\PSoC5/sdlogger_1_irq.c **** /*******************************************************************************
   2:.\Generated_Source\PSoC5/sdlogger_1_irq.c **** * File Name: sdlogger_1_irq.c  
   3:.\Generated_Source\PSoC5/sdlogger_1_irq.c **** * Version 1.70
   4:.\Generated_Source\PSoC5/sdlogger_1_irq.c **** *
   5:.\Generated_Source\PSoC5/sdlogger_1_irq.c **** * Description:
   6:.\Generated_Source\PSoC5/sdlogger_1_irq.c **** *  This file contains API to enable firmware control of a Control Register.
   7:.\Generated_Source\PSoC5/sdlogger_1_irq.c **** *
   8:.\Generated_Source\PSoC5/sdlogger_1_irq.c **** * Note:
   9:.\Generated_Source\PSoC5/sdlogger_1_irq.c **** *
  10:.\Generated_Source\PSoC5/sdlogger_1_irq.c **** ********************************************************************************
  11:.\Generated_Source\PSoC5/sdlogger_1_irq.c **** * Copyright 2008-2012, Cypress Semiconductor Corporation.  All rights reserved.
  12:.\Generated_Source\PSoC5/sdlogger_1_irq.c **** * You may use this file only in accordance with the license, terms, conditions, 
  13:.\Generated_Source\PSoC5/sdlogger_1_irq.c **** * disclaimers, and limitations in the end user license agreement accompanying 
  14:.\Generated_Source\PSoC5/sdlogger_1_irq.c **** * the software package with which this file was provided.
  15:.\Generated_Source\PSoC5/sdlogger_1_irq.c **** *******************************************************************************/
  16:.\Generated_Source\PSoC5/sdlogger_1_irq.c **** 
  17:.\Generated_Source\PSoC5/sdlogger_1_irq.c **** #include "sdlogger_1_irq.h"
  18:.\Generated_Source\PSoC5/sdlogger_1_irq.c **** 
  19:.\Generated_Source\PSoC5/sdlogger_1_irq.c **** #if !defined(sdlogger_1_irq_Async_ctrl_reg__REMOVED) /* Check for removal by optimization */
  20:.\Generated_Source\PSoC5/sdlogger_1_irq.c **** 
  21:.\Generated_Source\PSoC5/sdlogger_1_irq.c **** /*******************************************************************************
  22:.\Generated_Source\PSoC5/sdlogger_1_irq.c **** * Function Name: sdlogger_1_irq_Write
ARM GAS  C:\Users\SUZUKI~1\AppData\Local\Temp\ccbvUd7n.s 			page 2


  23:.\Generated_Source\PSoC5/sdlogger_1_irq.c **** ********************************************************************************
  24:.\Generated_Source\PSoC5/sdlogger_1_irq.c **** *
  25:.\Generated_Source\PSoC5/sdlogger_1_irq.c **** * Summary:
  26:.\Generated_Source\PSoC5/sdlogger_1_irq.c **** *  Write a byte to the Control Register.
  27:.\Generated_Source\PSoC5/sdlogger_1_irq.c **** *
  28:.\Generated_Source\PSoC5/sdlogger_1_irq.c **** * Parameters:
  29:.\Generated_Source\PSoC5/sdlogger_1_irq.c **** *  control:  The value to be assigned to the Control Register.
  30:.\Generated_Source\PSoC5/sdlogger_1_irq.c **** *
  31:.\Generated_Source\PSoC5/sdlogger_1_irq.c **** * Return:
  32:.\Generated_Source\PSoC5/sdlogger_1_irq.c **** *  None.
  33:.\Generated_Source\PSoC5/sdlogger_1_irq.c **** *
  34:.\Generated_Source\PSoC5/sdlogger_1_irq.c **** *******************************************************************************/
  35:.\Generated_Source\PSoC5/sdlogger_1_irq.c **** void sdlogger_1_irq_Write(uint8 control) 
  36:.\Generated_Source\PSoC5/sdlogger_1_irq.c **** {
  32              		.loc 1 36 0
  33              		.cfi_startproc
  34              		@ args = 0, pretend = 0, frame = 0
  35              		@ frame_needed = 0, uses_anonymous_args = 0
  36              		@ link register save eliminated.
  37              	.LVL0:
  37:.\Generated_Source\PSoC5/sdlogger_1_irq.c ****     sdlogger_1_irq_Control = control;
  38              		.loc 1 37 0
  39 0000 014B     		ldr	r3, .L3
  40 0002 1870     		strb	r0, [r3, #0]
  38:.\Generated_Source\PSoC5/sdlogger_1_irq.c **** }
  41              		.loc 1 38 0
  42 0004 7047     		bx	lr
  43              	.L4:
  44 0006 00BF     		.align	2
  45              	.L3:
  46 0008 77640040 		.word	1073767543
  47              		.cfi_endproc
  48              	.LFE0:
  49              		.size	sdlogger_1_irq_Write, .-sdlogger_1_irq_Write
  50              		.section	.text.sdlogger_1_irq_Read,"ax",%progbits
  51              		.align	1
  52              		.global	sdlogger_1_irq_Read
  53              		.thumb
  54              		.thumb_func
  55              		.type	sdlogger_1_irq_Read, %function
  56              	sdlogger_1_irq_Read:
  57              	.LFB1:
  39:.\Generated_Source\PSoC5/sdlogger_1_irq.c **** 
  40:.\Generated_Source\PSoC5/sdlogger_1_irq.c **** 
  41:.\Generated_Source\PSoC5/sdlogger_1_irq.c **** /*******************************************************************************
  42:.\Generated_Source\PSoC5/sdlogger_1_irq.c **** * Function Name: sdlogger_1_irq_Read
  43:.\Generated_Source\PSoC5/sdlogger_1_irq.c **** ********************************************************************************
  44:.\Generated_Source\PSoC5/sdlogger_1_irq.c **** *
  45:.\Generated_Source\PSoC5/sdlogger_1_irq.c **** * Summary:
  46:.\Generated_Source\PSoC5/sdlogger_1_irq.c **** *  Reads the current value assigned to the Control Register.
  47:.\Generated_Source\PSoC5/sdlogger_1_irq.c **** *
  48:.\Generated_Source\PSoC5/sdlogger_1_irq.c **** * Parameters:
  49:.\Generated_Source\PSoC5/sdlogger_1_irq.c **** *  None.
  50:.\Generated_Source\PSoC5/sdlogger_1_irq.c **** *
  51:.\Generated_Source\PSoC5/sdlogger_1_irq.c **** * Return:
  52:.\Generated_Source\PSoC5/sdlogger_1_irq.c **** *  Returns the current value in the Control Register.
  53:.\Generated_Source\PSoC5/sdlogger_1_irq.c **** *
ARM GAS  C:\Users\SUZUKI~1\AppData\Local\Temp\ccbvUd7n.s 			page 3


  54:.\Generated_Source\PSoC5/sdlogger_1_irq.c **** *******************************************************************************/
  55:.\Generated_Source\PSoC5/sdlogger_1_irq.c **** uint8 sdlogger_1_irq_Read(void) 
  56:.\Generated_Source\PSoC5/sdlogger_1_irq.c **** {
  58              		.loc 1 56 0
  59              		.cfi_startproc
  60              		@ args = 0, pretend = 0, frame = 0
  61              		@ frame_needed = 0, uses_anonymous_args = 0
  62              		@ link register save eliminated.
  57:.\Generated_Source\PSoC5/sdlogger_1_irq.c ****     return sdlogger_1_irq_Control;
  63              		.loc 1 57 0
  64 0000 014B     		ldr	r3, .L7
  65 0002 1878     		ldrb	r0, [r3, #0]	@ zero_extendqisi2
  58:.\Generated_Source\PSoC5/sdlogger_1_irq.c **** }
  66              		.loc 1 58 0
  67 0004 7047     		bx	lr
  68              	.L8:
  69 0006 00BF     		.align	2
  70              	.L7:
  71 0008 77640040 		.word	1073767543
  72              		.cfi_endproc
  73              	.LFE1:
  74              		.size	sdlogger_1_irq_Read, .-sdlogger_1_irq_Read
  75              		.text
  76              	.Letext0:
  77              		.file 2 ".\\Generated_Source\\PSoC5\\/cytypes.h"
  78              		.section	.debug_info
  79 0000 C8000000 		.4byte	0xc8
  80 0004 0200     		.2byte	0x2
  81 0006 00000000 		.4byte	.Ldebug_abbrev0
  82 000a 04       		.byte	0x4
  83 000b 01       		.uleb128 0x1
  84 000c FC000000 		.4byte	.LASF12
  85 0010 01       		.byte	0x1
  86 0011 AE000000 		.4byte	.LASF13
  87 0015 0E000000 		.4byte	.LASF14
  88 0019 00000000 		.4byte	0x0
  89 001d 00000000 		.4byte	0x0
  90 0021 00000000 		.4byte	.Ldebug_ranges0+0x0
  91 0025 00000000 		.4byte	.Ldebug_line0
  92 0029 02       		.uleb128 0x2
  93 002a 01       		.byte	0x1
  94 002b 06       		.byte	0x6
  95 002c 26010000 		.4byte	.LASF0
  96 0030 02       		.uleb128 0x2
  97 0031 01       		.byte	0x1
  98 0032 08       		.byte	0x8
  99 0033 6C000000 		.4byte	.LASF1
 100 0037 02       		.uleb128 0x2
 101 0038 02       		.byte	0x2
 102 0039 05       		.byte	0x5
 103 003a 0D010000 		.4byte	.LASF2
 104 003e 02       		.uleb128 0x2
 105 003f 02       		.byte	0x2
 106 0040 07       		.byte	0x7
 107 0041 8C000000 		.4byte	.LASF3
 108 0045 02       		.uleb128 0x2
 109 0046 04       		.byte	0x4
ARM GAS  C:\Users\SUZUKI~1\AppData\Local\Temp\ccbvUd7n.s 			page 4


 110 0047 05       		.byte	0x5
 111 0048 1D010000 		.4byte	.LASF4
 112 004c 02       		.uleb128 0x2
 113 004d 04       		.byte	0x4
 114 004e 07       		.byte	0x7
 115 004f 7A000000 		.4byte	.LASF5
 116 0053 02       		.uleb128 0x2
 117 0054 08       		.byte	0x8
 118 0055 05       		.byte	0x5
 119 0056 00000000 		.4byte	.LASF6
 120 005a 02       		.uleb128 0x2
 121 005b 08       		.byte	0x8
 122 005c 07       		.byte	0x7
 123 005d E5000000 		.4byte	.LASF7
 124 0061 03       		.uleb128 0x3
 125 0062 04       		.byte	0x4
 126 0063 05       		.byte	0x5
 127 0064 696E7400 		.ascii	"int\000"
 128 0068 02       		.uleb128 0x2
 129 0069 04       		.byte	0x4
 130 006a 07       		.byte	0x7
 131 006b D8000000 		.4byte	.LASF8
 132 006f 04       		.uleb128 0x4
 133 0070 17010000 		.4byte	.LASF15
 134 0074 02       		.byte	0x2
 135 0075 4C       		.byte	0x4c
 136 0076 30000000 		.4byte	0x30
 137 007a 02       		.uleb128 0x2
 138 007b 04       		.byte	0x4
 139 007c 04       		.byte	0x4
 140 007d 66000000 		.4byte	.LASF9
 141 0081 02       		.uleb128 0x2
 142 0082 08       		.byte	0x8
 143 0083 04       		.byte	0x4
 144 0084 A7000000 		.4byte	.LASF10
 145 0088 02       		.uleb128 0x2
 146 0089 01       		.byte	0x1
 147 008a 08       		.byte	0x8
 148 008b 08010000 		.4byte	.LASF11
 149 008f 05       		.uleb128 0x5
 150 0090 01       		.byte	0x1
 151 0091 51000000 		.4byte	.LASF16
 152 0095 01       		.byte	0x1
 153 0096 23       		.byte	0x23
 154 0097 01       		.byte	0x1
 155 0098 00000000 		.4byte	.LFB0
 156 009c 0C000000 		.4byte	.LFE0
 157 00a0 01       		.byte	0x1
 158 00a1 5D       		.byte	0x5d
 159 00a2 B4000000 		.4byte	0xb4
 160 00a6 06       		.uleb128 0x6
 161 00a7 9F000000 		.4byte	.LASF17
 162 00ab 01       		.byte	0x1
 163 00ac 23       		.byte	0x23
 164 00ad 6F000000 		.4byte	0x6f
 165 00b1 01       		.byte	0x1
 166 00b2 50       		.byte	0x50
ARM GAS  C:\Users\SUZUKI~1\AppData\Local\Temp\ccbvUd7n.s 			page 5


 167 00b3 00       		.byte	0x0
 168 00b4 07       		.uleb128 0x7
 169 00b5 01       		.byte	0x1
 170 00b6 3D000000 		.4byte	.LASF18
 171 00ba 01       		.byte	0x1
 172 00bb 37       		.byte	0x37
 173 00bc 01       		.byte	0x1
 174 00bd 6F000000 		.4byte	0x6f
 175 00c1 00000000 		.4byte	.LFB1
 176 00c5 0C000000 		.4byte	.LFE1
 177 00c9 01       		.byte	0x1
 178 00ca 5D       		.byte	0x5d
 179 00cb 00       		.byte	0x0
 180              		.section	.debug_abbrev
 181 0000 01       		.uleb128 0x1
 182 0001 11       		.uleb128 0x11
 183 0002 01       		.byte	0x1
 184 0003 25       		.uleb128 0x25
 185 0004 0E       		.uleb128 0xe
 186 0005 13       		.uleb128 0x13
 187 0006 0B       		.uleb128 0xb
 188 0007 03       		.uleb128 0x3
 189 0008 0E       		.uleb128 0xe
 190 0009 1B       		.uleb128 0x1b
 191 000a 0E       		.uleb128 0xe
 192 000b 11       		.uleb128 0x11
 193 000c 01       		.uleb128 0x1
 194 000d 52       		.uleb128 0x52
 195 000e 01       		.uleb128 0x1
 196 000f 55       		.uleb128 0x55
 197 0010 06       		.uleb128 0x6
 198 0011 10       		.uleb128 0x10
 199 0012 06       		.uleb128 0x6
 200 0013 00       		.byte	0x0
 201 0014 00       		.byte	0x0
 202 0015 02       		.uleb128 0x2
 203 0016 24       		.uleb128 0x24
 204 0017 00       		.byte	0x0
 205 0018 0B       		.uleb128 0xb
 206 0019 0B       		.uleb128 0xb
 207 001a 3E       		.uleb128 0x3e
 208 001b 0B       		.uleb128 0xb
 209 001c 03       		.uleb128 0x3
 210 001d 0E       		.uleb128 0xe
 211 001e 00       		.byte	0x0
 212 001f 00       		.byte	0x0
 213 0020 03       		.uleb128 0x3
 214 0021 24       		.uleb128 0x24
 215 0022 00       		.byte	0x0
 216 0023 0B       		.uleb128 0xb
 217 0024 0B       		.uleb128 0xb
 218 0025 3E       		.uleb128 0x3e
 219 0026 0B       		.uleb128 0xb
 220 0027 03       		.uleb128 0x3
 221 0028 08       		.uleb128 0x8
 222 0029 00       		.byte	0x0
 223 002a 00       		.byte	0x0
ARM GAS  C:\Users\SUZUKI~1\AppData\Local\Temp\ccbvUd7n.s 			page 6


 224 002b 04       		.uleb128 0x4
 225 002c 16       		.uleb128 0x16
 226 002d 00       		.byte	0x0
 227 002e 03       		.uleb128 0x3
 228 002f 0E       		.uleb128 0xe
 229 0030 3A       		.uleb128 0x3a
 230 0031 0B       		.uleb128 0xb
 231 0032 3B       		.uleb128 0x3b
 232 0033 0B       		.uleb128 0xb
 233 0034 49       		.uleb128 0x49
 234 0035 13       		.uleb128 0x13
 235 0036 00       		.byte	0x0
 236 0037 00       		.byte	0x0
 237 0038 05       		.uleb128 0x5
 238 0039 2E       		.uleb128 0x2e
 239 003a 01       		.byte	0x1
 240 003b 3F       		.uleb128 0x3f
 241 003c 0C       		.uleb128 0xc
 242 003d 03       		.uleb128 0x3
 243 003e 0E       		.uleb128 0xe
 244 003f 3A       		.uleb128 0x3a
 245 0040 0B       		.uleb128 0xb
 246 0041 3B       		.uleb128 0x3b
 247 0042 0B       		.uleb128 0xb
 248 0043 27       		.uleb128 0x27
 249 0044 0C       		.uleb128 0xc
 250 0045 11       		.uleb128 0x11
 251 0046 01       		.uleb128 0x1
 252 0047 12       		.uleb128 0x12
 253 0048 01       		.uleb128 0x1
 254 0049 40       		.uleb128 0x40
 255 004a 0A       		.uleb128 0xa
 256 004b 01       		.uleb128 0x1
 257 004c 13       		.uleb128 0x13
 258 004d 00       		.byte	0x0
 259 004e 00       		.byte	0x0
 260 004f 06       		.uleb128 0x6
 261 0050 05       		.uleb128 0x5
 262 0051 00       		.byte	0x0
 263 0052 03       		.uleb128 0x3
 264 0053 0E       		.uleb128 0xe
 265 0054 3A       		.uleb128 0x3a
 266 0055 0B       		.uleb128 0xb
 267 0056 3B       		.uleb128 0x3b
 268 0057 0B       		.uleb128 0xb
 269 0058 49       		.uleb128 0x49
 270 0059 13       		.uleb128 0x13
 271 005a 02       		.uleb128 0x2
 272 005b 0A       		.uleb128 0xa
 273 005c 00       		.byte	0x0
 274 005d 00       		.byte	0x0
 275 005e 07       		.uleb128 0x7
 276 005f 2E       		.uleb128 0x2e
 277 0060 00       		.byte	0x0
 278 0061 3F       		.uleb128 0x3f
 279 0062 0C       		.uleb128 0xc
 280 0063 03       		.uleb128 0x3
ARM GAS  C:\Users\SUZUKI~1\AppData\Local\Temp\ccbvUd7n.s 			page 7


 281 0064 0E       		.uleb128 0xe
 282 0065 3A       		.uleb128 0x3a
 283 0066 0B       		.uleb128 0xb
 284 0067 3B       		.uleb128 0x3b
 285 0068 0B       		.uleb128 0xb
 286 0069 27       		.uleb128 0x27
 287 006a 0C       		.uleb128 0xc
 288 006b 49       		.uleb128 0x49
 289 006c 13       		.uleb128 0x13
 290 006d 11       		.uleb128 0x11
 291 006e 01       		.uleb128 0x1
 292 006f 12       		.uleb128 0x12
 293 0070 01       		.uleb128 0x1
 294 0071 40       		.uleb128 0x40
 295 0072 0A       		.uleb128 0xa
 296 0073 00       		.byte	0x0
 297 0074 00       		.byte	0x0
 298 0075 00       		.byte	0x0
 299              		.section	.debug_pubnames,"",%progbits
 300 0000 3F000000 		.4byte	0x3f
 301 0004 0200     		.2byte	0x2
 302 0006 00000000 		.4byte	.Ldebug_info0
 303 000a CC000000 		.4byte	0xcc
 304 000e 8F000000 		.4byte	0x8f
 305 0012 73646C6F 		.ascii	"sdlogger_1_irq_Write\000"
 305      67676572 
 305      5F315F69 
 305      72715F57 
 305      72697465 
 306 0027 B4000000 		.4byte	0xb4
 307 002b 73646C6F 		.ascii	"sdlogger_1_irq_Read\000"
 307      67676572 
 307      5F315F69 
 307      72715F52 
 307      65616400 
 308 003f 00000000 		.4byte	0x0
 309              		.section	.debug_aranges,"",%progbits
 310 0000 24000000 		.4byte	0x24
 311 0004 0200     		.2byte	0x2
 312 0006 00000000 		.4byte	.Ldebug_info0
 313 000a 04       		.byte	0x4
 314 000b 00       		.byte	0x0
 315 000c 0000     		.2byte	0x0
 316 000e 0000     		.2byte	0x0
 317 0010 00000000 		.4byte	.LFB0
 318 0014 0C000000 		.4byte	.LFE0-.LFB0
 319 0018 00000000 		.4byte	.LFB1
 320 001c 0C000000 		.4byte	.LFE1-.LFB1
 321 0020 00000000 		.4byte	0x0
 322 0024 00000000 		.4byte	0x0
 323              		.section	.debug_ranges,"",%progbits
 324              	.Ldebug_ranges0:
 325 0000 00000000 		.4byte	.Ltext0
 326 0004 00000000 		.4byte	.Letext0
 327 0008 00000000 		.4byte	.LFB0
 328 000c 0C000000 		.4byte	.LFE0
 329 0010 00000000 		.4byte	.LFB1
ARM GAS  C:\Users\SUZUKI~1\AppData\Local\Temp\ccbvUd7n.s 			page 8


 330 0014 0C000000 		.4byte	.LFE1
 331 0018 00000000 		.4byte	0x0
 332 001c 00000000 		.4byte	0x0
 333              		.section	.debug_str,"MS",%progbits,1
 334              	.LASF6:
 335 0000 6C6F6E67 		.ascii	"long long int\000"
 335      206C6F6E 
 335      6720696E 
 335      7400
 336              	.LASF14:
 337 000e 5C5C5642 		.ascii	"\\\\VBOXSVR\\PSoC_Creator\\tfexpbrd\\tfexpbrd.cydsn"
 337      4F585356 
 337      525C5053 
 337      6F435F43 
 337      72656174 
 338 003c 00       		.ascii	"\000"
 339              	.LASF18:
 340 003d 73646C6F 		.ascii	"sdlogger_1_irq_Read\000"
 340      67676572 
 340      5F315F69 
 340      72715F52 
 340      65616400 
 341              	.LASF16:
 342 0051 73646C6F 		.ascii	"sdlogger_1_irq_Write\000"
 342      67676572 
 342      5F315F69 
 342      72715F57 
 342      72697465 
 343              	.LASF9:
 344 0066 666C6F61 		.ascii	"float\000"
 344      7400
 345              	.LASF1:
 346 006c 756E7369 		.ascii	"unsigned char\000"
 346      676E6564 
 346      20636861 
 346      7200
 347              	.LASF5:
 348 007a 6C6F6E67 		.ascii	"long unsigned int\000"
 348      20756E73 
 348      69676E65 
 348      6420696E 
 348      7400
 349              	.LASF3:
 350 008c 73686F72 		.ascii	"short unsigned int\000"
 350      7420756E 
 350      7369676E 
 350      65642069 
 350      6E7400
 351              	.LASF17:
 352 009f 636F6E74 		.ascii	"control\000"
 352      726F6C00 
 353              	.LASF10:
 354 00a7 646F7562 		.ascii	"double\000"
 354      6C6500
 355              	.LASF13:
 356 00ae 2E5C4765 		.ascii	".\\Generated_Source\\PSoC5\\sdlogger_1_irq.c\000"
 356      6E657261 
ARM GAS  C:\Users\SUZUKI~1\AppData\Local\Temp\ccbvUd7n.s 			page 9


 356      7465645F 
 356      536F7572 
 356      63655C50 
 357              	.LASF8:
 358 00d8 756E7369 		.ascii	"unsigned int\000"
 358      676E6564 
 358      20696E74 
 358      00
 359              	.LASF7:
 360 00e5 6C6F6E67 		.ascii	"long long unsigned int\000"
 360      206C6F6E 
 360      6720756E 
 360      7369676E 
 360      65642069 
 361              	.LASF12:
 362 00fc 474E5520 		.ascii	"GNU C 4.4.1\000"
 362      4320342E 
 362      342E3100 
 363              	.LASF11:
 364 0108 63686172 		.ascii	"char\000"
 364      00
 365              	.LASF2:
 366 010d 73686F72 		.ascii	"short int\000"
 366      7420696E 
 366      7400
 367              	.LASF15:
 368 0117 75696E74 		.ascii	"uint8\000"
 368      3800
 369              	.LASF4:
 370 011d 6C6F6E67 		.ascii	"long int\000"
 370      20696E74 
 370      00
 371              	.LASF0:
 372 0126 7369676E 		.ascii	"signed char\000"
 372      65642063 
 372      68617200 
 373              		.ident	"GCC: (Sourcery G++ Lite 2010q1-188) 4.4.1"
