ARM GAS  C:\Users\SUZUKI~1\AppData\Local\Temp\cc6mu7r7.s 			page 1


   1              		.syntax unified
   2              		.cpu cortex-m3
   3              		.fpu softvfp
   4              		.eabi_attribute 20, 1
   5              		.eabi_attribute 21, 1
   6              		.eabi_attribute 23, 3
   7              		.eabi_attribute 24, 1
   8              		.eabi_attribute 25, 1
   9              		.eabi_attribute 26, 1
  10              		.eabi_attribute 30, 4
  11              		.eabi_attribute 18, 4
  12              		.thumb
  13              		.file	"UART_1_PM.c"
  14              		.section	.debug_abbrev,"",%progbits
  15              	.Ldebug_abbrev0:
  16              		.section	.debug_info,"",%progbits
  17              	.Ldebug_info0:
  18              		.section	.debug_line,"",%progbits
  19              	.Ldebug_line0:
  20 0000 D7000000 		.text
  20      02006E00 
  20      00000201 
  20      FB0E0D00 
  20      01010101 
  21              	.Ltext0:
  22              		.cfi_sections	.debug_frame
  23              		.section	.text.UART_1_SaveConfig,"ax",%progbits
  24              		.align	1
  25              		.global	UART_1_SaveConfig
  26              		.thumb
  27              		.thumb_func
  28              		.type	UART_1_SaveConfig, %function
  29              	UART_1_SaveConfig:
  30              	.LFB0:
  31              		.file 1 ".\\Generated_Source\\PSoC5\\UART_1_PM.c"
   1:.\Generated_Source\PSoC5/UART_1_PM.c **** /*******************************************************************************
   2:.\Generated_Source\PSoC5/UART_1_PM.c **** * File Name: UART_1_PM.c
   3:.\Generated_Source\PSoC5/UART_1_PM.c **** * Version 2.30
   4:.\Generated_Source\PSoC5/UART_1_PM.c **** *
   5:.\Generated_Source\PSoC5/UART_1_PM.c **** * Description:
   6:.\Generated_Source\PSoC5/UART_1_PM.c **** *  This file provides Sleep/WakeUp APIs functionality.
   7:.\Generated_Source\PSoC5/UART_1_PM.c **** *
   8:.\Generated_Source\PSoC5/UART_1_PM.c **** * Note:
   9:.\Generated_Source\PSoC5/UART_1_PM.c **** *
  10:.\Generated_Source\PSoC5/UART_1_PM.c **** ********************************************************************************
  11:.\Generated_Source\PSoC5/UART_1_PM.c **** * Copyright 2008-2012, Cypress Semiconductor Corporation.  All rights reserved.
  12:.\Generated_Source\PSoC5/UART_1_PM.c **** * You may use this file only in accordance with the license, terms, conditions,
  13:.\Generated_Source\PSoC5/UART_1_PM.c **** * disclaimers, and limitations in the end user license agreement accompanying
  14:.\Generated_Source\PSoC5/UART_1_PM.c **** * the software package with which this file was provided.
  15:.\Generated_Source\PSoC5/UART_1_PM.c **** *******************************************************************************/
  16:.\Generated_Source\PSoC5/UART_1_PM.c **** 
  17:.\Generated_Source\PSoC5/UART_1_PM.c **** #include "UART_1.h"
  18:.\Generated_Source\PSoC5/UART_1_PM.c **** 
  19:.\Generated_Source\PSoC5/UART_1_PM.c **** 
  20:.\Generated_Source\PSoC5/UART_1_PM.c **** /***************************************
  21:.\Generated_Source\PSoC5/UART_1_PM.c **** * Local data allocation
  22:.\Generated_Source\PSoC5/UART_1_PM.c **** ***************************************/
ARM GAS  C:\Users\SUZUKI~1\AppData\Local\Temp\cc6mu7r7.s 			page 2


  23:.\Generated_Source\PSoC5/UART_1_PM.c **** 
  24:.\Generated_Source\PSoC5/UART_1_PM.c **** static UART_1_BACKUP_STRUCT  UART_1_backup =
  25:.\Generated_Source\PSoC5/UART_1_PM.c **** {
  26:.\Generated_Source\PSoC5/UART_1_PM.c ****     /* enableState - disabled */
  27:.\Generated_Source\PSoC5/UART_1_PM.c ****     0u,
  28:.\Generated_Source\PSoC5/UART_1_PM.c **** };
  29:.\Generated_Source\PSoC5/UART_1_PM.c **** 
  30:.\Generated_Source\PSoC5/UART_1_PM.c **** 
  31:.\Generated_Source\PSoC5/UART_1_PM.c **** 
  32:.\Generated_Source\PSoC5/UART_1_PM.c **** /*******************************************************************************
  33:.\Generated_Source\PSoC5/UART_1_PM.c **** * Function Name: UART_1_SaveConfig
  34:.\Generated_Source\PSoC5/UART_1_PM.c **** ********************************************************************************
  35:.\Generated_Source\PSoC5/UART_1_PM.c **** *
  36:.\Generated_Source\PSoC5/UART_1_PM.c **** * Summary:
  37:.\Generated_Source\PSoC5/UART_1_PM.c **** *  Saves the current user configuration.
  38:.\Generated_Source\PSoC5/UART_1_PM.c **** *
  39:.\Generated_Source\PSoC5/UART_1_PM.c **** * Parameters:
  40:.\Generated_Source\PSoC5/UART_1_PM.c **** *  None.
  41:.\Generated_Source\PSoC5/UART_1_PM.c **** *
  42:.\Generated_Source\PSoC5/UART_1_PM.c **** * Return:
  43:.\Generated_Source\PSoC5/UART_1_PM.c **** *  None.
  44:.\Generated_Source\PSoC5/UART_1_PM.c **** *
  45:.\Generated_Source\PSoC5/UART_1_PM.c **** * Global Variables:
  46:.\Generated_Source\PSoC5/UART_1_PM.c **** *  UART_1_backup - modified when non-retention registers are saved.
  47:.\Generated_Source\PSoC5/UART_1_PM.c **** *
  48:.\Generated_Source\PSoC5/UART_1_PM.c **** * Reentrant:
  49:.\Generated_Source\PSoC5/UART_1_PM.c **** *  No.
  50:.\Generated_Source\PSoC5/UART_1_PM.c **** *
  51:.\Generated_Source\PSoC5/UART_1_PM.c **** *******************************************************************************/
  52:.\Generated_Source\PSoC5/UART_1_PM.c **** void UART_1_SaveConfig(void)
  53:.\Generated_Source\PSoC5/UART_1_PM.c **** {
  32              		.loc 1 53 0
  33              		.cfi_startproc
  34              		@ args = 0, pretend = 0, frame = 0
  35              		@ frame_needed = 0, uses_anonymous_args = 0
  36              		@ link register save eliminated.
  54:.\Generated_Source\PSoC5/UART_1_PM.c ****     #if (CY_UDB_V0)
  55:.\Generated_Source\PSoC5/UART_1_PM.c **** 
  56:.\Generated_Source\PSoC5/UART_1_PM.c ****         #if(UART_1_CONTROL_REG_REMOVED == 0u)
  57:.\Generated_Source\PSoC5/UART_1_PM.c ****             UART_1_backup.cr = UART_1_CONTROL_REG;
  58:.\Generated_Source\PSoC5/UART_1_PM.c ****         #endif /* End UART_1_CONTROL_REG_REMOVED */
  59:.\Generated_Source\PSoC5/UART_1_PM.c **** 
  60:.\Generated_Source\PSoC5/UART_1_PM.c ****         #if( (UART_1_RX_ENABLED) || (UART_1_HD_ENABLED) )
  61:.\Generated_Source\PSoC5/UART_1_PM.c ****             UART_1_backup.rx_period = UART_1_RXBITCTR_PERIOD_REG;
  37              		.loc 1 61 0
  38 0000 084B     		ldr	r3, .L3
  39 0002 1A78     		ldrb	r2, [r3, #0]	@ zero_extendqisi2
  40 0004 084B     		ldr	r3, .L3+4
  41 0006 5A70     		strb	r2, [r3, #1]
  62:.\Generated_Source\PSoC5/UART_1_PM.c ****             UART_1_backup.rx_mask = UART_1_RXSTATUS_MASK_REG;
  42              		.loc 1 62 0
  43 0008 084A     		ldr	r2, .L3+8
  44 000a 1278     		ldrb	r2, [r2, #0]	@ zero_extendqisi2
  45 000c 9A70     		strb	r2, [r3, #2]
  63:.\Generated_Source\PSoC5/UART_1_PM.c ****             #if (UART_1_RXHW_ADDRESS_ENABLED)
  64:.\Generated_Source\PSoC5/UART_1_PM.c ****                 UART_1_backup.rx_addr1 = UART_1_RXADDRESS1_REG;
  65:.\Generated_Source\PSoC5/UART_1_PM.c ****                 UART_1_backup.rx_addr2 = UART_1_RXADDRESS2_REG;
ARM GAS  C:\Users\SUZUKI~1\AppData\Local\Temp\cc6mu7r7.s 			page 3


  66:.\Generated_Source\PSoC5/UART_1_PM.c ****             #endif /* End UART_1_RXHW_ADDRESS_ENABLED */
  67:.\Generated_Source\PSoC5/UART_1_PM.c ****         #endif /* End UART_1_RX_ENABLED | UART_1_HD_ENABLED*/
  68:.\Generated_Source\PSoC5/UART_1_PM.c **** 
  69:.\Generated_Source\PSoC5/UART_1_PM.c ****         #if(UART_1_TX_ENABLED)
  70:.\Generated_Source\PSoC5/UART_1_PM.c ****             #if(UART_1_TXCLKGEN_DP)
  71:.\Generated_Source\PSoC5/UART_1_PM.c ****                 UART_1_backup.tx_clk_ctr = UART_1_TXBITCLKGEN_CTR_REG;
  46              		.loc 1 71 0
  47 000e 084A     		ldr	r2, .L3+12
  48 0010 1278     		ldrb	r2, [r2, #0]	@ zero_extendqisi2
  49 0012 DA70     		strb	r2, [r3, #3]
  72:.\Generated_Source\PSoC5/UART_1_PM.c ****                 UART_1_backup.tx_clk_compl = UART_1_TXBITCLKTX_COMPLETE_REG;
  50              		.loc 1 72 0
  51 0014 074A     		ldr	r2, .L3+16
  52 0016 1278     		ldrb	r2, [r2, #0]	@ zero_extendqisi2
  53 0018 1A71     		strb	r2, [r3, #4]
  73:.\Generated_Source\PSoC5/UART_1_PM.c ****             #else
  74:.\Generated_Source\PSoC5/UART_1_PM.c ****                 UART_1_backup.tx_period = UART_1_TXBITCTR_PERIOD_REG;
  75:.\Generated_Source\PSoC5/UART_1_PM.c ****             #endif /*End UART_1_TXCLKGEN_DP */
  76:.\Generated_Source\PSoC5/UART_1_PM.c ****             UART_1_backup.tx_mask = UART_1_TXSTATUS_MASK_REG;
  54              		.loc 1 76 0
  55 001a 074A     		ldr	r2, .L3+20
  56 001c 1278     		ldrb	r2, [r2, #0]	@ zero_extendqisi2
  57 001e 5A71     		strb	r2, [r3, #5]
  77:.\Generated_Source\PSoC5/UART_1_PM.c ****         #endif /*End UART_1_TX_ENABLED */
  78:.\Generated_Source\PSoC5/UART_1_PM.c **** 
  79:.\Generated_Source\PSoC5/UART_1_PM.c **** 
  80:.\Generated_Source\PSoC5/UART_1_PM.c ****     #else /* CY_UDB_V1 */
  81:.\Generated_Source\PSoC5/UART_1_PM.c **** 
  82:.\Generated_Source\PSoC5/UART_1_PM.c ****         #if(UART_1_CONTROL_REG_REMOVED == 0u)
  83:.\Generated_Source\PSoC5/UART_1_PM.c ****             UART_1_backup.cr = UART_1_CONTROL_REG;
  84:.\Generated_Source\PSoC5/UART_1_PM.c ****         #endif /* End UART_1_CONTROL_REG_REMOVED */
  85:.\Generated_Source\PSoC5/UART_1_PM.c **** 
  86:.\Generated_Source\PSoC5/UART_1_PM.c ****     #endif  /* End CY_UDB_V0 */
  87:.\Generated_Source\PSoC5/UART_1_PM.c **** }
  58              		.loc 1 87 0
  59 0020 7047     		bx	lr
  60              	.L4:
  61 0022 00BF     		.align	2
  62              	.L3:
  63 0024 8B650040 		.word	1073767819
  64 0028 00000000 		.word	.LANCHOR0
  65 002c 88650040 		.word	1073767816
  66 0030 27650040 		.word	1073767719
  67 0034 37650040 		.word	1073767735
  68 0038 87650040 		.word	1073767815
  69              		.cfi_endproc
  70              	.LFE0:
  71              		.size	UART_1_SaveConfig, .-UART_1_SaveConfig
  72              		.section	.text.UART_1_RestoreConfig,"ax",%progbits
  73              		.align	1
  74              		.global	UART_1_RestoreConfig
  75              		.thumb
  76              		.thumb_func
  77              		.type	UART_1_RestoreConfig, %function
  78              	UART_1_RestoreConfig:
  79              	.LFB1:
  88:.\Generated_Source\PSoC5/UART_1_PM.c **** 
ARM GAS  C:\Users\SUZUKI~1\AppData\Local\Temp\cc6mu7r7.s 			page 4


  89:.\Generated_Source\PSoC5/UART_1_PM.c **** 
  90:.\Generated_Source\PSoC5/UART_1_PM.c **** /*******************************************************************************
  91:.\Generated_Source\PSoC5/UART_1_PM.c **** * Function Name: UART_1_RestoreConfig
  92:.\Generated_Source\PSoC5/UART_1_PM.c **** ********************************************************************************
  93:.\Generated_Source\PSoC5/UART_1_PM.c **** *
  94:.\Generated_Source\PSoC5/UART_1_PM.c **** * Summary:
  95:.\Generated_Source\PSoC5/UART_1_PM.c **** *  Restores the current user configuration.
  96:.\Generated_Source\PSoC5/UART_1_PM.c **** *
  97:.\Generated_Source\PSoC5/UART_1_PM.c **** * Parameters:
  98:.\Generated_Source\PSoC5/UART_1_PM.c **** *  None.
  99:.\Generated_Source\PSoC5/UART_1_PM.c **** *
 100:.\Generated_Source\PSoC5/UART_1_PM.c **** * Return:
 101:.\Generated_Source\PSoC5/UART_1_PM.c **** *  None.
 102:.\Generated_Source\PSoC5/UART_1_PM.c **** *
 103:.\Generated_Source\PSoC5/UART_1_PM.c **** * Global Variables:
 104:.\Generated_Source\PSoC5/UART_1_PM.c **** *  UART_1_backup - used when non-retention registers are restored.
 105:.\Generated_Source\PSoC5/UART_1_PM.c **** *
 106:.\Generated_Source\PSoC5/UART_1_PM.c **** * Reentrant:
 107:.\Generated_Source\PSoC5/UART_1_PM.c **** *  No.
 108:.\Generated_Source\PSoC5/UART_1_PM.c **** *
 109:.\Generated_Source\PSoC5/UART_1_PM.c **** *******************************************************************************/
 110:.\Generated_Source\PSoC5/UART_1_PM.c **** void UART_1_RestoreConfig(void)
 111:.\Generated_Source\PSoC5/UART_1_PM.c **** {
  80              		.loc 1 111 0
  81              		.cfi_startproc
  82              		@ args = 0, pretend = 0, frame = 0
  83              		@ frame_needed = 0, uses_anonymous_args = 0
  84              		@ link register save eliminated.
 112:.\Generated_Source\PSoC5/UART_1_PM.c **** 
 113:.\Generated_Source\PSoC5/UART_1_PM.c ****     #if (CY_UDB_V0)
 114:.\Generated_Source\PSoC5/UART_1_PM.c **** 
 115:.\Generated_Source\PSoC5/UART_1_PM.c ****         #if(UART_1_CONTROL_REG_REMOVED == 0u)
 116:.\Generated_Source\PSoC5/UART_1_PM.c ****             UART_1_CONTROL_REG = UART_1_backup.cr;
 117:.\Generated_Source\PSoC5/UART_1_PM.c ****         #endif /* End UART_1_CONTROL_REG_REMOVED */
 118:.\Generated_Source\PSoC5/UART_1_PM.c **** 
 119:.\Generated_Source\PSoC5/UART_1_PM.c ****         #if( (UART_1_RX_ENABLED) || (UART_1_HD_ENABLED) )
 120:.\Generated_Source\PSoC5/UART_1_PM.c ****             UART_1_RXBITCTR_PERIOD_REG = UART_1_backup.rx_period;
  85              		.loc 1 120 0
  86 0000 084B     		ldr	r3, .L7
  87 0002 094A     		ldr	r2, .L7+4
  88 0004 5978     		ldrb	r1, [r3, #1]	@ zero_extendqisi2
  89 0006 1170     		strb	r1, [r2, #0]
 121:.\Generated_Source\PSoC5/UART_1_PM.c ****             UART_1_RXSTATUS_MASK_REG = UART_1_backup.rx_mask;
  90              		.loc 1 121 0
  91 0008 9978     		ldrb	r1, [r3, #2]	@ zero_extendqisi2
  92 000a 033A     		subs	r2, r2, #3
  93 000c 1170     		strb	r1, [r2, #0]
 122:.\Generated_Source\PSoC5/UART_1_PM.c ****             #if (UART_1_RXHW_ADDRESS_ENABLED)
 123:.\Generated_Source\PSoC5/UART_1_PM.c ****                 UART_1_RXADDRESS1_REG = UART_1_backup.rx_addr1;
 124:.\Generated_Source\PSoC5/UART_1_PM.c ****                 UART_1_RXADDRESS2_REG = UART_1_backup.rx_addr2;
 125:.\Generated_Source\PSoC5/UART_1_PM.c ****             #endif /* End UART_1_RXHW_ADDRESS_ENABLED */
 126:.\Generated_Source\PSoC5/UART_1_PM.c ****         #endif  /* End (UART_1_RX_ENABLED) || (UART_1_HD_ENABLED) */
 127:.\Generated_Source\PSoC5/UART_1_PM.c **** 
 128:.\Generated_Source\PSoC5/UART_1_PM.c ****         #if(UART_1_TX_ENABLED)
 129:.\Generated_Source\PSoC5/UART_1_PM.c ****             #if(UART_1_TXCLKGEN_DP)
 130:.\Generated_Source\PSoC5/UART_1_PM.c ****                 UART_1_TXBITCLKGEN_CTR_REG = UART_1_backup.tx_clk_ctr;
  94              		.loc 1 130 0
ARM GAS  C:\Users\SUZUKI~1\AppData\Local\Temp\cc6mu7r7.s 			page 5


  95 000e D978     		ldrb	r1, [r3, #3]	@ zero_extendqisi2
  96 0010 613A     		subs	r2, r2, #97
  97 0012 1170     		strb	r1, [r2, #0]
 131:.\Generated_Source\PSoC5/UART_1_PM.c ****                 UART_1_TXBITCLKTX_COMPLETE_REG = UART_1_backup.tx_clk_compl;
  98              		.loc 1 131 0
  99 0014 1979     		ldrb	r1, [r3, #4]	@ zero_extendqisi2
 100 0016 1032     		adds	r2, r2, #16
 101 0018 1170     		strb	r1, [r2, #0]
 132:.\Generated_Source\PSoC5/UART_1_PM.c ****             #else
 133:.\Generated_Source\PSoC5/UART_1_PM.c ****                 UART_1_TXBITCTR_PERIOD_REG = UART_1_backup.tx_period;
 134:.\Generated_Source\PSoC5/UART_1_PM.c ****             #endif /*End UART_1_TXCLKGEN_DP */
 135:.\Generated_Source\PSoC5/UART_1_PM.c ****             UART_1_TXSTATUS_MASK_REG = UART_1_backup.tx_mask;
 102              		.loc 1 135 0
 103 001a 5A79     		ldrb	r2, [r3, #5]	@ zero_extendqisi2
 104 001c 034B     		ldr	r3, .L7+8
 105 001e 1A70     		strb	r2, [r3, #0]
 136:.\Generated_Source\PSoC5/UART_1_PM.c ****         #endif /*End UART_1_TX_ENABLED */
 137:.\Generated_Source\PSoC5/UART_1_PM.c **** 
 138:.\Generated_Source\PSoC5/UART_1_PM.c ****     #else /* CY_UDB_V1 */
 139:.\Generated_Source\PSoC5/UART_1_PM.c **** 
 140:.\Generated_Source\PSoC5/UART_1_PM.c ****         #if(UART_1_CONTROL_REG_REMOVED == 0u)
 141:.\Generated_Source\PSoC5/UART_1_PM.c ****             UART_1_CONTROL_REG = UART_1_backup.cr;
 142:.\Generated_Source\PSoC5/UART_1_PM.c ****         #endif /* End UART_1_CONTROL_REG_REMOVED */
 143:.\Generated_Source\PSoC5/UART_1_PM.c **** 
 144:.\Generated_Source\PSoC5/UART_1_PM.c ****     #endif  /* End CY_UDB_V0 */
 145:.\Generated_Source\PSoC5/UART_1_PM.c **** }
 106              		.loc 1 145 0
 107 0020 7047     		bx	lr
 108              	.L8:
 109 0022 00BF     		.align	2
 110              	.L7:
 111 0024 00000000 		.word	.LANCHOR0
 112 0028 8B650040 		.word	1073767819
 113 002c 87650040 		.word	1073767815
 114              		.cfi_endproc
 115              	.LFE1:
 116              		.size	UART_1_RestoreConfig, .-UART_1_RestoreConfig
 117              		.section	.text.UART_1_Wakeup,"ax",%progbits
 118              		.align	1
 119              		.global	UART_1_Wakeup
 120              		.thumb
 121              		.thumb_func
 122              		.type	UART_1_Wakeup, %function
 123              	UART_1_Wakeup:
 124              	.LFB3:
 146:.\Generated_Source\PSoC5/UART_1_PM.c **** 
 147:.\Generated_Source\PSoC5/UART_1_PM.c **** 
 148:.\Generated_Source\PSoC5/UART_1_PM.c **** /*******************************************************************************
 149:.\Generated_Source\PSoC5/UART_1_PM.c **** * Function Name: UART_1_Sleep
 150:.\Generated_Source\PSoC5/UART_1_PM.c **** ********************************************************************************
 151:.\Generated_Source\PSoC5/UART_1_PM.c **** *
 152:.\Generated_Source\PSoC5/UART_1_PM.c **** * Summary:
 153:.\Generated_Source\PSoC5/UART_1_PM.c **** *  Stops and saves the user configuration. Should be called
 154:.\Generated_Source\PSoC5/UART_1_PM.c **** *  just prior to entering sleep.
 155:.\Generated_Source\PSoC5/UART_1_PM.c **** *
 156:.\Generated_Source\PSoC5/UART_1_PM.c **** *
 157:.\Generated_Source\PSoC5/UART_1_PM.c **** * Parameters:
ARM GAS  C:\Users\SUZUKI~1\AppData\Local\Temp\cc6mu7r7.s 			page 6


 158:.\Generated_Source\PSoC5/UART_1_PM.c **** *  None.
 159:.\Generated_Source\PSoC5/UART_1_PM.c **** *
 160:.\Generated_Source\PSoC5/UART_1_PM.c **** * Return:
 161:.\Generated_Source\PSoC5/UART_1_PM.c **** *  None.
 162:.\Generated_Source\PSoC5/UART_1_PM.c **** *
 163:.\Generated_Source\PSoC5/UART_1_PM.c **** * Global Variables:
 164:.\Generated_Source\PSoC5/UART_1_PM.c **** *  UART_1_backup - modified when non-retention registers are saved.
 165:.\Generated_Source\PSoC5/UART_1_PM.c **** *
 166:.\Generated_Source\PSoC5/UART_1_PM.c **** * Reentrant:
 167:.\Generated_Source\PSoC5/UART_1_PM.c **** *  No.
 168:.\Generated_Source\PSoC5/UART_1_PM.c **** *
 169:.\Generated_Source\PSoC5/UART_1_PM.c **** *******************************************************************************/
 170:.\Generated_Source\PSoC5/UART_1_PM.c **** void UART_1_Sleep(void)
 171:.\Generated_Source\PSoC5/UART_1_PM.c **** {
 172:.\Generated_Source\PSoC5/UART_1_PM.c **** 
 173:.\Generated_Source\PSoC5/UART_1_PM.c ****     #if(UART_1_RX_ENABLED || UART_1_HD_ENABLED)
 174:.\Generated_Source\PSoC5/UART_1_PM.c ****         if((UART_1_RXSTATUS_ACTL_REG  & UART_1_INT_ENABLE) != 0u)
 175:.\Generated_Source\PSoC5/UART_1_PM.c ****         {
 176:.\Generated_Source\PSoC5/UART_1_PM.c ****             UART_1_backup.enableState = 1u;
 177:.\Generated_Source\PSoC5/UART_1_PM.c ****         }
 178:.\Generated_Source\PSoC5/UART_1_PM.c ****         else
 179:.\Generated_Source\PSoC5/UART_1_PM.c ****         {
 180:.\Generated_Source\PSoC5/UART_1_PM.c ****             UART_1_backup.enableState = 0u;
 181:.\Generated_Source\PSoC5/UART_1_PM.c ****         }
 182:.\Generated_Source\PSoC5/UART_1_PM.c ****     #else
 183:.\Generated_Source\PSoC5/UART_1_PM.c ****         if((UART_1_TXSTATUS_ACTL_REG  & UART_1_INT_ENABLE) !=0u)
 184:.\Generated_Source\PSoC5/UART_1_PM.c ****         {
 185:.\Generated_Source\PSoC5/UART_1_PM.c ****             UART_1_backup.enableState = 1u;
 186:.\Generated_Source\PSoC5/UART_1_PM.c ****         }
 187:.\Generated_Source\PSoC5/UART_1_PM.c ****         else
 188:.\Generated_Source\PSoC5/UART_1_PM.c ****         {
 189:.\Generated_Source\PSoC5/UART_1_PM.c ****             UART_1_backup.enableState = 0u;
 190:.\Generated_Source\PSoC5/UART_1_PM.c ****         }
 191:.\Generated_Source\PSoC5/UART_1_PM.c ****     #endif /* End UART_1_RX_ENABLED || UART_1_HD_ENABLED*/
 192:.\Generated_Source\PSoC5/UART_1_PM.c **** 
 193:.\Generated_Source\PSoC5/UART_1_PM.c ****     UART_1_Stop();
 194:.\Generated_Source\PSoC5/UART_1_PM.c ****     UART_1_SaveConfig();
 195:.\Generated_Source\PSoC5/UART_1_PM.c **** }
 196:.\Generated_Source\PSoC5/UART_1_PM.c **** 
 197:.\Generated_Source\PSoC5/UART_1_PM.c **** 
 198:.\Generated_Source\PSoC5/UART_1_PM.c **** /*******************************************************************************
 199:.\Generated_Source\PSoC5/UART_1_PM.c **** * Function Name: UART_1_Wakeup
 200:.\Generated_Source\PSoC5/UART_1_PM.c **** ********************************************************************************
 201:.\Generated_Source\PSoC5/UART_1_PM.c **** *
 202:.\Generated_Source\PSoC5/UART_1_PM.c **** * Summary:
 203:.\Generated_Source\PSoC5/UART_1_PM.c **** *  Restores and enables the user configuration. Should be called
 204:.\Generated_Source\PSoC5/UART_1_PM.c **** *  just after awaking from sleep.
 205:.\Generated_Source\PSoC5/UART_1_PM.c **** *
 206:.\Generated_Source\PSoC5/UART_1_PM.c **** * Parameters:
 207:.\Generated_Source\PSoC5/UART_1_PM.c **** *  None.
 208:.\Generated_Source\PSoC5/UART_1_PM.c **** *
 209:.\Generated_Source\PSoC5/UART_1_PM.c **** * Return:
 210:.\Generated_Source\PSoC5/UART_1_PM.c **** *  None.
 211:.\Generated_Source\PSoC5/UART_1_PM.c **** *
 212:.\Generated_Source\PSoC5/UART_1_PM.c **** * Global Variables:
 213:.\Generated_Source\PSoC5/UART_1_PM.c **** *  UART_1_backup - used when non-retention registers are restored.
 214:.\Generated_Source\PSoC5/UART_1_PM.c **** *
ARM GAS  C:\Users\SUZUKI~1\AppData\Local\Temp\cc6mu7r7.s 			page 7


 215:.\Generated_Source\PSoC5/UART_1_PM.c **** * Reentrant:
 216:.\Generated_Source\PSoC5/UART_1_PM.c **** *  No.
 217:.\Generated_Source\PSoC5/UART_1_PM.c **** *
 218:.\Generated_Source\PSoC5/UART_1_PM.c **** *******************************************************************************/
 219:.\Generated_Source\PSoC5/UART_1_PM.c **** void UART_1_Wakeup(void)
 220:.\Generated_Source\PSoC5/UART_1_PM.c **** {
 125              		.loc 1 220 0
 126              		.cfi_startproc
 127              		@ args = 0, pretend = 0, frame = 0
 128              		@ frame_needed = 0, uses_anonymous_args = 0
 129 0000 10B5     		push	{r4, lr}
 130              	.LCFI0:
 131              		.cfi_def_cfa_offset 8
 221:.\Generated_Source\PSoC5/UART_1_PM.c ****     UART_1_RestoreConfig();
 132              		.loc 1 221 0
 133              		.cfi_offset 14, -4
 134              		.cfi_offset 4, -8
 135 0002 FFF7FEFF 		bl	UART_1_RestoreConfig
 222:.\Generated_Source\PSoC5/UART_1_PM.c ****     #if( (UART_1_RX_ENABLED) || (UART_1_HD_ENABLED) )
 223:.\Generated_Source\PSoC5/UART_1_PM.c ****         UART_1_ClearRxBuffer();
 136              		.loc 1 223 0
 137 0006 FFF7FEFF 		bl	UART_1_ClearRxBuffer
 224:.\Generated_Source\PSoC5/UART_1_PM.c ****     #endif /* End (UART_1_RX_ENABLED) || (UART_1_HD_ENABLED) */
 225:.\Generated_Source\PSoC5/UART_1_PM.c ****     #if(UART_1_TX_ENABLED || UART_1_HD_ENABLED)
 226:.\Generated_Source\PSoC5/UART_1_PM.c ****         UART_1_ClearTxBuffer();
 138              		.loc 1 226 0
 139 000a FFF7FEFF 		bl	UART_1_ClearTxBuffer
 227:.\Generated_Source\PSoC5/UART_1_PM.c ****     #endif /* End UART_1_TX_ENABLED || UART_1_HD_ENABLED */
 228:.\Generated_Source\PSoC5/UART_1_PM.c **** 
 229:.\Generated_Source\PSoC5/UART_1_PM.c ****     if(UART_1_backup.enableState != 0u)
 140              		.loc 1 229 0
 141 000e 044B     		ldr	r3, .L13
 142 0010 1B78     		ldrb	r3, [r3, #0]	@ zero_extendqisi2
 143 0012 1BB1     		cbz	r3, .L11
 230:.\Generated_Source\PSoC5/UART_1_PM.c ****     {
 231:.\Generated_Source\PSoC5/UART_1_PM.c ****         UART_1_Enable();
 232:.\Generated_Source\PSoC5/UART_1_PM.c ****     }
 233:.\Generated_Source\PSoC5/UART_1_PM.c **** }
 144              		.loc 1 233 0
 145 0014 BDE81040 		pop	{r4, lr}
 146              		.loc 1 231 0
 147 0018 FFF7FEBF 		b	UART_1_Enable
 148              	.L11:
 149 001c 10BD     		pop	{r4, pc}
 150              	.L14:
 151 001e 00BF     		.align	2
 152              	.L13:
 153 0020 00000000 		.word	.LANCHOR0
 154              		.cfi_endproc
 155              	.LFE3:
 156              		.size	UART_1_Wakeup, .-UART_1_Wakeup
 157              		.section	.text.UART_1_Sleep,"ax",%progbits
 158              		.align	1
 159              		.global	UART_1_Sleep
 160              		.thumb
 161              		.thumb_func
 162              		.type	UART_1_Sleep, %function
ARM GAS  C:\Users\SUZUKI~1\AppData\Local\Temp\cc6mu7r7.s 			page 8


 163              	UART_1_Sleep:
 164              	.LFB2:
 165              		.loc 1 171 0
 166              		.cfi_startproc
 167              		@ args = 0, pretend = 0, frame = 0
 168              		@ frame_needed = 0, uses_anonymous_args = 0
 169 0000 10B5     		push	{r4, lr}
 170              	.LCFI1:
 171              		.cfi_def_cfa_offset 8
 172              		.loc 1 174 0
 173 0002 074B     		ldr	r3, .L19
 174 0004 1B78     		ldrb	r3, [r3, #0]	@ zero_extendqisi2
 175 0006 13F01002 		ands	r2, r3, #16
 176 000a 064B     		ldr	r3, .L19+4
 177              		.loc 1 176 0
 178 000c 18BF     		it	ne
 179 000e 0122     		movne	r2, #1
 180              		.loc 1 180 0
 181 0010 1A70     		strb	r2, [r3, #0]
 182              		.loc 1 193 0
 183              		.cfi_offset 14, -4
 184              		.cfi_offset 4, -8
 185 0012 FFF7FEFF 		bl	UART_1_Stop
 186              		.loc 1 195 0
 187 0016 BDE81040 		pop	{r4, lr}
 188              		.loc 1 194 0
 189 001a FFF7FEBF 		b	UART_1_SaveConfig
 190              	.L20:
 191 001e 00BF     		.align	2
 192              	.L19:
 193 0020 98650040 		.word	1073767832
 194 0024 00000000 		.word	.LANCHOR0
 195              		.cfi_endproc
 196              	.LFE2:
 197              		.size	UART_1_Sleep, .-UART_1_Sleep
 198              		.bss
 199              		.align	2
 200              		.set	.LANCHOR0,. + 0
 201              		.type	UART_1_backup, %object
 202              		.size	UART_1_backup, 6
 203              	UART_1_backup:
 204 0000 00000000 		.space	6
 204      0000
 205 0006 0000     		.text
 206              	.Letext0:
 207              		.section	.debug_loc,"",%progbits
 208              	.Ldebug_loc0:
 209              	.LLST2:
 210 0000 00000000 		.4byte	.LFB3
 211 0004 02000000 		.4byte	.LCFI0
 212 0008 0100     		.2byte	0x1
 213 000a 5D       		.byte	0x5d
 214 000b 02000000 		.4byte	.LCFI0
 215 000f 24000000 		.4byte	.LFE3
 216 0013 0200     		.2byte	0x2
 217 0015 7D       		.byte	0x7d
 218 0016 08       		.sleb128 8
ARM GAS  C:\Users\SUZUKI~1\AppData\Local\Temp\cc6mu7r7.s 			page 9


 219 0017 00000000 		.4byte	0x0
 220 001b 00000000 		.4byte	0x0
 221              	.LLST3:
 222 001f 00000000 		.4byte	.LFB2
 223 0023 02000000 		.4byte	.LCFI1
 224 0027 0100     		.2byte	0x1
 225 0029 5D       		.byte	0x5d
 226 002a 02000000 		.4byte	.LCFI1
 227 002e 28000000 		.4byte	.LFE2
 228 0032 0200     		.2byte	0x2
 229 0034 7D       		.byte	0x7d
 230 0035 08       		.sleb128 8
 231 0036 00000000 		.4byte	0x0
 232 003a 00000000 		.4byte	0x0
 233              		.file 2 ".\\Generated_Source\\PSoC5\\/UART_1.h"
 234              		.file 3 ".\\Generated_Source\\PSoC5\\/cytypes.h"
 235              		.section	.debug_info
 236 0000 5C010000 		.4byte	0x15c
 237 0004 0200     		.2byte	0x2
 238 0006 00000000 		.4byte	.Ldebug_abbrev0
 239 000a 04       		.byte	0x4
 240 000b 01       		.uleb128 0x1
 241 000c 24010000 		.4byte	.LASF24
 242 0010 01       		.byte	0x1
 243 0011 FF000000 		.4byte	.LASF25
 244 0015 34000000 		.4byte	.LASF26
 245 0019 00000000 		.4byte	0x0
 246 001d 00000000 		.4byte	0x0
 247 0021 00000000 		.4byte	.Ldebug_ranges0+0x0
 248 0025 00000000 		.4byte	.Ldebug_line0
 249 0029 02       		.uleb128 0x2
 250 002a 01       		.byte	0x1
 251 002b 06       		.byte	0x6
 252 002c 43010000 		.4byte	.LASF0
 253 0030 02       		.uleb128 0x2
 254 0031 01       		.byte	0x1
 255 0032 08       		.byte	0x8
 256 0033 C4000000 		.4byte	.LASF1
 257 0037 02       		.uleb128 0x2
 258 0038 02       		.byte	0x2
 259 0039 05       		.byte	0x5
 260 003a 72010000 		.4byte	.LASF2
 261 003e 02       		.uleb128 0x2
 262 003f 02       		.byte	0x2
 263 0040 07       		.byte	0x7
 264 0041 30010000 		.4byte	.LASF3
 265 0045 02       		.uleb128 0x2
 266 0046 04       		.byte	0x4
 267 0047 05       		.byte	0x5
 268 0048 D7000000 		.4byte	.LASF4
 269 004c 02       		.uleb128 0x2
 270 004d 04       		.byte	0x4
 271 004e 07       		.byte	0x7
 272 004f 7C000000 		.4byte	.LASF5
 273 0053 02       		.uleb128 0x2
 274 0054 08       		.byte	0x8
 275 0055 05       		.byte	0x5
ARM GAS  C:\Users\SUZUKI~1\AppData\Local\Temp\cc6mu7r7.s 			page 10


 276 0056 00000000 		.4byte	.LASF6
 277 005a 02       		.uleb128 0x2
 278 005b 08       		.byte	0x8
 279 005c 07       		.byte	0x7
 280 005d A0000000 		.4byte	.LASF7
 281 0061 03       		.uleb128 0x3
 282 0062 04       		.byte	0x4
 283 0063 05       		.byte	0x5
 284 0064 696E7400 		.ascii	"int\000"
 285 0068 02       		.uleb128 0x2
 286 0069 04       		.byte	0x4
 287 006a 07       		.byte	0x7
 288 006b 1A000000 		.4byte	.LASF8
 289 006f 04       		.uleb128 0x4
 290 0070 76000000 		.4byte	.LASF18
 291 0074 03       		.byte	0x3
 292 0075 4C       		.byte	0x4c
 293 0076 30000000 		.4byte	0x30
 294 007a 02       		.uleb128 0x2
 295 007b 04       		.byte	0x4
 296 007c 04       		.byte	0x4
 297 007d 6C010000 		.4byte	.LASF9
 298 0081 02       		.uleb128 0x2
 299 0082 08       		.byte	0x8
 300 0083 04       		.byte	0x4
 301 0084 EA000000 		.4byte	.LASF10
 302 0088 02       		.uleb128 0x2
 303 0089 01       		.byte	0x1
 304 008a 08       		.byte	0x8
 305 008b D2000000 		.4byte	.LASF11
 306 008f 05       		.uleb128 0x5
 307 0090 04       		.byte	0x4
 308 0091 07       		.byte	0x7
 309 0092 06       		.uleb128 0x6
 310 0093 7C010000 		.4byte	.LASF27
 311 0097 06       		.byte	0x6
 312 0098 02       		.byte	0x2
 313 0099 46       		.byte	0x46
 314 009a F3000000 		.4byte	0xf3
 315 009e 07       		.uleb128 0x7
 316 009f 0E000000 		.4byte	.LASF12
 317 00a3 02       		.byte	0x2
 318 00a4 47       		.byte	0x47
 319 00a5 6F000000 		.4byte	0x6f
 320 00a9 02       		.byte	0x2
 321 00aa 23       		.byte	0x23
 322 00ab 00       		.uleb128 0x0
 323 00ac 07       		.uleb128 0x7
 324 00ad E0000000 		.4byte	.LASF13
 325 00b1 02       		.byte	0x2
 326 00b2 4D       		.byte	0x4d
 327 00b3 6F000000 		.4byte	0x6f
 328 00b7 02       		.byte	0x2
 329 00b8 23       		.byte	0x23
 330 00b9 01       		.uleb128 0x1
 331 00ba 07       		.uleb128 0x7
 332 00bb 4F010000 		.4byte	.LASF14
ARM GAS  C:\Users\SUZUKI~1\AppData\Local\Temp\cc6mu7r7.s 			page 11


 333 00bf 02       		.byte	0x2
 334 00c0 4F       		.byte	0x4f
 335 00c1 6F000000 		.4byte	0x6f
 336 00c5 02       		.byte	0x2
 337 00c6 23       		.byte	0x23
 338 00c7 02       		.uleb128 0x2
 339 00c8 07       		.uleb128 0x7
 340 00c9 63000000 		.4byte	.LASF15
 341 00cd 02       		.byte	0x2
 342 00ce 59       		.byte	0x59
 343 00cf 6F000000 		.4byte	0x6f
 344 00d3 02       		.byte	0x2
 345 00d4 23       		.byte	0x23
 346 00d5 03       		.uleb128 0x3
 347 00d6 07       		.uleb128 0x7
 348 00d7 B7000000 		.4byte	.LASF16
 349 00db 02       		.byte	0x2
 350 00dc 5B       		.byte	0x5b
 351 00dd 6F000000 		.4byte	0x6f
 352 00e1 02       		.byte	0x2
 353 00e2 23       		.byte	0x23
 354 00e3 04       		.uleb128 0x4
 355 00e4 07       		.uleb128 0x7
 356 00e5 6E000000 		.4byte	.LASF17
 357 00e9 02       		.byte	0x2
 358 00ea 61       		.byte	0x61
 359 00eb 6F000000 		.4byte	0x6f
 360 00ef 02       		.byte	0x2
 361 00f0 23       		.byte	0x23
 362 00f1 05       		.uleb128 0x5
 363 00f2 00       		.byte	0x0
 364 00f3 04       		.uleb128 0x4
 365 00f4 9F010000 		.4byte	.LASF19
 366 00f8 02       		.byte	0x2
 367 00f9 64       		.byte	0x64
 368 00fa 92000000 		.4byte	0x92
 369 00fe 08       		.uleb128 0x8
 370 00ff 01       		.byte	0x1
 371 0100 8E000000 		.4byte	.LASF20
 372 0104 01       		.byte	0x1
 373 0105 34       		.byte	0x34
 374 0106 01       		.byte	0x1
 375 0107 00000000 		.4byte	.LFB0
 376 010b 3C000000 		.4byte	.LFE0
 377 010f 01       		.byte	0x1
 378 0110 5D       		.byte	0x5d
 379 0111 08       		.uleb128 0x8
 380 0112 01       		.byte	0x1
 381 0113 57010000 		.4byte	.LASF21
 382 0117 01       		.byte	0x1
 383 0118 6E       		.byte	0x6e
 384 0119 01       		.byte	0x1
 385 011a 00000000 		.4byte	.LFB1
 386 011e 30000000 		.4byte	.LFE1
 387 0122 01       		.byte	0x1
 388 0123 5D       		.byte	0x5d
 389 0124 09       		.uleb128 0x9
ARM GAS  C:\Users\SUZUKI~1\AppData\Local\Temp\cc6mu7r7.s 			page 12


 390 0125 01       		.byte	0x1
 391 0126 91010000 		.4byte	.LASF22
 392 012a 01       		.byte	0x1
 393 012b DB       		.byte	0xdb
 394 012c 01       		.byte	0x1
 395 012d 00000000 		.4byte	.LFB3
 396 0131 24000000 		.4byte	.LFE3
 397 0135 00000000 		.4byte	.LLST2
 398 0139 09       		.uleb128 0x9
 399 013a 01       		.byte	0x1
 400 013b 27000000 		.4byte	.LASF23
 401 013f 01       		.byte	0x1
 402 0140 AA       		.byte	0xaa
 403 0141 01       		.byte	0x1
 404 0142 00000000 		.4byte	.LFB2
 405 0146 28000000 		.4byte	.LFE2
 406 014a 1F000000 		.4byte	.LLST3
 407 014e 0A       		.uleb128 0xa
 408 014f F1000000 		.4byte	.LASF28
 409 0153 01       		.byte	0x1
 410 0154 18       		.byte	0x18
 411 0155 F3000000 		.4byte	0xf3
 412 0159 05       		.byte	0x5
 413 015a 03       		.byte	0x3
 414 015b 00000000 		.4byte	UART_1_backup
 415 015f 00       		.byte	0x0
 416              		.section	.debug_abbrev
 417 0000 01       		.uleb128 0x1
 418 0001 11       		.uleb128 0x11
 419 0002 01       		.byte	0x1
 420 0003 25       		.uleb128 0x25
 421 0004 0E       		.uleb128 0xe
 422 0005 13       		.uleb128 0x13
 423 0006 0B       		.uleb128 0xb
 424 0007 03       		.uleb128 0x3
 425 0008 0E       		.uleb128 0xe
 426 0009 1B       		.uleb128 0x1b
 427 000a 0E       		.uleb128 0xe
 428 000b 11       		.uleb128 0x11
 429 000c 01       		.uleb128 0x1
 430 000d 52       		.uleb128 0x52
 431 000e 01       		.uleb128 0x1
 432 000f 55       		.uleb128 0x55
 433 0010 06       		.uleb128 0x6
 434 0011 10       		.uleb128 0x10
 435 0012 06       		.uleb128 0x6
 436 0013 00       		.byte	0x0
 437 0014 00       		.byte	0x0
 438 0015 02       		.uleb128 0x2
 439 0016 24       		.uleb128 0x24
 440 0017 00       		.byte	0x0
 441 0018 0B       		.uleb128 0xb
 442 0019 0B       		.uleb128 0xb
 443 001a 3E       		.uleb128 0x3e
 444 001b 0B       		.uleb128 0xb
 445 001c 03       		.uleb128 0x3
 446 001d 0E       		.uleb128 0xe
ARM GAS  C:\Users\SUZUKI~1\AppData\Local\Temp\cc6mu7r7.s 			page 13


 447 001e 00       		.byte	0x0
 448 001f 00       		.byte	0x0
 449 0020 03       		.uleb128 0x3
 450 0021 24       		.uleb128 0x24
 451 0022 00       		.byte	0x0
 452 0023 0B       		.uleb128 0xb
 453 0024 0B       		.uleb128 0xb
 454 0025 3E       		.uleb128 0x3e
 455 0026 0B       		.uleb128 0xb
 456 0027 03       		.uleb128 0x3
 457 0028 08       		.uleb128 0x8
 458 0029 00       		.byte	0x0
 459 002a 00       		.byte	0x0
 460 002b 04       		.uleb128 0x4
 461 002c 16       		.uleb128 0x16
 462 002d 00       		.byte	0x0
 463 002e 03       		.uleb128 0x3
 464 002f 0E       		.uleb128 0xe
 465 0030 3A       		.uleb128 0x3a
 466 0031 0B       		.uleb128 0xb
 467 0032 3B       		.uleb128 0x3b
 468 0033 0B       		.uleb128 0xb
 469 0034 49       		.uleb128 0x49
 470 0035 13       		.uleb128 0x13
 471 0036 00       		.byte	0x0
 472 0037 00       		.byte	0x0
 473 0038 05       		.uleb128 0x5
 474 0039 24       		.uleb128 0x24
 475 003a 00       		.byte	0x0
 476 003b 0B       		.uleb128 0xb
 477 003c 0B       		.uleb128 0xb
 478 003d 3E       		.uleb128 0x3e
 479 003e 0B       		.uleb128 0xb
 480 003f 00       		.byte	0x0
 481 0040 00       		.byte	0x0
 482 0041 06       		.uleb128 0x6
 483 0042 13       		.uleb128 0x13
 484 0043 01       		.byte	0x1
 485 0044 03       		.uleb128 0x3
 486 0045 0E       		.uleb128 0xe
 487 0046 0B       		.uleb128 0xb
 488 0047 0B       		.uleb128 0xb
 489 0048 3A       		.uleb128 0x3a
 490 0049 0B       		.uleb128 0xb
 491 004a 3B       		.uleb128 0x3b
 492 004b 0B       		.uleb128 0xb
 493 004c 01       		.uleb128 0x1
 494 004d 13       		.uleb128 0x13
 495 004e 00       		.byte	0x0
 496 004f 00       		.byte	0x0
 497 0050 07       		.uleb128 0x7
 498 0051 0D       		.uleb128 0xd
 499 0052 00       		.byte	0x0
 500 0053 03       		.uleb128 0x3
 501 0054 0E       		.uleb128 0xe
 502 0055 3A       		.uleb128 0x3a
 503 0056 0B       		.uleb128 0xb
ARM GAS  C:\Users\SUZUKI~1\AppData\Local\Temp\cc6mu7r7.s 			page 14


 504 0057 3B       		.uleb128 0x3b
 505 0058 0B       		.uleb128 0xb
 506 0059 49       		.uleb128 0x49
 507 005a 13       		.uleb128 0x13
 508 005b 38       		.uleb128 0x38
 509 005c 0A       		.uleb128 0xa
 510 005d 00       		.byte	0x0
 511 005e 00       		.byte	0x0
 512 005f 08       		.uleb128 0x8
 513 0060 2E       		.uleb128 0x2e
 514 0061 00       		.byte	0x0
 515 0062 3F       		.uleb128 0x3f
 516 0063 0C       		.uleb128 0xc
 517 0064 03       		.uleb128 0x3
 518 0065 0E       		.uleb128 0xe
 519 0066 3A       		.uleb128 0x3a
 520 0067 0B       		.uleb128 0xb
 521 0068 3B       		.uleb128 0x3b
 522 0069 0B       		.uleb128 0xb
 523 006a 27       		.uleb128 0x27
 524 006b 0C       		.uleb128 0xc
 525 006c 11       		.uleb128 0x11
 526 006d 01       		.uleb128 0x1
 527 006e 12       		.uleb128 0x12
 528 006f 01       		.uleb128 0x1
 529 0070 40       		.uleb128 0x40
 530 0071 0A       		.uleb128 0xa
 531 0072 00       		.byte	0x0
 532 0073 00       		.byte	0x0
 533 0074 09       		.uleb128 0x9
 534 0075 2E       		.uleb128 0x2e
 535 0076 00       		.byte	0x0
 536 0077 3F       		.uleb128 0x3f
 537 0078 0C       		.uleb128 0xc
 538 0079 03       		.uleb128 0x3
 539 007a 0E       		.uleb128 0xe
 540 007b 3A       		.uleb128 0x3a
 541 007c 0B       		.uleb128 0xb
 542 007d 3B       		.uleb128 0x3b
 543 007e 0B       		.uleb128 0xb
 544 007f 27       		.uleb128 0x27
 545 0080 0C       		.uleb128 0xc
 546 0081 11       		.uleb128 0x11
 547 0082 01       		.uleb128 0x1
 548 0083 12       		.uleb128 0x12
 549 0084 01       		.uleb128 0x1
 550 0085 40       		.uleb128 0x40
 551 0086 06       		.uleb128 0x6
 552 0087 00       		.byte	0x0
 553 0088 00       		.byte	0x0
 554 0089 0A       		.uleb128 0xa
 555 008a 34       		.uleb128 0x34
 556 008b 00       		.byte	0x0
 557 008c 03       		.uleb128 0x3
 558 008d 0E       		.uleb128 0xe
 559 008e 3A       		.uleb128 0x3a
 560 008f 0B       		.uleb128 0xb
ARM GAS  C:\Users\SUZUKI~1\AppData\Local\Temp\cc6mu7r7.s 			page 15


 561 0090 3B       		.uleb128 0x3b
 562 0091 0B       		.uleb128 0xb
 563 0092 49       		.uleb128 0x49
 564 0093 13       		.uleb128 0x13
 565 0094 02       		.uleb128 0x2
 566 0095 0A       		.uleb128 0xa
 567 0096 00       		.byte	0x0
 568 0097 00       		.byte	0x0
 569 0098 00       		.byte	0x0
 570              		.section	.debug_pubnames,"",%progbits
 571 0000 60000000 		.4byte	0x60
 572 0004 0200     		.2byte	0x2
 573 0006 00000000 		.4byte	.Ldebug_info0
 574 000a 60010000 		.4byte	0x160
 575 000e FE000000 		.4byte	0xfe
 576 0012 55415254 		.ascii	"UART_1_SaveConfig\000"
 576      5F315F53 
 576      61766543 
 576      6F6E6669 
 576      6700
 577 0024 11010000 		.4byte	0x111
 578 0028 55415254 		.ascii	"UART_1_RestoreConfig\000"
 578      5F315F52 
 578      6573746F 
 578      7265436F 
 578      6E666967 
 579 003d 24010000 		.4byte	0x124
 580 0041 55415254 		.ascii	"UART_1_Wakeup\000"
 580      5F315F57 
 580      616B6575 
 580      7000
 581 004f 39010000 		.4byte	0x139
 582 0053 55415254 		.ascii	"UART_1_Sleep\000"
 582      5F315F53 
 582      6C656570 
 582      00
 583 0060 00000000 		.4byte	0x0
 584              		.section	.debug_aranges,"",%progbits
 585 0000 34000000 		.4byte	0x34
 586 0004 0200     		.2byte	0x2
 587 0006 00000000 		.4byte	.Ldebug_info0
 588 000a 04       		.byte	0x4
 589 000b 00       		.byte	0x0
 590 000c 0000     		.2byte	0x0
 591 000e 0000     		.2byte	0x0
 592 0010 00000000 		.4byte	.LFB0
 593 0014 3C000000 		.4byte	.LFE0-.LFB0
 594 0018 00000000 		.4byte	.LFB1
 595 001c 30000000 		.4byte	.LFE1-.LFB1
 596 0020 00000000 		.4byte	.LFB3
 597 0024 24000000 		.4byte	.LFE3-.LFB3
 598 0028 00000000 		.4byte	.LFB2
 599 002c 28000000 		.4byte	.LFE2-.LFB2
 600 0030 00000000 		.4byte	0x0
 601 0034 00000000 		.4byte	0x0
 602              		.section	.debug_ranges,"",%progbits
 603              	.Ldebug_ranges0:
ARM GAS  C:\Users\SUZUKI~1\AppData\Local\Temp\cc6mu7r7.s 			page 16


 604 0000 00000000 		.4byte	.Ltext0
 605 0004 00000000 		.4byte	.Letext0
 606 0008 00000000 		.4byte	.LFB0
 607 000c 3C000000 		.4byte	.LFE0
 608 0010 00000000 		.4byte	.LFB1
 609 0014 30000000 		.4byte	.LFE1
 610 0018 00000000 		.4byte	.LFB3
 611 001c 24000000 		.4byte	.LFE3
 612 0020 00000000 		.4byte	.LFB2
 613 0024 28000000 		.4byte	.LFE2
 614 0028 00000000 		.4byte	0x0
 615 002c 00000000 		.4byte	0x0
 616              		.section	.debug_str,"MS",%progbits,1
 617              	.LASF6:
 618 0000 6C6F6E67 		.ascii	"long long int\000"
 618      206C6F6E 
 618      6720696E 
 618      7400
 619              	.LASF12:
 620 000e 656E6162 		.ascii	"enableState\000"
 620      6C655374 
 620      61746500 
 621              	.LASF8:
 622 001a 756E7369 		.ascii	"unsigned int\000"
 622      676E6564 
 622      20696E74 
 622      00
 623              	.LASF23:
 624 0027 55415254 		.ascii	"UART_1_Sleep\000"
 624      5F315F53 
 624      6C656570 
 624      00
 625              	.LASF26:
 626 0034 5C5C5642 		.ascii	"\\\\VBOXSVR\\PSoC_Creator\\tfexpbrd\\tfexpbrd.cydsn"
 626      4F585356 
 626      525C5053 
 626      6F435F43 
 626      72656174 
 627 0062 00       		.ascii	"\000"
 628              	.LASF15:
 629 0063 74785F63 		.ascii	"tx_clk_ctr\000"
 629      6C6B5F63 
 629      747200
 630              	.LASF17:
 631 006e 74785F6D 		.ascii	"tx_mask\000"
 631      61736B00 
 632              	.LASF18:
 633 0076 75696E74 		.ascii	"uint8\000"
 633      3800
 634              	.LASF5:
 635 007c 6C6F6E67 		.ascii	"long unsigned int\000"
 635      20756E73 
 635      69676E65 
 635      6420696E 
 635      7400
 636              	.LASF20:
 637 008e 55415254 		.ascii	"UART_1_SaveConfig\000"
ARM GAS  C:\Users\SUZUKI~1\AppData\Local\Temp\cc6mu7r7.s 			page 17


 637      5F315F53 
 637      61766543 
 637      6F6E6669 
 637      6700
 638              	.LASF7:
 639 00a0 6C6F6E67 		.ascii	"long long unsigned int\000"
 639      206C6F6E 
 639      6720756E 
 639      7369676E 
 639      65642069 
 640              	.LASF16:
 641 00b7 74785F63 		.ascii	"tx_clk_compl\000"
 641      6C6B5F63 
 641      6F6D706C 
 641      00
 642              	.LASF1:
 643 00c4 756E7369 		.ascii	"unsigned char\000"
 643      676E6564 
 643      20636861 
 643      7200
 644              	.LASF11:
 645 00d2 63686172 		.ascii	"char\000"
 645      00
 646              	.LASF4:
 647 00d7 6C6F6E67 		.ascii	"long int\000"
 647      20696E74 
 647      00
 648              	.LASF13:
 649 00e0 72785F70 		.ascii	"rx_period\000"
 649      6572696F 
 649      6400
 650              	.LASF10:
 651 00ea 646F7562 		.ascii	"double\000"
 651      6C6500
 652              	.LASF28:
 653 00f1 55415254 		.ascii	"UART_1_backup\000"
 653      5F315F62 
 653      61636B75 
 653      7000
 654              	.LASF25:
 655 00ff 2E5C4765 		.ascii	".\\Generated_Source\\PSoC5\\UART_1_PM.c\000"
 655      6E657261 
 655      7465645F 
 655      536F7572 
 655      63655C50 
 656              	.LASF24:
 657 0124 474E5520 		.ascii	"GNU C 4.4.1\000"
 657      4320342E 
 657      342E3100 
 658              	.LASF3:
 659 0130 73686F72 		.ascii	"short unsigned int\000"
 659      7420756E 
 659      7369676E 
 659      65642069 
 659      6E7400
 660              	.LASF0:
 661 0143 7369676E 		.ascii	"signed char\000"
ARM GAS  C:\Users\SUZUKI~1\AppData\Local\Temp\cc6mu7r7.s 			page 18


 661      65642063 
 661      68617200 
 662              	.LASF14:
 663 014f 72785F6D 		.ascii	"rx_mask\000"
 663      61736B00 
 664              	.LASF21:
 665 0157 55415254 		.ascii	"UART_1_RestoreConfig\000"
 665      5F315F52 
 665      6573746F 
 665      7265436F 
 665      6E666967 
 666              	.LASF9:
 667 016c 666C6F61 		.ascii	"float\000"
 667      7400
 668              	.LASF2:
 669 0172 73686F72 		.ascii	"short int\000"
 669      7420696E 
 669      7400
 670              	.LASF27:
 671 017c 55415254 		.ascii	"UART_1_backupStruct_\000"
 671      5F315F62 
 671      61636B75 
 671      70537472 
 671      7563745F 
 672              	.LASF22:
 673 0191 55415254 		.ascii	"UART_1_Wakeup\000"
 673      5F315F57 
 673      616B6575 
 673      7000
 674              	.LASF19:
 675 019f 55415254 		.ascii	"UART_1_BACKUP_STRUCT\000"
 675      5F315F42 
 675      41434B55 
 675      505F5354 
 675      52554354 
 676              		.ident	"GCC: (Sourcery G++ Lite 2010q1-188) 4.4.1"
