ARM GAS  C:\Users\SUZUKI~1\AppData\Local\Temp\ccJj3vLr.s 			page 1


   1              		.syntax unified
   2              		.cpu cortex-m3
   3              		.fpu softvfp
   4              		.eabi_attribute 20, 1
   5              		.eabi_attribute 21, 1
   6              		.eabi_attribute 23, 3
   7              		.eabi_attribute 24, 1
   8              		.eabi_attribute 25, 1
   9              		.eabi_attribute 26, 1
  10              		.eabi_attribute 30, 4
  11              		.eabi_attribute 18, 4
  12              		.thumb
  13              		.file	"UART_TF_PM.c"
  14              		.section	.debug_abbrev,"",%progbits
  15              	.Ldebug_abbrev0:
  16              		.section	.debug_info,"",%progbits
  17              	.Ldebug_info0:
  18              		.section	.debug_line,"",%progbits
  19              	.Ldebug_line0:
  20 0000 CE000000 		.text
  20      02007000 
  20      00000201 
  20      FB0E0D00 
  20      01010101 
  21              	.Ltext0:
  22              		.cfi_sections	.debug_frame
  23              		.section	.text.UART_TF_SaveConfig,"ax",%progbits
  24              		.align	1
  25              		.global	UART_TF_SaveConfig
  26              		.thumb
  27              		.thumb_func
  28              		.type	UART_TF_SaveConfig, %function
  29              	UART_TF_SaveConfig:
  30              	.LFB0:
  31              		.file 1 ".\\Generated_Source\\PSoC5\\UART_TF_PM.c"
   1:.\Generated_Source\PSoC5/UART_TF_PM.c **** /*******************************************************************************
   2:.\Generated_Source\PSoC5/UART_TF_PM.c **** * File Name: UART_TF_PM.c
   3:.\Generated_Source\PSoC5/UART_TF_PM.c **** * Version 2.30
   4:.\Generated_Source\PSoC5/UART_TF_PM.c **** *
   5:.\Generated_Source\PSoC5/UART_TF_PM.c **** * Description:
   6:.\Generated_Source\PSoC5/UART_TF_PM.c **** *  This file provides Sleep/WakeUp APIs functionality.
   7:.\Generated_Source\PSoC5/UART_TF_PM.c **** *
   8:.\Generated_Source\PSoC5/UART_TF_PM.c **** * Note:
   9:.\Generated_Source\PSoC5/UART_TF_PM.c **** *
  10:.\Generated_Source\PSoC5/UART_TF_PM.c **** ********************************************************************************
  11:.\Generated_Source\PSoC5/UART_TF_PM.c **** * Copyright 2008-2012, Cypress Semiconductor Corporation.  All rights reserved.
  12:.\Generated_Source\PSoC5/UART_TF_PM.c **** * You may use this file only in accordance with the license, terms, conditions,
  13:.\Generated_Source\PSoC5/UART_TF_PM.c **** * disclaimers, and limitations in the end user license agreement accompanying
  14:.\Generated_Source\PSoC5/UART_TF_PM.c **** * the software package with which this file was provided.
  15:.\Generated_Source\PSoC5/UART_TF_PM.c **** *******************************************************************************/
  16:.\Generated_Source\PSoC5/UART_TF_PM.c **** 
  17:.\Generated_Source\PSoC5/UART_TF_PM.c **** #include "UART_TF.h"
  18:.\Generated_Source\PSoC5/UART_TF_PM.c **** 
  19:.\Generated_Source\PSoC5/UART_TF_PM.c **** 
  20:.\Generated_Source\PSoC5/UART_TF_PM.c **** /***************************************
  21:.\Generated_Source\PSoC5/UART_TF_PM.c **** * Local data allocation
  22:.\Generated_Source\PSoC5/UART_TF_PM.c **** ***************************************/
ARM GAS  C:\Users\SUZUKI~1\AppData\Local\Temp\ccJj3vLr.s 			page 2


  23:.\Generated_Source\PSoC5/UART_TF_PM.c **** 
  24:.\Generated_Source\PSoC5/UART_TF_PM.c **** static UART_TF_BACKUP_STRUCT  UART_TF_backup =
  25:.\Generated_Source\PSoC5/UART_TF_PM.c **** {
  26:.\Generated_Source\PSoC5/UART_TF_PM.c ****     /* enableState - disabled */
  27:.\Generated_Source\PSoC5/UART_TF_PM.c ****     0u,
  28:.\Generated_Source\PSoC5/UART_TF_PM.c **** };
  29:.\Generated_Source\PSoC5/UART_TF_PM.c **** 
  30:.\Generated_Source\PSoC5/UART_TF_PM.c **** 
  31:.\Generated_Source\PSoC5/UART_TF_PM.c **** 
  32:.\Generated_Source\PSoC5/UART_TF_PM.c **** /*******************************************************************************
  33:.\Generated_Source\PSoC5/UART_TF_PM.c **** * Function Name: UART_TF_SaveConfig
  34:.\Generated_Source\PSoC5/UART_TF_PM.c **** ********************************************************************************
  35:.\Generated_Source\PSoC5/UART_TF_PM.c **** *
  36:.\Generated_Source\PSoC5/UART_TF_PM.c **** * Summary:
  37:.\Generated_Source\PSoC5/UART_TF_PM.c **** *  Saves the current user configuration.
  38:.\Generated_Source\PSoC5/UART_TF_PM.c **** *
  39:.\Generated_Source\PSoC5/UART_TF_PM.c **** * Parameters:
  40:.\Generated_Source\PSoC5/UART_TF_PM.c **** *  None.
  41:.\Generated_Source\PSoC5/UART_TF_PM.c **** *
  42:.\Generated_Source\PSoC5/UART_TF_PM.c **** * Return:
  43:.\Generated_Source\PSoC5/UART_TF_PM.c **** *  None.
  44:.\Generated_Source\PSoC5/UART_TF_PM.c **** *
  45:.\Generated_Source\PSoC5/UART_TF_PM.c **** * Global Variables:
  46:.\Generated_Source\PSoC5/UART_TF_PM.c **** *  UART_TF_backup - modified when non-retention registers are saved.
  47:.\Generated_Source\PSoC5/UART_TF_PM.c **** *
  48:.\Generated_Source\PSoC5/UART_TF_PM.c **** * Reentrant:
  49:.\Generated_Source\PSoC5/UART_TF_PM.c **** *  No.
  50:.\Generated_Source\PSoC5/UART_TF_PM.c **** *
  51:.\Generated_Source\PSoC5/UART_TF_PM.c **** *******************************************************************************/
  52:.\Generated_Source\PSoC5/UART_TF_PM.c **** void UART_TF_SaveConfig(void)
  53:.\Generated_Source\PSoC5/UART_TF_PM.c **** {
  32              		.loc 1 53 0
  33              		.cfi_startproc
  34              		@ args = 0, pretend = 0, frame = 0
  35              		@ frame_needed = 0, uses_anonymous_args = 0
  36              		@ link register save eliminated.
  54:.\Generated_Source\PSoC5/UART_TF_PM.c ****     #if (CY_UDB_V0)
  55:.\Generated_Source\PSoC5/UART_TF_PM.c **** 
  56:.\Generated_Source\PSoC5/UART_TF_PM.c ****         #if(UART_TF_CONTROL_REG_REMOVED == 0u)
  57:.\Generated_Source\PSoC5/UART_TF_PM.c ****             UART_TF_backup.cr = UART_TF_CONTROL_REG;
  58:.\Generated_Source\PSoC5/UART_TF_PM.c ****         #endif /* End UART_TF_CONTROL_REG_REMOVED */
  59:.\Generated_Source\PSoC5/UART_TF_PM.c **** 
  60:.\Generated_Source\PSoC5/UART_TF_PM.c ****         #if( (UART_TF_RX_ENABLED) || (UART_TF_HD_ENABLED) )
  61:.\Generated_Source\PSoC5/UART_TF_PM.c ****             UART_TF_backup.rx_period = UART_TF_RXBITCTR_PERIOD_REG;
  37              		.loc 1 61 0
  38 0000 034B     		ldr	r3, .L3
  39 0002 1A78     		ldrb	r2, [r3, #0]	@ zero_extendqisi2
  40 0004 034B     		ldr	r3, .L3+4
  41 0006 5A70     		strb	r2, [r3, #1]
  62:.\Generated_Source\PSoC5/UART_TF_PM.c ****             UART_TF_backup.rx_mask = UART_TF_RXSTATUS_MASK_REG;
  42              		.loc 1 62 0
  43 0008 034A     		ldr	r2, .L3+8
  44 000a 1278     		ldrb	r2, [r2, #0]	@ zero_extendqisi2
  45 000c 9A70     		strb	r2, [r3, #2]
  63:.\Generated_Source\PSoC5/UART_TF_PM.c ****             #if (UART_TF_RXHW_ADDRESS_ENABLED)
  64:.\Generated_Source\PSoC5/UART_TF_PM.c ****                 UART_TF_backup.rx_addr1 = UART_TF_RXADDRESS1_REG;
  65:.\Generated_Source\PSoC5/UART_TF_PM.c ****                 UART_TF_backup.rx_addr2 = UART_TF_RXADDRESS2_REG;
ARM GAS  C:\Users\SUZUKI~1\AppData\Local\Temp\ccJj3vLr.s 			page 3


  66:.\Generated_Source\PSoC5/UART_TF_PM.c ****             #endif /* End UART_TF_RXHW_ADDRESS_ENABLED */
  67:.\Generated_Source\PSoC5/UART_TF_PM.c ****         #endif /* End UART_TF_RX_ENABLED | UART_TF_HD_ENABLED*/
  68:.\Generated_Source\PSoC5/UART_TF_PM.c **** 
  69:.\Generated_Source\PSoC5/UART_TF_PM.c ****         #if(UART_TF_TX_ENABLED)
  70:.\Generated_Source\PSoC5/UART_TF_PM.c ****             #if(UART_TF_TXCLKGEN_DP)
  71:.\Generated_Source\PSoC5/UART_TF_PM.c ****                 UART_TF_backup.tx_clk_ctr = UART_TF_TXBITCLKGEN_CTR_REG;
  72:.\Generated_Source\PSoC5/UART_TF_PM.c ****                 UART_TF_backup.tx_clk_compl = UART_TF_TXBITCLKTX_COMPLETE_REG;
  73:.\Generated_Source\PSoC5/UART_TF_PM.c ****             #else
  74:.\Generated_Source\PSoC5/UART_TF_PM.c ****                 UART_TF_backup.tx_period = UART_TF_TXBITCTR_PERIOD_REG;
  75:.\Generated_Source\PSoC5/UART_TF_PM.c ****             #endif /*End UART_TF_TXCLKGEN_DP */
  76:.\Generated_Source\PSoC5/UART_TF_PM.c ****             UART_TF_backup.tx_mask = UART_TF_TXSTATUS_MASK_REG;
  77:.\Generated_Source\PSoC5/UART_TF_PM.c ****         #endif /*End UART_TF_TX_ENABLED */
  78:.\Generated_Source\PSoC5/UART_TF_PM.c **** 
  79:.\Generated_Source\PSoC5/UART_TF_PM.c **** 
  80:.\Generated_Source\PSoC5/UART_TF_PM.c ****     #else /* CY_UDB_V1 */
  81:.\Generated_Source\PSoC5/UART_TF_PM.c **** 
  82:.\Generated_Source\PSoC5/UART_TF_PM.c ****         #if(UART_TF_CONTROL_REG_REMOVED == 0u)
  83:.\Generated_Source\PSoC5/UART_TF_PM.c ****             UART_TF_backup.cr = UART_TF_CONTROL_REG;
  84:.\Generated_Source\PSoC5/UART_TF_PM.c ****         #endif /* End UART_TF_CONTROL_REG_REMOVED */
  85:.\Generated_Source\PSoC5/UART_TF_PM.c **** 
  86:.\Generated_Source\PSoC5/UART_TF_PM.c ****     #endif  /* End CY_UDB_V0 */
  87:.\Generated_Source\PSoC5/UART_TF_PM.c **** }
  46              		.loc 1 87 0
  47 000e 7047     		bx	lr
  48              	.L4:
  49              		.align	2
  50              	.L3:
  51 0010 84640040 		.word	1073767556
  52 0014 00000000 		.word	.LANCHOR0
  53 0018 80640040 		.word	1073767552
  54              		.cfi_endproc
  55              	.LFE0:
  56              		.size	UART_TF_SaveConfig, .-UART_TF_SaveConfig
  57              		.section	.text.UART_TF_RestoreConfig,"ax",%progbits
  58              		.align	1
  59              		.global	UART_TF_RestoreConfig
  60              		.thumb
  61              		.thumb_func
  62              		.type	UART_TF_RestoreConfig, %function
  63              	UART_TF_RestoreConfig:
  64              	.LFB1:
  88:.\Generated_Source\PSoC5/UART_TF_PM.c **** 
  89:.\Generated_Source\PSoC5/UART_TF_PM.c **** 
  90:.\Generated_Source\PSoC5/UART_TF_PM.c **** /*******************************************************************************
  91:.\Generated_Source\PSoC5/UART_TF_PM.c **** * Function Name: UART_TF_RestoreConfig
  92:.\Generated_Source\PSoC5/UART_TF_PM.c **** ********************************************************************************
  93:.\Generated_Source\PSoC5/UART_TF_PM.c **** *
  94:.\Generated_Source\PSoC5/UART_TF_PM.c **** * Summary:
  95:.\Generated_Source\PSoC5/UART_TF_PM.c **** *  Restores the current user configuration.
  96:.\Generated_Source\PSoC5/UART_TF_PM.c **** *
  97:.\Generated_Source\PSoC5/UART_TF_PM.c **** * Parameters:
  98:.\Generated_Source\PSoC5/UART_TF_PM.c **** *  None.
  99:.\Generated_Source\PSoC5/UART_TF_PM.c **** *
 100:.\Generated_Source\PSoC5/UART_TF_PM.c **** * Return:
 101:.\Generated_Source\PSoC5/UART_TF_PM.c **** *  None.
 102:.\Generated_Source\PSoC5/UART_TF_PM.c **** *
 103:.\Generated_Source\PSoC5/UART_TF_PM.c **** * Global Variables:
ARM GAS  C:\Users\SUZUKI~1\AppData\Local\Temp\ccJj3vLr.s 			page 4


 104:.\Generated_Source\PSoC5/UART_TF_PM.c **** *  UART_TF_backup - used when non-retention registers are restored.
 105:.\Generated_Source\PSoC5/UART_TF_PM.c **** *
 106:.\Generated_Source\PSoC5/UART_TF_PM.c **** * Reentrant:
 107:.\Generated_Source\PSoC5/UART_TF_PM.c **** *  No.
 108:.\Generated_Source\PSoC5/UART_TF_PM.c **** *
 109:.\Generated_Source\PSoC5/UART_TF_PM.c **** *******************************************************************************/
 110:.\Generated_Source\PSoC5/UART_TF_PM.c **** void UART_TF_RestoreConfig(void)
 111:.\Generated_Source\PSoC5/UART_TF_PM.c **** {
  65              		.loc 1 111 0
  66              		.cfi_startproc
  67              		@ args = 0, pretend = 0, frame = 0
  68              		@ frame_needed = 0, uses_anonymous_args = 0
  69              		@ link register save eliminated.
 112:.\Generated_Source\PSoC5/UART_TF_PM.c **** 
 113:.\Generated_Source\PSoC5/UART_TF_PM.c ****     #if (CY_UDB_V0)
 114:.\Generated_Source\PSoC5/UART_TF_PM.c **** 
 115:.\Generated_Source\PSoC5/UART_TF_PM.c ****         #if(UART_TF_CONTROL_REG_REMOVED == 0u)
 116:.\Generated_Source\PSoC5/UART_TF_PM.c ****             UART_TF_CONTROL_REG = UART_TF_backup.cr;
 117:.\Generated_Source\PSoC5/UART_TF_PM.c ****         #endif /* End UART_TF_CONTROL_REG_REMOVED */
 118:.\Generated_Source\PSoC5/UART_TF_PM.c **** 
 119:.\Generated_Source\PSoC5/UART_TF_PM.c ****         #if( (UART_TF_RX_ENABLED) || (UART_TF_HD_ENABLED) )
 120:.\Generated_Source\PSoC5/UART_TF_PM.c ****             UART_TF_RXBITCTR_PERIOD_REG = UART_TF_backup.rx_period;
  70              		.loc 1 120 0
  71 0000 034B     		ldr	r3, .L7
  72 0002 044A     		ldr	r2, .L7+4
  73 0004 5978     		ldrb	r1, [r3, #1]	@ zero_extendqisi2
  74 0006 1170     		strb	r1, [r2, #0]
 121:.\Generated_Source\PSoC5/UART_TF_PM.c ****             UART_TF_RXSTATUS_MASK_REG = UART_TF_backup.rx_mask;
  75              		.loc 1 121 0
  76 0008 9A78     		ldrb	r2, [r3, #2]	@ zero_extendqisi2
  77 000a 034B     		ldr	r3, .L7+8
  78 000c 1A70     		strb	r2, [r3, #0]
 122:.\Generated_Source\PSoC5/UART_TF_PM.c ****             #if (UART_TF_RXHW_ADDRESS_ENABLED)
 123:.\Generated_Source\PSoC5/UART_TF_PM.c ****                 UART_TF_RXADDRESS1_REG = UART_TF_backup.rx_addr1;
 124:.\Generated_Source\PSoC5/UART_TF_PM.c ****                 UART_TF_RXADDRESS2_REG = UART_TF_backup.rx_addr2;
 125:.\Generated_Source\PSoC5/UART_TF_PM.c ****             #endif /* End UART_TF_RXHW_ADDRESS_ENABLED */
 126:.\Generated_Source\PSoC5/UART_TF_PM.c ****         #endif  /* End (UART_TF_RX_ENABLED) || (UART_TF_HD_ENABLED) */
 127:.\Generated_Source\PSoC5/UART_TF_PM.c **** 
 128:.\Generated_Source\PSoC5/UART_TF_PM.c ****         #if(UART_TF_TX_ENABLED)
 129:.\Generated_Source\PSoC5/UART_TF_PM.c ****             #if(UART_TF_TXCLKGEN_DP)
 130:.\Generated_Source\PSoC5/UART_TF_PM.c ****                 UART_TF_TXBITCLKGEN_CTR_REG = UART_TF_backup.tx_clk_ctr;
 131:.\Generated_Source\PSoC5/UART_TF_PM.c ****                 UART_TF_TXBITCLKTX_COMPLETE_REG = UART_TF_backup.tx_clk_compl;
 132:.\Generated_Source\PSoC5/UART_TF_PM.c ****             #else
 133:.\Generated_Source\PSoC5/UART_TF_PM.c ****                 UART_TF_TXBITCTR_PERIOD_REG = UART_TF_backup.tx_period;
 134:.\Generated_Source\PSoC5/UART_TF_PM.c ****             #endif /*End UART_TF_TXCLKGEN_DP */
 135:.\Generated_Source\PSoC5/UART_TF_PM.c ****             UART_TF_TXSTATUS_MASK_REG = UART_TF_backup.tx_mask;
 136:.\Generated_Source\PSoC5/UART_TF_PM.c ****         #endif /*End UART_TF_TX_ENABLED */
 137:.\Generated_Source\PSoC5/UART_TF_PM.c **** 
 138:.\Generated_Source\PSoC5/UART_TF_PM.c ****     #else /* CY_UDB_V1 */
 139:.\Generated_Source\PSoC5/UART_TF_PM.c **** 
 140:.\Generated_Source\PSoC5/UART_TF_PM.c ****         #if(UART_TF_CONTROL_REG_REMOVED == 0u)
 141:.\Generated_Source\PSoC5/UART_TF_PM.c ****             UART_TF_CONTROL_REG = UART_TF_backup.cr;
 142:.\Generated_Source\PSoC5/UART_TF_PM.c ****         #endif /* End UART_TF_CONTROL_REG_REMOVED */
 143:.\Generated_Source\PSoC5/UART_TF_PM.c **** 
 144:.\Generated_Source\PSoC5/UART_TF_PM.c ****     #endif  /* End CY_UDB_V0 */
 145:.\Generated_Source\PSoC5/UART_TF_PM.c **** }
  79              		.loc 1 145 0
ARM GAS  C:\Users\SUZUKI~1\AppData\Local\Temp\ccJj3vLr.s 			page 5


  80 000e 7047     		bx	lr
  81              	.L8:
  82              		.align	2
  83              	.L7:
  84 0010 00000000 		.word	.LANCHOR0
  85 0014 84640040 		.word	1073767556
  86 0018 80640040 		.word	1073767552
  87              		.cfi_endproc
  88              	.LFE1:
  89              		.size	UART_TF_RestoreConfig, .-UART_TF_RestoreConfig
  90              		.section	.text.UART_TF_Wakeup,"ax",%progbits
  91              		.align	1
  92              		.global	UART_TF_Wakeup
  93              		.thumb
  94              		.thumb_func
  95              		.type	UART_TF_Wakeup, %function
  96              	UART_TF_Wakeup:
  97              	.LFB3:
 146:.\Generated_Source\PSoC5/UART_TF_PM.c **** 
 147:.\Generated_Source\PSoC5/UART_TF_PM.c **** 
 148:.\Generated_Source\PSoC5/UART_TF_PM.c **** /*******************************************************************************
 149:.\Generated_Source\PSoC5/UART_TF_PM.c **** * Function Name: UART_TF_Sleep
 150:.\Generated_Source\PSoC5/UART_TF_PM.c **** ********************************************************************************
 151:.\Generated_Source\PSoC5/UART_TF_PM.c **** *
 152:.\Generated_Source\PSoC5/UART_TF_PM.c **** * Summary:
 153:.\Generated_Source\PSoC5/UART_TF_PM.c **** *  Stops and saves the user configuration. Should be called
 154:.\Generated_Source\PSoC5/UART_TF_PM.c **** *  just prior to entering sleep.
 155:.\Generated_Source\PSoC5/UART_TF_PM.c **** *
 156:.\Generated_Source\PSoC5/UART_TF_PM.c **** *
 157:.\Generated_Source\PSoC5/UART_TF_PM.c **** * Parameters:
 158:.\Generated_Source\PSoC5/UART_TF_PM.c **** *  None.
 159:.\Generated_Source\PSoC5/UART_TF_PM.c **** *
 160:.\Generated_Source\PSoC5/UART_TF_PM.c **** * Return:
 161:.\Generated_Source\PSoC5/UART_TF_PM.c **** *  None.
 162:.\Generated_Source\PSoC5/UART_TF_PM.c **** *
 163:.\Generated_Source\PSoC5/UART_TF_PM.c **** * Global Variables:
 164:.\Generated_Source\PSoC5/UART_TF_PM.c **** *  UART_TF_backup - modified when non-retention registers are saved.
 165:.\Generated_Source\PSoC5/UART_TF_PM.c **** *
 166:.\Generated_Source\PSoC5/UART_TF_PM.c **** * Reentrant:
 167:.\Generated_Source\PSoC5/UART_TF_PM.c **** *  No.
 168:.\Generated_Source\PSoC5/UART_TF_PM.c **** *
 169:.\Generated_Source\PSoC5/UART_TF_PM.c **** *******************************************************************************/
 170:.\Generated_Source\PSoC5/UART_TF_PM.c **** void UART_TF_Sleep(void)
 171:.\Generated_Source\PSoC5/UART_TF_PM.c **** {
 172:.\Generated_Source\PSoC5/UART_TF_PM.c **** 
 173:.\Generated_Source\PSoC5/UART_TF_PM.c ****     #if(UART_TF_RX_ENABLED || UART_TF_HD_ENABLED)
 174:.\Generated_Source\PSoC5/UART_TF_PM.c ****         if((UART_TF_RXSTATUS_ACTL_REG  & UART_TF_INT_ENABLE) != 0u)
 175:.\Generated_Source\PSoC5/UART_TF_PM.c ****         {
 176:.\Generated_Source\PSoC5/UART_TF_PM.c ****             UART_TF_backup.enableState = 1u;
 177:.\Generated_Source\PSoC5/UART_TF_PM.c ****         }
 178:.\Generated_Source\PSoC5/UART_TF_PM.c ****         else
 179:.\Generated_Source\PSoC5/UART_TF_PM.c ****         {
 180:.\Generated_Source\PSoC5/UART_TF_PM.c ****             UART_TF_backup.enableState = 0u;
 181:.\Generated_Source\PSoC5/UART_TF_PM.c ****         }
 182:.\Generated_Source\PSoC5/UART_TF_PM.c ****     #else
 183:.\Generated_Source\PSoC5/UART_TF_PM.c ****         if((UART_TF_TXSTATUS_ACTL_REG  & UART_TF_INT_ENABLE) !=0u)
 184:.\Generated_Source\PSoC5/UART_TF_PM.c ****         {
ARM GAS  C:\Users\SUZUKI~1\AppData\Local\Temp\ccJj3vLr.s 			page 6


 185:.\Generated_Source\PSoC5/UART_TF_PM.c ****             UART_TF_backup.enableState = 1u;
 186:.\Generated_Source\PSoC5/UART_TF_PM.c ****         }
 187:.\Generated_Source\PSoC5/UART_TF_PM.c ****         else
 188:.\Generated_Source\PSoC5/UART_TF_PM.c ****         {
 189:.\Generated_Source\PSoC5/UART_TF_PM.c ****             UART_TF_backup.enableState = 0u;
 190:.\Generated_Source\PSoC5/UART_TF_PM.c ****         }
 191:.\Generated_Source\PSoC5/UART_TF_PM.c ****     #endif /* End UART_TF_RX_ENABLED || UART_TF_HD_ENABLED*/
 192:.\Generated_Source\PSoC5/UART_TF_PM.c **** 
 193:.\Generated_Source\PSoC5/UART_TF_PM.c ****     UART_TF_Stop();
 194:.\Generated_Source\PSoC5/UART_TF_PM.c ****     UART_TF_SaveConfig();
 195:.\Generated_Source\PSoC5/UART_TF_PM.c **** }
 196:.\Generated_Source\PSoC5/UART_TF_PM.c **** 
 197:.\Generated_Source\PSoC5/UART_TF_PM.c **** 
 198:.\Generated_Source\PSoC5/UART_TF_PM.c **** /*******************************************************************************
 199:.\Generated_Source\PSoC5/UART_TF_PM.c **** * Function Name: UART_TF_Wakeup
 200:.\Generated_Source\PSoC5/UART_TF_PM.c **** ********************************************************************************
 201:.\Generated_Source\PSoC5/UART_TF_PM.c **** *
 202:.\Generated_Source\PSoC5/UART_TF_PM.c **** * Summary:
 203:.\Generated_Source\PSoC5/UART_TF_PM.c **** *  Restores and enables the user configuration. Should be called
 204:.\Generated_Source\PSoC5/UART_TF_PM.c **** *  just after awaking from sleep.
 205:.\Generated_Source\PSoC5/UART_TF_PM.c **** *
 206:.\Generated_Source\PSoC5/UART_TF_PM.c **** * Parameters:
 207:.\Generated_Source\PSoC5/UART_TF_PM.c **** *  None.
 208:.\Generated_Source\PSoC5/UART_TF_PM.c **** *
 209:.\Generated_Source\PSoC5/UART_TF_PM.c **** * Return:
 210:.\Generated_Source\PSoC5/UART_TF_PM.c **** *  None.
 211:.\Generated_Source\PSoC5/UART_TF_PM.c **** *
 212:.\Generated_Source\PSoC5/UART_TF_PM.c **** * Global Variables:
 213:.\Generated_Source\PSoC5/UART_TF_PM.c **** *  UART_TF_backup - used when non-retention registers are restored.
 214:.\Generated_Source\PSoC5/UART_TF_PM.c **** *
 215:.\Generated_Source\PSoC5/UART_TF_PM.c **** * Reentrant:
 216:.\Generated_Source\PSoC5/UART_TF_PM.c **** *  No.
 217:.\Generated_Source\PSoC5/UART_TF_PM.c **** *
 218:.\Generated_Source\PSoC5/UART_TF_PM.c **** *******************************************************************************/
 219:.\Generated_Source\PSoC5/UART_TF_PM.c **** void UART_TF_Wakeup(void)
 220:.\Generated_Source\PSoC5/UART_TF_PM.c **** {
  98              		.loc 1 220 0
  99              		.cfi_startproc
 100              		@ args = 0, pretend = 0, frame = 0
 101              		@ frame_needed = 0, uses_anonymous_args = 0
 102 0000 10B5     		push	{r4, lr}
 103              	.LCFI0:
 104              		.cfi_def_cfa_offset 8
 221:.\Generated_Source\PSoC5/UART_TF_PM.c ****     UART_TF_RestoreConfig();
 105              		.loc 1 221 0
 106              		.cfi_offset 14, -4
 107              		.cfi_offset 4, -8
 108 0002 FFF7FEFF 		bl	UART_TF_RestoreConfig
 222:.\Generated_Source\PSoC5/UART_TF_PM.c ****     #if( (UART_TF_RX_ENABLED) || (UART_TF_HD_ENABLED) )
 223:.\Generated_Source\PSoC5/UART_TF_PM.c ****         UART_TF_ClearRxBuffer();
 109              		.loc 1 223 0
 110 0006 FFF7FEFF 		bl	UART_TF_ClearRxBuffer
 224:.\Generated_Source\PSoC5/UART_TF_PM.c ****     #endif /* End (UART_TF_RX_ENABLED) || (UART_TF_HD_ENABLED) */
 225:.\Generated_Source\PSoC5/UART_TF_PM.c ****     #if(UART_TF_TX_ENABLED || UART_TF_HD_ENABLED)
 226:.\Generated_Source\PSoC5/UART_TF_PM.c ****         UART_TF_ClearTxBuffer();
 227:.\Generated_Source\PSoC5/UART_TF_PM.c ****     #endif /* End UART_TF_TX_ENABLED || UART_TF_HD_ENABLED */
 228:.\Generated_Source\PSoC5/UART_TF_PM.c **** 
ARM GAS  C:\Users\SUZUKI~1\AppData\Local\Temp\ccJj3vLr.s 			page 7


 229:.\Generated_Source\PSoC5/UART_TF_PM.c ****     if(UART_TF_backup.enableState != 0u)
 111              		.loc 1 229 0
 112 000a 044B     		ldr	r3, .L13
 113 000c 1B78     		ldrb	r3, [r3, #0]	@ zero_extendqisi2
 114 000e 1BB1     		cbz	r3, .L11
 230:.\Generated_Source\PSoC5/UART_TF_PM.c ****     {
 231:.\Generated_Source\PSoC5/UART_TF_PM.c ****         UART_TF_Enable();
 232:.\Generated_Source\PSoC5/UART_TF_PM.c ****     }
 233:.\Generated_Source\PSoC5/UART_TF_PM.c **** }
 115              		.loc 1 233 0
 116 0010 BDE81040 		pop	{r4, lr}
 117              		.loc 1 231 0
 118 0014 FFF7FEBF 		b	UART_TF_Enable
 119              	.L11:
 120 0018 10BD     		pop	{r4, pc}
 121              	.L14:
 122 001a 00BF     		.align	2
 123              	.L13:
 124 001c 00000000 		.word	.LANCHOR0
 125              		.cfi_endproc
 126              	.LFE3:
 127              		.size	UART_TF_Wakeup, .-UART_TF_Wakeup
 128              		.section	.text.UART_TF_Sleep,"ax",%progbits
 129              		.align	1
 130              		.global	UART_TF_Sleep
 131              		.thumb
 132              		.thumb_func
 133              		.type	UART_TF_Sleep, %function
 134              	UART_TF_Sleep:
 135              	.LFB2:
 136              		.loc 1 171 0
 137              		.cfi_startproc
 138              		@ args = 0, pretend = 0, frame = 0
 139              		@ frame_needed = 0, uses_anonymous_args = 0
 140 0000 10B5     		push	{r4, lr}
 141              	.LCFI1:
 142              		.cfi_def_cfa_offset 8
 143              		.loc 1 174 0
 144 0002 074B     		ldr	r3, .L19
 145 0004 1B78     		ldrb	r3, [r3, #0]	@ zero_extendqisi2
 146 0006 13F01002 		ands	r2, r3, #16
 147 000a 064B     		ldr	r3, .L19+4
 148              		.loc 1 176 0
 149 000c 18BF     		it	ne
 150 000e 0122     		movne	r2, #1
 151              		.loc 1 180 0
 152 0010 1A70     		strb	r2, [r3, #0]
 153              		.loc 1 193 0
 154              		.cfi_offset 14, -4
 155              		.cfi_offset 4, -8
 156 0012 FFF7FEFF 		bl	UART_TF_Stop
 157              		.loc 1 195 0
 158 0016 BDE81040 		pop	{r4, lr}
 159              		.loc 1 194 0
 160 001a FFF7FEBF 		b	UART_TF_SaveConfig
 161              	.L20:
 162 001e 00BF     		.align	2
ARM GAS  C:\Users\SUZUKI~1\AppData\Local\Temp\ccJj3vLr.s 			page 8


 163              	.L19:
 164 0020 90640040 		.word	1073767568
 165 0024 00000000 		.word	.LANCHOR0
 166              		.cfi_endproc
 167              	.LFE2:
 168              		.size	UART_TF_Sleep, .-UART_TF_Sleep
 169              		.bss
 170              		.align	2
 171              		.set	.LANCHOR0,. + 0
 172              		.type	UART_TF_backup, %object
 173              		.size	UART_TF_backup, 3
 174              	UART_TF_backup:
 175 0000 000000   		.space	3
 176 0003 00       		.text
 177              	.Letext0:
 178              		.section	.debug_loc,"",%progbits
 179              	.Ldebug_loc0:
 180              	.LLST2:
 181 0000 00000000 		.4byte	.LFB3
 182 0004 02000000 		.4byte	.LCFI0
 183 0008 0100     		.2byte	0x1
 184 000a 5D       		.byte	0x5d
 185 000b 02000000 		.4byte	.LCFI0
 186 000f 20000000 		.4byte	.LFE3
 187 0013 0200     		.2byte	0x2
 188 0015 7D       		.byte	0x7d
 189 0016 08       		.sleb128 8
 190 0017 00000000 		.4byte	0x0
 191 001b 00000000 		.4byte	0x0
 192              	.LLST3:
 193 001f 00000000 		.4byte	.LFB2
 194 0023 02000000 		.4byte	.LCFI1
 195 0027 0100     		.2byte	0x1
 196 0029 5D       		.byte	0x5d
 197 002a 02000000 		.4byte	.LCFI1
 198 002e 28000000 		.4byte	.LFE2
 199 0032 0200     		.2byte	0x2
 200 0034 7D       		.byte	0x7d
 201 0035 08       		.sleb128 8
 202 0036 00000000 		.4byte	0x0
 203 003a 00000000 		.4byte	0x0
 204              		.file 2 ".\\Generated_Source\\PSoC5\\/UART_TF.h"
 205              		.file 3 ".\\Generated_Source\\PSoC5\\/cytypes.h"
 206              		.section	.debug_info
 207 0000 32010000 		.4byte	0x132
 208 0004 0200     		.2byte	0x2
 209 0006 00000000 		.4byte	.Ldebug_abbrev0
 210 000a 04       		.byte	0x4
 211 000b 01       		.uleb128 0x1
 212 000c EF000000 		.4byte	.LASF21
 213 0010 01       		.byte	0x1
 214 0011 C9000000 		.4byte	.LASF22
 215 0015 27000000 		.4byte	.LASF23
 216 0019 00000000 		.4byte	0x0
 217 001d 00000000 		.4byte	0x0
 218 0021 00000000 		.4byte	.Ldebug_ranges0+0x0
 219 0025 00000000 		.4byte	.Ldebug_line0
ARM GAS  C:\Users\SUZUKI~1\AppData\Local\Temp\ccJj3vLr.s 			page 9


 220 0029 02       		.uleb128 0x2
 221 002a 01       		.byte	0x1
 222 002b 06       		.byte	0x6
 223 002c 56010000 		.4byte	.LASF0
 224 0030 02       		.uleb128 0x2
 225 0031 01       		.byte	0x1
 226 0032 08       		.byte	0x8
 227 0033 FB000000 		.4byte	.LASF1
 228 0037 02       		.uleb128 0x2
 229 0038 02       		.byte	0x2
 230 0039 05       		.byte	0x5
 231 003a 92010000 		.4byte	.LASF2
 232 003e 02       		.uleb128 0x2
 233 003f 02       		.byte	0x2
 234 0040 07       		.byte	0x7
 235 0041 43010000 		.4byte	.LASF3
 236 0045 02       		.uleb128 0x2
 237 0046 04       		.byte	0x4
 238 0047 05       		.byte	0x5
 239 0048 1D010000 		.4byte	.LASF4
 240 004c 02       		.uleb128 0x2
 241 004d 04       		.byte	0x4
 242 004e 07       		.byte	0x7
 243 004f 96000000 		.4byte	.LASF5
 244 0053 02       		.uleb128 0x2
 245 0054 08       		.byte	0x8
 246 0055 05       		.byte	0x5
 247 0056 00000000 		.4byte	.LASF6
 248 005a 02       		.uleb128 0x2
 249 005b 08       		.byte	0x8
 250 005c 07       		.byte	0x7
 251 005d B2000000 		.4byte	.LASF7
 252 0061 03       		.uleb128 0x3
 253 0062 04       		.byte	0x4
 254 0063 05       		.byte	0x5
 255 0064 696E7400 		.ascii	"int\000"
 256 0068 02       		.uleb128 0x2
 257 0069 04       		.byte	0x4
 258 006a 07       		.byte	0x7
 259 006b 1A000000 		.4byte	.LASF8
 260 006f 04       		.uleb128 0x4
 261 0070 90000000 		.4byte	.LASF15
 262 0074 03       		.byte	0x3
 263 0075 4C       		.byte	0x4c
 264 0076 30000000 		.4byte	0x30
 265 007a 02       		.uleb128 0x2
 266 007b 04       		.byte	0x4
 267 007c 04       		.byte	0x4
 268 007d 7D010000 		.4byte	.LASF9
 269 0081 02       		.uleb128 0x2
 270 0082 08       		.byte	0x8
 271 0083 04       		.byte	0x4
 272 0084 26010000 		.4byte	.LASF10
 273 0088 02       		.uleb128 0x2
 274 0089 01       		.byte	0x1
 275 008a 08       		.byte	0x8
 276 008b 18010000 		.4byte	.LASF11
ARM GAS  C:\Users\SUZUKI~1\AppData\Local\Temp\ccJj3vLr.s 			page 10


 277 008f 05       		.uleb128 0x5
 278 0090 04       		.byte	0x4
 279 0091 07       		.byte	0x7
 280 0092 06       		.uleb128 0x6
 281 0093 6C000000 		.4byte	.LASF24
 282 0097 03       		.byte	0x3
 283 0098 02       		.byte	0x2
 284 0099 46       		.byte	0x46
 285 009a C9000000 		.4byte	0xc9
 286 009e 07       		.uleb128 0x7
 287 009f 0E000000 		.4byte	.LASF12
 288 00a3 02       		.byte	0x2
 289 00a4 47       		.byte	0x47
 290 00a5 6F000000 		.4byte	0x6f
 291 00a9 02       		.byte	0x2
 292 00aa 23       		.byte	0x23
 293 00ab 00       		.uleb128 0x0
 294 00ac 07       		.uleb128 0x7
 295 00ad A8000000 		.4byte	.LASF13
 296 00b1 02       		.byte	0x2
 297 00b2 4D       		.byte	0x4d
 298 00b3 6F000000 		.4byte	0x6f
 299 00b7 02       		.byte	0x2
 300 00b8 23       		.byte	0x23
 301 00b9 01       		.uleb128 0x1
 302 00ba 07       		.uleb128 0x7
 303 00bb 62010000 		.4byte	.LASF14
 304 00bf 02       		.byte	0x2
 305 00c0 4F       		.byte	0x4f
 306 00c1 6F000000 		.4byte	0x6f
 307 00c5 02       		.byte	0x2
 308 00c6 23       		.byte	0x23
 309 00c7 02       		.uleb128 0x2
 310 00c8 00       		.byte	0x0
 311 00c9 04       		.uleb128 0x4
 312 00ca 2D010000 		.4byte	.LASF16
 313 00ce 02       		.byte	0x2
 314 00cf 64       		.byte	0x64
 315 00d0 92000000 		.4byte	0x92
 316 00d4 08       		.uleb128 0x8
 317 00d5 01       		.byte	0x1
 318 00d6 6A010000 		.4byte	.LASF17
 319 00da 01       		.byte	0x1
 320 00db 34       		.byte	0x34
 321 00dc 01       		.byte	0x1
 322 00dd 00000000 		.4byte	.LFB0
 323 00e1 1C000000 		.4byte	.LFE0
 324 00e5 01       		.byte	0x1
 325 00e6 5D       		.byte	0x5d
 326 00e7 08       		.uleb128 0x8
 327 00e8 01       		.byte	0x1
 328 00e9 56000000 		.4byte	.LASF18
 329 00ed 01       		.byte	0x1
 330 00ee 6E       		.byte	0x6e
 331 00ef 01       		.byte	0x1
 332 00f0 00000000 		.4byte	.LFB1
 333 00f4 1C000000 		.4byte	.LFE1
ARM GAS  C:\Users\SUZUKI~1\AppData\Local\Temp\ccJj3vLr.s 			page 11


 334 00f8 01       		.byte	0x1
 335 00f9 5D       		.byte	0x5d
 336 00fa 09       		.uleb128 0x9
 337 00fb 01       		.byte	0x1
 338 00fc 83010000 		.4byte	.LASF19
 339 0100 01       		.byte	0x1
 340 0101 DB       		.byte	0xdb
 341 0102 01       		.byte	0x1
 342 0103 00000000 		.4byte	.LFB3
 343 0107 20000000 		.4byte	.LFE3
 344 010b 00000000 		.4byte	.LLST2
 345 010f 09       		.uleb128 0x9
 346 0110 01       		.byte	0x1
 347 0111 82000000 		.4byte	.LASF20
 348 0115 01       		.byte	0x1
 349 0116 AA       		.byte	0xaa
 350 0117 01       		.byte	0x1
 351 0118 00000000 		.4byte	.LFB2
 352 011c 28000000 		.4byte	.LFE2
 353 0120 1F000000 		.4byte	.LLST3
 354 0124 0A       		.uleb128 0xa
 355 0125 09010000 		.4byte	.LASF25
 356 0129 01       		.byte	0x1
 357 012a 18       		.byte	0x18
 358 012b C9000000 		.4byte	0xc9
 359 012f 05       		.byte	0x5
 360 0130 03       		.byte	0x3
 361 0131 00000000 		.4byte	UART_TF_backup
 362 0135 00       		.byte	0x0
 363              		.section	.debug_abbrev
 364 0000 01       		.uleb128 0x1
 365 0001 11       		.uleb128 0x11
 366 0002 01       		.byte	0x1
 367 0003 25       		.uleb128 0x25
 368 0004 0E       		.uleb128 0xe
 369 0005 13       		.uleb128 0x13
 370 0006 0B       		.uleb128 0xb
 371 0007 03       		.uleb128 0x3
 372 0008 0E       		.uleb128 0xe
 373 0009 1B       		.uleb128 0x1b
 374 000a 0E       		.uleb128 0xe
 375 000b 11       		.uleb128 0x11
 376 000c 01       		.uleb128 0x1
 377 000d 52       		.uleb128 0x52
 378 000e 01       		.uleb128 0x1
 379 000f 55       		.uleb128 0x55
 380 0010 06       		.uleb128 0x6
 381 0011 10       		.uleb128 0x10
 382 0012 06       		.uleb128 0x6
 383 0013 00       		.byte	0x0
 384 0014 00       		.byte	0x0
 385 0015 02       		.uleb128 0x2
 386 0016 24       		.uleb128 0x24
 387 0017 00       		.byte	0x0
 388 0018 0B       		.uleb128 0xb
 389 0019 0B       		.uleb128 0xb
 390 001a 3E       		.uleb128 0x3e
ARM GAS  C:\Users\SUZUKI~1\AppData\Local\Temp\ccJj3vLr.s 			page 12


 391 001b 0B       		.uleb128 0xb
 392 001c 03       		.uleb128 0x3
 393 001d 0E       		.uleb128 0xe
 394 001e 00       		.byte	0x0
 395 001f 00       		.byte	0x0
 396 0020 03       		.uleb128 0x3
 397 0021 24       		.uleb128 0x24
 398 0022 00       		.byte	0x0
 399 0023 0B       		.uleb128 0xb
 400 0024 0B       		.uleb128 0xb
 401 0025 3E       		.uleb128 0x3e
 402 0026 0B       		.uleb128 0xb
 403 0027 03       		.uleb128 0x3
 404 0028 08       		.uleb128 0x8
 405 0029 00       		.byte	0x0
 406 002a 00       		.byte	0x0
 407 002b 04       		.uleb128 0x4
 408 002c 16       		.uleb128 0x16
 409 002d 00       		.byte	0x0
 410 002e 03       		.uleb128 0x3
 411 002f 0E       		.uleb128 0xe
 412 0030 3A       		.uleb128 0x3a
 413 0031 0B       		.uleb128 0xb
 414 0032 3B       		.uleb128 0x3b
 415 0033 0B       		.uleb128 0xb
 416 0034 49       		.uleb128 0x49
 417 0035 13       		.uleb128 0x13
 418 0036 00       		.byte	0x0
 419 0037 00       		.byte	0x0
 420 0038 05       		.uleb128 0x5
 421 0039 24       		.uleb128 0x24
 422 003a 00       		.byte	0x0
 423 003b 0B       		.uleb128 0xb
 424 003c 0B       		.uleb128 0xb
 425 003d 3E       		.uleb128 0x3e
 426 003e 0B       		.uleb128 0xb
 427 003f 00       		.byte	0x0
 428 0040 00       		.byte	0x0
 429 0041 06       		.uleb128 0x6
 430 0042 13       		.uleb128 0x13
 431 0043 01       		.byte	0x1
 432 0044 03       		.uleb128 0x3
 433 0045 0E       		.uleb128 0xe
 434 0046 0B       		.uleb128 0xb
 435 0047 0B       		.uleb128 0xb
 436 0048 3A       		.uleb128 0x3a
 437 0049 0B       		.uleb128 0xb
 438 004a 3B       		.uleb128 0x3b
 439 004b 0B       		.uleb128 0xb
 440 004c 01       		.uleb128 0x1
 441 004d 13       		.uleb128 0x13
 442 004e 00       		.byte	0x0
 443 004f 00       		.byte	0x0
 444 0050 07       		.uleb128 0x7
 445 0051 0D       		.uleb128 0xd
 446 0052 00       		.byte	0x0
 447 0053 03       		.uleb128 0x3
ARM GAS  C:\Users\SUZUKI~1\AppData\Local\Temp\ccJj3vLr.s 			page 13


 448 0054 0E       		.uleb128 0xe
 449 0055 3A       		.uleb128 0x3a
 450 0056 0B       		.uleb128 0xb
 451 0057 3B       		.uleb128 0x3b
 452 0058 0B       		.uleb128 0xb
 453 0059 49       		.uleb128 0x49
 454 005a 13       		.uleb128 0x13
 455 005b 38       		.uleb128 0x38
 456 005c 0A       		.uleb128 0xa
 457 005d 00       		.byte	0x0
 458 005e 00       		.byte	0x0
 459 005f 08       		.uleb128 0x8
 460 0060 2E       		.uleb128 0x2e
 461 0061 00       		.byte	0x0
 462 0062 3F       		.uleb128 0x3f
 463 0063 0C       		.uleb128 0xc
 464 0064 03       		.uleb128 0x3
 465 0065 0E       		.uleb128 0xe
 466 0066 3A       		.uleb128 0x3a
 467 0067 0B       		.uleb128 0xb
 468 0068 3B       		.uleb128 0x3b
 469 0069 0B       		.uleb128 0xb
 470 006a 27       		.uleb128 0x27
 471 006b 0C       		.uleb128 0xc
 472 006c 11       		.uleb128 0x11
 473 006d 01       		.uleb128 0x1
 474 006e 12       		.uleb128 0x12
 475 006f 01       		.uleb128 0x1
 476 0070 40       		.uleb128 0x40
 477 0071 0A       		.uleb128 0xa
 478 0072 00       		.byte	0x0
 479 0073 00       		.byte	0x0
 480 0074 09       		.uleb128 0x9
 481 0075 2E       		.uleb128 0x2e
 482 0076 00       		.byte	0x0
 483 0077 3F       		.uleb128 0x3f
 484 0078 0C       		.uleb128 0xc
 485 0079 03       		.uleb128 0x3
 486 007a 0E       		.uleb128 0xe
 487 007b 3A       		.uleb128 0x3a
 488 007c 0B       		.uleb128 0xb
 489 007d 3B       		.uleb128 0x3b
 490 007e 0B       		.uleb128 0xb
 491 007f 27       		.uleb128 0x27
 492 0080 0C       		.uleb128 0xc
 493 0081 11       		.uleb128 0x11
 494 0082 01       		.uleb128 0x1
 495 0083 12       		.uleb128 0x12
 496 0084 01       		.uleb128 0x1
 497 0085 40       		.uleb128 0x40
 498 0086 06       		.uleb128 0x6
 499 0087 00       		.byte	0x0
 500 0088 00       		.byte	0x0
 501 0089 0A       		.uleb128 0xa
 502 008a 34       		.uleb128 0x34
 503 008b 00       		.byte	0x0
 504 008c 03       		.uleb128 0x3
ARM GAS  C:\Users\SUZUKI~1\AppData\Local\Temp\ccJj3vLr.s 			page 14


 505 008d 0E       		.uleb128 0xe
 506 008e 3A       		.uleb128 0x3a
 507 008f 0B       		.uleb128 0xb
 508 0090 3B       		.uleb128 0x3b
 509 0091 0B       		.uleb128 0xb
 510 0092 49       		.uleb128 0x49
 511 0093 13       		.uleb128 0x13
 512 0094 02       		.uleb128 0x2
 513 0095 0A       		.uleb128 0xa
 514 0096 00       		.byte	0x0
 515 0097 00       		.byte	0x0
 516 0098 00       		.byte	0x0
 517              		.section	.debug_pubnames,"",%progbits
 518 0000 64000000 		.4byte	0x64
 519 0004 0200     		.2byte	0x2
 520 0006 00000000 		.4byte	.Ldebug_info0
 521 000a 36010000 		.4byte	0x136
 522 000e D4000000 		.4byte	0xd4
 523 0012 55415254 		.ascii	"UART_TF_SaveConfig\000"
 523      5F54465F 
 523      53617665 
 523      436F6E66 
 523      696700
 524 0025 E7000000 		.4byte	0xe7
 525 0029 55415254 		.ascii	"UART_TF_RestoreConfig\000"
 525      5F54465F 
 525      52657374 
 525      6F726543 
 525      6F6E6669 
 526 003f FA000000 		.4byte	0xfa
 527 0043 55415254 		.ascii	"UART_TF_Wakeup\000"
 527      5F54465F 
 527      57616B65 
 527      757000
 528 0052 0F010000 		.4byte	0x10f
 529 0056 55415254 		.ascii	"UART_TF_Sleep\000"
 529      5F54465F 
 529      536C6565 
 529      7000
 530 0064 00000000 		.4byte	0x0
 531              		.section	.debug_aranges,"",%progbits
 532 0000 34000000 		.4byte	0x34
 533 0004 0200     		.2byte	0x2
 534 0006 00000000 		.4byte	.Ldebug_info0
 535 000a 04       		.byte	0x4
 536 000b 00       		.byte	0x0
 537 000c 0000     		.2byte	0x0
 538 000e 0000     		.2byte	0x0
 539 0010 00000000 		.4byte	.LFB0
 540 0014 1C000000 		.4byte	.LFE0-.LFB0
 541 0018 00000000 		.4byte	.LFB1
 542 001c 1C000000 		.4byte	.LFE1-.LFB1
 543 0020 00000000 		.4byte	.LFB3
 544 0024 20000000 		.4byte	.LFE3-.LFB3
 545 0028 00000000 		.4byte	.LFB2
 546 002c 28000000 		.4byte	.LFE2-.LFB2
 547 0030 00000000 		.4byte	0x0
ARM GAS  C:\Users\SUZUKI~1\AppData\Local\Temp\ccJj3vLr.s 			page 15


 548 0034 00000000 		.4byte	0x0
 549              		.section	.debug_ranges,"",%progbits
 550              	.Ldebug_ranges0:
 551 0000 00000000 		.4byte	.Ltext0
 552 0004 00000000 		.4byte	.Letext0
 553 0008 00000000 		.4byte	.LFB0
 554 000c 1C000000 		.4byte	.LFE0
 555 0010 00000000 		.4byte	.LFB1
 556 0014 1C000000 		.4byte	.LFE1
 557 0018 00000000 		.4byte	.LFB3
 558 001c 20000000 		.4byte	.LFE3
 559 0020 00000000 		.4byte	.LFB2
 560 0024 28000000 		.4byte	.LFE2
 561 0028 00000000 		.4byte	0x0
 562 002c 00000000 		.4byte	0x0
 563              		.section	.debug_str,"MS",%progbits,1
 564              	.LASF6:
 565 0000 6C6F6E67 		.ascii	"long long int\000"
 565      206C6F6E 
 565      6720696E 
 565      7400
 566              	.LASF12:
 567 000e 656E6162 		.ascii	"enableState\000"
 567      6C655374 
 567      61746500 
 568              	.LASF8:
 569 001a 756E7369 		.ascii	"unsigned int\000"
 569      676E6564 
 569      20696E74 
 569      00
 570              	.LASF23:
 571 0027 5C5C5642 		.ascii	"\\\\VBOXSVR\\PSoC_Creator\\tfexpbrd\\tfexpbrd.cydsn"
 571      4F585356 
 571      525C5053 
 571      6F435F43 
 571      72656174 
 572 0055 00       		.ascii	"\000"
 573              	.LASF18:
 574 0056 55415254 		.ascii	"UART_TF_RestoreConfig\000"
 574      5F54465F 
 574      52657374 
 574      6F726543 
 574      6F6E6669 
 575              	.LASF24:
 576 006c 55415254 		.ascii	"UART_TF_backupStruct_\000"
 576      5F54465F 
 576      6261636B 
 576      75705374 
 576      72756374 
 577              	.LASF20:
 578 0082 55415254 		.ascii	"UART_TF_Sleep\000"
 578      5F54465F 
 578      536C6565 
 578      7000
 579              	.LASF15:
 580 0090 75696E74 		.ascii	"uint8\000"
 580      3800
ARM GAS  C:\Users\SUZUKI~1\AppData\Local\Temp\ccJj3vLr.s 			page 16


 581              	.LASF5:
 582 0096 6C6F6E67 		.ascii	"long unsigned int\000"
 582      20756E73 
 582      69676E65 
 582      6420696E 
 582      7400
 583              	.LASF13:
 584 00a8 72785F70 		.ascii	"rx_period\000"
 584      6572696F 
 584      6400
 585              	.LASF7:
 586 00b2 6C6F6E67 		.ascii	"long long unsigned int\000"
 586      206C6F6E 
 586      6720756E 
 586      7369676E 
 586      65642069 
 587              	.LASF22:
 588 00c9 2E5C4765 		.ascii	".\\Generated_Source\\PSoC5\\UART_TF_PM.c\000"
 588      6E657261 
 588      7465645F 
 588      536F7572 
 588      63655C50 
 589              	.LASF21:
 590 00ef 474E5520 		.ascii	"GNU C 4.4.1\000"
 590      4320342E 
 590      342E3100 
 591              	.LASF1:
 592 00fb 756E7369 		.ascii	"unsigned char\000"
 592      676E6564 
 592      20636861 
 592      7200
 593              	.LASF25:
 594 0109 55415254 		.ascii	"UART_TF_backup\000"
 594      5F54465F 
 594      6261636B 
 594      757000
 595              	.LASF11:
 596 0118 63686172 		.ascii	"char\000"
 596      00
 597              	.LASF4:
 598 011d 6C6F6E67 		.ascii	"long int\000"
 598      20696E74 
 598      00
 599              	.LASF10:
 600 0126 646F7562 		.ascii	"double\000"
 600      6C6500
 601              	.LASF16:
 602 012d 55415254 		.ascii	"UART_TF_BACKUP_STRUCT\000"
 602      5F54465F 
 602      4241434B 
 602      55505F53 
 602      54525543 
 603              	.LASF3:
 604 0143 73686F72 		.ascii	"short unsigned int\000"
 604      7420756E 
 604      7369676E 
 604      65642069 
ARM GAS  C:\Users\SUZUKI~1\AppData\Local\Temp\ccJj3vLr.s 			page 17


 604      6E7400
 605              	.LASF0:
 606 0156 7369676E 		.ascii	"signed char\000"
 606      65642063 
 606      68617200 
 607              	.LASF14:
 608 0162 72785F6D 		.ascii	"rx_mask\000"
 608      61736B00 
 609              	.LASF17:
 610 016a 55415254 		.ascii	"UART_TF_SaveConfig\000"
 610      5F54465F 
 610      53617665 
 610      436F6E66 
 610      696700
 611              	.LASF9:
 612 017d 666C6F61 		.ascii	"float\000"
 612      7400
 613              	.LASF19:
 614 0183 55415254 		.ascii	"UART_TF_Wakeup\000"
 614      5F54465F 
 614      57616B65 
 614      757000
 615              	.LASF2:
 616 0192 73686F72 		.ascii	"short int\000"
 616      7420696E 
 616      7400
 617              		.ident	"GCC: (Sourcery G++ Lite 2010q1-188) 4.4.1"
