ARM GAS  C:\Users\SUZUKI~1\AppData\Local\Temp\ccnxPUpc.s 			page 1


   1              		.syntax unified
   2              		.cpu cortex-m3
   3              		.fpu softvfp
   4              		.eabi_attribute 20, 1
   5              		.eabi_attribute 21, 1
   6              		.eabi_attribute 23, 3
   7              		.eabi_attribute 24, 1
   8              		.eabi_attribute 25, 1
   9              		.eabi_attribute 26, 1
  10              		.eabi_attribute 30, 6
  11              		.eabi_attribute 18, 4
  12              		.thumb
  13              		.file	"buzzer_1_buzzer.c"
  14              		.section	.debug_abbrev,"",%progbits
  15              	.Ldebug_abbrev0:
  16              		.section	.debug_info,"",%progbits
  17              	.Ldebug_info0:
  18              		.section	.debug_line,"",%progbits
  19              	.Ldebug_line0:
  20 0000 C2000000 		.text
  20      02007500 
  20      00000201 
  20      FB0E0D00 
  20      01010101 
  21              	.Ltext0:
  22              		.cfi_sections	.debug_frame
  23              		.comm	buzzer_1_Chan,1,1
  24              		.comm	buzzer_1_TD,2,4
  25              		.comm	g_buzzbuf,8,4
  26              		.global	g_zero
  27              		.bss
  28              		.type	g_zero, %object
  29              		.size	g_zero, 1
  30              	g_zero:
  31 0000 00       		.space	1
  32              		.section	.text.buzzer_1_Start,"ax",%progbits
  33              		.align	2
  34              		.global	buzzer_1_Start
  35              		.thumb
  36              		.thumb_func
  37              		.type	buzzer_1_Start, %function
  38              	buzzer_1_Start:
  39              	.LFB29:
  40              		.file 1 ".\\Generated_Source\\PSoC5\\buzzer_1_buzzer.c"
   1:.\Generated_Source\PSoC5/buzzer_1_buzzer.c **** /* ========================================
   2:.\Generated_Source\PSoC5/buzzer_1_buzzer.c ****  *
   3:.\Generated_Source\PSoC5/buzzer_1_buzzer.c ****  * Copyright YOUR COMPANY, THE YEAR
   4:.\Generated_Source\PSoC5/buzzer_1_buzzer.c ****  * All Rights Reserved
   5:.\Generated_Source\PSoC5/buzzer_1_buzzer.c ****  * UNPUBLISHED, LICENSED SOFTWARE.
   6:.\Generated_Source\PSoC5/buzzer_1_buzzer.c ****  *
   7:.\Generated_Source\PSoC5/buzzer_1_buzzer.c ****  * CONFIDENTIAL AND PROPRIETARY INFORMATION
   8:.\Generated_Source\PSoC5/buzzer_1_buzzer.c ****  * WHICH IS THE PROPERTY OF your company.
   9:.\Generated_Source\PSoC5/buzzer_1_buzzer.c ****  *
  10:.\Generated_Source\PSoC5/buzzer_1_buzzer.c ****  * ========================================
  11:.\Generated_Source\PSoC5/buzzer_1_buzzer.c **** */
  12:.\Generated_Source\PSoC5/buzzer_1_buzzer.c **** 
  13:.\Generated_Source\PSoC5/buzzer_1_buzzer.c **** #include "device.h"
ARM GAS  C:\Users\SUZUKI~1\AppData\Local\Temp\ccnxPUpc.s 			page 2


  14:.\Generated_Source\PSoC5/buzzer_1_buzzer.c **** 
  15:.\Generated_Source\PSoC5/buzzer_1_buzzer.c **** /* Variable declarations for DMA_Buzzer */
  16:.\Generated_Source\PSoC5/buzzer_1_buzzer.c **** /* Move these variable declarations to the top of the function */
  17:.\Generated_Source\PSoC5/buzzer_1_buzzer.c **** uint8 buzzer_1_Chan;
  18:.\Generated_Source\PSoC5/buzzer_1_buzzer.c **** uint8 buzzer_1_TD[2];
  19:.\Generated_Source\PSoC5/buzzer_1_buzzer.c **** 
  20:.\Generated_Source\PSoC5/buzzer_1_buzzer.c **** uint8 g_buzzbuf[8];
  21:.\Generated_Source\PSoC5/buzzer_1_buzzer.c **** uint8 g_zero = 0;
  22:.\Generated_Source\PSoC5/buzzer_1_buzzer.c **** 
  23:.\Generated_Source\PSoC5/buzzer_1_buzzer.c **** void buzzer_1_Start(void)
  24:.\Generated_Source\PSoC5/buzzer_1_buzzer.c **** {
  41              		.loc 1 24 0
  42              		.cfi_startproc
  43              		@ args = 0, pretend = 0, frame = 0
  44              		@ frame_needed = 1, uses_anonymous_args = 0
  45 0000 80B5     		push	{r7, lr}
  46              	.LCFI0:
  47              		.cfi_def_cfa_offset 8
  48 0002 00AF     		add	r7, sp, #0
  49              		.cfi_offset 14, -4
  50              		.cfi_offset 7, -8
  51              	.LCFI1:
  52              		.cfi_def_cfa_register 7
  25:.\Generated_Source\PSoC5/buzzer_1_buzzer.c **** 	buzzer_1_Counter_Start();
  53              		.loc 1 25 0
  54 0004 FFF7FEFF 		bl	buzzer_1_Counter_Start
  26:.\Generated_Source\PSoC5/buzzer_1_buzzer.c **** 	
  27:.\Generated_Source\PSoC5/buzzer_1_buzzer.c **** 	/*
  28:.\Generated_Source\PSoC5/buzzer_1_buzzer.c **** 	DMA init
  29:.\Generated_Source\PSoC5/buzzer_1_buzzer.c **** 	*/
  30:.\Generated_Source\PSoC5/buzzer_1_buzzer.c **** 	buzzer_1_Chan = buzzer_1_DMA_DmaInitialize(buzzer_1_DMA_BYTES_PER_BURST,
  55              		.loc 1 30 0
  56 0008 4FF00100 		mov	r0, #1
  57 000c 4FF00101 		mov	r1, #1
  58 0010 41F6FF72 		movw	r2, #8191
  59 0014 4FF48043 		mov	r3, #16384
  60 0018 FFF7FEFF 		bl	buzzer_1_DMA_DmaInitialize
  61 001c 0346     		mov	r3, r0
  62 001e 1A46     		mov	r2, r3
  63 0020 40F20003 		movw	r3, #:lower16:buzzer_1_Chan
  64 0024 C0F20003 		movt	r3, #:upper16:buzzer_1_Chan
  65 0028 1A70     		strb	r2, [r3, #0]
  31:.\Generated_Source\PSoC5/buzzer_1_buzzer.c **** 		buzzer_1_DMA_REQUEST_PER_BURST, 
  32:.\Generated_Source\PSoC5/buzzer_1_buzzer.c **** 		HI16(buzzer_1_DMA_SRC_BASE), HI16(buzzer_1_DMA_DST_BASE));
  33:.\Generated_Source\PSoC5/buzzer_1_buzzer.c **** 	buzzer_1_TD[0] = CyDmaTdAllocate();
  66              		.loc 1 33 0
  67 002a FFF7FEFF 		bl	CyDmaTdAllocate
  68 002e 0346     		mov	r3, r0
  69 0030 1A46     		mov	r2, r3
  70 0032 40F20003 		movw	r3, #:lower16:buzzer_1_TD
  71 0036 C0F20003 		movt	r3, #:upper16:buzzer_1_TD
  72 003a 1A70     		strb	r2, [r3, #0]
  34:.\Generated_Source\PSoC5/buzzer_1_buzzer.c **** 	buzzer_1_TD[1] = CyDmaTdAllocate();
  73              		.loc 1 34 0
  74 003c FFF7FEFF 		bl	CyDmaTdAllocate
  75 0040 0346     		mov	r3, r0
  76 0042 1A46     		mov	r2, r3
ARM GAS  C:\Users\SUZUKI~1\AppData\Local\Temp\ccnxPUpc.s 			page 3


  77 0044 40F20003 		movw	r3, #:lower16:buzzer_1_TD
  78 0048 C0F20003 		movt	r3, #:upper16:buzzer_1_TD
  79 004c 5A70     		strb	r2, [r3, #1]
  35:.\Generated_Source\PSoC5/buzzer_1_buzzer.c **** 	return;
  36:.\Generated_Source\PSoC5/buzzer_1_buzzer.c **** }
  80              		.loc 1 36 0
  81 004e 80BD     		pop	{r7, pc}
  82              		.cfi_endproc
  83              	.LFE29:
  84              		.size	buzzer_1_Start, .-buzzer_1_Start
  85              		.section	.text.buzzer_1_Run,"ax",%progbits
  86              		.align	2
  87              		.global	buzzer_1_Run
  88              		.thumb
  89              		.thumb_func
  90              		.type	buzzer_1_Run, %function
  91              	buzzer_1_Run:
  92              	.LFB30:
  37:.\Generated_Source\PSoC5/buzzer_1_buzzer.c **** 
  38:.\Generated_Source\PSoC5/buzzer_1_buzzer.c **** 
  39:.\Generated_Source\PSoC5/buzzer_1_buzzer.c **** void buzzer_1_Run(uint8 config, uint8 loop)
  40:.\Generated_Source\PSoC5/buzzer_1_buzzer.c **** {
  93              		.loc 1 40 0
  94              		.cfi_startproc
  95              		@ args = 0, pretend = 0, frame = 16
  96              		@ frame_needed = 1, uses_anonymous_args = 0
  97 0000 80B5     		push	{r7, lr}
  98              	.LCFI2:
  99              		.cfi_def_cfa_offset 8
 100 0002 84B0     		sub	sp, sp, #16
 101              	.LCFI3:
 102              		.cfi_def_cfa_offset 24
 103 0004 00AF     		add	r7, sp, #0
 104              		.cfi_offset 14, -4
 105              		.cfi_offset 7, -8
 106              	.LCFI4:
 107              		.cfi_def_cfa_register 7
 108 0006 0246     		mov	r2, r0
 109 0008 0B46     		mov	r3, r1
 110 000a FA71     		strb	r2, [r7, #7]
 111 000c BB71     		strb	r3, [r7, #6]
  41:.\Generated_Source\PSoC5/buzzer_1_buzzer.c **** 	int i;
  42:.\Generated_Source\PSoC5/buzzer_1_buzzer.c **** 	CyDmaChDisable(buzzer_1_Chan);
 112              		.loc 1 42 0
 113 000e 40F20003 		movw	r3, #:lower16:buzzer_1_Chan
 114 0012 C0F20003 		movt	r3, #:upper16:buzzer_1_Chan
 115 0016 1B78     		ldrb	r3, [r3, #0]	@ zero_extendqisi2
 116 0018 1846     		mov	r0, r3
 117 001a FFF7FEFF 		bl	CyDmaChDisable
  43:.\Generated_Source\PSoC5/buzzer_1_buzzer.c **** 	CyDmaClearPendingDrq(buzzer_1_Chan);
 118              		.loc 1 43 0
 119 001e 40F20003 		movw	r3, #:lower16:buzzer_1_Chan
 120 0022 C0F20003 		movt	r3, #:upper16:buzzer_1_Chan
 121 0026 1B78     		ldrb	r3, [r3, #0]	@ zero_extendqisi2
 122 0028 1846     		mov	r0, r3
 123 002a FFF7FEFF 		bl	CyDmaClearPendingDrq
  44:.\Generated_Source\PSoC5/buzzer_1_buzzer.c **** 	for(i = 0; i < 8; i++) {
ARM GAS  C:\Users\SUZUKI~1\AppData\Local\Temp\ccnxPUpc.s 			page 4


 124              		.loc 1 44 0
 125 002e 4FF00003 		mov	r3, #0
 126 0032 FB60     		str	r3, [r7, #12]
 127 0034 16E0     		b	.L4
 128              	.L7:
  45:.\Generated_Source\PSoC5/buzzer_1_buzzer.c **** 		g_buzzbuf[i] = (config&0x80) ? 0xff : 0;
 129              		.loc 1 45 0
 130 0036 F968     		ldr	r1, [r7, #12]
 131 0038 FB79     		ldrb	r3, [r7, #7]	@ zero_extendqisi2
 132 003a 5BB2     		sxtb	r3, r3
 133 003c 002B     		cmp	r3, #0
 134 003e 02DA     		bge	.L5
 135 0040 4FF0FF02 		mov	r2, #255
 136 0044 01E0     		b	.L6
 137              	.L5:
 138 0046 4FF00002 		mov	r2, #0
 139              	.L6:
 140 004a 40F20003 		movw	r3, #:lower16:g_buzzbuf
 141 004e C0F20003 		movt	r3, #:upper16:g_buzzbuf
 142 0052 5A54     		strb	r2, [r3, r1]
  46:.\Generated_Source\PSoC5/buzzer_1_buzzer.c **** 		config<<=1;
 143              		.loc 1 46 0
 144 0054 FB79     		ldrb	r3, [r7, #7]
 145 0056 4FEA4303 		lsl	r3, r3, #1
 146 005a FB71     		strb	r3, [r7, #7]
 147              		.loc 1 44 0
 148 005c FB68     		ldr	r3, [r7, #12]
 149 005e 03F10103 		add	r3, r3, #1
 150 0062 FB60     		str	r3, [r7, #12]
 151              	.L4:
 152 0064 FB68     		ldr	r3, [r7, #12]
 153 0066 072B     		cmp	r3, #7
 154 0068 E5DD     		ble	.L7
  47:.\Generated_Source\PSoC5/buzzer_1_buzzer.c **** 	}
  48:.\Generated_Source\PSoC5/buzzer_1_buzzer.c **** 	if(loop == buzzer_1_CONTINUOUS) {
 155              		.loc 1 48 0
 156 006a BB79     		ldrb	r3, [r7, #6]	@ zero_extendqisi2
 157 006c 012B     		cmp	r3, #1
 158 006e 12D1     		bne	.L8
  49:.\Generated_Source\PSoC5/buzzer_1_buzzer.c **** 		CyDmaTdSetConfiguration(buzzer_1_TD[0], 8, buzzer_1_TD[0], TD_INC_SRC_ADR/* | TD_AUTO_EXEC_NEXT*/
 159              		.loc 1 49 0
 160 0070 40F20003 		movw	r3, #:lower16:buzzer_1_TD
 161 0074 C0F20003 		movt	r3, #:upper16:buzzer_1_TD
 162 0078 1A78     		ldrb	r2, [r3, #0]	@ zero_extendqisi2
 163 007a 40F20003 		movw	r3, #:lower16:buzzer_1_TD
 164 007e C0F20003 		movt	r3, #:upper16:buzzer_1_TD
 165 0082 1B78     		ldrb	r3, [r3, #0]	@ zero_extendqisi2
 166 0084 1046     		mov	r0, r2
 167 0086 4FF00801 		mov	r1, #8
 168 008a 1A46     		mov	r2, r3
 169 008c 4FF00103 		mov	r3, #1
 170 0090 FFF7FEFF 		bl	CyDmaTdSetConfiguration
 171 0094 11E0     		b	.L9
 172              	.L8:
  50:.\Generated_Source\PSoC5/buzzer_1_buzzer.c **** 	} else {
  51:.\Generated_Source\PSoC5/buzzer_1_buzzer.c **** 		CyDmaTdSetConfiguration(buzzer_1_TD[0], 8, buzzer_1_TD[1], TD_INC_SRC_ADR/* | TD_AUTO_EXEC_NEXT*/
 173              		.loc 1 51 0
ARM GAS  C:\Users\SUZUKI~1\AppData\Local\Temp\ccnxPUpc.s 			page 5


 174 0096 40F20003 		movw	r3, #:lower16:buzzer_1_TD
 175 009a C0F20003 		movt	r3, #:upper16:buzzer_1_TD
 176 009e 1A78     		ldrb	r2, [r3, #0]	@ zero_extendqisi2
 177 00a0 40F20003 		movw	r3, #:lower16:buzzer_1_TD
 178 00a4 C0F20003 		movt	r3, #:upper16:buzzer_1_TD
 179 00a8 5B78     		ldrb	r3, [r3, #1]	@ zero_extendqisi2
 180 00aa 1046     		mov	r0, r2
 181 00ac 4FF00801 		mov	r1, #8
 182 00b0 1A46     		mov	r2, r3
 183 00b2 4FF00103 		mov	r3, #1
 184 00b6 FFF7FEFF 		bl	CyDmaTdSetConfiguration
 185              	.L9:
  52:.\Generated_Source\PSoC5/buzzer_1_buzzer.c **** 	}
  53:.\Generated_Source\PSoC5/buzzer_1_buzzer.c **** 	CyDmaTdSetConfiguration(buzzer_1_TD[1], 1, buzzer_1_TD[1], TD_INC_SRC_ADR/* | TD_AUTO_EXEC_NEXT*/)
 186              		.loc 1 53 0
 187 00ba 40F20003 		movw	r3, #:lower16:buzzer_1_TD
 188 00be C0F20003 		movt	r3, #:upper16:buzzer_1_TD
 189 00c2 5A78     		ldrb	r2, [r3, #1]	@ zero_extendqisi2
 190 00c4 40F20003 		movw	r3, #:lower16:buzzer_1_TD
 191 00c8 C0F20003 		movt	r3, #:upper16:buzzer_1_TD
 192 00cc 5B78     		ldrb	r3, [r3, #1]	@ zero_extendqisi2
 193 00ce 1046     		mov	r0, r2
 194 00d0 4FF00101 		mov	r1, #1
 195 00d4 1A46     		mov	r2, r3
 196 00d6 4FF00103 		mov	r3, #1
 197 00da FFF7FEFF 		bl	CyDmaTdSetConfiguration
  54:.\Generated_Source\PSoC5/buzzer_1_buzzer.c **** 	CyDmaTdSetAddress(buzzer_1_TD[0], LO16((uint32)g_buzzbuf), LO16((uint32)buzzer_1_Control_Reg_Contr
 198              		.loc 1 54 0
 199 00de 40F20003 		movw	r3, #:lower16:buzzer_1_TD
 200 00e2 C0F20003 		movt	r3, #:upper16:buzzer_1_TD
 201 00e6 1A78     		ldrb	r2, [r3, #0]	@ zero_extendqisi2
 202 00e8 40F20003 		movw	r3, #:lower16:g_buzzbuf
 203 00ec C0F20003 		movt	r3, #:upper16:g_buzzbuf
 204 00f0 9BB2     		uxth	r3, r3
 205 00f2 1046     		mov	r0, r2
 206 00f4 1946     		mov	r1, r3
 207 00f6 46F27842 		movw	r2, #25720
 208 00fa FFF7FEFF 		bl	CyDmaTdSetAddress
  55:.\Generated_Source\PSoC5/buzzer_1_buzzer.c **** 	CyDmaTdSetAddress(buzzer_1_TD[1], LO16((uint32)g_zero), LO16((uint32)buzzer_1_Control_Reg_Control_
 209              		.loc 1 55 0
 210 00fe 40F20003 		movw	r3, #:lower16:buzzer_1_TD
 211 0102 C0F20003 		movt	r3, #:upper16:buzzer_1_TD
 212 0106 5A78     		ldrb	r2, [r3, #1]	@ zero_extendqisi2
 213 0108 40F20003 		movw	r3, #:lower16:g_zero
 214 010c C0F20003 		movt	r3, #:upper16:g_zero
 215 0110 1B78     		ldrb	r3, [r3, #0]	@ zero_extendqisi2
 216 0112 1046     		mov	r0, r2
 217 0114 1946     		mov	r1, r3
 218 0116 46F27842 		movw	r2, #25720
 219 011a FFF7FEFF 		bl	CyDmaTdSetAddress
  56:.\Generated_Source\PSoC5/buzzer_1_buzzer.c **** 	CyDmaChSetInitialTd(buzzer_1_Chan, buzzer_1_TD[0]);
 220              		.loc 1 56 0
 221 011e 40F20003 		movw	r3, #:lower16:buzzer_1_Chan
 222 0122 C0F20003 		movt	r3, #:upper16:buzzer_1_Chan
 223 0126 1A78     		ldrb	r2, [r3, #0]	@ zero_extendqisi2
 224 0128 40F20003 		movw	r3, #:lower16:buzzer_1_TD
 225 012c C0F20003 		movt	r3, #:upper16:buzzer_1_TD
ARM GAS  C:\Users\SUZUKI~1\AppData\Local\Temp\ccnxPUpc.s 			page 6


 226 0130 1B78     		ldrb	r3, [r3, #0]	@ zero_extendqisi2
 227 0132 1046     		mov	r0, r2
 228 0134 1946     		mov	r1, r3
 229 0136 FFF7FEFF 		bl	CyDmaChSetInitialTd
  57:.\Generated_Source\PSoC5/buzzer_1_buzzer.c **** 	CyDmaChEnable(buzzer_1_Chan, 1);
 230              		.loc 1 57 0
 231 013a 40F20003 		movw	r3, #:lower16:buzzer_1_Chan
 232 013e C0F20003 		movt	r3, #:upper16:buzzer_1_Chan
 233 0142 1B78     		ldrb	r3, [r3, #0]	@ zero_extendqisi2
 234 0144 1846     		mov	r0, r3
 235 0146 4FF00101 		mov	r1, #1
 236 014a FFF7FEFF 		bl	CyDmaChEnable
  58:.\Generated_Source\PSoC5/buzzer_1_buzzer.c **** 	return;
  59:.\Generated_Source\PSoC5/buzzer_1_buzzer.c **** }
 237              		.loc 1 59 0
 238 014e 07F11007 		add	r7, r7, #16
 239 0152 BD46     		mov	sp, r7
 240 0154 80BD     		pop	{r7, pc}
 241              		.cfi_endproc
 242              	.LFE30:
 243              		.size	buzzer_1_Run, .-buzzer_1_Run
 244 0156 00BF     		.section	.text.buzzer_1_Stop,"ax",%progbits
 245              		.align	2
 246              		.global	buzzer_1_Stop
 247              		.thumb
 248              		.thumb_func
 249              		.type	buzzer_1_Stop, %function
 250              	buzzer_1_Stop:
 251              	.LFB31:
  60:.\Generated_Source\PSoC5/buzzer_1_buzzer.c **** 
  61:.\Generated_Source\PSoC5/buzzer_1_buzzer.c **** 
  62:.\Generated_Source\PSoC5/buzzer_1_buzzer.c **** void buzzer_1_Stop(void)
  63:.\Generated_Source\PSoC5/buzzer_1_buzzer.c **** {
 252              		.loc 1 63 0
 253              		.cfi_startproc
 254              		@ args = 0, pretend = 0, frame = 0
 255              		@ frame_needed = 1, uses_anonymous_args = 0
 256 0000 80B5     		push	{r7, lr}
 257              	.LCFI5:
 258              		.cfi_def_cfa_offset 8
 259 0002 00AF     		add	r7, sp, #0
 260              		.cfi_offset 14, -4
 261              		.cfi_offset 7, -8
 262              	.LCFI6:
 263              		.cfi_def_cfa_register 7
  64:.\Generated_Source\PSoC5/buzzer_1_buzzer.c **** 	buzzer_1_Counter_Stop();
 264              		.loc 1 64 0
 265 0004 FFF7FEFF 		bl	buzzer_1_Counter_Stop
  65:.\Generated_Source\PSoC5/buzzer_1_buzzer.c **** 	return;
  66:.\Generated_Source\PSoC5/buzzer_1_buzzer.c **** }
 266              		.loc 1 66 0
 267 0008 80BD     		pop	{r7, pc}
 268              		.cfi_endproc
 269              	.LFE31:
 270              		.size	buzzer_1_Stop, .-buzzer_1_Stop
 271 000a 00BF     		.text
 272              	.Letext0:
ARM GAS  C:\Users\SUZUKI~1\AppData\Local\Temp\ccnxPUpc.s 			page 7


 273              		.section	.debug_loc,"",%progbits
 274              	.Ldebug_loc0:
 275              	.LLST0:
 276 0000 00000000 		.4byte	.LFB29
 277 0004 02000000 		.4byte	.LCFI0
 278 0008 0100     		.2byte	0x1
 279 000a 5D       		.byte	0x5d
 280 000b 02000000 		.4byte	.LCFI0
 281 000f 04000000 		.4byte	.LCFI1
 282 0013 0200     		.2byte	0x2
 283 0015 7D       		.byte	0x7d
 284 0016 08       		.sleb128 8
 285 0017 04000000 		.4byte	.LCFI1
 286 001b 50000000 		.4byte	.LFE29
 287 001f 0200     		.2byte	0x2
 288 0021 77       		.byte	0x77
 289 0022 08       		.sleb128 8
 290 0023 00000000 		.4byte	0x0
 291 0027 00000000 		.4byte	0x0
 292              	.LLST1:
 293 002b 00000000 		.4byte	.LFB30
 294 002f 02000000 		.4byte	.LCFI2
 295 0033 0100     		.2byte	0x1
 296 0035 5D       		.byte	0x5d
 297 0036 02000000 		.4byte	.LCFI2
 298 003a 04000000 		.4byte	.LCFI3
 299 003e 0200     		.2byte	0x2
 300 0040 7D       		.byte	0x7d
 301 0041 08       		.sleb128 8
 302 0042 04000000 		.4byte	.LCFI3
 303 0046 06000000 		.4byte	.LCFI4
 304 004a 0200     		.2byte	0x2
 305 004c 7D       		.byte	0x7d
 306 004d 18       		.sleb128 24
 307 004e 06000000 		.4byte	.LCFI4
 308 0052 56010000 		.4byte	.LFE30
 309 0056 0200     		.2byte	0x2
 310 0058 77       		.byte	0x77
 311 0059 18       		.sleb128 24
 312 005a 00000000 		.4byte	0x0
 313 005e 00000000 		.4byte	0x0
 314              	.LLST2:
 315 0062 00000000 		.4byte	.LFB31
 316 0066 02000000 		.4byte	.LCFI5
 317 006a 0100     		.2byte	0x1
 318 006c 5D       		.byte	0x5d
 319 006d 02000000 		.4byte	.LCFI5
 320 0071 04000000 		.4byte	.LCFI6
 321 0075 0200     		.2byte	0x2
 322 0077 7D       		.byte	0x7d
 323 0078 08       		.sleb128 8
 324 0079 04000000 		.4byte	.LCFI6
 325 007d 0A000000 		.4byte	.LFE31
 326 0081 0200     		.2byte	0x2
 327 0083 77       		.byte	0x77
 328 0084 08       		.sleb128 8
 329 0085 00000000 		.4byte	0x0
ARM GAS  C:\Users\SUZUKI~1\AppData\Local\Temp\ccnxPUpc.s 			page 8


 330 0089 00000000 		.4byte	0x0
 331              		.file 2 "./Generated_Source/PSoC5/core_cm3.h"
 332              		.file 3 "./Generated_Source/PSoC5/cytypes.h"
 333              		.section	.debug_info
 334 0000 76010000 		.4byte	0x176
 335 0004 0200     		.2byte	0x2
 336 0006 00000000 		.4byte	.Ldebug_abbrev0
 337 000a 04       		.byte	0x4
 338 000b 01       		.uleb128 0x1
 339 000c C5000000 		.4byte	.LASF21
 340 0010 01       		.byte	0x1
 341 0011 74000000 		.4byte	.LASF22
 342 0015 3C000000 		.4byte	.LASF23
 343 0019 00000000 		.4byte	0x0
 344 001d 00000000 		.4byte	0x0
 345 0021 00000000 		.4byte	.Ldebug_ranges0+0x0
 346 0025 00000000 		.4byte	.Ldebug_line0
 347 0029 02       		.uleb128 0x2
 348 002a 01       		.byte	0x1
 349 002b 06       		.byte	0x6
 350 002c 38010000 		.4byte	.LASF0
 351 0030 02       		.uleb128 0x2
 352 0031 01       		.byte	0x1
 353 0032 08       		.byte	0x8
 354 0033 2E000000 		.4byte	.LASF1
 355 0037 02       		.uleb128 0x2
 356 0038 02       		.byte	0x2
 357 0039 05       		.byte	0x5
 358 003a 4F010000 		.4byte	.LASF2
 359 003e 02       		.uleb128 0x2
 360 003f 02       		.byte	0x2
 361 0040 07       		.byte	0x7
 362 0041 0E000000 		.4byte	.LASF3
 363 0045 02       		.uleb128 0x2
 364 0046 04       		.byte	0x4
 365 0047 05       		.byte	0x5
 366 0048 DD000000 		.4byte	.LASF4
 367 004c 02       		.uleb128 0x2
 368 004d 04       		.byte	0x4
 369 004e 07       		.byte	0x7
 370 004f FB000000 		.4byte	.LASF5
 371 0053 02       		.uleb128 0x2
 372 0054 08       		.byte	0x8
 373 0055 05       		.byte	0x5
 374 0056 00000000 		.4byte	.LASF6
 375 005a 02       		.uleb128 0x2
 376 005b 08       		.byte	0x8
 377 005c 07       		.byte	0x7
 378 005d 9F000000 		.4byte	.LASF7
 379 0061 03       		.uleb128 0x3
 380 0062 04       		.byte	0x4
 381 0063 05       		.byte	0x5
 382 0064 696E7400 		.ascii	"int\000"
 383 0068 02       		.uleb128 0x2
 384 0069 04       		.byte	0x4
 385 006a 07       		.byte	0x7
 386 006b 21000000 		.4byte	.LASF8
ARM GAS  C:\Users\SUZUKI~1\AppData\Local\Temp\ccnxPUpc.s 			page 9


 387 006f 04       		.uleb128 0x4
 388 0070 6E000000 		.4byte	.LASF24
 389 0074 03       		.byte	0x3
 390 0075 4C       		.byte	0x4c
 391 0076 30000000 		.4byte	0x30
 392 007a 02       		.uleb128 0x2
 393 007b 04       		.byte	0x4
 394 007c 04       		.byte	0x4
 395 007d 44010000 		.4byte	.LASF9
 396 0081 02       		.uleb128 0x2
 397 0082 08       		.byte	0x8
 398 0083 04       		.byte	0x4
 399 0084 F4000000 		.4byte	.LASF10
 400 0088 02       		.uleb128 0x2
 401 0089 01       		.byte	0x1
 402 008a 08       		.byte	0x8
 403 008b D8000000 		.4byte	.LASF11
 404 008f 05       		.uleb128 0x5
 405 0090 04       		.byte	0x4
 406 0091 07       		.byte	0x7
 407 0092 06       		.uleb128 0x6
 408 0093 01       		.byte	0x1
 409 0094 B6000000 		.4byte	.LASF14
 410 0098 01       		.byte	0x1
 411 0099 17       		.byte	0x17
 412 009a 01       		.byte	0x1
 413 009b 00000000 		.4byte	.LFB29
 414 009f 50000000 		.4byte	.LFE29
 415 00a3 00000000 		.4byte	.LLST0
 416 00a7 07       		.uleb128 0x7
 417 00a8 01       		.byte	0x1
 418 00a9 0D010000 		.4byte	.LASF25
 419 00ad 01       		.byte	0x1
 420 00ae 27       		.byte	0x27
 421 00af 01       		.byte	0x1
 422 00b0 00000000 		.4byte	.LFB30
 423 00b4 56010000 		.4byte	.LFE30
 424 00b8 2B000000 		.4byte	.LLST1
 425 00bc E9000000 		.4byte	0xe9
 426 00c0 08       		.uleb128 0x8
 427 00c1 D1000000 		.4byte	.LASF12
 428 00c5 01       		.byte	0x1
 429 00c6 27       		.byte	0x27
 430 00c7 6F000000 		.4byte	0x6f
 431 00cb 02       		.byte	0x2
 432 00cc 91       		.byte	0x91
 433 00cd 6F       		.sleb128 -17
 434 00ce 08       		.uleb128 0x8
 435 00cf 4A010000 		.4byte	.LASF13
 436 00d3 01       		.byte	0x1
 437 00d4 27       		.byte	0x27
 438 00d5 6F000000 		.4byte	0x6f
 439 00d9 02       		.byte	0x2
 440 00da 91       		.byte	0x91
 441 00db 6E       		.sleb128 -18
 442 00dc 09       		.uleb128 0x9
 443 00dd 6900     		.ascii	"i\000"
ARM GAS  C:\Users\SUZUKI~1\AppData\Local\Temp\ccnxPUpc.s 			page 10


 444 00df 01       		.byte	0x1
 445 00e0 29       		.byte	0x29
 446 00e1 61000000 		.4byte	0x61
 447 00e5 02       		.byte	0x2
 448 00e6 91       		.byte	0x91
 449 00e7 74       		.sleb128 -12
 450 00e8 00       		.byte	0x0
 451 00e9 06       		.uleb128 0x6
 452 00ea 01       		.byte	0x1
 453 00eb E6000000 		.4byte	.LASF15
 454 00ef 01       		.byte	0x1
 455 00f0 3E       		.byte	0x3e
 456 00f1 01       		.byte	0x1
 457 00f2 00000000 		.4byte	.LFB31
 458 00f6 0A000000 		.4byte	.LFE31
 459 00fa 62000000 		.4byte	.LLST2
 460 00fe 0A       		.uleb128 0xa
 461 00ff 2B010000 		.4byte	.LASF16
 462 0103 02       		.byte	0x2
 463 0104 CE06     		.2byte	0x6ce
 464 0106 0C010000 		.4byte	0x10c
 465 010a 01       		.byte	0x1
 466 010b 01       		.byte	0x1
 467 010c 0B       		.uleb128 0xb
 468 010d 61000000 		.4byte	0x61
 469 0111 0C       		.uleb128 0xc
 470 0112 59010000 		.4byte	.LASF17
 471 0116 01       		.byte	0x1
 472 0117 11       		.byte	0x11
 473 0118 6F000000 		.4byte	0x6f
 474 011c 01       		.byte	0x1
 475 011d 05       		.byte	0x5
 476 011e 03       		.byte	0x3
 477 011f 00000000 		.4byte	buzzer_1_Chan
 478 0123 0D       		.uleb128 0xd
 479 0124 6F000000 		.4byte	0x6f
 480 0128 33010000 		.4byte	0x133
 481 012c 0E       		.uleb128 0xe
 482 012d 8F000000 		.4byte	0x8f
 483 0131 01       		.byte	0x1
 484 0132 00       		.byte	0x0
 485 0133 0C       		.uleb128 0xc
 486 0134 67010000 		.4byte	.LASF18
 487 0138 01       		.byte	0x1
 488 0139 12       		.byte	0x12
 489 013a 23010000 		.4byte	0x123
 490 013e 01       		.byte	0x1
 491 013f 05       		.byte	0x5
 492 0140 03       		.byte	0x3
 493 0141 00000000 		.4byte	buzzer_1_TD
 494 0145 0D       		.uleb128 0xd
 495 0146 6F000000 		.4byte	0x6f
 496 014a 55010000 		.4byte	0x155
 497 014e 0E       		.uleb128 0xe
 498 014f 8F000000 		.4byte	0x8f
 499 0153 07       		.byte	0x7
 500 0154 00       		.byte	0x0
ARM GAS  C:\Users\SUZUKI~1\AppData\Local\Temp\ccnxPUpc.s 			page 11


 501 0155 0C       		.uleb128 0xc
 502 0156 1A010000 		.4byte	.LASF19
 503 015a 01       		.byte	0x1
 504 015b 14       		.byte	0x14
 505 015c 45010000 		.4byte	0x145
 506 0160 01       		.byte	0x1
 507 0161 05       		.byte	0x5
 508 0162 03       		.byte	0x3
 509 0163 00000000 		.4byte	g_buzzbuf
 510 0167 0C       		.uleb128 0xc
 511 0168 24010000 		.4byte	.LASF20
 512 016c 01       		.byte	0x1
 513 016d 15       		.byte	0x15
 514 016e 6F000000 		.4byte	0x6f
 515 0172 01       		.byte	0x1
 516 0173 05       		.byte	0x5
 517 0174 03       		.byte	0x3
 518 0175 00000000 		.4byte	g_zero
 519 0179 00       		.byte	0x0
 520              		.section	.debug_abbrev
 521 0000 01       		.uleb128 0x1
 522 0001 11       		.uleb128 0x11
 523 0002 01       		.byte	0x1
 524 0003 25       		.uleb128 0x25
 525 0004 0E       		.uleb128 0xe
 526 0005 13       		.uleb128 0x13
 527 0006 0B       		.uleb128 0xb
 528 0007 03       		.uleb128 0x3
 529 0008 0E       		.uleb128 0xe
 530 0009 1B       		.uleb128 0x1b
 531 000a 0E       		.uleb128 0xe
 532 000b 11       		.uleb128 0x11
 533 000c 01       		.uleb128 0x1
 534 000d 52       		.uleb128 0x52
 535 000e 01       		.uleb128 0x1
 536 000f 55       		.uleb128 0x55
 537 0010 06       		.uleb128 0x6
 538 0011 10       		.uleb128 0x10
 539 0012 06       		.uleb128 0x6
 540 0013 00       		.byte	0x0
 541 0014 00       		.byte	0x0
 542 0015 02       		.uleb128 0x2
 543 0016 24       		.uleb128 0x24
 544 0017 00       		.byte	0x0
 545 0018 0B       		.uleb128 0xb
 546 0019 0B       		.uleb128 0xb
 547 001a 3E       		.uleb128 0x3e
 548 001b 0B       		.uleb128 0xb
 549 001c 03       		.uleb128 0x3
 550 001d 0E       		.uleb128 0xe
 551 001e 00       		.byte	0x0
 552 001f 00       		.byte	0x0
 553 0020 03       		.uleb128 0x3
 554 0021 24       		.uleb128 0x24
 555 0022 00       		.byte	0x0
 556 0023 0B       		.uleb128 0xb
 557 0024 0B       		.uleb128 0xb
ARM GAS  C:\Users\SUZUKI~1\AppData\Local\Temp\ccnxPUpc.s 			page 12


 558 0025 3E       		.uleb128 0x3e
 559 0026 0B       		.uleb128 0xb
 560 0027 03       		.uleb128 0x3
 561 0028 08       		.uleb128 0x8
 562 0029 00       		.byte	0x0
 563 002a 00       		.byte	0x0
 564 002b 04       		.uleb128 0x4
 565 002c 16       		.uleb128 0x16
 566 002d 00       		.byte	0x0
 567 002e 03       		.uleb128 0x3
 568 002f 0E       		.uleb128 0xe
 569 0030 3A       		.uleb128 0x3a
 570 0031 0B       		.uleb128 0xb
 571 0032 3B       		.uleb128 0x3b
 572 0033 0B       		.uleb128 0xb
 573 0034 49       		.uleb128 0x49
 574 0035 13       		.uleb128 0x13
 575 0036 00       		.byte	0x0
 576 0037 00       		.byte	0x0
 577 0038 05       		.uleb128 0x5
 578 0039 24       		.uleb128 0x24
 579 003a 00       		.byte	0x0
 580 003b 0B       		.uleb128 0xb
 581 003c 0B       		.uleb128 0xb
 582 003d 3E       		.uleb128 0x3e
 583 003e 0B       		.uleb128 0xb
 584 003f 00       		.byte	0x0
 585 0040 00       		.byte	0x0
 586 0041 06       		.uleb128 0x6
 587 0042 2E       		.uleb128 0x2e
 588 0043 00       		.byte	0x0
 589 0044 3F       		.uleb128 0x3f
 590 0045 0C       		.uleb128 0xc
 591 0046 03       		.uleb128 0x3
 592 0047 0E       		.uleb128 0xe
 593 0048 3A       		.uleb128 0x3a
 594 0049 0B       		.uleb128 0xb
 595 004a 3B       		.uleb128 0x3b
 596 004b 0B       		.uleb128 0xb
 597 004c 27       		.uleb128 0x27
 598 004d 0C       		.uleb128 0xc
 599 004e 11       		.uleb128 0x11
 600 004f 01       		.uleb128 0x1
 601 0050 12       		.uleb128 0x12
 602 0051 01       		.uleb128 0x1
 603 0052 40       		.uleb128 0x40
 604 0053 06       		.uleb128 0x6
 605 0054 00       		.byte	0x0
 606 0055 00       		.byte	0x0
 607 0056 07       		.uleb128 0x7
 608 0057 2E       		.uleb128 0x2e
 609 0058 01       		.byte	0x1
 610 0059 3F       		.uleb128 0x3f
 611 005a 0C       		.uleb128 0xc
 612 005b 03       		.uleb128 0x3
 613 005c 0E       		.uleb128 0xe
 614 005d 3A       		.uleb128 0x3a
ARM GAS  C:\Users\SUZUKI~1\AppData\Local\Temp\ccnxPUpc.s 			page 13


 615 005e 0B       		.uleb128 0xb
 616 005f 3B       		.uleb128 0x3b
 617 0060 0B       		.uleb128 0xb
 618 0061 27       		.uleb128 0x27
 619 0062 0C       		.uleb128 0xc
 620 0063 11       		.uleb128 0x11
 621 0064 01       		.uleb128 0x1
 622 0065 12       		.uleb128 0x12
 623 0066 01       		.uleb128 0x1
 624 0067 40       		.uleb128 0x40
 625 0068 06       		.uleb128 0x6
 626 0069 01       		.uleb128 0x1
 627 006a 13       		.uleb128 0x13
 628 006b 00       		.byte	0x0
 629 006c 00       		.byte	0x0
 630 006d 08       		.uleb128 0x8
 631 006e 05       		.uleb128 0x5
 632 006f 00       		.byte	0x0
 633 0070 03       		.uleb128 0x3
 634 0071 0E       		.uleb128 0xe
 635 0072 3A       		.uleb128 0x3a
 636 0073 0B       		.uleb128 0xb
 637 0074 3B       		.uleb128 0x3b
 638 0075 0B       		.uleb128 0xb
 639 0076 49       		.uleb128 0x49
 640 0077 13       		.uleb128 0x13
 641 0078 02       		.uleb128 0x2
 642 0079 0A       		.uleb128 0xa
 643 007a 00       		.byte	0x0
 644 007b 00       		.byte	0x0
 645 007c 09       		.uleb128 0x9
 646 007d 34       		.uleb128 0x34
 647 007e 00       		.byte	0x0
 648 007f 03       		.uleb128 0x3
 649 0080 08       		.uleb128 0x8
 650 0081 3A       		.uleb128 0x3a
 651 0082 0B       		.uleb128 0xb
 652 0083 3B       		.uleb128 0x3b
 653 0084 0B       		.uleb128 0xb
 654 0085 49       		.uleb128 0x49
 655 0086 13       		.uleb128 0x13
 656 0087 02       		.uleb128 0x2
 657 0088 0A       		.uleb128 0xa
 658 0089 00       		.byte	0x0
 659 008a 00       		.byte	0x0
 660 008b 0A       		.uleb128 0xa
 661 008c 34       		.uleb128 0x34
 662 008d 00       		.byte	0x0
 663 008e 03       		.uleb128 0x3
 664 008f 0E       		.uleb128 0xe
 665 0090 3A       		.uleb128 0x3a
 666 0091 0B       		.uleb128 0xb
 667 0092 3B       		.uleb128 0x3b
 668 0093 05       		.uleb128 0x5
 669 0094 49       		.uleb128 0x49
 670 0095 13       		.uleb128 0x13
 671 0096 3F       		.uleb128 0x3f
ARM GAS  C:\Users\SUZUKI~1\AppData\Local\Temp\ccnxPUpc.s 			page 14


 672 0097 0C       		.uleb128 0xc
 673 0098 3C       		.uleb128 0x3c
 674 0099 0C       		.uleb128 0xc
 675 009a 00       		.byte	0x0
 676 009b 00       		.byte	0x0
 677 009c 0B       		.uleb128 0xb
 678 009d 35       		.uleb128 0x35
 679 009e 00       		.byte	0x0
 680 009f 49       		.uleb128 0x49
 681 00a0 13       		.uleb128 0x13
 682 00a1 00       		.byte	0x0
 683 00a2 00       		.byte	0x0
 684 00a3 0C       		.uleb128 0xc
 685 00a4 34       		.uleb128 0x34
 686 00a5 00       		.byte	0x0
 687 00a6 03       		.uleb128 0x3
 688 00a7 0E       		.uleb128 0xe
 689 00a8 3A       		.uleb128 0x3a
 690 00a9 0B       		.uleb128 0xb
 691 00aa 3B       		.uleb128 0x3b
 692 00ab 0B       		.uleb128 0xb
 693 00ac 49       		.uleb128 0x49
 694 00ad 13       		.uleb128 0x13
 695 00ae 3F       		.uleb128 0x3f
 696 00af 0C       		.uleb128 0xc
 697 00b0 02       		.uleb128 0x2
 698 00b1 0A       		.uleb128 0xa
 699 00b2 00       		.byte	0x0
 700 00b3 00       		.byte	0x0
 701 00b4 0D       		.uleb128 0xd
 702 00b5 01       		.uleb128 0x1
 703 00b6 01       		.byte	0x1
 704 00b7 49       		.uleb128 0x49
 705 00b8 13       		.uleb128 0x13
 706 00b9 01       		.uleb128 0x1
 707 00ba 13       		.uleb128 0x13
 708 00bb 00       		.byte	0x0
 709 00bc 00       		.byte	0x0
 710 00bd 0E       		.uleb128 0xe
 711 00be 21       		.uleb128 0x21
 712 00bf 00       		.byte	0x0
 713 00c0 49       		.uleb128 0x49
 714 00c1 13       		.uleb128 0x13
 715 00c2 2F       		.uleb128 0x2f
 716 00c3 0B       		.uleb128 0xb
 717 00c4 00       		.byte	0x0
 718 00c5 00       		.byte	0x0
 719 00c6 00       		.byte	0x0
 720              		.section	.debug_pubnames,"",%progbits
 721 0000 7F000000 		.4byte	0x7f
 722 0004 0200     		.2byte	0x2
 723 0006 00000000 		.4byte	.Ldebug_info0
 724 000a 7A010000 		.4byte	0x17a
 725 000e 92000000 		.4byte	0x92
 726 0012 62757A7A 		.ascii	"buzzer_1_Start\000"
 726      65725F31 
 726      5F537461 
ARM GAS  C:\Users\SUZUKI~1\AppData\Local\Temp\ccnxPUpc.s 			page 15


 726      727400
 727 0021 A7000000 		.4byte	0xa7
 728 0025 62757A7A 		.ascii	"buzzer_1_Run\000"
 728      65725F31 
 728      5F52756E 
 728      00
 729 0032 E9000000 		.4byte	0xe9
 730 0036 62757A7A 		.ascii	"buzzer_1_Stop\000"
 730      65725F31 
 730      5F53746F 
 730      7000
 731 0044 11010000 		.4byte	0x111
 732 0048 62757A7A 		.ascii	"buzzer_1_Chan\000"
 732      65725F31 
 732      5F436861 
 732      6E00
 733 0056 33010000 		.4byte	0x133
 734 005a 62757A7A 		.ascii	"buzzer_1_TD\000"
 734      65725F31 
 734      5F544400 
 735 0066 55010000 		.4byte	0x155
 736 006a 675F6275 		.ascii	"g_buzzbuf\000"
 736      7A7A6275 
 736      6600
 737 0074 67010000 		.4byte	0x167
 738 0078 675F7A65 		.ascii	"g_zero\000"
 738      726F00
 739 007f 00000000 		.4byte	0x0
 740              		.section	.debug_aranges,"",%progbits
 741 0000 2C000000 		.4byte	0x2c
 742 0004 0200     		.2byte	0x2
 743 0006 00000000 		.4byte	.Ldebug_info0
 744 000a 04       		.byte	0x4
 745 000b 00       		.byte	0x0
 746 000c 0000     		.2byte	0x0
 747 000e 0000     		.2byte	0x0
 748 0010 00000000 		.4byte	.LFB29
 749 0014 50000000 		.4byte	.LFE29-.LFB29
 750 0018 00000000 		.4byte	.LFB30
 751 001c 56010000 		.4byte	.LFE30-.LFB30
 752 0020 00000000 		.4byte	.LFB31
 753 0024 0A000000 		.4byte	.LFE31-.LFB31
 754 0028 00000000 		.4byte	0x0
 755 002c 00000000 		.4byte	0x0
 756              		.section	.debug_ranges,"",%progbits
 757              	.Ldebug_ranges0:
 758 0000 00000000 		.4byte	.Ltext0
 759 0004 00000000 		.4byte	.Letext0
 760 0008 00000000 		.4byte	.LFB29
 761 000c 50000000 		.4byte	.LFE29
 762 0010 00000000 		.4byte	.LFB30
 763 0014 56010000 		.4byte	.LFE30
 764 0018 00000000 		.4byte	.LFB31
 765 001c 0A000000 		.4byte	.LFE31
 766 0020 00000000 		.4byte	0x0
 767 0024 00000000 		.4byte	0x0
 768              		.section	.debug_str,"MS",%progbits,1
ARM GAS  C:\Users\SUZUKI~1\AppData\Local\Temp\ccnxPUpc.s 			page 16


 769              	.LASF6:
 770 0000 6C6F6E67 		.ascii	"long long int\000"
 770      206C6F6E 
 770      6720696E 
 770      7400
 771              	.LASF3:
 772 000e 73686F72 		.ascii	"short unsigned int\000"
 772      7420756E 
 772      7369676E 
 772      65642069 
 772      6E7400
 773              	.LASF8:
 774 0021 756E7369 		.ascii	"unsigned int\000"
 774      676E6564 
 774      20696E74 
 774      00
 775              	.LASF1:
 776 002e 756E7369 		.ascii	"unsigned char\000"
 776      676E6564 
 776      20636861 
 776      7200
 777              	.LASF23:
 778 003c 463A5C44 		.ascii	"F:\\Documents\\PSoC_Creator\\tfexpbrd\\tfexpbrd.cyd"
 778      6F63756D 
 778      656E7473 
 778      5C50536F 
 778      435F4372 
 779 006b 736E00   		.ascii	"sn\000"
 780              	.LASF24:
 781 006e 75696E74 		.ascii	"uint8\000"
 781      3800
 782              	.LASF22:
 783 0074 2E5C4765 		.ascii	".\\Generated_Source\\PSoC5\\buzzer_1_buzzer.c\000"
 783      6E657261 
 783      7465645F 
 783      536F7572 
 783      63655C50 
 784              	.LASF7:
 785 009f 6C6F6E67 		.ascii	"long long unsigned int\000"
 785      206C6F6E 
 785      6720756E 
 785      7369676E 
 785      65642069 
 786              	.LASF14:
 787 00b6 62757A7A 		.ascii	"buzzer_1_Start\000"
 787      65725F31 
 787      5F537461 
 787      727400
 788              	.LASF21:
 789 00c5 474E5520 		.ascii	"GNU C 4.4.1\000"
 789      4320342E 
 789      342E3100 
 790              	.LASF12:
 791 00d1 636F6E66 		.ascii	"config\000"
 791      696700
 792              	.LASF11:
 793 00d8 63686172 		.ascii	"char\000"
ARM GAS  C:\Users\SUZUKI~1\AppData\Local\Temp\ccnxPUpc.s 			page 17


 793      00
 794              	.LASF4:
 795 00dd 6C6F6E67 		.ascii	"long int\000"
 795      20696E74 
 795      00
 796              	.LASF15:
 797 00e6 62757A7A 		.ascii	"buzzer_1_Stop\000"
 797      65725F31 
 797      5F53746F 
 797      7000
 798              	.LASF10:
 799 00f4 646F7562 		.ascii	"double\000"
 799      6C6500
 800              	.LASF5:
 801 00fb 6C6F6E67 		.ascii	"long unsigned int\000"
 801      20756E73 
 801      69676E65 
 801      6420696E 
 801      7400
 802              	.LASF25:
 803 010d 62757A7A 		.ascii	"buzzer_1_Run\000"
 803      65725F31 
 803      5F52756E 
 803      00
 804              	.LASF19:
 805 011a 675F6275 		.ascii	"g_buzzbuf\000"
 805      7A7A6275 
 805      6600
 806              	.LASF20:
 807 0124 675F7A65 		.ascii	"g_zero\000"
 807      726F00
 808              	.LASF16:
 809 012b 49544D5F 		.ascii	"ITM_RxBuffer\000"
 809      52784275 
 809      66666572 
 809      00
 810              	.LASF0:
 811 0138 7369676E 		.ascii	"signed char\000"
 811      65642063 
 811      68617200 
 812              	.LASF9:
 813 0144 666C6F61 		.ascii	"float\000"
 813      7400
 814              	.LASF13:
 815 014a 6C6F6F70 		.ascii	"loop\000"
 815      00
 816              	.LASF2:
 817 014f 73686F72 		.ascii	"short int\000"
 817      7420696E 
 817      7400
 818              	.LASF17:
 819 0159 62757A7A 		.ascii	"buzzer_1_Chan\000"
 819      65725F31 
 819      5F436861 
 819      6E00
 820              	.LASF18:
 821 0167 62757A7A 		.ascii	"buzzer_1_TD\000"
ARM GAS  C:\Users\SUZUKI~1\AppData\Local\Temp\ccnxPUpc.s 			page 18


 821      65725F31 
 821      5F544400 
 822              		.ident	"GCC: (Sourcery G++ Lite 2010q1-188) 4.4.1"
