ARM GAS  C:\Users\SUZUKI~1\AppData\Local\Temp\ccT22IOe.s 			page 1


   1              		.syntax unified
   2              		.cpu cortex-m3
   3              		.fpu softvfp
   4              		.eabi_attribute 20, 1
   5              		.eabi_attribute 21, 1
   6              		.eabi_attribute 23, 3
   7              		.eabi_attribute 24, 1
   8              		.eabi_attribute 25, 1
   9              		.eabi_attribute 26, 1
  10              		.eabi_attribute 30, 6
  11              		.eabi_attribute 18, 4
  12              		.thumb
  13              		.file	"cyutils.c"
  14              		.section	.debug_abbrev,"",%progbits
  15              	.Ldebug_abbrev0:
  16              		.section	.debug_info,"",%progbits
  17              	.Ldebug_info0:
  18              		.section	.debug_line,"",%progbits
  19              	.Ldebug_line0:
  20 0000 7A000000 		.text
  20      02006000 
  20      00000201 
  20      FB0E0D00 
  20      01010101 
  21              	.Ltext0:
  22              		.cfi_sections	.debug_frame
  23              		.section	.text.CySetReg24,"ax",%progbits
  24              		.align	2
  25              		.global	CySetReg24
  26              		.thumb
  27              		.thumb_func
  28              		.type	CySetReg24, %function
  29              	CySetReg24:
  30              	.LFB0:
  31              		.file 1 ".\\Generated_Source\\PSoC5\\cyutils.c"
   1:.\Generated_Source\PSoC5/cyutils.c **** /*******************************************************************************
   2:.\Generated_Source\PSoC5/cyutils.c **** * FILENAME: cyutils.c
   3:.\Generated_Source\PSoC5/cyutils.c **** * Version 3.30
   4:.\Generated_Source\PSoC5/cyutils.c **** *
   5:.\Generated_Source\PSoC5/cyutils.c **** *  Description:
   6:.\Generated_Source\PSoC5/cyutils.c **** *   CyUtils provides function to handle 24-bit value writes.
   7:.\Generated_Source\PSoC5/cyutils.c **** *
   8:.\Generated_Source\PSoC5/cyutils.c **** ********************************************************************************
   9:.\Generated_Source\PSoC5/cyutils.c **** * Copyright 2008-2012, Cypress Semiconductor Corporation.  All rights reserved.
  10:.\Generated_Source\PSoC5/cyutils.c **** * You may use this file only in accordance with the license, terms, conditions,
  11:.\Generated_Source\PSoC5/cyutils.c **** * disclaimers, and limitations in the end user license agreement accompanying
  12:.\Generated_Source\PSoC5/cyutils.c **** * the software package with which this file was provided.
  13:.\Generated_Source\PSoC5/cyutils.c **** *******************************************************************************/
  14:.\Generated_Source\PSoC5/cyutils.c **** 
  15:.\Generated_Source\PSoC5/cyutils.c **** #include "cytypes.h"
  16:.\Generated_Source\PSoC5/cyutils.c **** 
  17:.\Generated_Source\PSoC5/cyutils.c **** #if (!CY_PSOC3)
  18:.\Generated_Source\PSoC5/cyutils.c **** 
  19:.\Generated_Source\PSoC5/cyutils.c ****     /***************************************************************************
  20:.\Generated_Source\PSoC5/cyutils.c ****     * Function Name: CySetReg24
  21:.\Generated_Source\PSoC5/cyutils.c ****     ****************************************************************************
  22:.\Generated_Source\PSoC5/cyutils.c ****     *
ARM GAS  C:\Users\SUZUKI~1\AppData\Local\Temp\ccT22IOe.s 			page 2


  23:.\Generated_Source\PSoC5/cyutils.c ****     * Summary:
  24:.\Generated_Source\PSoC5/cyutils.c ****     *  Writes the 24-bit value to the specified register.
  25:.\Generated_Source\PSoC5/cyutils.c ****     *
  26:.\Generated_Source\PSoC5/cyutils.c ****     * Parameters:
  27:.\Generated_Source\PSoC5/cyutils.c ****     *  addr : adress where data must be written
  28:.\Generated_Source\PSoC5/cyutils.c ****     *  value: data that must be written
  29:.\Generated_Source\PSoC5/cyutils.c ****     *
  30:.\Generated_Source\PSoC5/cyutils.c ****     * Return:
  31:.\Generated_Source\PSoC5/cyutils.c ****     *  None
  32:.\Generated_Source\PSoC5/cyutils.c ****     *
  33:.\Generated_Source\PSoC5/cyutils.c ****     * Reentrant:
  34:.\Generated_Source\PSoC5/cyutils.c ****     *  No
  35:.\Generated_Source\PSoC5/cyutils.c ****     *
  36:.\Generated_Source\PSoC5/cyutils.c ****     ***************************************************************************/
  37:.\Generated_Source\PSoC5/cyutils.c ****     void CySetReg24(uint32 volatile * addr, uint32 value)
  38:.\Generated_Source\PSoC5/cyutils.c ****     {
  32              		.loc 1 38 0
  33              		.cfi_startproc
  34              		@ args = 0, pretend = 0, frame = 16
  35              		@ frame_needed = 1, uses_anonymous_args = 0
  36              		@ link register save eliminated.
  37 0000 80B4     		push	{r7}
  38              	.LCFI0:
  39              		.cfi_def_cfa_offset 4
  40 0002 85B0     		sub	sp, sp, #20
  41              	.LCFI1:
  42              		.cfi_def_cfa_offset 24
  43 0004 00AF     		add	r7, sp, #0
  44              		.cfi_offset 7, -4
  45              	.LCFI2:
  46              		.cfi_def_cfa_register 7
  47 0006 7860     		str	r0, [r7, #4]
  48 0008 3960     		str	r1, [r7, #0]
  39:.\Generated_Source\PSoC5/cyutils.c ****         uint8 volatile *tmpAddr;
  40:.\Generated_Source\PSoC5/cyutils.c **** 
  41:.\Generated_Source\PSoC5/cyutils.c ****         tmpAddr = (uint8 volatile *) addr;
  49              		.loc 1 41 0
  50 000a 7B68     		ldr	r3, [r7, #4]
  51 000c FB60     		str	r3, [r7, #12]
  42:.\Generated_Source\PSoC5/cyutils.c **** 
  43:.\Generated_Source\PSoC5/cyutils.c ****         tmpAddr[0u] = (uint8) value;
  52              		.loc 1 43 0
  53 000e 3B68     		ldr	r3, [r7, #0]
  54 0010 DAB2     		uxtb	r2, r3
  55 0012 FB68     		ldr	r3, [r7, #12]
  56 0014 1A70     		strb	r2, [r3, #0]
  44:.\Generated_Source\PSoC5/cyutils.c ****         tmpAddr[1u] = (uint8) (value >> 8u);
  57              		.loc 1 44 0
  58 0016 FB68     		ldr	r3, [r7, #12]
  59 0018 03F10103 		add	r3, r3, #1
  60 001c 3A68     		ldr	r2, [r7, #0]
  61 001e 4FEA1222 		lsr	r2, r2, #8
  62 0022 D2B2     		uxtb	r2, r2
  63 0024 1A70     		strb	r2, [r3, #0]
  45:.\Generated_Source\PSoC5/cyutils.c ****         tmpAddr[2u] = (uint8) (value >> 16u);
  64              		.loc 1 45 0
  65 0026 FB68     		ldr	r3, [r7, #12]
ARM GAS  C:\Users\SUZUKI~1\AppData\Local\Temp\ccT22IOe.s 			page 3


  66 0028 03F10203 		add	r3, r3, #2
  67 002c 3A68     		ldr	r2, [r7, #0]
  68 002e 4FEA1242 		lsr	r2, r2, #16
  69 0032 D2B2     		uxtb	r2, r2
  70 0034 1A70     		strb	r2, [r3, #0]
  46:.\Generated_Source\PSoC5/cyutils.c ****     }
  71              		.loc 1 46 0
  72 0036 07F11407 		add	r7, r7, #20
  73 003a BD46     		mov	sp, r7
  74 003c 80BC     		pop	{r7}
  75 003e 7047     		bx	lr
  76              		.cfi_endproc
  77              	.LFE0:
  78              		.size	CySetReg24, .-CySetReg24
  79              		.text
  80              	.Letext0:
  81              		.section	.debug_loc,"",%progbits
  82              	.Ldebug_loc0:
  83              	.LLST0:
  84 0000 00000000 		.4byte	.LFB0
  85 0004 02000000 		.4byte	.LCFI0
  86 0008 0100     		.2byte	0x1
  87 000a 5D       		.byte	0x5d
  88 000b 02000000 		.4byte	.LCFI0
  89 000f 04000000 		.4byte	.LCFI1
  90 0013 0200     		.2byte	0x2
  91 0015 7D       		.byte	0x7d
  92 0016 04       		.sleb128 4
  93 0017 04000000 		.4byte	.LCFI1
  94 001b 06000000 		.4byte	.LCFI2
  95 001f 0200     		.2byte	0x2
  96 0021 7D       		.byte	0x7d
  97 0022 18       		.sleb128 24
  98 0023 06000000 		.4byte	.LCFI2
  99 0027 40000000 		.4byte	.LFE0
 100 002b 0200     		.2byte	0x2
 101 002d 77       		.byte	0x77
 102 002e 18       		.sleb128 24
 103 002f 00000000 		.4byte	0x0
 104 0033 00000000 		.4byte	0x0
 105              		.file 2 ".\\Generated_Source\\PSoC5\\/cytypes.h"
 106              		.section	.debug_info
 107 0000 F1000000 		.4byte	0xf1
 108 0004 0200     		.2byte	0x2
 109 0006 00000000 		.4byte	.Ldebug_abbrev0
 110 000a 04       		.byte	0x4
 111 000b 01       		.uleb128 0x1
 112 000c EC000000 		.4byte	.LASF16
 113 0010 01       		.byte	0x1
 114 0011 14000000 		.4byte	.LASF17
 115 0015 8F000000 		.4byte	.LASF18
 116 0019 00000000 		.4byte	0x0
 117 001d 00000000 		.4byte	0x0
 118 0021 00000000 		.4byte	.Ldebug_ranges0+0x0
 119 0025 00000000 		.4byte	.Ldebug_line0
 120 0029 02       		.uleb128 0x2
 121 002a 01       		.byte	0x1
ARM GAS  C:\Users\SUZUKI~1\AppData\Local\Temp\ccT22IOe.s 			page 4


 122 002b 06       		.byte	0x6
 123 002c 16010000 		.4byte	.LASF0
 124 0030 02       		.uleb128 0x2
 125 0031 01       		.byte	0x1
 126 0032 08       		.byte	0x8
 127 0033 4D000000 		.4byte	.LASF1
 128 0037 02       		.uleb128 0x2
 129 0038 02       		.byte	0x2
 130 0039 05       		.byte	0x5
 131 003a FD000000 		.4byte	.LASF2
 132 003e 02       		.uleb128 0x2
 133 003f 02       		.byte	0x2
 134 0040 07       		.byte	0x7
 135 0041 75000000 		.4byte	.LASF3
 136 0045 02       		.uleb128 0x2
 137 0046 04       		.byte	0x4
 138 0047 05       		.byte	0x5
 139 0048 0D010000 		.4byte	.LASF4
 140 004c 02       		.uleb128 0x2
 141 004d 04       		.byte	0x4
 142 004e 07       		.byte	0x7
 143 004f 63000000 		.4byte	.LASF5
 144 0053 02       		.uleb128 0x2
 145 0054 08       		.byte	0x8
 146 0055 05       		.byte	0x5
 147 0056 00000000 		.4byte	.LASF6
 148 005a 02       		.uleb128 0x2
 149 005b 08       		.byte	0x8
 150 005c 07       		.byte	0x7
 151 005d D5000000 		.4byte	.LASF7
 152 0061 03       		.uleb128 0x3
 153 0062 04       		.byte	0x4
 154 0063 05       		.byte	0x5
 155 0064 696E7400 		.ascii	"int\000"
 156 0068 02       		.uleb128 0x2
 157 0069 04       		.byte	0x4
 158 006a 07       		.byte	0x7
 159 006b C8000000 		.4byte	.LASF8
 160 006f 04       		.uleb128 0x4
 161 0070 07010000 		.4byte	.LASF9
 162 0074 02       		.byte	0x2
 163 0075 4C       		.byte	0x4c
 164 0076 30000000 		.4byte	0x30
 165 007a 04       		.uleb128 0x4
 166 007b C1000000 		.4byte	.LASF10
 167 007f 02       		.byte	0x2
 168 0080 4E       		.byte	0x4e
 169 0081 4C000000 		.4byte	0x4c
 170 0085 02       		.uleb128 0x2
 171 0086 04       		.byte	0x4
 172 0087 04       		.byte	0x4
 173 0088 47000000 		.4byte	.LASF11
 174 008c 02       		.uleb128 0x2
 175 008d 08       		.byte	0x8
 176 008e 04       		.byte	0x4
 177 008f 88000000 		.4byte	.LASF12
 178 0093 02       		.uleb128 0x2
ARM GAS  C:\Users\SUZUKI~1\AppData\Local\Temp\ccT22IOe.s 			page 5


 179 0094 01       		.byte	0x1
 180 0095 08       		.byte	0x8
 181 0096 F8000000 		.4byte	.LASF13
 182 009a 05       		.uleb128 0x5
 183 009b 6F000000 		.4byte	0x6f
 184 009f 05       		.uleb128 0x5
 185 00a0 7A000000 		.4byte	0x7a
 186 00a4 06       		.uleb128 0x6
 187 00a5 01       		.byte	0x1
 188 00a6 37000000 		.4byte	.LASF19
 189 00aa 01       		.byte	0x1
 190 00ab 25       		.byte	0x25
 191 00ac 01       		.byte	0x1
 192 00ad 00000000 		.4byte	.LFB0
 193 00b1 40000000 		.4byte	.LFE0
 194 00b5 00000000 		.4byte	.LLST0
 195 00b9 E8000000 		.4byte	0xe8
 196 00bd 07       		.uleb128 0x7
 197 00be 42000000 		.4byte	.LASF14
 198 00c2 01       		.byte	0x1
 199 00c3 25       		.byte	0x25
 200 00c4 E8000000 		.4byte	0xe8
 201 00c8 02       		.byte	0x2
 202 00c9 91       		.byte	0x91
 203 00ca 6C       		.sleb128 -20
 204 00cb 07       		.uleb128 0x7
 205 00cc 0E000000 		.4byte	.LASF15
 206 00d0 01       		.byte	0x1
 207 00d1 25       		.byte	0x25
 208 00d2 7A000000 		.4byte	0x7a
 209 00d6 02       		.byte	0x2
 210 00d7 91       		.byte	0x91
 211 00d8 68       		.sleb128 -24
 212 00d9 08       		.uleb128 0x8
 213 00da 5B000000 		.4byte	.LASF20
 214 00de 01       		.byte	0x1
 215 00df 27       		.byte	0x27
 216 00e0 EE000000 		.4byte	0xee
 217 00e4 02       		.byte	0x2
 218 00e5 91       		.byte	0x91
 219 00e6 74       		.sleb128 -12
 220 00e7 00       		.byte	0x0
 221 00e8 09       		.uleb128 0x9
 222 00e9 04       		.byte	0x4
 223 00ea 9F000000 		.4byte	0x9f
 224 00ee 09       		.uleb128 0x9
 225 00ef 04       		.byte	0x4
 226 00f0 9A000000 		.4byte	0x9a
 227 00f4 00       		.byte	0x0
 228              		.section	.debug_abbrev
 229 0000 01       		.uleb128 0x1
 230 0001 11       		.uleb128 0x11
 231 0002 01       		.byte	0x1
 232 0003 25       		.uleb128 0x25
 233 0004 0E       		.uleb128 0xe
 234 0005 13       		.uleb128 0x13
 235 0006 0B       		.uleb128 0xb
ARM GAS  C:\Users\SUZUKI~1\AppData\Local\Temp\ccT22IOe.s 			page 6


 236 0007 03       		.uleb128 0x3
 237 0008 0E       		.uleb128 0xe
 238 0009 1B       		.uleb128 0x1b
 239 000a 0E       		.uleb128 0xe
 240 000b 11       		.uleb128 0x11
 241 000c 01       		.uleb128 0x1
 242 000d 52       		.uleb128 0x52
 243 000e 01       		.uleb128 0x1
 244 000f 55       		.uleb128 0x55
 245 0010 06       		.uleb128 0x6
 246 0011 10       		.uleb128 0x10
 247 0012 06       		.uleb128 0x6
 248 0013 00       		.byte	0x0
 249 0014 00       		.byte	0x0
 250 0015 02       		.uleb128 0x2
 251 0016 24       		.uleb128 0x24
 252 0017 00       		.byte	0x0
 253 0018 0B       		.uleb128 0xb
 254 0019 0B       		.uleb128 0xb
 255 001a 3E       		.uleb128 0x3e
 256 001b 0B       		.uleb128 0xb
 257 001c 03       		.uleb128 0x3
 258 001d 0E       		.uleb128 0xe
 259 001e 00       		.byte	0x0
 260 001f 00       		.byte	0x0
 261 0020 03       		.uleb128 0x3
 262 0021 24       		.uleb128 0x24
 263 0022 00       		.byte	0x0
 264 0023 0B       		.uleb128 0xb
 265 0024 0B       		.uleb128 0xb
 266 0025 3E       		.uleb128 0x3e
 267 0026 0B       		.uleb128 0xb
 268 0027 03       		.uleb128 0x3
 269 0028 08       		.uleb128 0x8
 270 0029 00       		.byte	0x0
 271 002a 00       		.byte	0x0
 272 002b 04       		.uleb128 0x4
 273 002c 16       		.uleb128 0x16
 274 002d 00       		.byte	0x0
 275 002e 03       		.uleb128 0x3
 276 002f 0E       		.uleb128 0xe
 277 0030 3A       		.uleb128 0x3a
 278 0031 0B       		.uleb128 0xb
 279 0032 3B       		.uleb128 0x3b
 280 0033 0B       		.uleb128 0xb
 281 0034 49       		.uleb128 0x49
 282 0035 13       		.uleb128 0x13
 283 0036 00       		.byte	0x0
 284 0037 00       		.byte	0x0
 285 0038 05       		.uleb128 0x5
 286 0039 35       		.uleb128 0x35
 287 003a 00       		.byte	0x0
 288 003b 49       		.uleb128 0x49
 289 003c 13       		.uleb128 0x13
 290 003d 00       		.byte	0x0
 291 003e 00       		.byte	0x0
 292 003f 06       		.uleb128 0x6
ARM GAS  C:\Users\SUZUKI~1\AppData\Local\Temp\ccT22IOe.s 			page 7


 293 0040 2E       		.uleb128 0x2e
 294 0041 01       		.byte	0x1
 295 0042 3F       		.uleb128 0x3f
 296 0043 0C       		.uleb128 0xc
 297 0044 03       		.uleb128 0x3
 298 0045 0E       		.uleb128 0xe
 299 0046 3A       		.uleb128 0x3a
 300 0047 0B       		.uleb128 0xb
 301 0048 3B       		.uleb128 0x3b
 302 0049 0B       		.uleb128 0xb
 303 004a 27       		.uleb128 0x27
 304 004b 0C       		.uleb128 0xc
 305 004c 11       		.uleb128 0x11
 306 004d 01       		.uleb128 0x1
 307 004e 12       		.uleb128 0x12
 308 004f 01       		.uleb128 0x1
 309 0050 40       		.uleb128 0x40
 310 0051 06       		.uleb128 0x6
 311 0052 01       		.uleb128 0x1
 312 0053 13       		.uleb128 0x13
 313 0054 00       		.byte	0x0
 314 0055 00       		.byte	0x0
 315 0056 07       		.uleb128 0x7
 316 0057 05       		.uleb128 0x5
 317 0058 00       		.byte	0x0
 318 0059 03       		.uleb128 0x3
 319 005a 0E       		.uleb128 0xe
 320 005b 3A       		.uleb128 0x3a
 321 005c 0B       		.uleb128 0xb
 322 005d 3B       		.uleb128 0x3b
 323 005e 0B       		.uleb128 0xb
 324 005f 49       		.uleb128 0x49
 325 0060 13       		.uleb128 0x13
 326 0061 02       		.uleb128 0x2
 327 0062 0A       		.uleb128 0xa
 328 0063 00       		.byte	0x0
 329 0064 00       		.byte	0x0
 330 0065 08       		.uleb128 0x8
 331 0066 34       		.uleb128 0x34
 332 0067 00       		.byte	0x0
 333 0068 03       		.uleb128 0x3
 334 0069 0E       		.uleb128 0xe
 335 006a 3A       		.uleb128 0x3a
 336 006b 0B       		.uleb128 0xb
 337 006c 3B       		.uleb128 0x3b
 338 006d 0B       		.uleb128 0xb
 339 006e 49       		.uleb128 0x49
 340 006f 13       		.uleb128 0x13
 341 0070 02       		.uleb128 0x2
 342 0071 0A       		.uleb128 0xa
 343 0072 00       		.byte	0x0
 344 0073 00       		.byte	0x0
 345 0074 09       		.uleb128 0x9
 346 0075 0F       		.uleb128 0xf
 347 0076 00       		.byte	0x0
 348 0077 0B       		.uleb128 0xb
 349 0078 0B       		.uleb128 0xb
ARM GAS  C:\Users\SUZUKI~1\AppData\Local\Temp\ccT22IOe.s 			page 8


 350 0079 49       		.uleb128 0x49
 351 007a 13       		.uleb128 0x13
 352 007b 00       		.byte	0x0
 353 007c 00       		.byte	0x0
 354 007d 00       		.byte	0x0
 355              		.section	.debug_pubnames,"",%progbits
 356 0000 1D000000 		.4byte	0x1d
 357 0004 0200     		.2byte	0x2
 358 0006 00000000 		.4byte	.Ldebug_info0
 359 000a F5000000 		.4byte	0xf5
 360 000e A4000000 		.4byte	0xa4
 361 0012 43795365 		.ascii	"CySetReg24\000"
 361      74526567 
 361      323400
 362 001d 00000000 		.4byte	0x0
 363              		.section	.debug_aranges,"",%progbits
 364 0000 1C000000 		.4byte	0x1c
 365 0004 0200     		.2byte	0x2
 366 0006 00000000 		.4byte	.Ldebug_info0
 367 000a 04       		.byte	0x4
 368 000b 00       		.byte	0x0
 369 000c 0000     		.2byte	0x0
 370 000e 0000     		.2byte	0x0
 371 0010 00000000 		.4byte	.LFB0
 372 0014 40000000 		.4byte	.LFE0-.LFB0
 373 0018 00000000 		.4byte	0x0
 374 001c 00000000 		.4byte	0x0
 375              		.section	.debug_ranges,"",%progbits
 376              	.Ldebug_ranges0:
 377 0000 00000000 		.4byte	.Ltext0
 378 0004 00000000 		.4byte	.Letext0
 379 0008 00000000 		.4byte	.LFB0
 380 000c 40000000 		.4byte	.LFE0
 381 0010 00000000 		.4byte	0x0
 382 0014 00000000 		.4byte	0x0
 383              		.section	.debug_str,"MS",%progbits,1
 384              	.LASF6:
 385 0000 6C6F6E67 		.ascii	"long long int\000"
 385      206C6F6E 
 385      6720696E 
 385      7400
 386              	.LASF15:
 387 000e 76616C75 		.ascii	"value\000"
 387      6500
 388              	.LASF17:
 389 0014 2E5C4765 		.ascii	".\\Generated_Source\\PSoC5\\cyutils.c\000"
 389      6E657261 
 389      7465645F 
 389      536F7572 
 389      63655C50 
 390              	.LASF19:
 391 0037 43795365 		.ascii	"CySetReg24\000"
 391      74526567 
 391      323400
 392              	.LASF14:
 393 0042 61646472 		.ascii	"addr\000"
 393      00
ARM GAS  C:\Users\SUZUKI~1\AppData\Local\Temp\ccT22IOe.s 			page 9


 394              	.LASF11:
 395 0047 666C6F61 		.ascii	"float\000"
 395      7400
 396              	.LASF1:
 397 004d 756E7369 		.ascii	"unsigned char\000"
 397      676E6564 
 397      20636861 
 397      7200
 398              	.LASF20:
 399 005b 746D7041 		.ascii	"tmpAddr\000"
 399      64647200 
 400              	.LASF5:
 401 0063 6C6F6E67 		.ascii	"long unsigned int\000"
 401      20756E73 
 401      69676E65 
 401      6420696E 
 401      7400
 402              	.LASF3:
 403 0075 73686F72 		.ascii	"short unsigned int\000"
 403      7420756E 
 403      7369676E 
 403      65642069 
 403      6E7400
 404              	.LASF12:
 405 0088 646F7562 		.ascii	"double\000"
 405      6C6500
 406              	.LASF18:
 407 008f 463A5C44 		.ascii	"F:\\Documents\\PSoC_Creator\\tfexpbrd\\tfexpbrd.cyd"
 407      6F63756D 
 407      656E7473 
 407      5C50536F 
 407      435F4372 
 408 00be 736E00   		.ascii	"sn\000"
 409              	.LASF10:
 410 00c1 75696E74 		.ascii	"uint32\000"
 410      333200
 411              	.LASF8:
 412 00c8 756E7369 		.ascii	"unsigned int\000"
 412      676E6564 
 412      20696E74 
 412      00
 413              	.LASF7:
 414 00d5 6C6F6E67 		.ascii	"long long unsigned int\000"
 414      206C6F6E 
 414      6720756E 
 414      7369676E 
 414      65642069 
 415              	.LASF16:
 416 00ec 474E5520 		.ascii	"GNU C 4.4.1\000"
 416      4320342E 
 416      342E3100 
 417              	.LASF13:
 418 00f8 63686172 		.ascii	"char\000"
 418      00
 419              	.LASF2:
 420 00fd 73686F72 		.ascii	"short int\000"
 420      7420696E 
ARM GAS  C:\Users\SUZUKI~1\AppData\Local\Temp\ccT22IOe.s 			page 10


 420      7400
 421              	.LASF9:
 422 0107 75696E74 		.ascii	"uint8\000"
 422      3800
 423              	.LASF4:
 424 010d 6C6F6E67 		.ascii	"long int\000"
 424      20696E74 
 424      00
 425              	.LASF0:
 426 0116 7369676E 		.ascii	"signed char\000"
 426      65642063 
 426      68617200 
 427              		.ident	"GCC: (Sourcery G++ Lite 2010q1-188) 4.4.1"
