ARM GAS  C:\Users\SUZUKI~1\AppData\Local\Temp\cc0qaRb0.s 			page 1


   1              		.syntax unified
   2              		.cpu cortex-m3
   3              		.fpu softvfp
   4              		.eabi_attribute 20, 1
   5              		.eabi_attribute 21, 1
   6              		.eabi_attribute 23, 3
   7              		.eabi_attribute 24, 1
   8              		.eabi_attribute 25, 1
   9              		.eabi_attribute 26, 1
  10              		.eabi_attribute 30, 6
  11              		.eabi_attribute 18, 4
  12              		.thumb
  13              		.file	"MISO.c"
  14              		.section	.debug_abbrev,"",%progbits
  15              	.Ldebug_abbrev0:
  16              		.section	.debug_info,"",%progbits
  17              	.Ldebug_info0:
  18              		.section	.debug_line,"",%progbits
  19              	.Ldebug_line0:
  20 0000 AB000000 		.text
  20      02005D00 
  20      00000201 
  20      FB0E0D00 
  20      01010101 
  21              	.Ltext0:
  22              		.cfi_sections	.debug_frame
  23              		.section	.text.MISO_Write,"ax",%progbits
  24              		.align	2
  25              		.global	MISO_Write
  26              		.thumb
  27              		.thumb_func
  28              		.type	MISO_Write, %function
  29              	MISO_Write:
  30              	.LFB0:
  31              		.file 1 ".\\Generated_Source\\PSoC5\\MISO.c"
   1:.\Generated_Source\PSoC5/MISO.c **** /*******************************************************************************
   2:.\Generated_Source\PSoC5/MISO.c **** * File Name: MISO.c  
   3:.\Generated_Source\PSoC5/MISO.c **** * Version 1.80
   4:.\Generated_Source\PSoC5/MISO.c **** *
   5:.\Generated_Source\PSoC5/MISO.c **** * Description:
   6:.\Generated_Source\PSoC5/MISO.c **** *  This file contains API to enable firmware control of a Pins component.
   7:.\Generated_Source\PSoC5/MISO.c **** *
   8:.\Generated_Source\PSoC5/MISO.c **** * Note:
   9:.\Generated_Source\PSoC5/MISO.c **** *
  10:.\Generated_Source\PSoC5/MISO.c **** ********************************************************************************
  11:.\Generated_Source\PSoC5/MISO.c **** * Copyright 2008-2012, Cypress Semiconductor Corporation.  All rights reserved.
  12:.\Generated_Source\PSoC5/MISO.c **** * You may use this file only in accordance with the license, terms, conditions, 
  13:.\Generated_Source\PSoC5/MISO.c **** * disclaimers, and limitations in the end user license agreement accompanying 
  14:.\Generated_Source\PSoC5/MISO.c **** * the software package with which this file was provided.
  15:.\Generated_Source\PSoC5/MISO.c **** *******************************************************************************/
  16:.\Generated_Source\PSoC5/MISO.c **** 
  17:.\Generated_Source\PSoC5/MISO.c **** #include "cytypes.h"
  18:.\Generated_Source\PSoC5/MISO.c **** #include "MISO.h"
  19:.\Generated_Source\PSoC5/MISO.c **** 
  20:.\Generated_Source\PSoC5/MISO.c **** /* APIs are not generated for P15[7:6] on PSoC 5 */
  21:.\Generated_Source\PSoC5/MISO.c **** #if !(CY_PSOC5A &&\
  22:.\Generated_Source\PSoC5/MISO.c **** 	 MISO__PORT == 15 && ((MISO__MASK & 0xC0) != 0))
ARM GAS  C:\Users\SUZUKI~1\AppData\Local\Temp\cc0qaRb0.s 			page 2


  23:.\Generated_Source\PSoC5/MISO.c **** 
  24:.\Generated_Source\PSoC5/MISO.c **** 
  25:.\Generated_Source\PSoC5/MISO.c **** /*******************************************************************************
  26:.\Generated_Source\PSoC5/MISO.c **** * Function Name: MISO_Write
  27:.\Generated_Source\PSoC5/MISO.c **** ********************************************************************************
  28:.\Generated_Source\PSoC5/MISO.c **** *
  29:.\Generated_Source\PSoC5/MISO.c **** * Summary:
  30:.\Generated_Source\PSoC5/MISO.c **** *  Assign a new value to the digital port's data output register.  
  31:.\Generated_Source\PSoC5/MISO.c **** *
  32:.\Generated_Source\PSoC5/MISO.c **** * Parameters:  
  33:.\Generated_Source\PSoC5/MISO.c **** *  prtValue:  The value to be assigned to the Digital Port. 
  34:.\Generated_Source\PSoC5/MISO.c **** *
  35:.\Generated_Source\PSoC5/MISO.c **** * Return: 
  36:.\Generated_Source\PSoC5/MISO.c **** *  None
  37:.\Generated_Source\PSoC5/MISO.c **** *  
  38:.\Generated_Source\PSoC5/MISO.c **** *******************************************************************************/
  39:.\Generated_Source\PSoC5/MISO.c **** void MISO_Write(uint8 value) 
  40:.\Generated_Source\PSoC5/MISO.c **** {
  32              		.loc 1 40 0
  33              		.cfi_startproc
  34              		@ args = 0, pretend = 0, frame = 16
  35              		@ frame_needed = 1, uses_anonymous_args = 0
  36              		@ link register save eliminated.
  37 0000 80B4     		push	{r7}
  38              	.LCFI0:
  39              		.cfi_def_cfa_offset 4
  40 0002 85B0     		sub	sp, sp, #20
  41              	.LCFI1:
  42              		.cfi_def_cfa_offset 24
  43 0004 00AF     		add	r7, sp, #0
  44              		.cfi_offset 7, -4
  45              	.LCFI2:
  46              		.cfi_def_cfa_register 7
  47 0006 0346     		mov	r3, r0
  48 0008 FB71     		strb	r3, [r7, #7]
  41:.\Generated_Source\PSoC5/MISO.c ****     uint8 staticBits = (MISO_DR & (uint8)(~MISO_MASK));
  49              		.loc 1 41 0
  50 000a 45F26013 		movw	r3, #:lower16:1073762656
  51 000e C4F20003 		movt	r3, #:upper16:1073762656
  52 0012 1B78     		ldrb	r3, [r3, #0]
  53 0014 DBB2     		uxtb	r3, r3
  54 0016 03F07F03 		and	r3, r3, #127
  55 001a FB73     		strb	r3, [r7, #15]
  42:.\Generated_Source\PSoC5/MISO.c ****     MISO_DR = staticBits | ((uint8)(value << MISO_SHIFT) & MISO_MASK);
  56              		.loc 1 42 0
  57 001c 45F26013 		movw	r3, #:lower16:1073762656
  58 0020 C4F20003 		movt	r3, #:upper16:1073762656
  59 0024 FA79     		ldrb	r2, [r7, #7]
  60 0026 4FEAC212 		lsl	r2, r2, #7
  61 002a D1B2     		uxtb	r1, r2
  62 002c FA7B     		ldrb	r2, [r7, #15]
  63 002e 41EA0202 		orr	r2, r1, r2
  64 0032 D2B2     		uxtb	r2, r2
  65 0034 1A70     		strb	r2, [r3, #0]
  43:.\Generated_Source\PSoC5/MISO.c **** }
  66              		.loc 1 43 0
  67 0036 07F11407 		add	r7, r7, #20
ARM GAS  C:\Users\SUZUKI~1\AppData\Local\Temp\cc0qaRb0.s 			page 3


  68 003a BD46     		mov	sp, r7
  69 003c 80BC     		pop	{r7}
  70 003e 7047     		bx	lr
  71              		.cfi_endproc
  72              	.LFE0:
  73              		.size	MISO_Write, .-MISO_Write
  74              		.section	.text.MISO_SetDriveMode,"ax",%progbits
  75              		.align	2
  76              		.global	MISO_SetDriveMode
  77              		.thumb
  78              		.thumb_func
  79              		.type	MISO_SetDriveMode, %function
  80              	MISO_SetDriveMode:
  81              	.LFB1:
  44:.\Generated_Source\PSoC5/MISO.c **** 
  45:.\Generated_Source\PSoC5/MISO.c **** 
  46:.\Generated_Source\PSoC5/MISO.c **** /*******************************************************************************
  47:.\Generated_Source\PSoC5/MISO.c **** * Function Name: MISO_SetDriveMode
  48:.\Generated_Source\PSoC5/MISO.c **** ********************************************************************************
  49:.\Generated_Source\PSoC5/MISO.c **** *
  50:.\Generated_Source\PSoC5/MISO.c **** * Summary:
  51:.\Generated_Source\PSoC5/MISO.c **** *  Change the drive mode on the pins of the port.
  52:.\Generated_Source\PSoC5/MISO.c **** * 
  53:.\Generated_Source\PSoC5/MISO.c **** * Parameters:  
  54:.\Generated_Source\PSoC5/MISO.c **** *  mode:  Change the pins to this drive mode.
  55:.\Generated_Source\PSoC5/MISO.c **** *
  56:.\Generated_Source\PSoC5/MISO.c **** * Return: 
  57:.\Generated_Source\PSoC5/MISO.c **** *  None
  58:.\Generated_Source\PSoC5/MISO.c **** *
  59:.\Generated_Source\PSoC5/MISO.c **** *******************************************************************************/
  60:.\Generated_Source\PSoC5/MISO.c **** void MISO_SetDriveMode(uint8 mode) 
  61:.\Generated_Source\PSoC5/MISO.c **** {
  82              		.loc 1 61 0
  83              		.cfi_startproc
  84              		@ args = 0, pretend = 0, frame = 8
  85              		@ frame_needed = 1, uses_anonymous_args = 0
  86              		@ link register save eliminated.
  87 0000 80B4     		push	{r7}
  88              	.LCFI3:
  89              		.cfi_def_cfa_offset 4
  90 0002 83B0     		sub	sp, sp, #12
  91              	.LCFI4:
  92              		.cfi_def_cfa_offset 16
  93 0004 00AF     		add	r7, sp, #0
  94              		.cfi_offset 7, -4
  95              	.LCFI5:
  96              		.cfi_def_cfa_register 7
  97 0006 0346     		mov	r3, r0
  98 0008 FB71     		strb	r3, [r7, #7]
  62:.\Generated_Source\PSoC5/MISO.c **** 	CyPins_SetPinDriveMode(MISO_0, mode);
  99              		.loc 1 62 0
 100 000a 45F23703 		movw	r3, #:lower16:1073762359
 101 000e C4F20003 		movt	r3, #:upper16:1073762359
 102 0012 45F23702 		movw	r2, #:lower16:1073762359
 103 0016 C4F20002 		movt	r2, #:upper16:1073762359
 104 001a 1278     		ldrb	r2, [r2, #0]
 105 001c D2B2     		uxtb	r2, r2
ARM GAS  C:\Users\SUZUKI~1\AppData\Local\Temp\cc0qaRb0.s 			page 4


 106 001e D1B2     		uxtb	r1, r2
 107 0020 01F0F101 		and	r1, r1, #241
 108 0024 FA79     		ldrb	r2, [r7, #7]	@ zero_extendqisi2
 109 0026 D2B2     		uxtb	r2, r2
 110 0028 02F00E02 		and	r2, r2, #14
 111 002c 41EA0202 		orr	r2, r1, r2
 112 0030 D2B2     		uxtb	r2, r2
 113 0032 D2B2     		uxtb	r2, r2
 114 0034 1A70     		strb	r2, [r3, #0]
  63:.\Generated_Source\PSoC5/MISO.c **** }
 115              		.loc 1 63 0
 116 0036 07F10C07 		add	r7, r7, #12
 117 003a BD46     		mov	sp, r7
 118 003c 80BC     		pop	{r7}
 119 003e 7047     		bx	lr
 120              		.cfi_endproc
 121              	.LFE1:
 122              		.size	MISO_SetDriveMode, .-MISO_SetDriveMode
 123              		.section	.text.MISO_Read,"ax",%progbits
 124              		.align	2
 125              		.global	MISO_Read
 126              		.thumb
 127              		.thumb_func
 128              		.type	MISO_Read, %function
 129              	MISO_Read:
 130              	.LFB2:
  64:.\Generated_Source\PSoC5/MISO.c **** 
  65:.\Generated_Source\PSoC5/MISO.c **** 
  66:.\Generated_Source\PSoC5/MISO.c **** /*******************************************************************************
  67:.\Generated_Source\PSoC5/MISO.c **** * Function Name: MISO_Read
  68:.\Generated_Source\PSoC5/MISO.c **** ********************************************************************************
  69:.\Generated_Source\PSoC5/MISO.c **** *
  70:.\Generated_Source\PSoC5/MISO.c **** * Summary:
  71:.\Generated_Source\PSoC5/MISO.c **** *  Read the current value on the pins of the Digital Port in right justified 
  72:.\Generated_Source\PSoC5/MISO.c **** *  form.
  73:.\Generated_Source\PSoC5/MISO.c **** *
  74:.\Generated_Source\PSoC5/MISO.c **** * Parameters:  
  75:.\Generated_Source\PSoC5/MISO.c **** *  None
  76:.\Generated_Source\PSoC5/MISO.c **** *
  77:.\Generated_Source\PSoC5/MISO.c **** * Return: 
  78:.\Generated_Source\PSoC5/MISO.c **** *  Returns the current value of the Digital Port as a right justified number
  79:.\Generated_Source\PSoC5/MISO.c **** *  
  80:.\Generated_Source\PSoC5/MISO.c **** * Note:
  81:.\Generated_Source\PSoC5/MISO.c **** *  Macro MISO_ReadPS calls this function. 
  82:.\Generated_Source\PSoC5/MISO.c **** *  
  83:.\Generated_Source\PSoC5/MISO.c **** *******************************************************************************/
  84:.\Generated_Source\PSoC5/MISO.c **** uint8 MISO_Read(void) 
  85:.\Generated_Source\PSoC5/MISO.c **** {
 131              		.loc 1 85 0
 132              		.cfi_startproc
 133              		@ args = 0, pretend = 0, frame = 0
 134              		@ frame_needed = 1, uses_anonymous_args = 0
 135              		@ link register save eliminated.
 136 0000 80B4     		push	{r7}
 137              	.LCFI6:
 138              		.cfi_def_cfa_offset 4
 139 0002 00AF     		add	r7, sp, #0
ARM GAS  C:\Users\SUZUKI~1\AppData\Local\Temp\cc0qaRb0.s 			page 5


 140              		.cfi_offset 7, -4
 141              	.LCFI7:
 142              		.cfi_def_cfa_register 7
  86:.\Generated_Source\PSoC5/MISO.c ****     return (MISO_PS & MISO_MASK) >> MISO_SHIFT;
 143              		.loc 1 86 0
 144 0004 45F26113 		movw	r3, #:lower16:1073762657
 145 0008 C4F20003 		movt	r3, #:upper16:1073762657
 146 000c 1B78     		ldrb	r3, [r3, #0]
 147 000e DBB2     		uxtb	r3, r3
 148 0010 4FEAD313 		lsr	r3, r3, #7
 149 0014 DBB2     		uxtb	r3, r3
  87:.\Generated_Source\PSoC5/MISO.c **** }
 150              		.loc 1 87 0
 151 0016 1846     		mov	r0, r3
 152 0018 BD46     		mov	sp, r7
 153 001a 80BC     		pop	{r7}
 154 001c 7047     		bx	lr
 155              		.cfi_endproc
 156              	.LFE2:
 157              		.size	MISO_Read, .-MISO_Read
 158 001e 00BF     		.section	.text.MISO_ReadDataReg,"ax",%progbits
 159              		.align	2
 160              		.global	MISO_ReadDataReg
 161              		.thumb
 162              		.thumb_func
 163              		.type	MISO_ReadDataReg, %function
 164              	MISO_ReadDataReg:
 165              	.LFB3:
  88:.\Generated_Source\PSoC5/MISO.c **** 
  89:.\Generated_Source\PSoC5/MISO.c **** 
  90:.\Generated_Source\PSoC5/MISO.c **** /*******************************************************************************
  91:.\Generated_Source\PSoC5/MISO.c **** * Function Name: MISO_ReadDataReg
  92:.\Generated_Source\PSoC5/MISO.c **** ********************************************************************************
  93:.\Generated_Source\PSoC5/MISO.c **** *
  94:.\Generated_Source\PSoC5/MISO.c **** * Summary:
  95:.\Generated_Source\PSoC5/MISO.c **** *  Read the current value assigned to a Digital Port's data output register
  96:.\Generated_Source\PSoC5/MISO.c **** *
  97:.\Generated_Source\PSoC5/MISO.c **** * Parameters:  
  98:.\Generated_Source\PSoC5/MISO.c **** *  None 
  99:.\Generated_Source\PSoC5/MISO.c **** *
 100:.\Generated_Source\PSoC5/MISO.c **** * Return: 
 101:.\Generated_Source\PSoC5/MISO.c **** *  Returns the current value assigned to the Digital Port's data output register
 102:.\Generated_Source\PSoC5/MISO.c **** *  
 103:.\Generated_Source\PSoC5/MISO.c **** *******************************************************************************/
 104:.\Generated_Source\PSoC5/MISO.c **** uint8 MISO_ReadDataReg(void) 
 105:.\Generated_Source\PSoC5/MISO.c **** {
 166              		.loc 1 105 0
 167              		.cfi_startproc
 168              		@ args = 0, pretend = 0, frame = 0
 169              		@ frame_needed = 1, uses_anonymous_args = 0
 170              		@ link register save eliminated.
 171 0000 80B4     		push	{r7}
 172              	.LCFI8:
 173              		.cfi_def_cfa_offset 4
 174 0002 00AF     		add	r7, sp, #0
 175              		.cfi_offset 7, -4
 176              	.LCFI9:
ARM GAS  C:\Users\SUZUKI~1\AppData\Local\Temp\cc0qaRb0.s 			page 6


 177              		.cfi_def_cfa_register 7
 106:.\Generated_Source\PSoC5/MISO.c ****     return (MISO_DR & MISO_MASK) >> MISO_SHIFT;
 178              		.loc 1 106 0
 179 0004 45F26013 		movw	r3, #:lower16:1073762656
 180 0008 C4F20003 		movt	r3, #:upper16:1073762656
 181 000c 1B78     		ldrb	r3, [r3, #0]
 182 000e DBB2     		uxtb	r3, r3
 183 0010 4FEAD313 		lsr	r3, r3, #7
 184 0014 DBB2     		uxtb	r3, r3
 107:.\Generated_Source\PSoC5/MISO.c **** }
 185              		.loc 1 107 0
 186 0016 1846     		mov	r0, r3
 187 0018 BD46     		mov	sp, r7
 188 001a 80BC     		pop	{r7}
 189 001c 7047     		bx	lr
 190              		.cfi_endproc
 191              	.LFE3:
 192              		.size	MISO_ReadDataReg, .-MISO_ReadDataReg
 193 001e 00BF     		.text
 194              	.Letext0:
 195              		.section	.debug_loc,"",%progbits
 196              	.Ldebug_loc0:
 197              	.LLST0:
 198 0000 00000000 		.4byte	.LFB0
 199 0004 02000000 		.4byte	.LCFI0
 200 0008 0100     		.2byte	0x1
 201 000a 5D       		.byte	0x5d
 202 000b 02000000 		.4byte	.LCFI0
 203 000f 04000000 		.4byte	.LCFI1
 204 0013 0200     		.2byte	0x2
 205 0015 7D       		.byte	0x7d
 206 0016 04       		.sleb128 4
 207 0017 04000000 		.4byte	.LCFI1
 208 001b 06000000 		.4byte	.LCFI2
 209 001f 0200     		.2byte	0x2
 210 0021 7D       		.byte	0x7d
 211 0022 18       		.sleb128 24
 212 0023 06000000 		.4byte	.LCFI2
 213 0027 40000000 		.4byte	.LFE0
 214 002b 0200     		.2byte	0x2
 215 002d 77       		.byte	0x77
 216 002e 18       		.sleb128 24
 217 002f 00000000 		.4byte	0x0
 218 0033 00000000 		.4byte	0x0
 219              	.LLST1:
 220 0037 00000000 		.4byte	.LFB1
 221 003b 02000000 		.4byte	.LCFI3
 222 003f 0100     		.2byte	0x1
 223 0041 5D       		.byte	0x5d
 224 0042 02000000 		.4byte	.LCFI3
 225 0046 04000000 		.4byte	.LCFI4
 226 004a 0200     		.2byte	0x2
 227 004c 7D       		.byte	0x7d
 228 004d 04       		.sleb128 4
 229 004e 04000000 		.4byte	.LCFI4
 230 0052 06000000 		.4byte	.LCFI5
 231 0056 0200     		.2byte	0x2
ARM GAS  C:\Users\SUZUKI~1\AppData\Local\Temp\cc0qaRb0.s 			page 7


 232 0058 7D       		.byte	0x7d
 233 0059 10       		.sleb128 16
 234 005a 06000000 		.4byte	.LCFI5
 235 005e 40000000 		.4byte	.LFE1
 236 0062 0200     		.2byte	0x2
 237 0064 77       		.byte	0x77
 238 0065 10       		.sleb128 16
 239 0066 00000000 		.4byte	0x0
 240 006a 00000000 		.4byte	0x0
 241              	.LLST2:
 242 006e 00000000 		.4byte	.LFB2
 243 0072 02000000 		.4byte	.LCFI6
 244 0076 0100     		.2byte	0x1
 245 0078 5D       		.byte	0x5d
 246 0079 02000000 		.4byte	.LCFI6
 247 007d 04000000 		.4byte	.LCFI7
 248 0081 0200     		.2byte	0x2
 249 0083 7D       		.byte	0x7d
 250 0084 04       		.sleb128 4
 251 0085 04000000 		.4byte	.LCFI7
 252 0089 1E000000 		.4byte	.LFE2
 253 008d 0200     		.2byte	0x2
 254 008f 77       		.byte	0x77
 255 0090 04       		.sleb128 4
 256 0091 00000000 		.4byte	0x0
 257 0095 00000000 		.4byte	0x0
 258              	.LLST3:
 259 0099 00000000 		.4byte	.LFB3
 260 009d 02000000 		.4byte	.LCFI8
 261 00a1 0100     		.2byte	0x1
 262 00a3 5D       		.byte	0x5d
 263 00a4 02000000 		.4byte	.LCFI8
 264 00a8 04000000 		.4byte	.LCFI9
 265 00ac 0200     		.2byte	0x2
 266 00ae 7D       		.byte	0x7d
 267 00af 04       		.sleb128 4
 268 00b0 04000000 		.4byte	.LCFI9
 269 00b4 1E000000 		.4byte	.LFE3
 270 00b8 0200     		.2byte	0x2
 271 00ba 77       		.byte	0x77
 272 00bb 04       		.sleb128 4
 273 00bc 00000000 		.4byte	0x0
 274 00c0 00000000 		.4byte	0x0
 275              		.file 2 ".\\Generated_Source\\PSoC5\\/cytypes.h"
 276              		.section	.debug_info
 277 0000 1C010000 		.4byte	0x11c
 278 0004 0200     		.2byte	0x2
 279 0006 00000000 		.4byte	.Ldebug_abbrev0
 280 000a 04       		.byte	0x4
 281 000b 01       		.uleb128 0x1
 282 000c 12010000 		.4byte	.LASF18
 283 0010 01       		.byte	0x1
 284 0011 30000000 		.4byte	.LASF19
 285 0015 B7000000 		.4byte	.LASF20
 286 0019 00000000 		.4byte	0x0
 287 001d 00000000 		.4byte	0x0
 288 0021 00000000 		.4byte	.Ldebug_ranges0+0x0
ARM GAS  C:\Users\SUZUKI~1\AppData\Local\Temp\cc0qaRb0.s 			page 8


 289 0025 00000000 		.4byte	.Ldebug_line0
 290 0029 02       		.uleb128 0x2
 291 002a 01       		.byte	0x1
 292 002b 06       		.byte	0x6
 293 002c 3C010000 		.4byte	.LASF0
 294 0030 02       		.uleb128 0x2
 295 0031 01       		.byte	0x1
 296 0032 08       		.byte	0x8
 297 0033 61000000 		.4byte	.LASF1
 298 0037 02       		.uleb128 0x2
 299 0038 02       		.byte	0x2
 300 0039 05       		.byte	0x5
 301 003a 23010000 		.4byte	.LASF2
 302 003e 02       		.uleb128 0x2
 303 003f 02       		.byte	0x2
 304 0040 07       		.byte	0x7
 305 0041 81000000 		.4byte	.LASF3
 306 0045 02       		.uleb128 0x2
 307 0046 04       		.byte	0x4
 308 0047 05       		.byte	0x5
 309 0048 33010000 		.4byte	.LASF4
 310 004c 02       		.uleb128 0x2
 311 004d 04       		.byte	0x4
 312 004e 07       		.byte	0x7
 313 004f 6F000000 		.4byte	.LASF5
 314 0053 02       		.uleb128 0x2
 315 0054 08       		.byte	0x8
 316 0055 05       		.byte	0x5
 317 0056 00000000 		.4byte	.LASF6
 318 005a 02       		.uleb128 0x2
 319 005b 08       		.byte	0x8
 320 005c 07       		.byte	0x7
 321 005d F6000000 		.4byte	.LASF7
 322 0061 03       		.uleb128 0x3
 323 0062 04       		.byte	0x4
 324 0063 05       		.byte	0x5
 325 0064 696E7400 		.ascii	"int\000"
 326 0068 02       		.uleb128 0x2
 327 0069 04       		.byte	0x4
 328 006a 07       		.byte	0x7
 329 006b E9000000 		.4byte	.LASF8
 330 006f 04       		.uleb128 0x4
 331 0070 2D010000 		.4byte	.LASF21
 332 0074 02       		.byte	0x2
 333 0075 4C       		.byte	0x4c
 334 0076 30000000 		.4byte	0x30
 335 007a 02       		.uleb128 0x2
 336 007b 04       		.byte	0x4
 337 007c 04       		.byte	0x4
 338 007d 50000000 		.4byte	.LASF9
 339 0081 02       		.uleb128 0x2
 340 0082 08       		.byte	0x8
 341 0083 04       		.byte	0x4
 342 0084 B0000000 		.4byte	.LASF10
 343 0088 02       		.uleb128 0x2
 344 0089 01       		.byte	0x1
 345 008a 08       		.byte	0x8
ARM GAS  C:\Users\SUZUKI~1\AppData\Local\Temp\cc0qaRb0.s 			page 9


 346 008b 1E010000 		.4byte	.LASF11
 347 008f 05       		.uleb128 0x5
 348 0090 01       		.byte	0x1
 349 0091 56000000 		.4byte	.LASF12
 350 0095 01       		.byte	0x1
 351 0096 27       		.byte	0x27
 352 0097 01       		.byte	0x1
 353 0098 00000000 		.4byte	.LFB0
 354 009c 40000000 		.4byte	.LFE0
 355 00a0 00000000 		.4byte	.LLST0
 356 00a4 C5000000 		.4byte	0xc5
 357 00a8 06       		.uleb128 0x6
 358 00a9 1F000000 		.4byte	.LASF14
 359 00ad 01       		.byte	0x1
 360 00ae 27       		.byte	0x27
 361 00af 6F000000 		.4byte	0x6f
 362 00b3 02       		.byte	0x2
 363 00b4 91       		.byte	0x91
 364 00b5 6F       		.sleb128 -17
 365 00b6 07       		.uleb128 0x7
 366 00b7 25000000 		.4byte	.LASF22
 367 00bb 01       		.byte	0x1
 368 00bc 29       		.byte	0x29
 369 00bd 6F000000 		.4byte	0x6f
 370 00c1 02       		.byte	0x2
 371 00c2 91       		.byte	0x91
 372 00c3 77       		.sleb128 -9
 373 00c4 00       		.byte	0x0
 374 00c5 05       		.uleb128 0x5
 375 00c6 01       		.byte	0x1
 376 00c7 9E000000 		.4byte	.LASF13
 377 00cb 01       		.byte	0x1
 378 00cc 3C       		.byte	0x3c
 379 00cd 01       		.byte	0x1
 380 00ce 00000000 		.4byte	.LFB1
 381 00d2 40000000 		.4byte	.LFE1
 382 00d6 37000000 		.4byte	.LLST1
 383 00da ED000000 		.4byte	0xed
 384 00de 06       		.uleb128 0x6
 385 00df 0D010000 		.4byte	.LASF15
 386 00e3 01       		.byte	0x1
 387 00e4 3C       		.byte	0x3c
 388 00e5 6F000000 		.4byte	0x6f
 389 00e9 02       		.byte	0x2
 390 00ea 91       		.byte	0x91
 391 00eb 77       		.sleb128 -9
 392 00ec 00       		.byte	0x0
 393 00ed 08       		.uleb128 0x8
 394 00ee 01       		.byte	0x1
 395 00ef 94000000 		.4byte	.LASF16
 396 00f3 01       		.byte	0x1
 397 00f4 54       		.byte	0x54
 398 00f5 01       		.byte	0x1
 399 00f6 6F000000 		.4byte	0x6f
 400 00fa 00000000 		.4byte	.LFB2
 401 00fe 1E000000 		.4byte	.LFE2
 402 0102 6E000000 		.4byte	.LLST2
ARM GAS  C:\Users\SUZUKI~1\AppData\Local\Temp\cc0qaRb0.s 			page 10


 403 0106 08       		.uleb128 0x8
 404 0107 01       		.byte	0x1
 405 0108 0E000000 		.4byte	.LASF17
 406 010c 01       		.byte	0x1
 407 010d 68       		.byte	0x68
 408 010e 01       		.byte	0x1
 409 010f 6F000000 		.4byte	0x6f
 410 0113 00000000 		.4byte	.LFB3
 411 0117 1E000000 		.4byte	.LFE3
 412 011b 99000000 		.4byte	.LLST3
 413 011f 00       		.byte	0x0
 414              		.section	.debug_abbrev
 415 0000 01       		.uleb128 0x1
 416 0001 11       		.uleb128 0x11
 417 0002 01       		.byte	0x1
 418 0003 25       		.uleb128 0x25
 419 0004 0E       		.uleb128 0xe
 420 0005 13       		.uleb128 0x13
 421 0006 0B       		.uleb128 0xb
 422 0007 03       		.uleb128 0x3
 423 0008 0E       		.uleb128 0xe
 424 0009 1B       		.uleb128 0x1b
 425 000a 0E       		.uleb128 0xe
 426 000b 11       		.uleb128 0x11
 427 000c 01       		.uleb128 0x1
 428 000d 52       		.uleb128 0x52
 429 000e 01       		.uleb128 0x1
 430 000f 55       		.uleb128 0x55
 431 0010 06       		.uleb128 0x6
 432 0011 10       		.uleb128 0x10
 433 0012 06       		.uleb128 0x6
 434 0013 00       		.byte	0x0
 435 0014 00       		.byte	0x0
 436 0015 02       		.uleb128 0x2
 437 0016 24       		.uleb128 0x24
 438 0017 00       		.byte	0x0
 439 0018 0B       		.uleb128 0xb
 440 0019 0B       		.uleb128 0xb
 441 001a 3E       		.uleb128 0x3e
 442 001b 0B       		.uleb128 0xb
 443 001c 03       		.uleb128 0x3
 444 001d 0E       		.uleb128 0xe
 445 001e 00       		.byte	0x0
 446 001f 00       		.byte	0x0
 447 0020 03       		.uleb128 0x3
 448 0021 24       		.uleb128 0x24
 449 0022 00       		.byte	0x0
 450 0023 0B       		.uleb128 0xb
 451 0024 0B       		.uleb128 0xb
 452 0025 3E       		.uleb128 0x3e
 453 0026 0B       		.uleb128 0xb
 454 0027 03       		.uleb128 0x3
 455 0028 08       		.uleb128 0x8
 456 0029 00       		.byte	0x0
 457 002a 00       		.byte	0x0
 458 002b 04       		.uleb128 0x4
 459 002c 16       		.uleb128 0x16
ARM GAS  C:\Users\SUZUKI~1\AppData\Local\Temp\cc0qaRb0.s 			page 11


 460 002d 00       		.byte	0x0
 461 002e 03       		.uleb128 0x3
 462 002f 0E       		.uleb128 0xe
 463 0030 3A       		.uleb128 0x3a
 464 0031 0B       		.uleb128 0xb
 465 0032 3B       		.uleb128 0x3b
 466 0033 0B       		.uleb128 0xb
 467 0034 49       		.uleb128 0x49
 468 0035 13       		.uleb128 0x13
 469 0036 00       		.byte	0x0
 470 0037 00       		.byte	0x0
 471 0038 05       		.uleb128 0x5
 472 0039 2E       		.uleb128 0x2e
 473 003a 01       		.byte	0x1
 474 003b 3F       		.uleb128 0x3f
 475 003c 0C       		.uleb128 0xc
 476 003d 03       		.uleb128 0x3
 477 003e 0E       		.uleb128 0xe
 478 003f 3A       		.uleb128 0x3a
 479 0040 0B       		.uleb128 0xb
 480 0041 3B       		.uleb128 0x3b
 481 0042 0B       		.uleb128 0xb
 482 0043 27       		.uleb128 0x27
 483 0044 0C       		.uleb128 0xc
 484 0045 11       		.uleb128 0x11
 485 0046 01       		.uleb128 0x1
 486 0047 12       		.uleb128 0x12
 487 0048 01       		.uleb128 0x1
 488 0049 40       		.uleb128 0x40
 489 004a 06       		.uleb128 0x6
 490 004b 01       		.uleb128 0x1
 491 004c 13       		.uleb128 0x13
 492 004d 00       		.byte	0x0
 493 004e 00       		.byte	0x0
 494 004f 06       		.uleb128 0x6
 495 0050 05       		.uleb128 0x5
 496 0051 00       		.byte	0x0
 497 0052 03       		.uleb128 0x3
 498 0053 0E       		.uleb128 0xe
 499 0054 3A       		.uleb128 0x3a
 500 0055 0B       		.uleb128 0xb
 501 0056 3B       		.uleb128 0x3b
 502 0057 0B       		.uleb128 0xb
 503 0058 49       		.uleb128 0x49
 504 0059 13       		.uleb128 0x13
 505 005a 02       		.uleb128 0x2
 506 005b 0A       		.uleb128 0xa
 507 005c 00       		.byte	0x0
 508 005d 00       		.byte	0x0
 509 005e 07       		.uleb128 0x7
 510 005f 34       		.uleb128 0x34
 511 0060 00       		.byte	0x0
 512 0061 03       		.uleb128 0x3
 513 0062 0E       		.uleb128 0xe
 514 0063 3A       		.uleb128 0x3a
 515 0064 0B       		.uleb128 0xb
 516 0065 3B       		.uleb128 0x3b
ARM GAS  C:\Users\SUZUKI~1\AppData\Local\Temp\cc0qaRb0.s 			page 12


 517 0066 0B       		.uleb128 0xb
 518 0067 49       		.uleb128 0x49
 519 0068 13       		.uleb128 0x13
 520 0069 02       		.uleb128 0x2
 521 006a 0A       		.uleb128 0xa
 522 006b 00       		.byte	0x0
 523 006c 00       		.byte	0x0
 524 006d 08       		.uleb128 0x8
 525 006e 2E       		.uleb128 0x2e
 526 006f 00       		.byte	0x0
 527 0070 3F       		.uleb128 0x3f
 528 0071 0C       		.uleb128 0xc
 529 0072 03       		.uleb128 0x3
 530 0073 0E       		.uleb128 0xe
 531 0074 3A       		.uleb128 0x3a
 532 0075 0B       		.uleb128 0xb
 533 0076 3B       		.uleb128 0x3b
 534 0077 0B       		.uleb128 0xb
 535 0078 27       		.uleb128 0x27
 536 0079 0C       		.uleb128 0xc
 537 007a 49       		.uleb128 0x49
 538 007b 13       		.uleb128 0x13
 539 007c 11       		.uleb128 0x11
 540 007d 01       		.uleb128 0x1
 541 007e 12       		.uleb128 0x12
 542 007f 01       		.uleb128 0x1
 543 0080 40       		.uleb128 0x40
 544 0081 06       		.uleb128 0x6
 545 0082 00       		.byte	0x0
 546 0083 00       		.byte	0x0
 547 0084 00       		.byte	0x0
 548              		.section	.debug_pubnames,"",%progbits
 549 0000 56000000 		.4byte	0x56
 550 0004 0200     		.2byte	0x2
 551 0006 00000000 		.4byte	.Ldebug_info0
 552 000a 20010000 		.4byte	0x120
 553 000e 8F000000 		.4byte	0x8f
 554 0012 4D49534F 		.ascii	"MISO_Write\000"
 554      5F577269 
 554      746500
 555 001d C5000000 		.4byte	0xc5
 556 0021 4D49534F 		.ascii	"MISO_SetDriveMode\000"
 556      5F536574 
 556      44726976 
 556      654D6F64 
 556      6500
 557 0033 ED000000 		.4byte	0xed
 558 0037 4D49534F 		.ascii	"MISO_Read\000"
 558      5F526561 
 558      6400
 559 0041 06010000 		.4byte	0x106
 560 0045 4D49534F 		.ascii	"MISO_ReadDataReg\000"
 560      5F526561 
 560      64446174 
 560      61526567 
 560      00
 561 0056 00000000 		.4byte	0x0
ARM GAS  C:\Users\SUZUKI~1\AppData\Local\Temp\cc0qaRb0.s 			page 13


 562              		.section	.debug_aranges,"",%progbits
 563 0000 34000000 		.4byte	0x34
 564 0004 0200     		.2byte	0x2
 565 0006 00000000 		.4byte	.Ldebug_info0
 566 000a 04       		.byte	0x4
 567 000b 00       		.byte	0x0
 568 000c 0000     		.2byte	0x0
 569 000e 0000     		.2byte	0x0
 570 0010 00000000 		.4byte	.LFB0
 571 0014 40000000 		.4byte	.LFE0-.LFB0
 572 0018 00000000 		.4byte	.LFB1
 573 001c 40000000 		.4byte	.LFE1-.LFB1
 574 0020 00000000 		.4byte	.LFB2
 575 0024 1E000000 		.4byte	.LFE2-.LFB2
 576 0028 00000000 		.4byte	.LFB3
 577 002c 1E000000 		.4byte	.LFE3-.LFB3
 578 0030 00000000 		.4byte	0x0
 579 0034 00000000 		.4byte	0x0
 580              		.section	.debug_ranges,"",%progbits
 581              	.Ldebug_ranges0:
 582 0000 00000000 		.4byte	.Ltext0
 583 0004 00000000 		.4byte	.Letext0
 584 0008 00000000 		.4byte	.LFB0
 585 000c 40000000 		.4byte	.LFE0
 586 0010 00000000 		.4byte	.LFB1
 587 0014 40000000 		.4byte	.LFE1
 588 0018 00000000 		.4byte	.LFB2
 589 001c 1E000000 		.4byte	.LFE2
 590 0020 00000000 		.4byte	.LFB3
 591 0024 1E000000 		.4byte	.LFE3
 592 0028 00000000 		.4byte	0x0
 593 002c 00000000 		.4byte	0x0
 594              		.section	.debug_str,"MS",%progbits,1
 595              	.LASF6:
 596 0000 6C6F6E67 		.ascii	"long long int\000"
 596      206C6F6E 
 596      6720696E 
 596      7400
 597              	.LASF17:
 598 000e 4D49534F 		.ascii	"MISO_ReadDataReg\000"
 598      5F526561 
 598      64446174 
 598      61526567 
 598      00
 599              	.LASF14:
 600 001f 76616C75 		.ascii	"value\000"
 600      6500
 601              	.LASF22:
 602 0025 73746174 		.ascii	"staticBits\000"
 602      69634269 
 602      747300
 603              	.LASF19:
 604 0030 2E5C4765 		.ascii	".\\Generated_Source\\PSoC5\\MISO.c\000"
 604      6E657261 
 604      7465645F 
 604      536F7572 
 604      63655C50 
ARM GAS  C:\Users\SUZUKI~1\AppData\Local\Temp\cc0qaRb0.s 			page 14


 605              	.LASF9:
 606 0050 666C6F61 		.ascii	"float\000"
 606      7400
 607              	.LASF12:
 608 0056 4D49534F 		.ascii	"MISO_Write\000"
 608      5F577269 
 608      746500
 609              	.LASF1:
 610 0061 756E7369 		.ascii	"unsigned char\000"
 610      676E6564 
 610      20636861 
 610      7200
 611              	.LASF5:
 612 006f 6C6F6E67 		.ascii	"long unsigned int\000"
 612      20756E73 
 612      69676E65 
 612      6420696E 
 612      7400
 613              	.LASF3:
 614 0081 73686F72 		.ascii	"short unsigned int\000"
 614      7420756E 
 614      7369676E 
 614      65642069 
 614      6E7400
 615              	.LASF16:
 616 0094 4D49534F 		.ascii	"MISO_Read\000"
 616      5F526561 
 616      6400
 617              	.LASF13:
 618 009e 4D49534F 		.ascii	"MISO_SetDriveMode\000"
 618      5F536574 
 618      44726976 
 618      654D6F64 
 618      6500
 619              	.LASF10:
 620 00b0 646F7562 		.ascii	"double\000"
 620      6C6500
 621              	.LASF20:
 622 00b7 463A5C44 		.ascii	"F:\\Documents\\PSoC_Creator\\tfexpbrd\\tfexpbrd.cyd"
 622      6F63756D 
 622      656E7473 
 622      5C50536F 
 622      435F4372 
 623 00e6 736E00   		.ascii	"sn\000"
 624              	.LASF8:
 625 00e9 756E7369 		.ascii	"unsigned int\000"
 625      676E6564 
 625      20696E74 
 625      00
 626              	.LASF7:
 627 00f6 6C6F6E67 		.ascii	"long long unsigned int\000"
 627      206C6F6E 
 627      6720756E 
 627      7369676E 
 627      65642069 
 628              	.LASF15:
 629 010d 6D6F6465 		.ascii	"mode\000"
ARM GAS  C:\Users\SUZUKI~1\AppData\Local\Temp\cc0qaRb0.s 			page 15


 629      00
 630              	.LASF18:
 631 0112 474E5520 		.ascii	"GNU C 4.4.1\000"
 631      4320342E 
 631      342E3100 
 632              	.LASF11:
 633 011e 63686172 		.ascii	"char\000"
 633      00
 634              	.LASF2:
 635 0123 73686F72 		.ascii	"short int\000"
 635      7420696E 
 635      7400
 636              	.LASF21:
 637 012d 75696E74 		.ascii	"uint8\000"
 637      3800
 638              	.LASF4:
 639 0133 6C6F6E67 		.ascii	"long int\000"
 639      20696E74 
 639      00
 640              	.LASF0:
 641 013c 7369676E 		.ascii	"signed char\000"
 641      65642063 
 641      68617200 
 642              		.ident	"GCC: (Sourcery G++ Lite 2010q1-188) 4.4.1"
