ARM GAS  C:\Users\SUZUKI~1\AppData\Local\Temp\ccWvIhxV.s 			page 1


   1              		.syntax unified
   2              		.cpu cortex-m3
   3              		.fpu softvfp
   4              		.eabi_attribute 20, 1
   5              		.eabi_attribute 21, 1
   6              		.eabi_attribute 23, 3
   7              		.eabi_attribute 24, 1
   8              		.eabi_attribute 25, 1
   9              		.eabi_attribute 26, 1
  10              		.eabi_attribute 30, 6
  11              		.eabi_attribute 18, 4
  12              		.thumb
  13              		.file	"MOSI.c"
  14              		.section	.debug_abbrev,"",%progbits
  15              	.Ldebug_abbrev0:
  16              		.section	.debug_info,"",%progbits
  17              	.Ldebug_info0:
  18              		.section	.debug_line,"",%progbits
  19              	.Ldebug_line0:
  20 0000 AB000000 		.text
  20      02005D00 
  20      00000201 
  20      FB0E0D00 
  20      01010101 
  21              	.Ltext0:
  22              		.cfi_sections	.debug_frame
  23              		.section	.text.MOSI_Write,"ax",%progbits
  24              		.align	2
  25              		.global	MOSI_Write
  26              		.thumb
  27              		.thumb_func
  28              		.type	MOSI_Write, %function
  29              	MOSI_Write:
  30              	.LFB0:
  31              		.file 1 ".\\Generated_Source\\PSoC5\\MOSI.c"
   1:.\Generated_Source\PSoC5/MOSI.c **** /*******************************************************************************
   2:.\Generated_Source\PSoC5/MOSI.c **** * File Name: MOSI.c  
   3:.\Generated_Source\PSoC5/MOSI.c **** * Version 1.80
   4:.\Generated_Source\PSoC5/MOSI.c **** *
   5:.\Generated_Source\PSoC5/MOSI.c **** * Description:
   6:.\Generated_Source\PSoC5/MOSI.c **** *  This file contains API to enable firmware control of a Pins component.
   7:.\Generated_Source\PSoC5/MOSI.c **** *
   8:.\Generated_Source\PSoC5/MOSI.c **** * Note:
   9:.\Generated_Source\PSoC5/MOSI.c **** *
  10:.\Generated_Source\PSoC5/MOSI.c **** ********************************************************************************
  11:.\Generated_Source\PSoC5/MOSI.c **** * Copyright 2008-2012, Cypress Semiconductor Corporation.  All rights reserved.
  12:.\Generated_Source\PSoC5/MOSI.c **** * You may use this file only in accordance with the license, terms, conditions, 
  13:.\Generated_Source\PSoC5/MOSI.c **** * disclaimers, and limitations in the end user license agreement accompanying 
  14:.\Generated_Source\PSoC5/MOSI.c **** * the software package with which this file was provided.
  15:.\Generated_Source\PSoC5/MOSI.c **** *******************************************************************************/
  16:.\Generated_Source\PSoC5/MOSI.c **** 
  17:.\Generated_Source\PSoC5/MOSI.c **** #include "cytypes.h"
  18:.\Generated_Source\PSoC5/MOSI.c **** #include "MOSI.h"
  19:.\Generated_Source\PSoC5/MOSI.c **** 
  20:.\Generated_Source\PSoC5/MOSI.c **** /* APIs are not generated for P15[7:6] on PSoC 5 */
  21:.\Generated_Source\PSoC5/MOSI.c **** #if !(CY_PSOC5A &&\
  22:.\Generated_Source\PSoC5/MOSI.c **** 	 MOSI__PORT == 15 && ((MOSI__MASK & 0xC0) != 0))
ARM GAS  C:\Users\SUZUKI~1\AppData\Local\Temp\ccWvIhxV.s 			page 2


  23:.\Generated_Source\PSoC5/MOSI.c **** 
  24:.\Generated_Source\PSoC5/MOSI.c **** 
  25:.\Generated_Source\PSoC5/MOSI.c **** /*******************************************************************************
  26:.\Generated_Source\PSoC5/MOSI.c **** * Function Name: MOSI_Write
  27:.\Generated_Source\PSoC5/MOSI.c **** ********************************************************************************
  28:.\Generated_Source\PSoC5/MOSI.c **** *
  29:.\Generated_Source\PSoC5/MOSI.c **** * Summary:
  30:.\Generated_Source\PSoC5/MOSI.c **** *  Assign a new value to the digital port's data output register.  
  31:.\Generated_Source\PSoC5/MOSI.c **** *
  32:.\Generated_Source\PSoC5/MOSI.c **** * Parameters:  
  33:.\Generated_Source\PSoC5/MOSI.c **** *  prtValue:  The value to be assigned to the Digital Port. 
  34:.\Generated_Source\PSoC5/MOSI.c **** *
  35:.\Generated_Source\PSoC5/MOSI.c **** * Return: 
  36:.\Generated_Source\PSoC5/MOSI.c **** *  None
  37:.\Generated_Source\PSoC5/MOSI.c **** *  
  38:.\Generated_Source\PSoC5/MOSI.c **** *******************************************************************************/
  39:.\Generated_Source\PSoC5/MOSI.c **** void MOSI_Write(uint8 value) 
  40:.\Generated_Source\PSoC5/MOSI.c **** {
  32              		.loc 1 40 0
  33              		.cfi_startproc
  34              		@ args = 0, pretend = 0, frame = 16
  35              		@ frame_needed = 1, uses_anonymous_args = 0
  36              		@ link register save eliminated.
  37 0000 80B4     		push	{r7}
  38              	.LCFI0:
  39              		.cfi_def_cfa_offset 4
  40 0002 85B0     		sub	sp, sp, #20
  41              	.LCFI1:
  42              		.cfi_def_cfa_offset 24
  43 0004 00AF     		add	r7, sp, #0
  44              		.cfi_offset 7, -4
  45              	.LCFI2:
  46              		.cfi_def_cfa_register 7
  47 0006 0346     		mov	r3, r0
  48 0008 FB71     		strb	r3, [r7, #7]
  41:.\Generated_Source\PSoC5/MOSI.c ****     uint8 staticBits = (MOSI_DR & (uint8)(~MOSI_MASK));
  49              		.loc 1 41 0
  50 000a 45F25013 		movw	r3, #:lower16:1073762640
  51 000e C4F20003 		movt	r3, #:upper16:1073762640
  52 0012 1B78     		ldrb	r3, [r3, #0]
  53 0014 DBB2     		uxtb	r3, r3
  54 0016 23F00203 		bic	r3, r3, #2
  55 001a FB73     		strb	r3, [r7, #15]
  42:.\Generated_Source\PSoC5/MOSI.c ****     MOSI_DR = staticBits | ((uint8)(value << MOSI_SHIFT) & MOSI_MASK);
  56              		.loc 1 42 0
  57 001c 45F25013 		movw	r3, #:lower16:1073762640
  58 0020 C4F20003 		movt	r3, #:upper16:1073762640
  59 0024 FA79     		ldrb	r2, [r7, #7]
  60 0026 4FEA4202 		lsl	r2, r2, #1
  61 002a D2B2     		uxtb	r2, r2
  62 002c 02F00202 		and	r2, r2, #2
  63 0030 F97B     		ldrb	r1, [r7, #15]
  64 0032 42EA0102 		orr	r2, r2, r1
  65 0036 D2B2     		uxtb	r2, r2
  66 0038 1A70     		strb	r2, [r3, #0]
  43:.\Generated_Source\PSoC5/MOSI.c **** }
  67              		.loc 1 43 0
ARM GAS  C:\Users\SUZUKI~1\AppData\Local\Temp\ccWvIhxV.s 			page 3


  68 003a 07F11407 		add	r7, r7, #20
  69 003e BD46     		mov	sp, r7
  70 0040 80BC     		pop	{r7}
  71 0042 7047     		bx	lr
  72              		.cfi_endproc
  73              	.LFE0:
  74              		.size	MOSI_Write, .-MOSI_Write
  75              		.section	.text.MOSI_SetDriveMode,"ax",%progbits
  76              		.align	2
  77              		.global	MOSI_SetDriveMode
  78              		.thumb
  79              		.thumb_func
  80              		.type	MOSI_SetDriveMode, %function
  81              	MOSI_SetDriveMode:
  82              	.LFB1:
  44:.\Generated_Source\PSoC5/MOSI.c **** 
  45:.\Generated_Source\PSoC5/MOSI.c **** 
  46:.\Generated_Source\PSoC5/MOSI.c **** /*******************************************************************************
  47:.\Generated_Source\PSoC5/MOSI.c **** * Function Name: MOSI_SetDriveMode
  48:.\Generated_Source\PSoC5/MOSI.c **** ********************************************************************************
  49:.\Generated_Source\PSoC5/MOSI.c **** *
  50:.\Generated_Source\PSoC5/MOSI.c **** * Summary:
  51:.\Generated_Source\PSoC5/MOSI.c **** *  Change the drive mode on the pins of the port.
  52:.\Generated_Source\PSoC5/MOSI.c **** * 
  53:.\Generated_Source\PSoC5/MOSI.c **** * Parameters:  
  54:.\Generated_Source\PSoC5/MOSI.c **** *  mode:  Change the pins to this drive mode.
  55:.\Generated_Source\PSoC5/MOSI.c **** *
  56:.\Generated_Source\PSoC5/MOSI.c **** * Return: 
  57:.\Generated_Source\PSoC5/MOSI.c **** *  None
  58:.\Generated_Source\PSoC5/MOSI.c **** *
  59:.\Generated_Source\PSoC5/MOSI.c **** *******************************************************************************/
  60:.\Generated_Source\PSoC5/MOSI.c **** void MOSI_SetDriveMode(uint8 mode) 
  61:.\Generated_Source\PSoC5/MOSI.c **** {
  83              		.loc 1 61 0
  84              		.cfi_startproc
  85              		@ args = 0, pretend = 0, frame = 8
  86              		@ frame_needed = 1, uses_anonymous_args = 0
  87              		@ link register save eliminated.
  88 0000 80B4     		push	{r7}
  89              	.LCFI3:
  90              		.cfi_def_cfa_offset 4
  91 0002 83B0     		sub	sp, sp, #12
  92              	.LCFI4:
  93              		.cfi_def_cfa_offset 16
  94 0004 00AF     		add	r7, sp, #0
  95              		.cfi_offset 7, -4
  96              	.LCFI5:
  97              		.cfi_def_cfa_register 7
  98 0006 0346     		mov	r3, r0
  99 0008 FB71     		strb	r3, [r7, #7]
  62:.\Generated_Source\PSoC5/MOSI.c **** 	CyPins_SetPinDriveMode(MOSI_0, mode);
 100              		.loc 1 62 0
 101 000a 45F22903 		movw	r3, #:lower16:1073762345
 102 000e C4F20003 		movt	r3, #:upper16:1073762345
 103 0012 45F22902 		movw	r2, #:lower16:1073762345
 104 0016 C4F20002 		movt	r2, #:upper16:1073762345
 105 001a 1278     		ldrb	r2, [r2, #0]
ARM GAS  C:\Users\SUZUKI~1\AppData\Local\Temp\ccWvIhxV.s 			page 4


 106 001c D2B2     		uxtb	r2, r2
 107 001e D1B2     		uxtb	r1, r2
 108 0020 01F0F101 		and	r1, r1, #241
 109 0024 FA79     		ldrb	r2, [r7, #7]	@ zero_extendqisi2
 110 0026 D2B2     		uxtb	r2, r2
 111 0028 02F00E02 		and	r2, r2, #14
 112 002c 41EA0202 		orr	r2, r1, r2
 113 0030 D2B2     		uxtb	r2, r2
 114 0032 D2B2     		uxtb	r2, r2
 115 0034 1A70     		strb	r2, [r3, #0]
  63:.\Generated_Source\PSoC5/MOSI.c **** }
 116              		.loc 1 63 0
 117 0036 07F10C07 		add	r7, r7, #12
 118 003a BD46     		mov	sp, r7
 119 003c 80BC     		pop	{r7}
 120 003e 7047     		bx	lr
 121              		.cfi_endproc
 122              	.LFE1:
 123              		.size	MOSI_SetDriveMode, .-MOSI_SetDriveMode
 124              		.section	.text.MOSI_Read,"ax",%progbits
 125              		.align	2
 126              		.global	MOSI_Read
 127              		.thumb
 128              		.thumb_func
 129              		.type	MOSI_Read, %function
 130              	MOSI_Read:
 131              	.LFB2:
  64:.\Generated_Source\PSoC5/MOSI.c **** 
  65:.\Generated_Source\PSoC5/MOSI.c **** 
  66:.\Generated_Source\PSoC5/MOSI.c **** /*******************************************************************************
  67:.\Generated_Source\PSoC5/MOSI.c **** * Function Name: MOSI_Read
  68:.\Generated_Source\PSoC5/MOSI.c **** ********************************************************************************
  69:.\Generated_Source\PSoC5/MOSI.c **** *
  70:.\Generated_Source\PSoC5/MOSI.c **** * Summary:
  71:.\Generated_Source\PSoC5/MOSI.c **** *  Read the current value on the pins of the Digital Port in right justified 
  72:.\Generated_Source\PSoC5/MOSI.c **** *  form.
  73:.\Generated_Source\PSoC5/MOSI.c **** *
  74:.\Generated_Source\PSoC5/MOSI.c **** * Parameters:  
  75:.\Generated_Source\PSoC5/MOSI.c **** *  None
  76:.\Generated_Source\PSoC5/MOSI.c **** *
  77:.\Generated_Source\PSoC5/MOSI.c **** * Return: 
  78:.\Generated_Source\PSoC5/MOSI.c **** *  Returns the current value of the Digital Port as a right justified number
  79:.\Generated_Source\PSoC5/MOSI.c **** *  
  80:.\Generated_Source\PSoC5/MOSI.c **** * Note:
  81:.\Generated_Source\PSoC5/MOSI.c **** *  Macro MOSI_ReadPS calls this function. 
  82:.\Generated_Source\PSoC5/MOSI.c **** *  
  83:.\Generated_Source\PSoC5/MOSI.c **** *******************************************************************************/
  84:.\Generated_Source\PSoC5/MOSI.c **** uint8 MOSI_Read(void) 
  85:.\Generated_Source\PSoC5/MOSI.c **** {
 132              		.loc 1 85 0
 133              		.cfi_startproc
 134              		@ args = 0, pretend = 0, frame = 0
 135              		@ frame_needed = 1, uses_anonymous_args = 0
 136              		@ link register save eliminated.
 137 0000 80B4     		push	{r7}
 138              	.LCFI6:
 139              		.cfi_def_cfa_offset 4
ARM GAS  C:\Users\SUZUKI~1\AppData\Local\Temp\ccWvIhxV.s 			page 5


 140 0002 00AF     		add	r7, sp, #0
 141              		.cfi_offset 7, -4
 142              	.LCFI7:
 143              		.cfi_def_cfa_register 7
  86:.\Generated_Source\PSoC5/MOSI.c ****     return (MOSI_PS & MOSI_MASK) >> MOSI_SHIFT;
 144              		.loc 1 86 0
 145 0004 45F25113 		movw	r3, #:lower16:1073762641
 146 0008 C4F20003 		movt	r3, #:upper16:1073762641
 147 000c 1B78     		ldrb	r3, [r3, #0]
 148 000e DBB2     		uxtb	r3, r3
 149 0010 03F00203 		and	r3, r3, #2
 150 0014 4FEA5303 		lsr	r3, r3, #1
 151 0018 DBB2     		uxtb	r3, r3
  87:.\Generated_Source\PSoC5/MOSI.c **** }
 152              		.loc 1 87 0
 153 001a 1846     		mov	r0, r3
 154 001c BD46     		mov	sp, r7
 155 001e 80BC     		pop	{r7}
 156 0020 7047     		bx	lr
 157              		.cfi_endproc
 158              	.LFE2:
 159              		.size	MOSI_Read, .-MOSI_Read
 160 0022 00BF     		.section	.text.MOSI_ReadDataReg,"ax",%progbits
 161              		.align	2
 162              		.global	MOSI_ReadDataReg
 163              		.thumb
 164              		.thumb_func
 165              		.type	MOSI_ReadDataReg, %function
 166              	MOSI_ReadDataReg:
 167              	.LFB3:
  88:.\Generated_Source\PSoC5/MOSI.c **** 
  89:.\Generated_Source\PSoC5/MOSI.c **** 
  90:.\Generated_Source\PSoC5/MOSI.c **** /*******************************************************************************
  91:.\Generated_Source\PSoC5/MOSI.c **** * Function Name: MOSI_ReadDataReg
  92:.\Generated_Source\PSoC5/MOSI.c **** ********************************************************************************
  93:.\Generated_Source\PSoC5/MOSI.c **** *
  94:.\Generated_Source\PSoC5/MOSI.c **** * Summary:
  95:.\Generated_Source\PSoC5/MOSI.c **** *  Read the current value assigned to a Digital Port's data output register
  96:.\Generated_Source\PSoC5/MOSI.c **** *
  97:.\Generated_Source\PSoC5/MOSI.c **** * Parameters:  
  98:.\Generated_Source\PSoC5/MOSI.c **** *  None 
  99:.\Generated_Source\PSoC5/MOSI.c **** *
 100:.\Generated_Source\PSoC5/MOSI.c **** * Return: 
 101:.\Generated_Source\PSoC5/MOSI.c **** *  Returns the current value assigned to the Digital Port's data output register
 102:.\Generated_Source\PSoC5/MOSI.c **** *  
 103:.\Generated_Source\PSoC5/MOSI.c **** *******************************************************************************/
 104:.\Generated_Source\PSoC5/MOSI.c **** uint8 MOSI_ReadDataReg(void) 
 105:.\Generated_Source\PSoC5/MOSI.c **** {
 168              		.loc 1 105 0
 169              		.cfi_startproc
 170              		@ args = 0, pretend = 0, frame = 0
 171              		@ frame_needed = 1, uses_anonymous_args = 0
 172              		@ link register save eliminated.
 173 0000 80B4     		push	{r7}
 174              	.LCFI8:
 175              		.cfi_def_cfa_offset 4
 176 0002 00AF     		add	r7, sp, #0
ARM GAS  C:\Users\SUZUKI~1\AppData\Local\Temp\ccWvIhxV.s 			page 6


 177              		.cfi_offset 7, -4
 178              	.LCFI9:
 179              		.cfi_def_cfa_register 7
 106:.\Generated_Source\PSoC5/MOSI.c ****     return (MOSI_DR & MOSI_MASK) >> MOSI_SHIFT;
 180              		.loc 1 106 0
 181 0004 45F25013 		movw	r3, #:lower16:1073762640
 182 0008 C4F20003 		movt	r3, #:upper16:1073762640
 183 000c 1B78     		ldrb	r3, [r3, #0]
 184 000e DBB2     		uxtb	r3, r3
 185 0010 03F00203 		and	r3, r3, #2
 186 0014 4FEA5303 		lsr	r3, r3, #1
 187 0018 DBB2     		uxtb	r3, r3
 107:.\Generated_Source\PSoC5/MOSI.c **** }
 188              		.loc 1 107 0
 189 001a 1846     		mov	r0, r3
 190 001c BD46     		mov	sp, r7
 191 001e 80BC     		pop	{r7}
 192 0020 7047     		bx	lr
 193              		.cfi_endproc
 194              	.LFE3:
 195              		.size	MOSI_ReadDataReg, .-MOSI_ReadDataReg
 196 0022 00BF     		.text
 197              	.Letext0:
 198              		.section	.debug_loc,"",%progbits
 199              	.Ldebug_loc0:
 200              	.LLST0:
 201 0000 00000000 		.4byte	.LFB0
 202 0004 02000000 		.4byte	.LCFI0
 203 0008 0100     		.2byte	0x1
 204 000a 5D       		.byte	0x5d
 205 000b 02000000 		.4byte	.LCFI0
 206 000f 04000000 		.4byte	.LCFI1
 207 0013 0200     		.2byte	0x2
 208 0015 7D       		.byte	0x7d
 209 0016 04       		.sleb128 4
 210 0017 04000000 		.4byte	.LCFI1
 211 001b 06000000 		.4byte	.LCFI2
 212 001f 0200     		.2byte	0x2
 213 0021 7D       		.byte	0x7d
 214 0022 18       		.sleb128 24
 215 0023 06000000 		.4byte	.LCFI2
 216 0027 44000000 		.4byte	.LFE0
 217 002b 0200     		.2byte	0x2
 218 002d 77       		.byte	0x77
 219 002e 18       		.sleb128 24
 220 002f 00000000 		.4byte	0x0
 221 0033 00000000 		.4byte	0x0
 222              	.LLST1:
 223 0037 00000000 		.4byte	.LFB1
 224 003b 02000000 		.4byte	.LCFI3
 225 003f 0100     		.2byte	0x1
 226 0041 5D       		.byte	0x5d
 227 0042 02000000 		.4byte	.LCFI3
 228 0046 04000000 		.4byte	.LCFI4
 229 004a 0200     		.2byte	0x2
 230 004c 7D       		.byte	0x7d
 231 004d 04       		.sleb128 4
ARM GAS  C:\Users\SUZUKI~1\AppData\Local\Temp\ccWvIhxV.s 			page 7


 232 004e 04000000 		.4byte	.LCFI4
 233 0052 06000000 		.4byte	.LCFI5
 234 0056 0200     		.2byte	0x2
 235 0058 7D       		.byte	0x7d
 236 0059 10       		.sleb128 16
 237 005a 06000000 		.4byte	.LCFI5
 238 005e 40000000 		.4byte	.LFE1
 239 0062 0200     		.2byte	0x2
 240 0064 77       		.byte	0x77
 241 0065 10       		.sleb128 16
 242 0066 00000000 		.4byte	0x0
 243 006a 00000000 		.4byte	0x0
 244              	.LLST2:
 245 006e 00000000 		.4byte	.LFB2
 246 0072 02000000 		.4byte	.LCFI6
 247 0076 0100     		.2byte	0x1
 248 0078 5D       		.byte	0x5d
 249 0079 02000000 		.4byte	.LCFI6
 250 007d 04000000 		.4byte	.LCFI7
 251 0081 0200     		.2byte	0x2
 252 0083 7D       		.byte	0x7d
 253 0084 04       		.sleb128 4
 254 0085 04000000 		.4byte	.LCFI7
 255 0089 22000000 		.4byte	.LFE2
 256 008d 0200     		.2byte	0x2
 257 008f 77       		.byte	0x77
 258 0090 04       		.sleb128 4
 259 0091 00000000 		.4byte	0x0
 260 0095 00000000 		.4byte	0x0
 261              	.LLST3:
 262 0099 00000000 		.4byte	.LFB3
 263 009d 02000000 		.4byte	.LCFI8
 264 00a1 0100     		.2byte	0x1
 265 00a3 5D       		.byte	0x5d
 266 00a4 02000000 		.4byte	.LCFI8
 267 00a8 04000000 		.4byte	.LCFI9
 268 00ac 0200     		.2byte	0x2
 269 00ae 7D       		.byte	0x7d
 270 00af 04       		.sleb128 4
 271 00b0 04000000 		.4byte	.LCFI9
 272 00b4 22000000 		.4byte	.LFE3
 273 00b8 0200     		.2byte	0x2
 274 00ba 77       		.byte	0x77
 275 00bb 04       		.sleb128 4
 276 00bc 00000000 		.4byte	0x0
 277 00c0 00000000 		.4byte	0x0
 278              		.file 2 ".\\Generated_Source\\PSoC5\\/cytypes.h"
 279              		.section	.debug_info
 280 0000 1C010000 		.4byte	0x11c
 281 0004 0200     		.2byte	0x2
 282 0006 00000000 		.4byte	.Ldebug_abbrev0
 283 000a 04       		.byte	0x4
 284 000b 01       		.uleb128 0x1
 285 000c 01010000 		.4byte	.LASF18
 286 0010 01       		.byte	0x1
 287 0011 D2000000 		.4byte	.LASF19
 288 0015 6A000000 		.4byte	.LASF20
ARM GAS  C:\Users\SUZUKI~1\AppData\Local\Temp\ccWvIhxV.s 			page 8


 289 0019 00000000 		.4byte	0x0
 290 001d 00000000 		.4byte	0x0
 291 0021 00000000 		.4byte	.Ldebug_ranges0+0x0
 292 0025 00000000 		.4byte	.Ldebug_line0
 293 0029 02       		.uleb128 0x2
 294 002a 01       		.byte	0x1
 295 002b 06       		.byte	0x6
 296 002c 3C010000 		.4byte	.LASF0
 297 0030 02       		.uleb128 0x2
 298 0031 01       		.byte	0x1
 299 0032 08       		.byte	0x8
 300 0033 30000000 		.4byte	.LASF1
 301 0037 02       		.uleb128 0x2
 302 0038 02       		.byte	0x2
 303 0039 05       		.byte	0x5
 304 003a 12010000 		.4byte	.LASF2
 305 003e 02       		.uleb128 0x2
 306 003f 02       		.byte	0x2
 307 0040 07       		.byte	0x7
 308 0041 50000000 		.4byte	.LASF3
 309 0045 02       		.uleb128 0x2
 310 0046 04       		.byte	0x4
 311 0047 05       		.byte	0x5
 312 0048 22010000 		.4byte	.LASF4
 313 004c 02       		.uleb128 0x2
 314 004d 04       		.byte	0x4
 315 004e 07       		.byte	0x7
 316 004f 3E000000 		.4byte	.LASF5
 317 0053 02       		.uleb128 0x2
 318 0054 08       		.byte	0x8
 319 0055 05       		.byte	0x5
 320 0056 00000000 		.4byte	.LASF6
 321 005a 02       		.uleb128 0x2
 322 005b 08       		.byte	0x8
 323 005c 07       		.byte	0x7
 324 005d BB000000 		.4byte	.LASF7
 325 0061 03       		.uleb128 0x3
 326 0062 04       		.byte	0x4
 327 0063 05       		.byte	0x5
 328 0064 696E7400 		.ascii	"int\000"
 329 0068 02       		.uleb128 0x2
 330 0069 04       		.byte	0x4
 331 006a 07       		.byte	0x7
 332 006b 9C000000 		.4byte	.LASF8
 333 006f 04       		.uleb128 0x4
 334 0070 1C010000 		.4byte	.LASF21
 335 0074 02       		.byte	0x2
 336 0075 4C       		.byte	0x4c
 337 0076 30000000 		.4byte	0x30
 338 007a 02       		.uleb128 0x2
 339 007b 04       		.byte	0x4
 340 007c 04       		.byte	0x4
 341 007d 2A000000 		.4byte	.LASF9
 342 0081 02       		.uleb128 0x2
 343 0082 08       		.byte	0x8
 344 0083 04       		.byte	0x4
 345 0084 63000000 		.4byte	.LASF10
ARM GAS  C:\Users\SUZUKI~1\AppData\Local\Temp\ccWvIhxV.s 			page 9


 346 0088 02       		.uleb128 0x2
 347 0089 01       		.byte	0x1
 348 008a 08       		.byte	0x8
 349 008b 0D010000 		.4byte	.LASF11
 350 008f 05       		.uleb128 0x5
 351 0090 01       		.byte	0x1
 352 0091 0E000000 		.4byte	.LASF12
 353 0095 01       		.byte	0x1
 354 0096 27       		.byte	0x27
 355 0097 01       		.byte	0x1
 356 0098 00000000 		.4byte	.LFB0
 357 009c 44000000 		.4byte	.LFE0
 358 00a0 00000000 		.4byte	.LLST0
 359 00a4 C5000000 		.4byte	0xc5
 360 00a8 06       		.uleb128 0x6
 361 00a9 19000000 		.4byte	.LASF14
 362 00ad 01       		.byte	0x1
 363 00ae 27       		.byte	0x27
 364 00af 6F000000 		.4byte	0x6f
 365 00b3 02       		.byte	0x2
 366 00b4 91       		.byte	0x91
 367 00b5 6F       		.sleb128 -17
 368 00b6 07       		.uleb128 0x7
 369 00b7 1F000000 		.4byte	.LASF22
 370 00bb 01       		.byte	0x1
 371 00bc 29       		.byte	0x29
 372 00bd 6F000000 		.4byte	0x6f
 373 00c1 02       		.byte	0x2
 374 00c2 91       		.byte	0x91
 375 00c3 77       		.sleb128 -9
 376 00c4 00       		.byte	0x0
 377 00c5 05       		.uleb128 0x5
 378 00c6 01       		.byte	0x1
 379 00c7 A9000000 		.4byte	.LASF13
 380 00cb 01       		.byte	0x1
 381 00cc 3C       		.byte	0x3c
 382 00cd 01       		.byte	0x1
 383 00ce 00000000 		.4byte	.LFB1
 384 00d2 40000000 		.4byte	.LFE1
 385 00d6 37000000 		.4byte	.LLST1
 386 00da ED000000 		.4byte	0xed
 387 00de 06       		.uleb128 0x6
 388 00df F2000000 		.4byte	.LASF15
 389 00e3 01       		.byte	0x1
 390 00e4 3C       		.byte	0x3c
 391 00e5 6F000000 		.4byte	0x6f
 392 00e9 02       		.byte	0x2
 393 00ea 91       		.byte	0x91
 394 00eb 77       		.sleb128 -9
 395 00ec 00       		.byte	0x0
 396 00ed 08       		.uleb128 0x8
 397 00ee 01       		.byte	0x1
 398 00ef F7000000 		.4byte	.LASF16
 399 00f3 01       		.byte	0x1
 400 00f4 54       		.byte	0x54
 401 00f5 01       		.byte	0x1
 402 00f6 6F000000 		.4byte	0x6f
ARM GAS  C:\Users\SUZUKI~1\AppData\Local\Temp\ccWvIhxV.s 			page 10


 403 00fa 00000000 		.4byte	.LFB2
 404 00fe 22000000 		.4byte	.LFE2
 405 0102 6E000000 		.4byte	.LLST2
 406 0106 08       		.uleb128 0x8
 407 0107 01       		.byte	0x1
 408 0108 2B010000 		.4byte	.LASF17
 409 010c 01       		.byte	0x1
 410 010d 68       		.byte	0x68
 411 010e 01       		.byte	0x1
 412 010f 6F000000 		.4byte	0x6f
 413 0113 00000000 		.4byte	.LFB3
 414 0117 22000000 		.4byte	.LFE3
 415 011b 99000000 		.4byte	.LLST3
 416 011f 00       		.byte	0x0
 417              		.section	.debug_abbrev
 418 0000 01       		.uleb128 0x1
 419 0001 11       		.uleb128 0x11
 420 0002 01       		.byte	0x1
 421 0003 25       		.uleb128 0x25
 422 0004 0E       		.uleb128 0xe
 423 0005 13       		.uleb128 0x13
 424 0006 0B       		.uleb128 0xb
 425 0007 03       		.uleb128 0x3
 426 0008 0E       		.uleb128 0xe
 427 0009 1B       		.uleb128 0x1b
 428 000a 0E       		.uleb128 0xe
 429 000b 11       		.uleb128 0x11
 430 000c 01       		.uleb128 0x1
 431 000d 52       		.uleb128 0x52
 432 000e 01       		.uleb128 0x1
 433 000f 55       		.uleb128 0x55
 434 0010 06       		.uleb128 0x6
 435 0011 10       		.uleb128 0x10
 436 0012 06       		.uleb128 0x6
 437 0013 00       		.byte	0x0
 438 0014 00       		.byte	0x0
 439 0015 02       		.uleb128 0x2
 440 0016 24       		.uleb128 0x24
 441 0017 00       		.byte	0x0
 442 0018 0B       		.uleb128 0xb
 443 0019 0B       		.uleb128 0xb
 444 001a 3E       		.uleb128 0x3e
 445 001b 0B       		.uleb128 0xb
 446 001c 03       		.uleb128 0x3
 447 001d 0E       		.uleb128 0xe
 448 001e 00       		.byte	0x0
 449 001f 00       		.byte	0x0
 450 0020 03       		.uleb128 0x3
 451 0021 24       		.uleb128 0x24
 452 0022 00       		.byte	0x0
 453 0023 0B       		.uleb128 0xb
 454 0024 0B       		.uleb128 0xb
 455 0025 3E       		.uleb128 0x3e
 456 0026 0B       		.uleb128 0xb
 457 0027 03       		.uleb128 0x3
 458 0028 08       		.uleb128 0x8
 459 0029 00       		.byte	0x0
ARM GAS  C:\Users\SUZUKI~1\AppData\Local\Temp\ccWvIhxV.s 			page 11


 460 002a 00       		.byte	0x0
 461 002b 04       		.uleb128 0x4
 462 002c 16       		.uleb128 0x16
 463 002d 00       		.byte	0x0
 464 002e 03       		.uleb128 0x3
 465 002f 0E       		.uleb128 0xe
 466 0030 3A       		.uleb128 0x3a
 467 0031 0B       		.uleb128 0xb
 468 0032 3B       		.uleb128 0x3b
 469 0033 0B       		.uleb128 0xb
 470 0034 49       		.uleb128 0x49
 471 0035 13       		.uleb128 0x13
 472 0036 00       		.byte	0x0
 473 0037 00       		.byte	0x0
 474 0038 05       		.uleb128 0x5
 475 0039 2E       		.uleb128 0x2e
 476 003a 01       		.byte	0x1
 477 003b 3F       		.uleb128 0x3f
 478 003c 0C       		.uleb128 0xc
 479 003d 03       		.uleb128 0x3
 480 003e 0E       		.uleb128 0xe
 481 003f 3A       		.uleb128 0x3a
 482 0040 0B       		.uleb128 0xb
 483 0041 3B       		.uleb128 0x3b
 484 0042 0B       		.uleb128 0xb
 485 0043 27       		.uleb128 0x27
 486 0044 0C       		.uleb128 0xc
 487 0045 11       		.uleb128 0x11
 488 0046 01       		.uleb128 0x1
 489 0047 12       		.uleb128 0x12
 490 0048 01       		.uleb128 0x1
 491 0049 40       		.uleb128 0x40
 492 004a 06       		.uleb128 0x6
 493 004b 01       		.uleb128 0x1
 494 004c 13       		.uleb128 0x13
 495 004d 00       		.byte	0x0
 496 004e 00       		.byte	0x0
 497 004f 06       		.uleb128 0x6
 498 0050 05       		.uleb128 0x5
 499 0051 00       		.byte	0x0
 500 0052 03       		.uleb128 0x3
 501 0053 0E       		.uleb128 0xe
 502 0054 3A       		.uleb128 0x3a
 503 0055 0B       		.uleb128 0xb
 504 0056 3B       		.uleb128 0x3b
 505 0057 0B       		.uleb128 0xb
 506 0058 49       		.uleb128 0x49
 507 0059 13       		.uleb128 0x13
 508 005a 02       		.uleb128 0x2
 509 005b 0A       		.uleb128 0xa
 510 005c 00       		.byte	0x0
 511 005d 00       		.byte	0x0
 512 005e 07       		.uleb128 0x7
 513 005f 34       		.uleb128 0x34
 514 0060 00       		.byte	0x0
 515 0061 03       		.uleb128 0x3
 516 0062 0E       		.uleb128 0xe
ARM GAS  C:\Users\SUZUKI~1\AppData\Local\Temp\ccWvIhxV.s 			page 12


 517 0063 3A       		.uleb128 0x3a
 518 0064 0B       		.uleb128 0xb
 519 0065 3B       		.uleb128 0x3b
 520 0066 0B       		.uleb128 0xb
 521 0067 49       		.uleb128 0x49
 522 0068 13       		.uleb128 0x13
 523 0069 02       		.uleb128 0x2
 524 006a 0A       		.uleb128 0xa
 525 006b 00       		.byte	0x0
 526 006c 00       		.byte	0x0
 527 006d 08       		.uleb128 0x8
 528 006e 2E       		.uleb128 0x2e
 529 006f 00       		.byte	0x0
 530 0070 3F       		.uleb128 0x3f
 531 0071 0C       		.uleb128 0xc
 532 0072 03       		.uleb128 0x3
 533 0073 0E       		.uleb128 0xe
 534 0074 3A       		.uleb128 0x3a
 535 0075 0B       		.uleb128 0xb
 536 0076 3B       		.uleb128 0x3b
 537 0077 0B       		.uleb128 0xb
 538 0078 27       		.uleb128 0x27
 539 0079 0C       		.uleb128 0xc
 540 007a 49       		.uleb128 0x49
 541 007b 13       		.uleb128 0x13
 542 007c 11       		.uleb128 0x11
 543 007d 01       		.uleb128 0x1
 544 007e 12       		.uleb128 0x12
 545 007f 01       		.uleb128 0x1
 546 0080 40       		.uleb128 0x40
 547 0081 06       		.uleb128 0x6
 548 0082 00       		.byte	0x0
 549 0083 00       		.byte	0x0
 550 0084 00       		.byte	0x0
 551              		.section	.debug_pubnames,"",%progbits
 552 0000 56000000 		.4byte	0x56
 553 0004 0200     		.2byte	0x2
 554 0006 00000000 		.4byte	.Ldebug_info0
 555 000a 20010000 		.4byte	0x120
 556 000e 8F000000 		.4byte	0x8f
 557 0012 4D4F5349 		.ascii	"MOSI_Write\000"
 557      5F577269 
 557      746500
 558 001d C5000000 		.4byte	0xc5
 559 0021 4D4F5349 		.ascii	"MOSI_SetDriveMode\000"
 559      5F536574 
 559      44726976 
 559      654D6F64 
 559      6500
 560 0033 ED000000 		.4byte	0xed
 561 0037 4D4F5349 		.ascii	"MOSI_Read\000"
 561      5F526561 
 561      6400
 562 0041 06010000 		.4byte	0x106
 563 0045 4D4F5349 		.ascii	"MOSI_ReadDataReg\000"
 563      5F526561 
 563      64446174 
ARM GAS  C:\Users\SUZUKI~1\AppData\Local\Temp\ccWvIhxV.s 			page 13


 563      61526567 
 563      00
 564 0056 00000000 		.4byte	0x0
 565              		.section	.debug_aranges,"",%progbits
 566 0000 34000000 		.4byte	0x34
 567 0004 0200     		.2byte	0x2
 568 0006 00000000 		.4byte	.Ldebug_info0
 569 000a 04       		.byte	0x4
 570 000b 00       		.byte	0x0
 571 000c 0000     		.2byte	0x0
 572 000e 0000     		.2byte	0x0
 573 0010 00000000 		.4byte	.LFB0
 574 0014 44000000 		.4byte	.LFE0-.LFB0
 575 0018 00000000 		.4byte	.LFB1
 576 001c 40000000 		.4byte	.LFE1-.LFB1
 577 0020 00000000 		.4byte	.LFB2
 578 0024 22000000 		.4byte	.LFE2-.LFB2
 579 0028 00000000 		.4byte	.LFB3
 580 002c 22000000 		.4byte	.LFE3-.LFB3
 581 0030 00000000 		.4byte	0x0
 582 0034 00000000 		.4byte	0x0
 583              		.section	.debug_ranges,"",%progbits
 584              	.Ldebug_ranges0:
 585 0000 00000000 		.4byte	.Ltext0
 586 0004 00000000 		.4byte	.Letext0
 587 0008 00000000 		.4byte	.LFB0
 588 000c 44000000 		.4byte	.LFE0
 589 0010 00000000 		.4byte	.LFB1
 590 0014 40000000 		.4byte	.LFE1
 591 0018 00000000 		.4byte	.LFB2
 592 001c 22000000 		.4byte	.LFE2
 593 0020 00000000 		.4byte	.LFB3
 594 0024 22000000 		.4byte	.LFE3
 595 0028 00000000 		.4byte	0x0
 596 002c 00000000 		.4byte	0x0
 597              		.section	.debug_str,"MS",%progbits,1
 598              	.LASF6:
 599 0000 6C6F6E67 		.ascii	"long long int\000"
 599      206C6F6E 
 599      6720696E 
 599      7400
 600              	.LASF12:
 601 000e 4D4F5349 		.ascii	"MOSI_Write\000"
 601      5F577269 
 601      746500
 602              	.LASF14:
 603 0019 76616C75 		.ascii	"value\000"
 603      6500
 604              	.LASF22:
 605 001f 73746174 		.ascii	"staticBits\000"
 605      69634269 
 605      747300
 606              	.LASF9:
 607 002a 666C6F61 		.ascii	"float\000"
 607      7400
 608              	.LASF1:
 609 0030 756E7369 		.ascii	"unsigned char\000"
ARM GAS  C:\Users\SUZUKI~1\AppData\Local\Temp\ccWvIhxV.s 			page 14


 609      676E6564 
 609      20636861 
 609      7200
 610              	.LASF5:
 611 003e 6C6F6E67 		.ascii	"long unsigned int\000"
 611      20756E73 
 611      69676E65 
 611      6420696E 
 611      7400
 612              	.LASF3:
 613 0050 73686F72 		.ascii	"short unsigned int\000"
 613      7420756E 
 613      7369676E 
 613      65642069 
 613      6E7400
 614              	.LASF10:
 615 0063 646F7562 		.ascii	"double\000"
 615      6C6500
 616              	.LASF20:
 617 006a 463A5C44 		.ascii	"F:\\Documents\\PSoC_Creator\\tfexpbrd\\tfexpbrd.cyd"
 617      6F63756D 
 617      656E7473 
 617      5C50536F 
 617      435F4372 
 618 0099 736E00   		.ascii	"sn\000"
 619              	.LASF8:
 620 009c 756E7369 		.ascii	"unsigned int\000"
 620      676E6564 
 620      20696E74 
 620      00
 621              	.LASF13:
 622 00a9 4D4F5349 		.ascii	"MOSI_SetDriveMode\000"
 622      5F536574 
 622      44726976 
 622      654D6F64 
 622      6500
 623              	.LASF7:
 624 00bb 6C6F6E67 		.ascii	"long long unsigned int\000"
 624      206C6F6E 
 624      6720756E 
 624      7369676E 
 624      65642069 
 625              	.LASF19:
 626 00d2 2E5C4765 		.ascii	".\\Generated_Source\\PSoC5\\MOSI.c\000"
 626      6E657261 
 626      7465645F 
 626      536F7572 
 626      63655C50 
 627              	.LASF15:
 628 00f2 6D6F6465 		.ascii	"mode\000"
 628      00
 629              	.LASF16:
 630 00f7 4D4F5349 		.ascii	"MOSI_Read\000"
 630      5F526561 
 630      6400
 631              	.LASF18:
 632 0101 474E5520 		.ascii	"GNU C 4.4.1\000"
ARM GAS  C:\Users\SUZUKI~1\AppData\Local\Temp\ccWvIhxV.s 			page 15


 632      4320342E 
 632      342E3100 
 633              	.LASF11:
 634 010d 63686172 		.ascii	"char\000"
 634      00
 635              	.LASF2:
 636 0112 73686F72 		.ascii	"short int\000"
 636      7420696E 
 636      7400
 637              	.LASF21:
 638 011c 75696E74 		.ascii	"uint8\000"
 638      3800
 639              	.LASF4:
 640 0122 6C6F6E67 		.ascii	"long int\000"
 640      20696E74 
 640      00
 641              	.LASF17:
 642 012b 4D4F5349 		.ascii	"MOSI_ReadDataReg\000"
 642      5F526561 
 642      64446174 
 642      61526567 
 642      00
 643              	.LASF0:
 644 013c 7369676E 		.ascii	"signed char\000"
 644      65642063 
 644      68617200 
 645              		.ident	"GCC: (Sourcery G++ Lite 2010q1-188) 4.4.1"
