ARM GAS  C:\Users\SUZUKI~1\AppData\Local\Temp\cclMukjO.s 			page 1


   1              		.syntax unified
   2              		.cpu cortex-m3
   3              		.fpu softvfp
   4              		.eabi_attribute 20, 1
   5              		.eabi_attribute 21, 1
   6              		.eabi_attribute 23, 3
   7              		.eabi_attribute 24, 1
   8              		.eabi_attribute 25, 1
   9              		.eabi_attribute 26, 1
  10              		.eabi_attribute 30, 6
  11              		.eabi_attribute 18, 4
  12              		.thumb
  13              		.file	"sdlogger_1_sdspi_1_Timer_IRQ.c"
  14              		.section	.debug_abbrev,"",%progbits
  15              	.Ldebug_abbrev0:
  16              		.section	.debug_info,"",%progbits
  17              	.Ldebug_info0:
  18              		.section	.debug_line,"",%progbits
  19              	.Ldebug_line0:
  20 0000 6C010000 		.text
  20      02007400 
  20      00000201 
  20      FB0E0D00 
  20      01010101 
  21              	.Ltext0:
  22              		.cfi_sections	.debug_frame
  23              		.section	.text.sdlogger_1_sdspi_1_Timer_IRQ_Start,"ax",%progbits
  24              		.align	2
  25              		.global	sdlogger_1_sdspi_1_Timer_IRQ_Start
  26              		.thumb
  27              		.thumb_func
  28              		.type	sdlogger_1_sdspi_1_Timer_IRQ_Start, %function
  29              	sdlogger_1_sdspi_1_Timer_IRQ_Start:
  30              	.LFB0:
  31              		.file 1 ".\\Generated_Source\\PSoC5\\sdlogger_1_sdspi_1_Timer_IRQ.c"
   1:.\Generated_Source\PSoC5/sdlogger_1_sdspi_1_Timer_IRQ.c **** /*******************************************************************************
   2:.\Generated_Source\PSoC5/sdlogger_1_sdspi_1_Timer_IRQ.c **** * File Name: sdlogger_1_sdspi_1_Timer_IRQ.c  
   3:.\Generated_Source\PSoC5/sdlogger_1_sdspi_1_Timer_IRQ.c **** * Version 1.70
   4:.\Generated_Source\PSoC5/sdlogger_1_sdspi_1_Timer_IRQ.c **** *
   5:.\Generated_Source\PSoC5/sdlogger_1_sdspi_1_Timer_IRQ.c **** *  Description:
   6:.\Generated_Source\PSoC5/sdlogger_1_sdspi_1_Timer_IRQ.c **** *   API for controlling the state of an interrupt.
   7:.\Generated_Source\PSoC5/sdlogger_1_sdspi_1_Timer_IRQ.c **** *
   8:.\Generated_Source\PSoC5/sdlogger_1_sdspi_1_Timer_IRQ.c **** *
   9:.\Generated_Source\PSoC5/sdlogger_1_sdspi_1_Timer_IRQ.c **** *  Note:
  10:.\Generated_Source\PSoC5/sdlogger_1_sdspi_1_Timer_IRQ.c **** *
  11:.\Generated_Source\PSoC5/sdlogger_1_sdspi_1_Timer_IRQ.c **** ********************************************************************************
  12:.\Generated_Source\PSoC5/sdlogger_1_sdspi_1_Timer_IRQ.c **** * Copyright 2008-2012, Cypress Semiconductor Corporation.  All rights reserved.
  13:.\Generated_Source\PSoC5/sdlogger_1_sdspi_1_Timer_IRQ.c **** * You may use this file only in accordance with the license, terms, conditions, 
  14:.\Generated_Source\PSoC5/sdlogger_1_sdspi_1_Timer_IRQ.c **** * disclaimers, and limitations in the end user license agreement accompanying 
  15:.\Generated_Source\PSoC5/sdlogger_1_sdspi_1_Timer_IRQ.c **** * the software package with which this file was provided.
  16:.\Generated_Source\PSoC5/sdlogger_1_sdspi_1_Timer_IRQ.c **** *******************************************************************************/
  17:.\Generated_Source\PSoC5/sdlogger_1_sdspi_1_Timer_IRQ.c **** 
  18:.\Generated_Source\PSoC5/sdlogger_1_sdspi_1_Timer_IRQ.c **** 
  19:.\Generated_Source\PSoC5/sdlogger_1_sdspi_1_Timer_IRQ.c **** #include <CYDEVICE_TRM.H>
  20:.\Generated_Source\PSoC5/sdlogger_1_sdspi_1_Timer_IRQ.c **** #include <CYLIB.H>
  21:.\Generated_Source\PSoC5/sdlogger_1_sdspi_1_Timer_IRQ.c **** #include <sdlogger_1_sdspi_1_Timer_IRQ.H>
  22:.\Generated_Source\PSoC5/sdlogger_1_sdspi_1_Timer_IRQ.c **** 
ARM GAS  C:\Users\SUZUKI~1\AppData\Local\Temp\cclMukjO.s 			page 2


  23:.\Generated_Source\PSoC5/sdlogger_1_sdspi_1_Timer_IRQ.c **** #if !defined(sdlogger_1_sdspi_1_Timer_IRQ__REMOVED) /* Check for removal by optimization */
  24:.\Generated_Source\PSoC5/sdlogger_1_sdspi_1_Timer_IRQ.c **** 
  25:.\Generated_Source\PSoC5/sdlogger_1_sdspi_1_Timer_IRQ.c **** /*******************************************************************************
  26:.\Generated_Source\PSoC5/sdlogger_1_sdspi_1_Timer_IRQ.c **** *  Place your includes, defines and code here 
  27:.\Generated_Source\PSoC5/sdlogger_1_sdspi_1_Timer_IRQ.c **** ********************************************************************************/
  28:.\Generated_Source\PSoC5/sdlogger_1_sdspi_1_Timer_IRQ.c **** /* `#START sdlogger_1_sdspi_1_Timer_IRQ_intc` */
  29:.\Generated_Source\PSoC5/sdlogger_1_sdspi_1_Timer_IRQ.c **** 
  30:.\Generated_Source\PSoC5/sdlogger_1_sdspi_1_Timer_IRQ.c **** /* `#END` */
  31:.\Generated_Source\PSoC5/sdlogger_1_sdspi_1_Timer_IRQ.c **** 
  32:.\Generated_Source\PSoC5/sdlogger_1_sdspi_1_Timer_IRQ.c **** #ifndef CYINT_IRQ_BASE
  33:.\Generated_Source\PSoC5/sdlogger_1_sdspi_1_Timer_IRQ.c **** #define CYINT_IRQ_BASE      16
  34:.\Generated_Source\PSoC5/sdlogger_1_sdspi_1_Timer_IRQ.c **** #endif /* CYINT_IRQ_BASE */
  35:.\Generated_Source\PSoC5/sdlogger_1_sdspi_1_Timer_IRQ.c **** #ifndef CYINT_VECT_TABLE
  36:.\Generated_Source\PSoC5/sdlogger_1_sdspi_1_Timer_IRQ.c **** #define CYINT_VECT_TABLE    ((cyisraddress **) CYREG_NVIC_VECT_OFFSET)
  37:.\Generated_Source\PSoC5/sdlogger_1_sdspi_1_Timer_IRQ.c **** #endif /* CYINT_VECT_TABLE */
  38:.\Generated_Source\PSoC5/sdlogger_1_sdspi_1_Timer_IRQ.c **** 
  39:.\Generated_Source\PSoC5/sdlogger_1_sdspi_1_Timer_IRQ.c **** /* Declared in startup, used to set unused interrupts to. */
  40:.\Generated_Source\PSoC5/sdlogger_1_sdspi_1_Timer_IRQ.c **** CY_ISR_PROTO(IntDefaultHandler);
  41:.\Generated_Source\PSoC5/sdlogger_1_sdspi_1_Timer_IRQ.c **** 
  42:.\Generated_Source\PSoC5/sdlogger_1_sdspi_1_Timer_IRQ.c **** 
  43:.\Generated_Source\PSoC5/sdlogger_1_sdspi_1_Timer_IRQ.c **** /*******************************************************************************
  44:.\Generated_Source\PSoC5/sdlogger_1_sdspi_1_Timer_IRQ.c **** * Function Name: sdlogger_1_sdspi_1_Timer_IRQ_Start
  45:.\Generated_Source\PSoC5/sdlogger_1_sdspi_1_Timer_IRQ.c **** ********************************************************************************
  46:.\Generated_Source\PSoC5/sdlogger_1_sdspi_1_Timer_IRQ.c **** *
  47:.\Generated_Source\PSoC5/sdlogger_1_sdspi_1_Timer_IRQ.c **** * Summary:
  48:.\Generated_Source\PSoC5/sdlogger_1_sdspi_1_Timer_IRQ.c **** *  Set up the interrupt and enable it.
  49:.\Generated_Source\PSoC5/sdlogger_1_sdspi_1_Timer_IRQ.c **** *
  50:.\Generated_Source\PSoC5/sdlogger_1_sdspi_1_Timer_IRQ.c **** * Parameters:  
  51:.\Generated_Source\PSoC5/sdlogger_1_sdspi_1_Timer_IRQ.c **** *   None
  52:.\Generated_Source\PSoC5/sdlogger_1_sdspi_1_Timer_IRQ.c **** *
  53:.\Generated_Source\PSoC5/sdlogger_1_sdspi_1_Timer_IRQ.c **** * Return:
  54:.\Generated_Source\PSoC5/sdlogger_1_sdspi_1_Timer_IRQ.c **** *   None
  55:.\Generated_Source\PSoC5/sdlogger_1_sdspi_1_Timer_IRQ.c **** *
  56:.\Generated_Source\PSoC5/sdlogger_1_sdspi_1_Timer_IRQ.c **** *******************************************************************************/
  57:.\Generated_Source\PSoC5/sdlogger_1_sdspi_1_Timer_IRQ.c **** void sdlogger_1_sdspi_1_Timer_IRQ_Start(void)
  58:.\Generated_Source\PSoC5/sdlogger_1_sdspi_1_Timer_IRQ.c **** {
  32              		.loc 1 58 0
  33              		.cfi_startproc
  34              		@ args = 0, pretend = 0, frame = 0
  35              		@ frame_needed = 1, uses_anonymous_args = 0
  36 0000 80B5     		push	{r7, lr}
  37              	.LCFI0:
  38              		.cfi_def_cfa_offset 8
  39 0002 00AF     		add	r7, sp, #0
  40              		.cfi_offset 14, -4
  41              		.cfi_offset 7, -8
  42              	.LCFI1:
  43              		.cfi_def_cfa_register 7
  59:.\Generated_Source\PSoC5/sdlogger_1_sdspi_1_Timer_IRQ.c ****     /* For all we know the interrupt is active. */
  60:.\Generated_Source\PSoC5/sdlogger_1_sdspi_1_Timer_IRQ.c ****     sdlogger_1_sdspi_1_Timer_IRQ_Disable();
  44              		.loc 1 60 0
  45 0004 FFF7FEFF 		bl	sdlogger_1_sdspi_1_Timer_IRQ_Disable
  61:.\Generated_Source\PSoC5/sdlogger_1_sdspi_1_Timer_IRQ.c **** 
  62:.\Generated_Source\PSoC5/sdlogger_1_sdspi_1_Timer_IRQ.c ****     /* Set the ISR to point to the sdlogger_1_sdspi_1_Timer_IRQ Interrupt. */
  63:.\Generated_Source\PSoC5/sdlogger_1_sdspi_1_Timer_IRQ.c ****     sdlogger_1_sdspi_1_Timer_IRQ_SetVector(&sdlogger_1_sdspi_1_Timer_IRQ_Interrupt);
  46              		.loc 1 63 0
  47 0008 40F20000 		movw	r0, #:lower16:sdlogger_1_sdspi_1_Timer_IRQ_Interrupt
ARM GAS  C:\Users\SUZUKI~1\AppData\Local\Temp\cclMukjO.s 			page 3


  48 000c C0F20000 		movt	r0, #:upper16:sdlogger_1_sdspi_1_Timer_IRQ_Interrupt
  49 0010 FFF7FEFF 		bl	sdlogger_1_sdspi_1_Timer_IRQ_SetVector
  64:.\Generated_Source\PSoC5/sdlogger_1_sdspi_1_Timer_IRQ.c **** 
  65:.\Generated_Source\PSoC5/sdlogger_1_sdspi_1_Timer_IRQ.c ****     /* Set the priority. */
  66:.\Generated_Source\PSoC5/sdlogger_1_sdspi_1_Timer_IRQ.c ****     sdlogger_1_sdspi_1_Timer_IRQ_SetPriority((uint8)sdlogger_1_sdspi_1_Timer_IRQ_INTC_PRIOR_NUMBER)
  50              		.loc 1 66 0
  51 0014 4FF00500 		mov	r0, #5
  52 0018 FFF7FEFF 		bl	sdlogger_1_sdspi_1_Timer_IRQ_SetPriority
  67:.\Generated_Source\PSoC5/sdlogger_1_sdspi_1_Timer_IRQ.c **** 
  68:.\Generated_Source\PSoC5/sdlogger_1_sdspi_1_Timer_IRQ.c ****     /* Enable it. */
  69:.\Generated_Source\PSoC5/sdlogger_1_sdspi_1_Timer_IRQ.c ****     sdlogger_1_sdspi_1_Timer_IRQ_Enable();
  53              		.loc 1 69 0
  54 001c FFF7FEFF 		bl	sdlogger_1_sdspi_1_Timer_IRQ_Enable
  70:.\Generated_Source\PSoC5/sdlogger_1_sdspi_1_Timer_IRQ.c **** }
  55              		.loc 1 70 0
  56 0020 80BD     		pop	{r7, pc}
  57              		.cfi_endproc
  58              	.LFE0:
  59              		.size	sdlogger_1_sdspi_1_Timer_IRQ_Start, .-sdlogger_1_sdspi_1_Timer_IRQ_Start
  60 0022 00BF     		.section	.text.sdlogger_1_sdspi_1_Timer_IRQ_StartEx,"ax",%progbits
  61              		.align	2
  62              		.global	sdlogger_1_sdspi_1_Timer_IRQ_StartEx
  63              		.thumb
  64              		.thumb_func
  65              		.type	sdlogger_1_sdspi_1_Timer_IRQ_StartEx, %function
  66              	sdlogger_1_sdspi_1_Timer_IRQ_StartEx:
  67              	.LFB1:
  71:.\Generated_Source\PSoC5/sdlogger_1_sdspi_1_Timer_IRQ.c **** 
  72:.\Generated_Source\PSoC5/sdlogger_1_sdspi_1_Timer_IRQ.c **** 
  73:.\Generated_Source\PSoC5/sdlogger_1_sdspi_1_Timer_IRQ.c **** /*******************************************************************************
  74:.\Generated_Source\PSoC5/sdlogger_1_sdspi_1_Timer_IRQ.c **** * Function Name: sdlogger_1_sdspi_1_Timer_IRQ_StartEx
  75:.\Generated_Source\PSoC5/sdlogger_1_sdspi_1_Timer_IRQ.c **** ********************************************************************************
  76:.\Generated_Source\PSoC5/sdlogger_1_sdspi_1_Timer_IRQ.c **** *
  77:.\Generated_Source\PSoC5/sdlogger_1_sdspi_1_Timer_IRQ.c **** * Summary:
  78:.\Generated_Source\PSoC5/sdlogger_1_sdspi_1_Timer_IRQ.c **** *  Set up the interrupt and enable it.
  79:.\Generated_Source\PSoC5/sdlogger_1_sdspi_1_Timer_IRQ.c **** *
  80:.\Generated_Source\PSoC5/sdlogger_1_sdspi_1_Timer_IRQ.c **** * Parameters:  
  81:.\Generated_Source\PSoC5/sdlogger_1_sdspi_1_Timer_IRQ.c **** *   address: Address of the ISR to set in the interrupt vector table.
  82:.\Generated_Source\PSoC5/sdlogger_1_sdspi_1_Timer_IRQ.c **** *
  83:.\Generated_Source\PSoC5/sdlogger_1_sdspi_1_Timer_IRQ.c **** * Return:
  84:.\Generated_Source\PSoC5/sdlogger_1_sdspi_1_Timer_IRQ.c **** *   None
  85:.\Generated_Source\PSoC5/sdlogger_1_sdspi_1_Timer_IRQ.c **** *
  86:.\Generated_Source\PSoC5/sdlogger_1_sdspi_1_Timer_IRQ.c **** *******************************************************************************/
  87:.\Generated_Source\PSoC5/sdlogger_1_sdspi_1_Timer_IRQ.c **** void sdlogger_1_sdspi_1_Timer_IRQ_StartEx(cyisraddress address)
  88:.\Generated_Source\PSoC5/sdlogger_1_sdspi_1_Timer_IRQ.c **** {
  68              		.loc 1 88 0
  69              		.cfi_startproc
  70              		@ args = 0, pretend = 0, frame = 8
  71              		@ frame_needed = 1, uses_anonymous_args = 0
  72 0000 80B5     		push	{r7, lr}
  73              	.LCFI2:
  74              		.cfi_def_cfa_offset 8
  75 0002 82B0     		sub	sp, sp, #8
  76              	.LCFI3:
  77              		.cfi_def_cfa_offset 16
  78 0004 00AF     		add	r7, sp, #0
  79              		.cfi_offset 14, -4
ARM GAS  C:\Users\SUZUKI~1\AppData\Local\Temp\cclMukjO.s 			page 4


  80              		.cfi_offset 7, -8
  81              	.LCFI4:
  82              		.cfi_def_cfa_register 7
  83 0006 7860     		str	r0, [r7, #4]
  89:.\Generated_Source\PSoC5/sdlogger_1_sdspi_1_Timer_IRQ.c ****     /* For all we know the interrupt is active. */
  90:.\Generated_Source\PSoC5/sdlogger_1_sdspi_1_Timer_IRQ.c ****     sdlogger_1_sdspi_1_Timer_IRQ_Disable();
  84              		.loc 1 90 0
  85 0008 FFF7FEFF 		bl	sdlogger_1_sdspi_1_Timer_IRQ_Disable
  91:.\Generated_Source\PSoC5/sdlogger_1_sdspi_1_Timer_IRQ.c **** 
  92:.\Generated_Source\PSoC5/sdlogger_1_sdspi_1_Timer_IRQ.c ****     /* Set the ISR to point to the sdlogger_1_sdspi_1_Timer_IRQ Interrupt. */
  93:.\Generated_Source\PSoC5/sdlogger_1_sdspi_1_Timer_IRQ.c ****     sdlogger_1_sdspi_1_Timer_IRQ_SetVector(address);
  86              		.loc 1 93 0
  87 000c 7868     		ldr	r0, [r7, #4]
  88 000e FFF7FEFF 		bl	sdlogger_1_sdspi_1_Timer_IRQ_SetVector
  94:.\Generated_Source\PSoC5/sdlogger_1_sdspi_1_Timer_IRQ.c **** 
  95:.\Generated_Source\PSoC5/sdlogger_1_sdspi_1_Timer_IRQ.c ****     /* Set the priority. */
  96:.\Generated_Source\PSoC5/sdlogger_1_sdspi_1_Timer_IRQ.c ****     sdlogger_1_sdspi_1_Timer_IRQ_SetPriority((uint8)sdlogger_1_sdspi_1_Timer_IRQ_INTC_PRIOR_NUMBER)
  89              		.loc 1 96 0
  90 0012 4FF00500 		mov	r0, #5
  91 0016 FFF7FEFF 		bl	sdlogger_1_sdspi_1_Timer_IRQ_SetPriority
  97:.\Generated_Source\PSoC5/sdlogger_1_sdspi_1_Timer_IRQ.c **** 
  98:.\Generated_Source\PSoC5/sdlogger_1_sdspi_1_Timer_IRQ.c ****     /* Enable it. */
  99:.\Generated_Source\PSoC5/sdlogger_1_sdspi_1_Timer_IRQ.c ****     sdlogger_1_sdspi_1_Timer_IRQ_Enable();
  92              		.loc 1 99 0
  93 001a FFF7FEFF 		bl	sdlogger_1_sdspi_1_Timer_IRQ_Enable
 100:.\Generated_Source\PSoC5/sdlogger_1_sdspi_1_Timer_IRQ.c **** }
  94              		.loc 1 100 0
  95 001e 07F10807 		add	r7, r7, #8
  96 0022 BD46     		mov	sp, r7
  97 0024 80BD     		pop	{r7, pc}
  98              		.cfi_endproc
  99              	.LFE1:
 100              		.size	sdlogger_1_sdspi_1_Timer_IRQ_StartEx, .-sdlogger_1_sdspi_1_Timer_IRQ_StartEx
 101 0026 00BF     		.section	.text.sdlogger_1_sdspi_1_Timer_IRQ_Stop,"ax",%progbits
 102              		.align	2
 103              		.global	sdlogger_1_sdspi_1_Timer_IRQ_Stop
 104              		.thumb
 105              		.thumb_func
 106              		.type	sdlogger_1_sdspi_1_Timer_IRQ_Stop, %function
 107              	sdlogger_1_sdspi_1_Timer_IRQ_Stop:
 108              	.LFB2:
 101:.\Generated_Source\PSoC5/sdlogger_1_sdspi_1_Timer_IRQ.c **** 
 102:.\Generated_Source\PSoC5/sdlogger_1_sdspi_1_Timer_IRQ.c **** 
 103:.\Generated_Source\PSoC5/sdlogger_1_sdspi_1_Timer_IRQ.c **** /*******************************************************************************
 104:.\Generated_Source\PSoC5/sdlogger_1_sdspi_1_Timer_IRQ.c **** * Function Name: sdlogger_1_sdspi_1_Timer_IRQ_Stop
 105:.\Generated_Source\PSoC5/sdlogger_1_sdspi_1_Timer_IRQ.c **** ********************************************************************************
 106:.\Generated_Source\PSoC5/sdlogger_1_sdspi_1_Timer_IRQ.c **** *
 107:.\Generated_Source\PSoC5/sdlogger_1_sdspi_1_Timer_IRQ.c **** * Summary:
 108:.\Generated_Source\PSoC5/sdlogger_1_sdspi_1_Timer_IRQ.c **** *   Disables and removes the interrupt.
 109:.\Generated_Source\PSoC5/sdlogger_1_sdspi_1_Timer_IRQ.c **** *
 110:.\Generated_Source\PSoC5/sdlogger_1_sdspi_1_Timer_IRQ.c **** * Parameters:  
 111:.\Generated_Source\PSoC5/sdlogger_1_sdspi_1_Timer_IRQ.c **** *
 112:.\Generated_Source\PSoC5/sdlogger_1_sdspi_1_Timer_IRQ.c **** * Return:
 113:.\Generated_Source\PSoC5/sdlogger_1_sdspi_1_Timer_IRQ.c **** *   None
 114:.\Generated_Source\PSoC5/sdlogger_1_sdspi_1_Timer_IRQ.c **** *
 115:.\Generated_Source\PSoC5/sdlogger_1_sdspi_1_Timer_IRQ.c **** *******************************************************************************/
 116:.\Generated_Source\PSoC5/sdlogger_1_sdspi_1_Timer_IRQ.c **** void sdlogger_1_sdspi_1_Timer_IRQ_Stop(void)
ARM GAS  C:\Users\SUZUKI~1\AppData\Local\Temp\cclMukjO.s 			page 5


 117:.\Generated_Source\PSoC5/sdlogger_1_sdspi_1_Timer_IRQ.c **** {
 109              		.loc 1 117 0
 110              		.cfi_startproc
 111              		@ args = 0, pretend = 0, frame = 0
 112              		@ frame_needed = 1, uses_anonymous_args = 0
 113 0000 80B5     		push	{r7, lr}
 114              	.LCFI5:
 115              		.cfi_def_cfa_offset 8
 116 0002 00AF     		add	r7, sp, #0
 117              		.cfi_offset 14, -4
 118              		.cfi_offset 7, -8
 119              	.LCFI6:
 120              		.cfi_def_cfa_register 7
 118:.\Generated_Source\PSoC5/sdlogger_1_sdspi_1_Timer_IRQ.c ****     /* Disable this interrupt. */
 119:.\Generated_Source\PSoC5/sdlogger_1_sdspi_1_Timer_IRQ.c ****     sdlogger_1_sdspi_1_Timer_IRQ_Disable();
 121              		.loc 1 119 0
 122 0004 FFF7FEFF 		bl	sdlogger_1_sdspi_1_Timer_IRQ_Disable
 120:.\Generated_Source\PSoC5/sdlogger_1_sdspi_1_Timer_IRQ.c **** 
 121:.\Generated_Source\PSoC5/sdlogger_1_sdspi_1_Timer_IRQ.c ****     /* Set the ISR to point to the passive one. */
 122:.\Generated_Source\PSoC5/sdlogger_1_sdspi_1_Timer_IRQ.c ****     sdlogger_1_sdspi_1_Timer_IRQ_SetVector(&IntDefaultHandler);
 123              		.loc 1 122 0
 124 0008 40F20000 		movw	r0, #:lower16:IntDefaultHandler
 125 000c C0F20000 		movt	r0, #:upper16:IntDefaultHandler
 126 0010 FFF7FEFF 		bl	sdlogger_1_sdspi_1_Timer_IRQ_SetVector
 123:.\Generated_Source\PSoC5/sdlogger_1_sdspi_1_Timer_IRQ.c **** }
 127              		.loc 1 123 0
 128 0014 80BD     		pop	{r7, pc}
 129              		.cfi_endproc
 130              	.LFE2:
 131              		.size	sdlogger_1_sdspi_1_Timer_IRQ_Stop, .-sdlogger_1_sdspi_1_Timer_IRQ_Stop
 132 0016 00BF     		.section	.text.sdlogger_1_sdspi_1_Timer_IRQ_Interrupt,"ax",%progbits
 133              		.align	2
 134              		.global	sdlogger_1_sdspi_1_Timer_IRQ_Interrupt
 135              		.thumb
 136              		.thumb_func
 137              		.type	sdlogger_1_sdspi_1_Timer_IRQ_Interrupt, %function
 138              	sdlogger_1_sdspi_1_Timer_IRQ_Interrupt:
 139              	.LFB3:
 124:.\Generated_Source\PSoC5/sdlogger_1_sdspi_1_Timer_IRQ.c **** 
 125:.\Generated_Source\PSoC5/sdlogger_1_sdspi_1_Timer_IRQ.c **** 
 126:.\Generated_Source\PSoC5/sdlogger_1_sdspi_1_Timer_IRQ.c **** /*******************************************************************************
 127:.\Generated_Source\PSoC5/sdlogger_1_sdspi_1_Timer_IRQ.c **** * Function Name: sdlogger_1_sdspi_1_Timer_IRQ_Interrupt
 128:.\Generated_Source\PSoC5/sdlogger_1_sdspi_1_Timer_IRQ.c **** ********************************************************************************
 129:.\Generated_Source\PSoC5/sdlogger_1_sdspi_1_Timer_IRQ.c **** *
 130:.\Generated_Source\PSoC5/sdlogger_1_sdspi_1_Timer_IRQ.c **** * Summary:
 131:.\Generated_Source\PSoC5/sdlogger_1_sdspi_1_Timer_IRQ.c **** *   The default Interrupt Service Routine for sdlogger_1_sdspi_1_Timer_IRQ.
 132:.\Generated_Source\PSoC5/sdlogger_1_sdspi_1_Timer_IRQ.c **** *
 133:.\Generated_Source\PSoC5/sdlogger_1_sdspi_1_Timer_IRQ.c **** *   Add custom code between the coments to keep the next version of this file
 134:.\Generated_Source\PSoC5/sdlogger_1_sdspi_1_Timer_IRQ.c **** *   from over writting your code.
 135:.\Generated_Source\PSoC5/sdlogger_1_sdspi_1_Timer_IRQ.c **** *
 136:.\Generated_Source\PSoC5/sdlogger_1_sdspi_1_Timer_IRQ.c **** * Parameters:  
 137:.\Generated_Source\PSoC5/sdlogger_1_sdspi_1_Timer_IRQ.c **** *
 138:.\Generated_Source\PSoC5/sdlogger_1_sdspi_1_Timer_IRQ.c **** * Return:
 139:.\Generated_Source\PSoC5/sdlogger_1_sdspi_1_Timer_IRQ.c **** *   None
 140:.\Generated_Source\PSoC5/sdlogger_1_sdspi_1_Timer_IRQ.c **** *
 141:.\Generated_Source\PSoC5/sdlogger_1_sdspi_1_Timer_IRQ.c **** *******************************************************************************/
 142:.\Generated_Source\PSoC5/sdlogger_1_sdspi_1_Timer_IRQ.c **** CY_ISR(sdlogger_1_sdspi_1_Timer_IRQ_Interrupt)
ARM GAS  C:\Users\SUZUKI~1\AppData\Local\Temp\cclMukjO.s 			page 6


 143:.\Generated_Source\PSoC5/sdlogger_1_sdspi_1_Timer_IRQ.c **** {
 140              		.loc 1 143 0
 141              		.cfi_startproc
 142              		@ args = 0, pretend = 0, frame = 0
 143              		@ frame_needed = 1, uses_anonymous_args = 0
 144              		@ link register save eliminated.
 145 0000 80B4     		push	{r7}
 146              	.LCFI7:
 147              		.cfi_def_cfa_offset 4
 148 0002 00AF     		add	r7, sp, #0
 149              		.cfi_offset 7, -4
 150              	.LCFI8:
 151              		.cfi_def_cfa_register 7
 144:.\Generated_Source\PSoC5/sdlogger_1_sdspi_1_Timer_IRQ.c ****     /*  Place your Interrupt code here. */
 145:.\Generated_Source\PSoC5/sdlogger_1_sdspi_1_Timer_IRQ.c ****     /* `#START sdlogger_1_sdspi_1_Timer_IRQ_Interrupt` */
 146:.\Generated_Source\PSoC5/sdlogger_1_sdspi_1_Timer_IRQ.c **** 
 147:.\Generated_Source\PSoC5/sdlogger_1_sdspi_1_Timer_IRQ.c ****     /* `#END` */
 148:.\Generated_Source\PSoC5/sdlogger_1_sdspi_1_Timer_IRQ.c **** }
 152              		.loc 1 148 0
 153 0004 BD46     		mov	sp, r7
 154 0006 80BC     		pop	{r7}
 155 0008 7047     		bx	lr
 156              		.cfi_endproc
 157              	.LFE3:
 158              		.size	sdlogger_1_sdspi_1_Timer_IRQ_Interrupt, .-sdlogger_1_sdspi_1_Timer_IRQ_Interrupt
 159 000a 00BF     		.section	.text.sdlogger_1_sdspi_1_Timer_IRQ_SetVector,"ax",%progbits
 160              		.align	2
 161              		.global	sdlogger_1_sdspi_1_Timer_IRQ_SetVector
 162              		.thumb
 163              		.thumb_func
 164              		.type	sdlogger_1_sdspi_1_Timer_IRQ_SetVector, %function
 165              	sdlogger_1_sdspi_1_Timer_IRQ_SetVector:
 166              	.LFB4:
 149:.\Generated_Source\PSoC5/sdlogger_1_sdspi_1_Timer_IRQ.c **** 
 150:.\Generated_Source\PSoC5/sdlogger_1_sdspi_1_Timer_IRQ.c **** 
 151:.\Generated_Source\PSoC5/sdlogger_1_sdspi_1_Timer_IRQ.c **** /*******************************************************************************
 152:.\Generated_Source\PSoC5/sdlogger_1_sdspi_1_Timer_IRQ.c **** * Function Name: sdlogger_1_sdspi_1_Timer_IRQ_SetVector
 153:.\Generated_Source\PSoC5/sdlogger_1_sdspi_1_Timer_IRQ.c **** ********************************************************************************
 154:.\Generated_Source\PSoC5/sdlogger_1_sdspi_1_Timer_IRQ.c **** *
 155:.\Generated_Source\PSoC5/sdlogger_1_sdspi_1_Timer_IRQ.c **** * Summary:
 156:.\Generated_Source\PSoC5/sdlogger_1_sdspi_1_Timer_IRQ.c **** *   Change the ISR vector for the Interrupt. Note calling sdlogger_1_sdspi_1_Timer_IRQ_Start
 157:.\Generated_Source\PSoC5/sdlogger_1_sdspi_1_Timer_IRQ.c **** *   will override any effect this method would have had. To set the vector 
 158:.\Generated_Source\PSoC5/sdlogger_1_sdspi_1_Timer_IRQ.c **** *   before the component has been started use sdlogger_1_sdspi_1_Timer_IRQ_StartEx instead.
 159:.\Generated_Source\PSoC5/sdlogger_1_sdspi_1_Timer_IRQ.c **** *
 160:.\Generated_Source\PSoC5/sdlogger_1_sdspi_1_Timer_IRQ.c **** * Parameters:
 161:.\Generated_Source\PSoC5/sdlogger_1_sdspi_1_Timer_IRQ.c **** *   address: Address of the ISR to set in the interrupt vector table.
 162:.\Generated_Source\PSoC5/sdlogger_1_sdspi_1_Timer_IRQ.c **** *
 163:.\Generated_Source\PSoC5/sdlogger_1_sdspi_1_Timer_IRQ.c **** * Return:
 164:.\Generated_Source\PSoC5/sdlogger_1_sdspi_1_Timer_IRQ.c **** *   None
 165:.\Generated_Source\PSoC5/sdlogger_1_sdspi_1_Timer_IRQ.c **** *
 166:.\Generated_Source\PSoC5/sdlogger_1_sdspi_1_Timer_IRQ.c **** *******************************************************************************/
 167:.\Generated_Source\PSoC5/sdlogger_1_sdspi_1_Timer_IRQ.c **** void sdlogger_1_sdspi_1_Timer_IRQ_SetVector(cyisraddress address)
 168:.\Generated_Source\PSoC5/sdlogger_1_sdspi_1_Timer_IRQ.c **** {
 167              		.loc 1 168 0
 168              		.cfi_startproc
 169              		@ args = 0, pretend = 0, frame = 16
 170              		@ frame_needed = 1, uses_anonymous_args = 0
ARM GAS  C:\Users\SUZUKI~1\AppData\Local\Temp\cclMukjO.s 			page 7


 171              		@ link register save eliminated.
 172 0000 80B4     		push	{r7}
 173              	.LCFI9:
 174              		.cfi_def_cfa_offset 4
 175 0002 85B0     		sub	sp, sp, #20
 176              	.LCFI10:
 177              		.cfi_def_cfa_offset 24
 178 0004 00AF     		add	r7, sp, #0
 179              		.cfi_offset 7, -4
 180              	.LCFI11:
 181              		.cfi_def_cfa_register 7
 182 0006 7860     		str	r0, [r7, #4]
 169:.\Generated_Source\PSoC5/sdlogger_1_sdspi_1_Timer_IRQ.c ****     cyisraddress * ramVectorTable;
 170:.\Generated_Source\PSoC5/sdlogger_1_sdspi_1_Timer_IRQ.c **** 
 171:.\Generated_Source\PSoC5/sdlogger_1_sdspi_1_Timer_IRQ.c ****     ramVectorTable = (cyisraddress *) *CYINT_VECT_TABLE;
 183              		.loc 1 171 0
 184 0008 4EF60853 		movw	r3, #:lower16:-536810232
 185 000c CEF20003 		movt	r3, #:upper16:-536810232
 186 0010 1B68     		ldr	r3, [r3, #0]
 187 0012 FB60     		str	r3, [r7, #12]
 172:.\Generated_Source\PSoC5/sdlogger_1_sdspi_1_Timer_IRQ.c **** 
 173:.\Generated_Source\PSoC5/sdlogger_1_sdspi_1_Timer_IRQ.c ****     ramVectorTable[CYINT_IRQ_BASE + (uint32)sdlogger_1_sdspi_1_Timer_IRQ__INTC_NUMBER] = address;
 188              		.loc 1 173 0
 189 0014 FB68     		ldr	r3, [r7, #12]
 190 0016 03F14803 		add	r3, r3, #72
 191 001a 7A68     		ldr	r2, [r7, #4]
 192 001c 1A60     		str	r2, [r3, #0]
 174:.\Generated_Source\PSoC5/sdlogger_1_sdspi_1_Timer_IRQ.c **** }
 193              		.loc 1 174 0
 194 001e 07F11407 		add	r7, r7, #20
 195 0022 BD46     		mov	sp, r7
 196 0024 80BC     		pop	{r7}
 197 0026 7047     		bx	lr
 198              		.cfi_endproc
 199              	.LFE4:
 200              		.size	sdlogger_1_sdspi_1_Timer_IRQ_SetVector, .-sdlogger_1_sdspi_1_Timer_IRQ_SetVector
 201              		.section	.text.sdlogger_1_sdspi_1_Timer_IRQ_GetVector,"ax",%progbits
 202              		.align	2
 203              		.global	sdlogger_1_sdspi_1_Timer_IRQ_GetVector
 204              		.thumb
 205              		.thumb_func
 206              		.type	sdlogger_1_sdspi_1_Timer_IRQ_GetVector, %function
 207              	sdlogger_1_sdspi_1_Timer_IRQ_GetVector:
 208              	.LFB5:
 175:.\Generated_Source\PSoC5/sdlogger_1_sdspi_1_Timer_IRQ.c **** 
 176:.\Generated_Source\PSoC5/sdlogger_1_sdspi_1_Timer_IRQ.c **** 
 177:.\Generated_Source\PSoC5/sdlogger_1_sdspi_1_Timer_IRQ.c **** /*******************************************************************************
 178:.\Generated_Source\PSoC5/sdlogger_1_sdspi_1_Timer_IRQ.c **** * Function Name: sdlogger_1_sdspi_1_Timer_IRQ_GetVector
 179:.\Generated_Source\PSoC5/sdlogger_1_sdspi_1_Timer_IRQ.c **** ********************************************************************************
 180:.\Generated_Source\PSoC5/sdlogger_1_sdspi_1_Timer_IRQ.c **** *
 181:.\Generated_Source\PSoC5/sdlogger_1_sdspi_1_Timer_IRQ.c **** * Summary:
 182:.\Generated_Source\PSoC5/sdlogger_1_sdspi_1_Timer_IRQ.c **** *   Gets the "address" of the current ISR vector for the Interrupt.
 183:.\Generated_Source\PSoC5/sdlogger_1_sdspi_1_Timer_IRQ.c **** *
 184:.\Generated_Source\PSoC5/sdlogger_1_sdspi_1_Timer_IRQ.c **** * Parameters:
 185:.\Generated_Source\PSoC5/sdlogger_1_sdspi_1_Timer_IRQ.c **** *   None
 186:.\Generated_Source\PSoC5/sdlogger_1_sdspi_1_Timer_IRQ.c **** *
 187:.\Generated_Source\PSoC5/sdlogger_1_sdspi_1_Timer_IRQ.c **** * Return:
ARM GAS  C:\Users\SUZUKI~1\AppData\Local\Temp\cclMukjO.s 			page 8


 188:.\Generated_Source\PSoC5/sdlogger_1_sdspi_1_Timer_IRQ.c **** *   Address of the ISR in the interrupt vector table.
 189:.\Generated_Source\PSoC5/sdlogger_1_sdspi_1_Timer_IRQ.c **** *
 190:.\Generated_Source\PSoC5/sdlogger_1_sdspi_1_Timer_IRQ.c **** *******************************************************************************/
 191:.\Generated_Source\PSoC5/sdlogger_1_sdspi_1_Timer_IRQ.c **** cyisraddress sdlogger_1_sdspi_1_Timer_IRQ_GetVector(void)
 192:.\Generated_Source\PSoC5/sdlogger_1_sdspi_1_Timer_IRQ.c **** {
 209              		.loc 1 192 0
 210              		.cfi_startproc
 211              		@ args = 0, pretend = 0, frame = 8
 212              		@ frame_needed = 1, uses_anonymous_args = 0
 213              		@ link register save eliminated.
 214 0000 80B4     		push	{r7}
 215              	.LCFI12:
 216              		.cfi_def_cfa_offset 4
 217 0002 83B0     		sub	sp, sp, #12
 218              	.LCFI13:
 219              		.cfi_def_cfa_offset 16
 220 0004 00AF     		add	r7, sp, #0
 221              		.cfi_offset 7, -4
 222              	.LCFI14:
 223              		.cfi_def_cfa_register 7
 193:.\Generated_Source\PSoC5/sdlogger_1_sdspi_1_Timer_IRQ.c ****     cyisraddress * ramVectorTable;
 194:.\Generated_Source\PSoC5/sdlogger_1_sdspi_1_Timer_IRQ.c **** 
 195:.\Generated_Source\PSoC5/sdlogger_1_sdspi_1_Timer_IRQ.c ****     ramVectorTable = (cyisraddress *) *CYINT_VECT_TABLE;
 224              		.loc 1 195 0
 225 0006 4EF60853 		movw	r3, #:lower16:-536810232
 226 000a CEF20003 		movt	r3, #:upper16:-536810232
 227 000e 1B68     		ldr	r3, [r3, #0]
 228 0010 7B60     		str	r3, [r7, #4]
 196:.\Generated_Source\PSoC5/sdlogger_1_sdspi_1_Timer_IRQ.c **** 
 197:.\Generated_Source\PSoC5/sdlogger_1_sdspi_1_Timer_IRQ.c ****     return ramVectorTable[CYINT_IRQ_BASE + (uint32)sdlogger_1_sdspi_1_Timer_IRQ__INTC_NUMBER];
 229              		.loc 1 197 0
 230 0012 7B68     		ldr	r3, [r7, #4]
 231 0014 03F14803 		add	r3, r3, #72
 232 0018 1B68     		ldr	r3, [r3, #0]
 198:.\Generated_Source\PSoC5/sdlogger_1_sdspi_1_Timer_IRQ.c **** }
 233              		.loc 1 198 0
 234 001a 1846     		mov	r0, r3
 235 001c 07F10C07 		add	r7, r7, #12
 236 0020 BD46     		mov	sp, r7
 237 0022 80BC     		pop	{r7}
 238 0024 7047     		bx	lr
 239              		.cfi_endproc
 240              	.LFE5:
 241              		.size	sdlogger_1_sdspi_1_Timer_IRQ_GetVector, .-sdlogger_1_sdspi_1_Timer_IRQ_GetVector
 242 0026 00BF     		.section	.text.sdlogger_1_sdspi_1_Timer_IRQ_SetPriority,"ax",%progbits
 243              		.align	2
 244              		.global	sdlogger_1_sdspi_1_Timer_IRQ_SetPriority
 245              		.thumb
 246              		.thumb_func
 247              		.type	sdlogger_1_sdspi_1_Timer_IRQ_SetPriority, %function
 248              	sdlogger_1_sdspi_1_Timer_IRQ_SetPriority:
 249              	.LFB6:
 199:.\Generated_Source\PSoC5/sdlogger_1_sdspi_1_Timer_IRQ.c **** 
 200:.\Generated_Source\PSoC5/sdlogger_1_sdspi_1_Timer_IRQ.c **** 
 201:.\Generated_Source\PSoC5/sdlogger_1_sdspi_1_Timer_IRQ.c **** /*******************************************************************************
 202:.\Generated_Source\PSoC5/sdlogger_1_sdspi_1_Timer_IRQ.c **** * Function Name: sdlogger_1_sdspi_1_Timer_IRQ_SetPriority
 203:.\Generated_Source\PSoC5/sdlogger_1_sdspi_1_Timer_IRQ.c **** ********************************************************************************
ARM GAS  C:\Users\SUZUKI~1\AppData\Local\Temp\cclMukjO.s 			page 9


 204:.\Generated_Source\PSoC5/sdlogger_1_sdspi_1_Timer_IRQ.c **** *
 205:.\Generated_Source\PSoC5/sdlogger_1_sdspi_1_Timer_IRQ.c **** * Summary:
 206:.\Generated_Source\PSoC5/sdlogger_1_sdspi_1_Timer_IRQ.c **** *   Sets the Priority of the Interrupt. Note calling sdlogger_1_sdspi_1_Timer_IRQ_Start
 207:.\Generated_Source\PSoC5/sdlogger_1_sdspi_1_Timer_IRQ.c **** *   or sdlogger_1_sdspi_1_Timer_IRQ_StartEx will override any effect this method 
 208:.\Generated_Source\PSoC5/sdlogger_1_sdspi_1_Timer_IRQ.c **** *   would have had. This method should only be called after 
 209:.\Generated_Source\PSoC5/sdlogger_1_sdspi_1_Timer_IRQ.c **** *   sdlogger_1_sdspi_1_Timer_IRQ_Start or sdlogger_1_sdspi_1_Timer_IRQ_StartEx has been called. To 
 210:.\Generated_Source\PSoC5/sdlogger_1_sdspi_1_Timer_IRQ.c **** *   the initial priority for the component use the cydwr file in the tool.
 211:.\Generated_Source\PSoC5/sdlogger_1_sdspi_1_Timer_IRQ.c **** *
 212:.\Generated_Source\PSoC5/sdlogger_1_sdspi_1_Timer_IRQ.c **** * Parameters:
 213:.\Generated_Source\PSoC5/sdlogger_1_sdspi_1_Timer_IRQ.c **** *   priority: Priority of the interrupt. 0 - 7, 0 being the highest.
 214:.\Generated_Source\PSoC5/sdlogger_1_sdspi_1_Timer_IRQ.c **** *
 215:.\Generated_Source\PSoC5/sdlogger_1_sdspi_1_Timer_IRQ.c **** * Return:
 216:.\Generated_Source\PSoC5/sdlogger_1_sdspi_1_Timer_IRQ.c **** *   None
 217:.\Generated_Source\PSoC5/sdlogger_1_sdspi_1_Timer_IRQ.c **** *
 218:.\Generated_Source\PSoC5/sdlogger_1_sdspi_1_Timer_IRQ.c **** *******************************************************************************/
 219:.\Generated_Source\PSoC5/sdlogger_1_sdspi_1_Timer_IRQ.c **** void sdlogger_1_sdspi_1_Timer_IRQ_SetPriority(uint8 priority)
 220:.\Generated_Source\PSoC5/sdlogger_1_sdspi_1_Timer_IRQ.c **** {
 250              		.loc 1 220 0
 251              		.cfi_startproc
 252              		@ args = 0, pretend = 0, frame = 8
 253              		@ frame_needed = 1, uses_anonymous_args = 0
 254              		@ link register save eliminated.
 255 0000 80B4     		push	{r7}
 256              	.LCFI15:
 257              		.cfi_def_cfa_offset 4
 258 0002 83B0     		sub	sp, sp, #12
 259              	.LCFI16:
 260              		.cfi_def_cfa_offset 16
 261 0004 00AF     		add	r7, sp, #0
 262              		.cfi_offset 7, -4
 263              	.LCFI17:
 264              		.cfi_def_cfa_register 7
 265 0006 0346     		mov	r3, r0
 266 0008 FB71     		strb	r3, [r7, #7]
 221:.\Generated_Source\PSoC5/sdlogger_1_sdspi_1_Timer_IRQ.c ****     *sdlogger_1_sdspi_1_Timer_IRQ_INTC_PRIOR = priority << 5;
 267              		.loc 1 221 0
 268 000a 4EF20243 		movw	r3, #:lower16:-536812542
 269 000e CEF20003 		movt	r3, #:upper16:-536812542
 270 0012 FA79     		ldrb	r2, [r7, #7]
 271 0014 4FEA4212 		lsl	r2, r2, #5
 272 0018 D2B2     		uxtb	r2, r2
 273 001a 1A70     		strb	r2, [r3, #0]
 222:.\Generated_Source\PSoC5/sdlogger_1_sdspi_1_Timer_IRQ.c **** }
 274              		.loc 1 222 0
 275 001c 07F10C07 		add	r7, r7, #12
 276 0020 BD46     		mov	sp, r7
 277 0022 80BC     		pop	{r7}
 278 0024 7047     		bx	lr
 279              		.cfi_endproc
 280              	.LFE6:
 281              		.size	sdlogger_1_sdspi_1_Timer_IRQ_SetPriority, .-sdlogger_1_sdspi_1_Timer_IRQ_SetPriority
 282 0026 00BF     		.section	.text.sdlogger_1_sdspi_1_Timer_IRQ_GetPriority,"ax",%progbits
 283              		.align	2
 284              		.global	sdlogger_1_sdspi_1_Timer_IRQ_GetPriority
 285              		.thumb
 286              		.thumb_func
 287              		.type	sdlogger_1_sdspi_1_Timer_IRQ_GetPriority, %function
ARM GAS  C:\Users\SUZUKI~1\AppData\Local\Temp\cclMukjO.s 			page 10


 288              	sdlogger_1_sdspi_1_Timer_IRQ_GetPriority:
 289              	.LFB7:
 223:.\Generated_Source\PSoC5/sdlogger_1_sdspi_1_Timer_IRQ.c **** 
 224:.\Generated_Source\PSoC5/sdlogger_1_sdspi_1_Timer_IRQ.c **** 
 225:.\Generated_Source\PSoC5/sdlogger_1_sdspi_1_Timer_IRQ.c **** /*******************************************************************************
 226:.\Generated_Source\PSoC5/sdlogger_1_sdspi_1_Timer_IRQ.c **** * Function Name: sdlogger_1_sdspi_1_Timer_IRQ_GetPriority
 227:.\Generated_Source\PSoC5/sdlogger_1_sdspi_1_Timer_IRQ.c **** ********************************************************************************
 228:.\Generated_Source\PSoC5/sdlogger_1_sdspi_1_Timer_IRQ.c **** *
 229:.\Generated_Source\PSoC5/sdlogger_1_sdspi_1_Timer_IRQ.c **** * Summary:
 230:.\Generated_Source\PSoC5/sdlogger_1_sdspi_1_Timer_IRQ.c **** *   Gets the Priority of the Interrupt.
 231:.\Generated_Source\PSoC5/sdlogger_1_sdspi_1_Timer_IRQ.c **** *
 232:.\Generated_Source\PSoC5/sdlogger_1_sdspi_1_Timer_IRQ.c **** * Parameters:
 233:.\Generated_Source\PSoC5/sdlogger_1_sdspi_1_Timer_IRQ.c **** *   None
 234:.\Generated_Source\PSoC5/sdlogger_1_sdspi_1_Timer_IRQ.c **** *
 235:.\Generated_Source\PSoC5/sdlogger_1_sdspi_1_Timer_IRQ.c **** * Return:
 236:.\Generated_Source\PSoC5/sdlogger_1_sdspi_1_Timer_IRQ.c **** *   Priority of the interrupt. 0 - 7, 0 being the highest.
 237:.\Generated_Source\PSoC5/sdlogger_1_sdspi_1_Timer_IRQ.c **** *
 238:.\Generated_Source\PSoC5/sdlogger_1_sdspi_1_Timer_IRQ.c **** *******************************************************************************/
 239:.\Generated_Source\PSoC5/sdlogger_1_sdspi_1_Timer_IRQ.c **** uint8 sdlogger_1_sdspi_1_Timer_IRQ_GetPriority(void)
 240:.\Generated_Source\PSoC5/sdlogger_1_sdspi_1_Timer_IRQ.c **** {
 290              		.loc 1 240 0
 291              		.cfi_startproc
 292              		@ args = 0, pretend = 0, frame = 8
 293              		@ frame_needed = 1, uses_anonymous_args = 0
 294              		@ link register save eliminated.
 295 0000 80B4     		push	{r7}
 296              	.LCFI18:
 297              		.cfi_def_cfa_offset 4
 298 0002 83B0     		sub	sp, sp, #12
 299              	.LCFI19:
 300              		.cfi_def_cfa_offset 16
 301 0004 00AF     		add	r7, sp, #0
 302              		.cfi_offset 7, -4
 303              	.LCFI20:
 304              		.cfi_def_cfa_register 7
 241:.\Generated_Source\PSoC5/sdlogger_1_sdspi_1_Timer_IRQ.c ****     uint8 priority;
 242:.\Generated_Source\PSoC5/sdlogger_1_sdspi_1_Timer_IRQ.c **** 
 243:.\Generated_Source\PSoC5/sdlogger_1_sdspi_1_Timer_IRQ.c **** 
 244:.\Generated_Source\PSoC5/sdlogger_1_sdspi_1_Timer_IRQ.c ****     priority = *sdlogger_1_sdspi_1_Timer_IRQ_INTC_PRIOR >> 5;
 305              		.loc 1 244 0
 306 0006 4EF20243 		movw	r3, #:lower16:-536812542
 307 000a CEF20003 		movt	r3, #:upper16:-536812542
 308 000e 1B78     		ldrb	r3, [r3, #0]
 309 0010 DBB2     		uxtb	r3, r3
 310 0012 4FEA5313 		lsr	r3, r3, #5
 311 0016 FB71     		strb	r3, [r7, #7]
 245:.\Generated_Source\PSoC5/sdlogger_1_sdspi_1_Timer_IRQ.c **** 
 246:.\Generated_Source\PSoC5/sdlogger_1_sdspi_1_Timer_IRQ.c ****     return priority;
 312              		.loc 1 246 0
 313 0018 FB79     		ldrb	r3, [r7, #7]	@ zero_extendqisi2
 247:.\Generated_Source\PSoC5/sdlogger_1_sdspi_1_Timer_IRQ.c **** }
 314              		.loc 1 247 0
 315 001a 1846     		mov	r0, r3
 316 001c 07F10C07 		add	r7, r7, #12
 317 0020 BD46     		mov	sp, r7
 318 0022 80BC     		pop	{r7}
 319 0024 7047     		bx	lr
ARM GAS  C:\Users\SUZUKI~1\AppData\Local\Temp\cclMukjO.s 			page 11


 320              		.cfi_endproc
 321              	.LFE7:
 322              		.size	sdlogger_1_sdspi_1_Timer_IRQ_GetPriority, .-sdlogger_1_sdspi_1_Timer_IRQ_GetPriority
 323 0026 00BF     		.section	.text.sdlogger_1_sdspi_1_Timer_IRQ_Enable,"ax",%progbits
 324              		.align	2
 325              		.global	sdlogger_1_sdspi_1_Timer_IRQ_Enable
 326              		.thumb
 327              		.thumb_func
 328              		.type	sdlogger_1_sdspi_1_Timer_IRQ_Enable, %function
 329              	sdlogger_1_sdspi_1_Timer_IRQ_Enable:
 330              	.LFB8:
 248:.\Generated_Source\PSoC5/sdlogger_1_sdspi_1_Timer_IRQ.c **** 
 249:.\Generated_Source\PSoC5/sdlogger_1_sdspi_1_Timer_IRQ.c **** 
 250:.\Generated_Source\PSoC5/sdlogger_1_sdspi_1_Timer_IRQ.c **** /*******************************************************************************
 251:.\Generated_Source\PSoC5/sdlogger_1_sdspi_1_Timer_IRQ.c **** * Function Name: sdlogger_1_sdspi_1_Timer_IRQ_Enable
 252:.\Generated_Source\PSoC5/sdlogger_1_sdspi_1_Timer_IRQ.c **** ********************************************************************************
 253:.\Generated_Source\PSoC5/sdlogger_1_sdspi_1_Timer_IRQ.c **** *
 254:.\Generated_Source\PSoC5/sdlogger_1_sdspi_1_Timer_IRQ.c **** * Summary:
 255:.\Generated_Source\PSoC5/sdlogger_1_sdspi_1_Timer_IRQ.c **** *   Enables the interrupt.
 256:.\Generated_Source\PSoC5/sdlogger_1_sdspi_1_Timer_IRQ.c **** *
 257:.\Generated_Source\PSoC5/sdlogger_1_sdspi_1_Timer_IRQ.c **** * Parameters:
 258:.\Generated_Source\PSoC5/sdlogger_1_sdspi_1_Timer_IRQ.c **** *   None
 259:.\Generated_Source\PSoC5/sdlogger_1_sdspi_1_Timer_IRQ.c **** *
 260:.\Generated_Source\PSoC5/sdlogger_1_sdspi_1_Timer_IRQ.c **** * Return:
 261:.\Generated_Source\PSoC5/sdlogger_1_sdspi_1_Timer_IRQ.c **** *   None
 262:.\Generated_Source\PSoC5/sdlogger_1_sdspi_1_Timer_IRQ.c **** *
 263:.\Generated_Source\PSoC5/sdlogger_1_sdspi_1_Timer_IRQ.c **** *******************************************************************************/
 264:.\Generated_Source\PSoC5/sdlogger_1_sdspi_1_Timer_IRQ.c **** void sdlogger_1_sdspi_1_Timer_IRQ_Enable(void)
 265:.\Generated_Source\PSoC5/sdlogger_1_sdspi_1_Timer_IRQ.c **** {
 331              		.loc 1 265 0
 332              		.cfi_startproc
 333              		@ args = 0, pretend = 0, frame = 0
 334              		@ frame_needed = 1, uses_anonymous_args = 0
 335              		@ link register save eliminated.
 336 0000 80B4     		push	{r7}
 337              	.LCFI21:
 338              		.cfi_def_cfa_offset 4
 339 0002 00AF     		add	r7, sp, #0
 340              		.cfi_offset 7, -4
 341              	.LCFI22:
 342              		.cfi_def_cfa_register 7
 266:.\Generated_Source\PSoC5/sdlogger_1_sdspi_1_Timer_IRQ.c ****     /* Enable the general interrupt. */
 267:.\Generated_Source\PSoC5/sdlogger_1_sdspi_1_Timer_IRQ.c ****     *sdlogger_1_sdspi_1_Timer_IRQ_INTC_SET_EN = sdlogger_1_sdspi_1_Timer_IRQ__INTC_MASK;
 343              		.loc 1 267 0
 344 0004 4EF20013 		movw	r3, #:lower16:-536813312
 345 0008 CEF20003 		movt	r3, #:upper16:-536813312
 346 000c 4FF00402 		mov	r2, #4
 347 0010 1A60     		str	r2, [r3, #0]
 268:.\Generated_Source\PSoC5/sdlogger_1_sdspi_1_Timer_IRQ.c **** }
 348              		.loc 1 268 0
 349 0012 BD46     		mov	sp, r7
 350 0014 80BC     		pop	{r7}
 351 0016 7047     		bx	lr
 352              		.cfi_endproc
 353              	.LFE8:
 354              		.size	sdlogger_1_sdspi_1_Timer_IRQ_Enable, .-sdlogger_1_sdspi_1_Timer_IRQ_Enable
 355              		.section	.text.sdlogger_1_sdspi_1_Timer_IRQ_GetState,"ax",%progbits
ARM GAS  C:\Users\SUZUKI~1\AppData\Local\Temp\cclMukjO.s 			page 12


 356              		.align	2
 357              		.global	sdlogger_1_sdspi_1_Timer_IRQ_GetState
 358              		.thumb
 359              		.thumb_func
 360              		.type	sdlogger_1_sdspi_1_Timer_IRQ_GetState, %function
 361              	sdlogger_1_sdspi_1_Timer_IRQ_GetState:
 362              	.LFB9:
 269:.\Generated_Source\PSoC5/sdlogger_1_sdspi_1_Timer_IRQ.c **** 
 270:.\Generated_Source\PSoC5/sdlogger_1_sdspi_1_Timer_IRQ.c **** 
 271:.\Generated_Source\PSoC5/sdlogger_1_sdspi_1_Timer_IRQ.c **** /*******************************************************************************
 272:.\Generated_Source\PSoC5/sdlogger_1_sdspi_1_Timer_IRQ.c **** * Function Name: sdlogger_1_sdspi_1_Timer_IRQ_GetState
 273:.\Generated_Source\PSoC5/sdlogger_1_sdspi_1_Timer_IRQ.c **** ********************************************************************************
 274:.\Generated_Source\PSoC5/sdlogger_1_sdspi_1_Timer_IRQ.c **** *
 275:.\Generated_Source\PSoC5/sdlogger_1_sdspi_1_Timer_IRQ.c **** * Summary:
 276:.\Generated_Source\PSoC5/sdlogger_1_sdspi_1_Timer_IRQ.c **** *   Gets the state (enabled, disabled) of the Interrupt.
 277:.\Generated_Source\PSoC5/sdlogger_1_sdspi_1_Timer_IRQ.c **** *
 278:.\Generated_Source\PSoC5/sdlogger_1_sdspi_1_Timer_IRQ.c **** * Parameters:
 279:.\Generated_Source\PSoC5/sdlogger_1_sdspi_1_Timer_IRQ.c **** *   None
 280:.\Generated_Source\PSoC5/sdlogger_1_sdspi_1_Timer_IRQ.c **** *
 281:.\Generated_Source\PSoC5/sdlogger_1_sdspi_1_Timer_IRQ.c **** * Return:
 282:.\Generated_Source\PSoC5/sdlogger_1_sdspi_1_Timer_IRQ.c **** *   1 if enabled, 0 if disabled.
 283:.\Generated_Source\PSoC5/sdlogger_1_sdspi_1_Timer_IRQ.c **** *
 284:.\Generated_Source\PSoC5/sdlogger_1_sdspi_1_Timer_IRQ.c **** *******************************************************************************/
 285:.\Generated_Source\PSoC5/sdlogger_1_sdspi_1_Timer_IRQ.c **** uint8 sdlogger_1_sdspi_1_Timer_IRQ_GetState(void)
 286:.\Generated_Source\PSoC5/sdlogger_1_sdspi_1_Timer_IRQ.c **** {
 363              		.loc 1 286 0
 364              		.cfi_startproc
 365              		@ args = 0, pretend = 0, frame = 0
 366              		@ frame_needed = 1, uses_anonymous_args = 0
 367              		@ link register save eliminated.
 368 0000 80B4     		push	{r7}
 369              	.LCFI23:
 370              		.cfi_def_cfa_offset 4
 371 0002 00AF     		add	r7, sp, #0
 372              		.cfi_offset 7, -4
 373              	.LCFI24:
 374              		.cfi_def_cfa_register 7
 287:.\Generated_Source\PSoC5/sdlogger_1_sdspi_1_Timer_IRQ.c ****     /* Get the state of the general interrupt. */
 288:.\Generated_Source\PSoC5/sdlogger_1_sdspi_1_Timer_IRQ.c ****     return ((*sdlogger_1_sdspi_1_Timer_IRQ_INTC_SET_EN & (uint32)sdlogger_1_sdspi_1_Timer_IRQ__INTC
 375              		.loc 1 288 0
 376 0004 4EF20013 		movw	r3, #:lower16:-536813312
 377 0008 CEF20003 		movt	r3, #:upper16:-536813312
 378 000c 1B68     		ldr	r3, [r3, #0]
 379 000e 03F00403 		and	r3, r3, #4
 380 0012 002B     		cmp	r3, #0
 381 0014 02D0     		beq	.L20
 382 0016 4FF00103 		mov	r3, #1
 383 001a 01E0     		b	.L21
 384              	.L20:
 385 001c 4FF00003 		mov	r3, #0
 386              	.L21:
 289:.\Generated_Source\PSoC5/sdlogger_1_sdspi_1_Timer_IRQ.c **** }
 387              		.loc 1 289 0
 388 0020 1846     		mov	r0, r3
 389 0022 BD46     		mov	sp, r7
 390 0024 80BC     		pop	{r7}
 391 0026 7047     		bx	lr
ARM GAS  C:\Users\SUZUKI~1\AppData\Local\Temp\cclMukjO.s 			page 13


 392              		.cfi_endproc
 393              	.LFE9:
 394              		.size	sdlogger_1_sdspi_1_Timer_IRQ_GetState, .-sdlogger_1_sdspi_1_Timer_IRQ_GetState
 395              		.section	.text.sdlogger_1_sdspi_1_Timer_IRQ_Disable,"ax",%progbits
 396              		.align	2
 397              		.global	sdlogger_1_sdspi_1_Timer_IRQ_Disable
 398              		.thumb
 399              		.thumb_func
 400              		.type	sdlogger_1_sdspi_1_Timer_IRQ_Disable, %function
 401              	sdlogger_1_sdspi_1_Timer_IRQ_Disable:
 402              	.LFB10:
 290:.\Generated_Source\PSoC5/sdlogger_1_sdspi_1_Timer_IRQ.c **** 
 291:.\Generated_Source\PSoC5/sdlogger_1_sdspi_1_Timer_IRQ.c **** 
 292:.\Generated_Source\PSoC5/sdlogger_1_sdspi_1_Timer_IRQ.c **** /*******************************************************************************
 293:.\Generated_Source\PSoC5/sdlogger_1_sdspi_1_Timer_IRQ.c **** * Function Name: sdlogger_1_sdspi_1_Timer_IRQ_Disable
 294:.\Generated_Source\PSoC5/sdlogger_1_sdspi_1_Timer_IRQ.c **** ********************************************************************************
 295:.\Generated_Source\PSoC5/sdlogger_1_sdspi_1_Timer_IRQ.c **** *
 296:.\Generated_Source\PSoC5/sdlogger_1_sdspi_1_Timer_IRQ.c **** * Summary:
 297:.\Generated_Source\PSoC5/sdlogger_1_sdspi_1_Timer_IRQ.c **** *   Disables the Interrupt.
 298:.\Generated_Source\PSoC5/sdlogger_1_sdspi_1_Timer_IRQ.c **** *
 299:.\Generated_Source\PSoC5/sdlogger_1_sdspi_1_Timer_IRQ.c **** * Parameters:
 300:.\Generated_Source\PSoC5/sdlogger_1_sdspi_1_Timer_IRQ.c **** *   None
 301:.\Generated_Source\PSoC5/sdlogger_1_sdspi_1_Timer_IRQ.c **** *
 302:.\Generated_Source\PSoC5/sdlogger_1_sdspi_1_Timer_IRQ.c **** * Return:
 303:.\Generated_Source\PSoC5/sdlogger_1_sdspi_1_Timer_IRQ.c **** *   None
 304:.\Generated_Source\PSoC5/sdlogger_1_sdspi_1_Timer_IRQ.c **** *
 305:.\Generated_Source\PSoC5/sdlogger_1_sdspi_1_Timer_IRQ.c **** *******************************************************************************/
 306:.\Generated_Source\PSoC5/sdlogger_1_sdspi_1_Timer_IRQ.c **** void sdlogger_1_sdspi_1_Timer_IRQ_Disable(void)
 307:.\Generated_Source\PSoC5/sdlogger_1_sdspi_1_Timer_IRQ.c **** {
 403              		.loc 1 307 0
 404              		.cfi_startproc
 405              		@ args = 0, pretend = 0, frame = 0
 406              		@ frame_needed = 1, uses_anonymous_args = 0
 407              		@ link register save eliminated.
 408 0000 80B4     		push	{r7}
 409              	.LCFI25:
 410              		.cfi_def_cfa_offset 4
 411 0002 00AF     		add	r7, sp, #0
 412              		.cfi_offset 7, -4
 413              	.LCFI26:
 414              		.cfi_def_cfa_register 7
 308:.\Generated_Source\PSoC5/sdlogger_1_sdspi_1_Timer_IRQ.c ****     /* Disable the general interrupt. */
 309:.\Generated_Source\PSoC5/sdlogger_1_sdspi_1_Timer_IRQ.c ****     *sdlogger_1_sdspi_1_Timer_IRQ_INTC_CLR_EN = sdlogger_1_sdspi_1_Timer_IRQ__INTC_MASK;
 415              		.loc 1 309 0
 416 0004 4EF28013 		movw	r3, #:lower16:-536813184
 417 0008 CEF20003 		movt	r3, #:upper16:-536813184
 418 000c 4FF00402 		mov	r2, #4
 419 0010 1A60     		str	r2, [r3, #0]
 310:.\Generated_Source\PSoC5/sdlogger_1_sdspi_1_Timer_IRQ.c **** }
 420              		.loc 1 310 0
 421 0012 BD46     		mov	sp, r7
 422 0014 80BC     		pop	{r7}
 423 0016 7047     		bx	lr
 424              		.cfi_endproc
 425              	.LFE10:
 426              		.size	sdlogger_1_sdspi_1_Timer_IRQ_Disable, .-sdlogger_1_sdspi_1_Timer_IRQ_Disable
 427              		.section	.text.sdlogger_1_sdspi_1_Timer_IRQ_SetPending,"ax",%progbits
ARM GAS  C:\Users\SUZUKI~1\AppData\Local\Temp\cclMukjO.s 			page 14


 428              		.align	2
 429              		.global	sdlogger_1_sdspi_1_Timer_IRQ_SetPending
 430              		.thumb
 431              		.thumb_func
 432              		.type	sdlogger_1_sdspi_1_Timer_IRQ_SetPending, %function
 433              	sdlogger_1_sdspi_1_Timer_IRQ_SetPending:
 434              	.LFB11:
 311:.\Generated_Source\PSoC5/sdlogger_1_sdspi_1_Timer_IRQ.c **** 
 312:.\Generated_Source\PSoC5/sdlogger_1_sdspi_1_Timer_IRQ.c **** 
 313:.\Generated_Source\PSoC5/sdlogger_1_sdspi_1_Timer_IRQ.c **** /*******************************************************************************
 314:.\Generated_Source\PSoC5/sdlogger_1_sdspi_1_Timer_IRQ.c **** * Function Name: sdlogger_1_sdspi_1_Timer_IRQ_SetPending
 315:.\Generated_Source\PSoC5/sdlogger_1_sdspi_1_Timer_IRQ.c **** ********************************************************************************
 316:.\Generated_Source\PSoC5/sdlogger_1_sdspi_1_Timer_IRQ.c **** *
 317:.\Generated_Source\PSoC5/sdlogger_1_sdspi_1_Timer_IRQ.c **** * Summary:
 318:.\Generated_Source\PSoC5/sdlogger_1_sdspi_1_Timer_IRQ.c **** *   Causes the Interrupt to enter the pending state, a software method of
 319:.\Generated_Source\PSoC5/sdlogger_1_sdspi_1_Timer_IRQ.c **** *   generating the interrupt.
 320:.\Generated_Source\PSoC5/sdlogger_1_sdspi_1_Timer_IRQ.c **** *
 321:.\Generated_Source\PSoC5/sdlogger_1_sdspi_1_Timer_IRQ.c **** * Parameters:
 322:.\Generated_Source\PSoC5/sdlogger_1_sdspi_1_Timer_IRQ.c **** *   None
 323:.\Generated_Source\PSoC5/sdlogger_1_sdspi_1_Timer_IRQ.c **** *
 324:.\Generated_Source\PSoC5/sdlogger_1_sdspi_1_Timer_IRQ.c **** * Return:
 325:.\Generated_Source\PSoC5/sdlogger_1_sdspi_1_Timer_IRQ.c **** *   None
 326:.\Generated_Source\PSoC5/sdlogger_1_sdspi_1_Timer_IRQ.c **** *
 327:.\Generated_Source\PSoC5/sdlogger_1_sdspi_1_Timer_IRQ.c **** *******************************************************************************/
 328:.\Generated_Source\PSoC5/sdlogger_1_sdspi_1_Timer_IRQ.c **** void sdlogger_1_sdspi_1_Timer_IRQ_SetPending(void)
 329:.\Generated_Source\PSoC5/sdlogger_1_sdspi_1_Timer_IRQ.c **** {
 435              		.loc 1 329 0
 436              		.cfi_startproc
 437              		@ args = 0, pretend = 0, frame = 0
 438              		@ frame_needed = 1, uses_anonymous_args = 0
 439              		@ link register save eliminated.
 440 0000 80B4     		push	{r7}
 441              	.LCFI27:
 442              		.cfi_def_cfa_offset 4
 443 0002 00AF     		add	r7, sp, #0
 444              		.cfi_offset 7, -4
 445              	.LCFI28:
 446              		.cfi_def_cfa_register 7
 330:.\Generated_Source\PSoC5/sdlogger_1_sdspi_1_Timer_IRQ.c ****     *sdlogger_1_sdspi_1_Timer_IRQ_INTC_SET_PD = sdlogger_1_sdspi_1_Timer_IRQ__INTC_MASK;
 447              		.loc 1 330 0
 448 0004 4EF20023 		movw	r3, #:lower16:-536813056
 449 0008 CEF20003 		movt	r3, #:upper16:-536813056
 450 000c 4FF00402 		mov	r2, #4
 451 0010 1A60     		str	r2, [r3, #0]
 331:.\Generated_Source\PSoC5/sdlogger_1_sdspi_1_Timer_IRQ.c **** }
 452              		.loc 1 331 0
 453 0012 BD46     		mov	sp, r7
 454 0014 80BC     		pop	{r7}
 455 0016 7047     		bx	lr
 456              		.cfi_endproc
 457              	.LFE11:
 458              		.size	sdlogger_1_sdspi_1_Timer_IRQ_SetPending, .-sdlogger_1_sdspi_1_Timer_IRQ_SetPending
 459              		.section	.text.sdlogger_1_sdspi_1_Timer_IRQ_ClearPending,"ax",%progbits
 460              		.align	2
 461              		.global	sdlogger_1_sdspi_1_Timer_IRQ_ClearPending
 462              		.thumb
 463              		.thumb_func
ARM GAS  C:\Users\SUZUKI~1\AppData\Local\Temp\cclMukjO.s 			page 15


 464              		.type	sdlogger_1_sdspi_1_Timer_IRQ_ClearPending, %function
 465              	sdlogger_1_sdspi_1_Timer_IRQ_ClearPending:
 466              	.LFB12:
 332:.\Generated_Source\PSoC5/sdlogger_1_sdspi_1_Timer_IRQ.c **** 
 333:.\Generated_Source\PSoC5/sdlogger_1_sdspi_1_Timer_IRQ.c **** 
 334:.\Generated_Source\PSoC5/sdlogger_1_sdspi_1_Timer_IRQ.c **** /*******************************************************************************
 335:.\Generated_Source\PSoC5/sdlogger_1_sdspi_1_Timer_IRQ.c **** * Function Name: sdlogger_1_sdspi_1_Timer_IRQ_ClearPending
 336:.\Generated_Source\PSoC5/sdlogger_1_sdspi_1_Timer_IRQ.c **** ********************************************************************************
 337:.\Generated_Source\PSoC5/sdlogger_1_sdspi_1_Timer_IRQ.c **** *
 338:.\Generated_Source\PSoC5/sdlogger_1_sdspi_1_Timer_IRQ.c **** * Summary:
 339:.\Generated_Source\PSoC5/sdlogger_1_sdspi_1_Timer_IRQ.c **** *   Clears a pending interrupt.
 340:.\Generated_Source\PSoC5/sdlogger_1_sdspi_1_Timer_IRQ.c **** *
 341:.\Generated_Source\PSoC5/sdlogger_1_sdspi_1_Timer_IRQ.c **** * Parameters:
 342:.\Generated_Source\PSoC5/sdlogger_1_sdspi_1_Timer_IRQ.c **** *   None
 343:.\Generated_Source\PSoC5/sdlogger_1_sdspi_1_Timer_IRQ.c **** *
 344:.\Generated_Source\PSoC5/sdlogger_1_sdspi_1_Timer_IRQ.c **** * Return:
 345:.\Generated_Source\PSoC5/sdlogger_1_sdspi_1_Timer_IRQ.c **** *   None
 346:.\Generated_Source\PSoC5/sdlogger_1_sdspi_1_Timer_IRQ.c **** *
 347:.\Generated_Source\PSoC5/sdlogger_1_sdspi_1_Timer_IRQ.c **** *******************************************************************************/
 348:.\Generated_Source\PSoC5/sdlogger_1_sdspi_1_Timer_IRQ.c **** void sdlogger_1_sdspi_1_Timer_IRQ_ClearPending(void)
 349:.\Generated_Source\PSoC5/sdlogger_1_sdspi_1_Timer_IRQ.c **** {
 467              		.loc 1 349 0
 468              		.cfi_startproc
 469              		@ args = 0, pretend = 0, frame = 0
 470              		@ frame_needed = 1, uses_anonymous_args = 0
 471              		@ link register save eliminated.
 472 0000 80B4     		push	{r7}
 473              	.LCFI29:
 474              		.cfi_def_cfa_offset 4
 475 0002 00AF     		add	r7, sp, #0
 476              		.cfi_offset 7, -4
 477              	.LCFI30:
 478              		.cfi_def_cfa_register 7
 350:.\Generated_Source\PSoC5/sdlogger_1_sdspi_1_Timer_IRQ.c ****     *sdlogger_1_sdspi_1_Timer_IRQ_INTC_CLR_PD = sdlogger_1_sdspi_1_Timer_IRQ__INTC_MASK;
 479              		.loc 1 350 0
 480 0004 4EF28023 		movw	r3, #:lower16:-536812928
 481 0008 CEF20003 		movt	r3, #:upper16:-536812928
 482 000c 4FF00402 		mov	r2, #4
 483 0010 1A60     		str	r2, [r3, #0]
 351:.\Generated_Source\PSoC5/sdlogger_1_sdspi_1_Timer_IRQ.c **** }
 484              		.loc 1 351 0
 485 0012 BD46     		mov	sp, r7
 486 0014 80BC     		pop	{r7}
 487 0016 7047     		bx	lr
 488              		.cfi_endproc
 489              	.LFE12:
 490              		.size	sdlogger_1_sdspi_1_Timer_IRQ_ClearPending, .-sdlogger_1_sdspi_1_Timer_IRQ_ClearPending
 491              		.text
 492              	.Letext0:
 493              		.section	.debug_loc,"",%progbits
 494              	.Ldebug_loc0:
 495              	.LLST0:
 496 0000 00000000 		.4byte	.LFB0
 497 0004 02000000 		.4byte	.LCFI0
 498 0008 0100     		.2byte	0x1
 499 000a 5D       		.byte	0x5d
 500 000b 02000000 		.4byte	.LCFI0
ARM GAS  C:\Users\SUZUKI~1\AppData\Local\Temp\cclMukjO.s 			page 16


 501 000f 04000000 		.4byte	.LCFI1
 502 0013 0200     		.2byte	0x2
 503 0015 7D       		.byte	0x7d
 504 0016 08       		.sleb128 8
 505 0017 04000000 		.4byte	.LCFI1
 506 001b 22000000 		.4byte	.LFE0
 507 001f 0200     		.2byte	0x2
 508 0021 77       		.byte	0x77
 509 0022 08       		.sleb128 8
 510 0023 00000000 		.4byte	0x0
 511 0027 00000000 		.4byte	0x0
 512              	.LLST1:
 513 002b 00000000 		.4byte	.LFB1
 514 002f 02000000 		.4byte	.LCFI2
 515 0033 0100     		.2byte	0x1
 516 0035 5D       		.byte	0x5d
 517 0036 02000000 		.4byte	.LCFI2
 518 003a 04000000 		.4byte	.LCFI3
 519 003e 0200     		.2byte	0x2
 520 0040 7D       		.byte	0x7d
 521 0041 08       		.sleb128 8
 522 0042 04000000 		.4byte	.LCFI3
 523 0046 06000000 		.4byte	.LCFI4
 524 004a 0200     		.2byte	0x2
 525 004c 7D       		.byte	0x7d
 526 004d 10       		.sleb128 16
 527 004e 06000000 		.4byte	.LCFI4
 528 0052 26000000 		.4byte	.LFE1
 529 0056 0200     		.2byte	0x2
 530 0058 77       		.byte	0x77
 531 0059 10       		.sleb128 16
 532 005a 00000000 		.4byte	0x0
 533 005e 00000000 		.4byte	0x0
 534              	.LLST2:
 535 0062 00000000 		.4byte	.LFB2
 536 0066 02000000 		.4byte	.LCFI5
 537 006a 0100     		.2byte	0x1
 538 006c 5D       		.byte	0x5d
 539 006d 02000000 		.4byte	.LCFI5
 540 0071 04000000 		.4byte	.LCFI6
 541 0075 0200     		.2byte	0x2
 542 0077 7D       		.byte	0x7d
 543 0078 08       		.sleb128 8
 544 0079 04000000 		.4byte	.LCFI6
 545 007d 16000000 		.4byte	.LFE2
 546 0081 0200     		.2byte	0x2
 547 0083 77       		.byte	0x77
 548 0084 08       		.sleb128 8
 549 0085 00000000 		.4byte	0x0
 550 0089 00000000 		.4byte	0x0
 551              	.LLST3:
 552 008d 00000000 		.4byte	.LFB3
 553 0091 02000000 		.4byte	.LCFI7
 554 0095 0100     		.2byte	0x1
 555 0097 5D       		.byte	0x5d
 556 0098 02000000 		.4byte	.LCFI7
 557 009c 04000000 		.4byte	.LCFI8
ARM GAS  C:\Users\SUZUKI~1\AppData\Local\Temp\cclMukjO.s 			page 17


 558 00a0 0200     		.2byte	0x2
 559 00a2 7D       		.byte	0x7d
 560 00a3 04       		.sleb128 4
 561 00a4 04000000 		.4byte	.LCFI8
 562 00a8 0A000000 		.4byte	.LFE3
 563 00ac 0200     		.2byte	0x2
 564 00ae 77       		.byte	0x77
 565 00af 04       		.sleb128 4
 566 00b0 00000000 		.4byte	0x0
 567 00b4 00000000 		.4byte	0x0
 568              	.LLST4:
 569 00b8 00000000 		.4byte	.LFB4
 570 00bc 02000000 		.4byte	.LCFI9
 571 00c0 0100     		.2byte	0x1
 572 00c2 5D       		.byte	0x5d
 573 00c3 02000000 		.4byte	.LCFI9
 574 00c7 04000000 		.4byte	.LCFI10
 575 00cb 0200     		.2byte	0x2
 576 00cd 7D       		.byte	0x7d
 577 00ce 04       		.sleb128 4
 578 00cf 04000000 		.4byte	.LCFI10
 579 00d3 06000000 		.4byte	.LCFI11
 580 00d7 0200     		.2byte	0x2
 581 00d9 7D       		.byte	0x7d
 582 00da 18       		.sleb128 24
 583 00db 06000000 		.4byte	.LCFI11
 584 00df 28000000 		.4byte	.LFE4
 585 00e3 0200     		.2byte	0x2
 586 00e5 77       		.byte	0x77
 587 00e6 18       		.sleb128 24
 588 00e7 00000000 		.4byte	0x0
 589 00eb 00000000 		.4byte	0x0
 590              	.LLST5:
 591 00ef 00000000 		.4byte	.LFB5
 592 00f3 02000000 		.4byte	.LCFI12
 593 00f7 0100     		.2byte	0x1
 594 00f9 5D       		.byte	0x5d
 595 00fa 02000000 		.4byte	.LCFI12
 596 00fe 04000000 		.4byte	.LCFI13
 597 0102 0200     		.2byte	0x2
 598 0104 7D       		.byte	0x7d
 599 0105 04       		.sleb128 4
 600 0106 04000000 		.4byte	.LCFI13
 601 010a 06000000 		.4byte	.LCFI14
 602 010e 0200     		.2byte	0x2
 603 0110 7D       		.byte	0x7d
 604 0111 10       		.sleb128 16
 605 0112 06000000 		.4byte	.LCFI14
 606 0116 26000000 		.4byte	.LFE5
 607 011a 0200     		.2byte	0x2
 608 011c 77       		.byte	0x77
 609 011d 10       		.sleb128 16
 610 011e 00000000 		.4byte	0x0
 611 0122 00000000 		.4byte	0x0
 612              	.LLST6:
 613 0126 00000000 		.4byte	.LFB6
 614 012a 02000000 		.4byte	.LCFI15
ARM GAS  C:\Users\SUZUKI~1\AppData\Local\Temp\cclMukjO.s 			page 18


 615 012e 0100     		.2byte	0x1
 616 0130 5D       		.byte	0x5d
 617 0131 02000000 		.4byte	.LCFI15
 618 0135 04000000 		.4byte	.LCFI16
 619 0139 0200     		.2byte	0x2
 620 013b 7D       		.byte	0x7d
 621 013c 04       		.sleb128 4
 622 013d 04000000 		.4byte	.LCFI16
 623 0141 06000000 		.4byte	.LCFI17
 624 0145 0200     		.2byte	0x2
 625 0147 7D       		.byte	0x7d
 626 0148 10       		.sleb128 16
 627 0149 06000000 		.4byte	.LCFI17
 628 014d 26000000 		.4byte	.LFE6
 629 0151 0200     		.2byte	0x2
 630 0153 77       		.byte	0x77
 631 0154 10       		.sleb128 16
 632 0155 00000000 		.4byte	0x0
 633 0159 00000000 		.4byte	0x0
 634              	.LLST7:
 635 015d 00000000 		.4byte	.LFB7
 636 0161 02000000 		.4byte	.LCFI18
 637 0165 0100     		.2byte	0x1
 638 0167 5D       		.byte	0x5d
 639 0168 02000000 		.4byte	.LCFI18
 640 016c 04000000 		.4byte	.LCFI19
 641 0170 0200     		.2byte	0x2
 642 0172 7D       		.byte	0x7d
 643 0173 04       		.sleb128 4
 644 0174 04000000 		.4byte	.LCFI19
 645 0178 06000000 		.4byte	.LCFI20
 646 017c 0200     		.2byte	0x2
 647 017e 7D       		.byte	0x7d
 648 017f 10       		.sleb128 16
 649 0180 06000000 		.4byte	.LCFI20
 650 0184 26000000 		.4byte	.LFE7
 651 0188 0200     		.2byte	0x2
 652 018a 77       		.byte	0x77
 653 018b 10       		.sleb128 16
 654 018c 00000000 		.4byte	0x0
 655 0190 00000000 		.4byte	0x0
 656              	.LLST8:
 657 0194 00000000 		.4byte	.LFB8
 658 0198 02000000 		.4byte	.LCFI21
 659 019c 0100     		.2byte	0x1
 660 019e 5D       		.byte	0x5d
 661 019f 02000000 		.4byte	.LCFI21
 662 01a3 04000000 		.4byte	.LCFI22
 663 01a7 0200     		.2byte	0x2
 664 01a9 7D       		.byte	0x7d
 665 01aa 04       		.sleb128 4
 666 01ab 04000000 		.4byte	.LCFI22
 667 01af 18000000 		.4byte	.LFE8
 668 01b3 0200     		.2byte	0x2
 669 01b5 77       		.byte	0x77
 670 01b6 04       		.sleb128 4
 671 01b7 00000000 		.4byte	0x0
ARM GAS  C:\Users\SUZUKI~1\AppData\Local\Temp\cclMukjO.s 			page 19


 672 01bb 00000000 		.4byte	0x0
 673              	.LLST9:
 674 01bf 00000000 		.4byte	.LFB9
 675 01c3 02000000 		.4byte	.LCFI23
 676 01c7 0100     		.2byte	0x1
 677 01c9 5D       		.byte	0x5d
 678 01ca 02000000 		.4byte	.LCFI23
 679 01ce 04000000 		.4byte	.LCFI24
 680 01d2 0200     		.2byte	0x2
 681 01d4 7D       		.byte	0x7d
 682 01d5 04       		.sleb128 4
 683 01d6 04000000 		.4byte	.LCFI24
 684 01da 28000000 		.4byte	.LFE9
 685 01de 0200     		.2byte	0x2
 686 01e0 77       		.byte	0x77
 687 01e1 04       		.sleb128 4
 688 01e2 00000000 		.4byte	0x0
 689 01e6 00000000 		.4byte	0x0
 690              	.LLST10:
 691 01ea 00000000 		.4byte	.LFB10
 692 01ee 02000000 		.4byte	.LCFI25
 693 01f2 0100     		.2byte	0x1
 694 01f4 5D       		.byte	0x5d
 695 01f5 02000000 		.4byte	.LCFI25
 696 01f9 04000000 		.4byte	.LCFI26
 697 01fd 0200     		.2byte	0x2
 698 01ff 7D       		.byte	0x7d
 699 0200 04       		.sleb128 4
 700 0201 04000000 		.4byte	.LCFI26
 701 0205 18000000 		.4byte	.LFE10
 702 0209 0200     		.2byte	0x2
 703 020b 77       		.byte	0x77
 704 020c 04       		.sleb128 4
 705 020d 00000000 		.4byte	0x0
 706 0211 00000000 		.4byte	0x0
 707              	.LLST11:
 708 0215 00000000 		.4byte	.LFB11
 709 0219 02000000 		.4byte	.LCFI27
 710 021d 0100     		.2byte	0x1
 711 021f 5D       		.byte	0x5d
 712 0220 02000000 		.4byte	.LCFI27
 713 0224 04000000 		.4byte	.LCFI28
 714 0228 0200     		.2byte	0x2
 715 022a 7D       		.byte	0x7d
 716 022b 04       		.sleb128 4
 717 022c 04000000 		.4byte	.LCFI28
 718 0230 18000000 		.4byte	.LFE11
 719 0234 0200     		.2byte	0x2
 720 0236 77       		.byte	0x77
 721 0237 04       		.sleb128 4
 722 0238 00000000 		.4byte	0x0
 723 023c 00000000 		.4byte	0x0
 724              	.LLST12:
 725 0240 00000000 		.4byte	.LFB12
 726 0244 02000000 		.4byte	.LCFI29
 727 0248 0100     		.2byte	0x1
 728 024a 5D       		.byte	0x5d
ARM GAS  C:\Users\SUZUKI~1\AppData\Local\Temp\cclMukjO.s 			page 20


 729 024b 02000000 		.4byte	.LCFI29
 730 024f 04000000 		.4byte	.LCFI30
 731 0253 0200     		.2byte	0x2
 732 0255 7D       		.byte	0x7d
 733 0256 04       		.sleb128 4
 734 0257 04000000 		.4byte	.LCFI30
 735 025b 18000000 		.4byte	.LFE12
 736 025f 0200     		.2byte	0x2
 737 0261 77       		.byte	0x77
 738 0262 04       		.sleb128 4
 739 0263 00000000 		.4byte	0x0
 740 0267 00000000 		.4byte	0x0
 741              		.file 2 "./Generated_Source/PSoC5/cytypes.h"
 742              		.section	.debug_info
 743 0000 37020000 		.4byte	0x237
 744 0004 0200     		.2byte	0x2
 745 0006 00000000 		.4byte	.Ldebug_abbrev0
 746 000a 04       		.byte	0x4
 747 000b 01       		.uleb128 0x1
 748 000c 02020000 		.4byte	.LASF29
 749 0010 01       		.byte	0x1
 750 0011 BA020000 		.4byte	.LASF30
 751 0015 26010000 		.4byte	.LASF31
 752 0019 00000000 		.4byte	0x0
 753 001d 00000000 		.4byte	0x0
 754 0021 00000000 		.4byte	.Ldebug_ranges0+0x0
 755 0025 00000000 		.4byte	.Ldebug_line0
 756 0029 02       		.uleb128 0x2
 757 002a 01       		.byte	0x1
 758 002b 06       		.byte	0x6
 759 002c 25030000 		.4byte	.LASF0
 760 0030 02       		.uleb128 0x2
 761 0031 01       		.byte	0x1
 762 0032 08       		.byte	0x8
 763 0033 9E000000 		.4byte	.LASF1
 764 0037 02       		.uleb128 0x2
 765 0038 02       		.byte	0x2
 766 0039 05       		.byte	0x5
 767 003a 8C020000 		.4byte	.LASF2
 768 003e 02       		.uleb128 0x2
 769 003f 02       		.byte	0x2
 770 0040 07       		.byte	0x7
 771 0041 62000000 		.4byte	.LASF3
 772 0045 03       		.uleb128 0x3
 773 0046 04       		.byte	0x4
 774 0047 05       		.byte	0x5
 775 0048 696E7400 		.ascii	"int\000"
 776 004c 02       		.uleb128 0x2
 777 004d 04       		.byte	0x4
 778 004e 07       		.byte	0x7
 779 004f 81010000 		.4byte	.LASF4
 780 0053 02       		.uleb128 0x2
 781 0054 08       		.byte	0x8
 782 0055 05       		.byte	0x5
 783 0056 00000000 		.4byte	.LASF5
 784 005a 02       		.uleb128 0x2
 785 005b 08       		.byte	0x8
ARM GAS  C:\Users\SUZUKI~1\AppData\Local\Temp\cclMukjO.s 			page 21


 786 005c 07       		.byte	0x7
 787 005d 96010000 		.4byte	.LASF6
 788 0061 02       		.uleb128 0x2
 789 0062 04       		.byte	0x4
 790 0063 05       		.byte	0x5
 791 0064 F2020000 		.4byte	.LASF7
 792 0068 04       		.uleb128 0x4
 793 0069 04       		.byte	0x4
 794 006a 07       		.byte	0x7
 795 006b 02       		.uleb128 0x2
 796 006c 04       		.byte	0x4
 797 006d 07       		.byte	0x7
 798 006e AC000000 		.4byte	.LASF8
 799 0072 05       		.uleb128 0x5
 800 0073 01       		.byte	0x1
 801 0074 06       		.uleb128 0x6
 802 0075 04       		.byte	0x4
 803 0076 72000000 		.4byte	0x72
 804 007a 02       		.uleb128 0x2
 805 007b 01       		.byte	0x1
 806 007c 08       		.byte	0x8
 807 007d FB020000 		.4byte	.LASF9
 808 0081 07       		.uleb128 0x7
 809 0082 BE000000 		.4byte	.LASF12
 810 0086 02       		.byte	0x2
 811 0087 4C       		.byte	0x4c
 812 0088 30000000 		.4byte	0x30
 813 008c 02       		.uleb128 0x2
 814 008d 04       		.byte	0x4
 815 008e 04       		.byte	0x4
 816 008f 0E000000 		.4byte	.LASF10
 817 0093 02       		.uleb128 0x2
 818 0094 08       		.byte	0x8
 819 0095 04       		.byte	0x4
 820 0096 F5000000 		.4byte	.LASF11
 821 009a 07       		.uleb128 0x7
 822 009b F5010000 		.4byte	.LASF13
 823 009f 02       		.byte	0x2
 824 00a0 E0       		.byte	0xe0
 825 00a1 74000000 		.4byte	0x74
 826 00a5 08       		.uleb128 0x8
 827 00a6 01       		.byte	0x1
 828 00a7 69020000 		.4byte	.LASF14
 829 00ab 01       		.byte	0x1
 830 00ac 39       		.byte	0x39
 831 00ad 01       		.byte	0x1
 832 00ae 00000000 		.4byte	.LFB0
 833 00b2 22000000 		.4byte	.LFE0
 834 00b6 00000000 		.4byte	.LLST0
 835 00ba 09       		.uleb128 0x9
 836 00bb 01       		.byte	0x1
 837 00bc 35020000 		.4byte	.LASF17
 838 00c0 01       		.byte	0x1
 839 00c1 57       		.byte	0x57
 840 00c2 01       		.byte	0x1
 841 00c3 00000000 		.4byte	.LFB1
 842 00c7 26000000 		.4byte	.LFE1
ARM GAS  C:\Users\SUZUKI~1\AppData\Local\Temp\cclMukjO.s 			page 22


 843 00cb 2B000000 		.4byte	.LLST1
 844 00cf E2000000 		.4byte	0xe2
 845 00d3 0A       		.uleb128 0xa
 846 00d4 8E010000 		.4byte	.LASF19
 847 00d8 01       		.byte	0x1
 848 00d9 57       		.byte	0x57
 849 00da 9A000000 		.4byte	0x9a
 850 00de 02       		.byte	0x2
 851 00df 91       		.byte	0x91
 852 00e0 74       		.sleb128 -12
 853 00e1 00       		.byte	0x0
 854 00e2 08       		.uleb128 0x8
 855 00e3 01       		.byte	0x1
 856 00e4 AD010000 		.4byte	.LASF15
 857 00e8 01       		.byte	0x1
 858 00e9 74       		.byte	0x74
 859 00ea 01       		.byte	0x1
 860 00eb 00000000 		.4byte	.LFB2
 861 00ef 16000000 		.4byte	.LFE2
 862 00f3 62000000 		.4byte	.LLST2
 863 00f7 08       		.uleb128 0x8
 864 00f8 01       		.byte	0x1
 865 00f9 3B000000 		.4byte	.LASF16
 866 00fd 01       		.byte	0x1
 867 00fe 8E       		.byte	0x8e
 868 00ff 01       		.byte	0x1
 869 0100 00000000 		.4byte	.LFB3
 870 0104 0A000000 		.4byte	.LFE3
 871 0108 8D000000 		.4byte	.LLST3
 872 010c 09       		.uleb128 0x9
 873 010d 01       		.byte	0x1
 874 010e 0E020000 		.4byte	.LASF18
 875 0112 01       		.byte	0x1
 876 0113 A7       		.byte	0xa7
 877 0114 01       		.byte	0x1
 878 0115 00000000 		.4byte	.LFB4
 879 0119 28000000 		.4byte	.LFE4
 880 011d B8000000 		.4byte	.LLST4
 881 0121 42010000 		.4byte	0x142
 882 0125 0A       		.uleb128 0xa
 883 0126 8E010000 		.4byte	.LASF19
 884 012a 01       		.byte	0x1
 885 012b A7       		.byte	0xa7
 886 012c 9A000000 		.4byte	0x9a
 887 0130 02       		.byte	0x2
 888 0131 91       		.byte	0x91
 889 0132 6C       		.sleb128 -20
 890 0133 0B       		.uleb128 0xb
 891 0134 5A020000 		.4byte	.LASF20
 892 0138 01       		.byte	0x1
 893 0139 A9       		.byte	0xa9
 894 013a 42010000 		.4byte	0x142
 895 013e 02       		.byte	0x2
 896 013f 91       		.byte	0x91
 897 0140 74       		.sleb128 -12
 898 0141 00       		.byte	0x0
 899 0142 06       		.uleb128 0x6
ARM GAS  C:\Users\SUZUKI~1\AppData\Local\Temp\cclMukjO.s 			page 23


 900 0143 04       		.byte	0x4
 901 0144 9A000000 		.4byte	0x9a
 902 0148 0C       		.uleb128 0xc
 903 0149 01       		.byte	0x1
 904 014a 14000000 		.4byte	.LASF23
 905 014e 01       		.byte	0x1
 906 014f BF       		.byte	0xbf
 907 0150 01       		.byte	0x1
 908 0151 9A000000 		.4byte	0x9a
 909 0155 00000000 		.4byte	.LFB5
 910 0159 26000000 		.4byte	.LFE5
 911 015d EF000000 		.4byte	.LLST5
 912 0161 74010000 		.4byte	0x174
 913 0165 0B       		.uleb128 0xb
 914 0166 5A020000 		.4byte	.LASF20
 915 016a 01       		.byte	0x1
 916 016b C1       		.byte	0xc1
 917 016c 42010000 		.4byte	0x142
 918 0170 02       		.byte	0x2
 919 0171 91       		.byte	0x91
 920 0172 74       		.sleb128 -12
 921 0173 00       		.byte	0x0
 922 0174 09       		.uleb128 0x9
 923 0175 01       		.byte	0x1
 924 0176 58010000 		.4byte	.LASF21
 925 017a 01       		.byte	0x1
 926 017b DB       		.byte	0xdb
 927 017c 01       		.byte	0x1
 928 017d 00000000 		.4byte	.LFB6
 929 0181 26000000 		.4byte	.LFE6
 930 0185 26010000 		.4byte	.LLST6
 931 0189 9C010000 		.4byte	0x19c
 932 018d 0A       		.uleb128 0xa
 933 018e C4000000 		.4byte	.LASF22
 934 0192 01       		.byte	0x1
 935 0193 DB       		.byte	0xdb
 936 0194 81000000 		.4byte	0x81
 937 0198 02       		.byte	0x2
 938 0199 91       		.byte	0x91
 939 019a 77       		.sleb128 -9
 940 019b 00       		.byte	0x0
 941 019c 0C       		.uleb128 0xc
 942 019d 01       		.byte	0x1
 943 019e 75000000 		.4byte	.LASF24
 944 01a2 01       		.byte	0x1
 945 01a3 EF       		.byte	0xef
 946 01a4 01       		.byte	0x1
 947 01a5 81000000 		.4byte	0x81
 948 01a9 00000000 		.4byte	.LFB7
 949 01ad 26000000 		.4byte	.LFE7
 950 01b1 5D010000 		.4byte	.LLST7
 951 01b5 C8010000 		.4byte	0x1c8
 952 01b9 0B       		.uleb128 0xb
 953 01ba C4000000 		.4byte	.LASF22
 954 01be 01       		.byte	0x1
 955 01bf F1       		.byte	0xf1
 956 01c0 81000000 		.4byte	0x81
ARM GAS  C:\Users\SUZUKI~1\AppData\Local\Temp\cclMukjO.s 			page 24


 957 01c4 02       		.byte	0x2
 958 01c5 91       		.byte	0x91
 959 01c6 77       		.sleb128 -9
 960 01c7 00       		.byte	0x0
 961 01c8 0D       		.uleb128 0xd
 962 01c9 01       		.byte	0x1
 963 01ca 96020000 		.4byte	.LASF25
 964 01ce 01       		.byte	0x1
 965 01cf 0801     		.2byte	0x108
 966 01d1 01       		.byte	0x1
 967 01d2 00000000 		.4byte	.LFB8
 968 01d6 18000000 		.4byte	.LFE8
 969 01da 94010000 		.4byte	.LLST8
 970 01de 0E       		.uleb128 0xe
 971 01df 01       		.byte	0x1
 972 01e0 CF010000 		.4byte	.LASF32
 973 01e4 01       		.byte	0x1
 974 01e5 1D01     		.2byte	0x11d
 975 01e7 01       		.byte	0x1
 976 01e8 81000000 		.4byte	0x81
 977 01ec 00000000 		.4byte	.LFB9
 978 01f0 28000000 		.4byte	.LFE9
 979 01f4 BF010000 		.4byte	.LLST9
 980 01f8 0D       		.uleb128 0xd
 981 01f9 01       		.byte	0x1
 982 01fa 00030000 		.4byte	.LASF26
 983 01fe 01       		.byte	0x1
 984 01ff 3201     		.2byte	0x132
 985 0201 01       		.byte	0x1
 986 0202 00000000 		.4byte	.LFB10
 987 0206 18000000 		.4byte	.LFE10
 988 020a EA010000 		.4byte	.LLST10
 989 020e 0D       		.uleb128 0xd
 990 020f 01       		.byte	0x1
 991 0210 CD000000 		.4byte	.LASF27
 992 0214 01       		.byte	0x1
 993 0215 4801     		.2byte	0x148
 994 0217 01       		.byte	0x1
 995 0218 00000000 		.4byte	.LFB11
 996 021c 18000000 		.4byte	.LFE11
 997 0220 15020000 		.4byte	.LLST11
 998 0224 0D       		.uleb128 0xd
 999 0225 01       		.byte	0x1
 1000 0226 FC000000 		.4byte	.LASF28
 1001 022a 01       		.byte	0x1
 1002 022b 5C01     		.2byte	0x15c
 1003 022d 01       		.byte	0x1
 1004 022e 00000000 		.4byte	.LFB12
 1005 0232 18000000 		.4byte	.LFE12
 1006 0236 40020000 		.4byte	.LLST12
 1007 023a 00       		.byte	0x0
 1008              		.section	.debug_abbrev
 1009 0000 01       		.uleb128 0x1
 1010 0001 11       		.uleb128 0x11
 1011 0002 01       		.byte	0x1
 1012 0003 25       		.uleb128 0x25
 1013 0004 0E       		.uleb128 0xe
ARM GAS  C:\Users\SUZUKI~1\AppData\Local\Temp\cclMukjO.s 			page 25


 1014 0005 13       		.uleb128 0x13
 1015 0006 0B       		.uleb128 0xb
 1016 0007 03       		.uleb128 0x3
 1017 0008 0E       		.uleb128 0xe
 1018 0009 1B       		.uleb128 0x1b
 1019 000a 0E       		.uleb128 0xe
 1020 000b 11       		.uleb128 0x11
 1021 000c 01       		.uleb128 0x1
 1022 000d 52       		.uleb128 0x52
 1023 000e 01       		.uleb128 0x1
 1024 000f 55       		.uleb128 0x55
 1025 0010 06       		.uleb128 0x6
 1026 0011 10       		.uleb128 0x10
 1027 0012 06       		.uleb128 0x6
 1028 0013 00       		.byte	0x0
 1029 0014 00       		.byte	0x0
 1030 0015 02       		.uleb128 0x2
 1031 0016 24       		.uleb128 0x24
 1032 0017 00       		.byte	0x0
 1033 0018 0B       		.uleb128 0xb
 1034 0019 0B       		.uleb128 0xb
 1035 001a 3E       		.uleb128 0x3e
 1036 001b 0B       		.uleb128 0xb
 1037 001c 03       		.uleb128 0x3
 1038 001d 0E       		.uleb128 0xe
 1039 001e 00       		.byte	0x0
 1040 001f 00       		.byte	0x0
 1041 0020 03       		.uleb128 0x3
 1042 0021 24       		.uleb128 0x24
 1043 0022 00       		.byte	0x0
 1044 0023 0B       		.uleb128 0xb
 1045 0024 0B       		.uleb128 0xb
 1046 0025 3E       		.uleb128 0x3e
 1047 0026 0B       		.uleb128 0xb
 1048 0027 03       		.uleb128 0x3
 1049 0028 08       		.uleb128 0x8
 1050 0029 00       		.byte	0x0
 1051 002a 00       		.byte	0x0
 1052 002b 04       		.uleb128 0x4
 1053 002c 24       		.uleb128 0x24
 1054 002d 00       		.byte	0x0
 1055 002e 0B       		.uleb128 0xb
 1056 002f 0B       		.uleb128 0xb
 1057 0030 3E       		.uleb128 0x3e
 1058 0031 0B       		.uleb128 0xb
 1059 0032 00       		.byte	0x0
 1060 0033 00       		.byte	0x0
 1061 0034 05       		.uleb128 0x5
 1062 0035 15       		.uleb128 0x15
 1063 0036 00       		.byte	0x0
 1064 0037 27       		.uleb128 0x27
 1065 0038 0C       		.uleb128 0xc
 1066 0039 00       		.byte	0x0
 1067 003a 00       		.byte	0x0
 1068 003b 06       		.uleb128 0x6
 1069 003c 0F       		.uleb128 0xf
 1070 003d 00       		.byte	0x0
ARM GAS  C:\Users\SUZUKI~1\AppData\Local\Temp\cclMukjO.s 			page 26


 1071 003e 0B       		.uleb128 0xb
 1072 003f 0B       		.uleb128 0xb
 1073 0040 49       		.uleb128 0x49
 1074 0041 13       		.uleb128 0x13
 1075 0042 00       		.byte	0x0
 1076 0043 00       		.byte	0x0
 1077 0044 07       		.uleb128 0x7
 1078 0045 16       		.uleb128 0x16
 1079 0046 00       		.byte	0x0
 1080 0047 03       		.uleb128 0x3
 1081 0048 0E       		.uleb128 0xe
 1082 0049 3A       		.uleb128 0x3a
 1083 004a 0B       		.uleb128 0xb
 1084 004b 3B       		.uleb128 0x3b
 1085 004c 0B       		.uleb128 0xb
 1086 004d 49       		.uleb128 0x49
 1087 004e 13       		.uleb128 0x13
 1088 004f 00       		.byte	0x0
 1089 0050 00       		.byte	0x0
 1090 0051 08       		.uleb128 0x8
 1091 0052 2E       		.uleb128 0x2e
 1092 0053 00       		.byte	0x0
 1093 0054 3F       		.uleb128 0x3f
 1094 0055 0C       		.uleb128 0xc
 1095 0056 03       		.uleb128 0x3
 1096 0057 0E       		.uleb128 0xe
 1097 0058 3A       		.uleb128 0x3a
 1098 0059 0B       		.uleb128 0xb
 1099 005a 3B       		.uleb128 0x3b
 1100 005b 0B       		.uleb128 0xb
 1101 005c 27       		.uleb128 0x27
 1102 005d 0C       		.uleb128 0xc
 1103 005e 11       		.uleb128 0x11
 1104 005f 01       		.uleb128 0x1
 1105 0060 12       		.uleb128 0x12
 1106 0061 01       		.uleb128 0x1
 1107 0062 40       		.uleb128 0x40
 1108 0063 06       		.uleb128 0x6
 1109 0064 00       		.byte	0x0
 1110 0065 00       		.byte	0x0
 1111 0066 09       		.uleb128 0x9
 1112 0067 2E       		.uleb128 0x2e
 1113 0068 01       		.byte	0x1
 1114 0069 3F       		.uleb128 0x3f
 1115 006a 0C       		.uleb128 0xc
 1116 006b 03       		.uleb128 0x3
 1117 006c 0E       		.uleb128 0xe
 1118 006d 3A       		.uleb128 0x3a
 1119 006e 0B       		.uleb128 0xb
 1120 006f 3B       		.uleb128 0x3b
 1121 0070 0B       		.uleb128 0xb
 1122 0071 27       		.uleb128 0x27
 1123 0072 0C       		.uleb128 0xc
 1124 0073 11       		.uleb128 0x11
 1125 0074 01       		.uleb128 0x1
 1126 0075 12       		.uleb128 0x12
 1127 0076 01       		.uleb128 0x1
ARM GAS  C:\Users\SUZUKI~1\AppData\Local\Temp\cclMukjO.s 			page 27


 1128 0077 40       		.uleb128 0x40
 1129 0078 06       		.uleb128 0x6
 1130 0079 01       		.uleb128 0x1
 1131 007a 13       		.uleb128 0x13
 1132 007b 00       		.byte	0x0
 1133 007c 00       		.byte	0x0
 1134 007d 0A       		.uleb128 0xa
 1135 007e 05       		.uleb128 0x5
 1136 007f 00       		.byte	0x0
 1137 0080 03       		.uleb128 0x3
 1138 0081 0E       		.uleb128 0xe
 1139 0082 3A       		.uleb128 0x3a
 1140 0083 0B       		.uleb128 0xb
 1141 0084 3B       		.uleb128 0x3b
 1142 0085 0B       		.uleb128 0xb
 1143 0086 49       		.uleb128 0x49
 1144 0087 13       		.uleb128 0x13
 1145 0088 02       		.uleb128 0x2
 1146 0089 0A       		.uleb128 0xa
 1147 008a 00       		.byte	0x0
 1148 008b 00       		.byte	0x0
 1149 008c 0B       		.uleb128 0xb
 1150 008d 34       		.uleb128 0x34
 1151 008e 00       		.byte	0x0
 1152 008f 03       		.uleb128 0x3
 1153 0090 0E       		.uleb128 0xe
 1154 0091 3A       		.uleb128 0x3a
 1155 0092 0B       		.uleb128 0xb
 1156 0093 3B       		.uleb128 0x3b
 1157 0094 0B       		.uleb128 0xb
 1158 0095 49       		.uleb128 0x49
 1159 0096 13       		.uleb128 0x13
 1160 0097 02       		.uleb128 0x2
 1161 0098 0A       		.uleb128 0xa
 1162 0099 00       		.byte	0x0
 1163 009a 00       		.byte	0x0
 1164 009b 0C       		.uleb128 0xc
 1165 009c 2E       		.uleb128 0x2e
 1166 009d 01       		.byte	0x1
 1167 009e 3F       		.uleb128 0x3f
 1168 009f 0C       		.uleb128 0xc
 1169 00a0 03       		.uleb128 0x3
 1170 00a1 0E       		.uleb128 0xe
 1171 00a2 3A       		.uleb128 0x3a
 1172 00a3 0B       		.uleb128 0xb
 1173 00a4 3B       		.uleb128 0x3b
 1174 00a5 0B       		.uleb128 0xb
 1175 00a6 27       		.uleb128 0x27
 1176 00a7 0C       		.uleb128 0xc
 1177 00a8 49       		.uleb128 0x49
 1178 00a9 13       		.uleb128 0x13
 1179 00aa 11       		.uleb128 0x11
 1180 00ab 01       		.uleb128 0x1
 1181 00ac 12       		.uleb128 0x12
 1182 00ad 01       		.uleb128 0x1
 1183 00ae 40       		.uleb128 0x40
 1184 00af 06       		.uleb128 0x6
ARM GAS  C:\Users\SUZUKI~1\AppData\Local\Temp\cclMukjO.s 			page 28


 1185 00b0 01       		.uleb128 0x1
 1186 00b1 13       		.uleb128 0x13
 1187 00b2 00       		.byte	0x0
 1188 00b3 00       		.byte	0x0
 1189 00b4 0D       		.uleb128 0xd
 1190 00b5 2E       		.uleb128 0x2e
 1191 00b6 00       		.byte	0x0
 1192 00b7 3F       		.uleb128 0x3f
 1193 00b8 0C       		.uleb128 0xc
 1194 00b9 03       		.uleb128 0x3
 1195 00ba 0E       		.uleb128 0xe
 1196 00bb 3A       		.uleb128 0x3a
 1197 00bc 0B       		.uleb128 0xb
 1198 00bd 3B       		.uleb128 0x3b
 1199 00be 05       		.uleb128 0x5
 1200 00bf 27       		.uleb128 0x27
 1201 00c0 0C       		.uleb128 0xc
 1202 00c1 11       		.uleb128 0x11
 1203 00c2 01       		.uleb128 0x1
 1204 00c3 12       		.uleb128 0x12
 1205 00c4 01       		.uleb128 0x1
 1206 00c5 40       		.uleb128 0x40
 1207 00c6 06       		.uleb128 0x6
 1208 00c7 00       		.byte	0x0
 1209 00c8 00       		.byte	0x0
 1210 00c9 0E       		.uleb128 0xe
 1211 00ca 2E       		.uleb128 0x2e
 1212 00cb 00       		.byte	0x0
 1213 00cc 3F       		.uleb128 0x3f
 1214 00cd 0C       		.uleb128 0xc
 1215 00ce 03       		.uleb128 0x3
 1216 00cf 0E       		.uleb128 0xe
 1217 00d0 3A       		.uleb128 0x3a
 1218 00d1 0B       		.uleb128 0xb
 1219 00d2 3B       		.uleb128 0x3b
 1220 00d3 05       		.uleb128 0x5
 1221 00d4 27       		.uleb128 0x27
 1222 00d5 0C       		.uleb128 0xc
 1223 00d6 49       		.uleb128 0x49
 1224 00d7 13       		.uleb128 0x13
 1225 00d8 11       		.uleb128 0x11
 1226 00d9 01       		.uleb128 0x1
 1227 00da 12       		.uleb128 0x12
 1228 00db 01       		.uleb128 0x1
 1229 00dc 40       		.uleb128 0x40
 1230 00dd 06       		.uleb128 0x6
 1231 00de 00       		.byte	0x0
 1232 00df 00       		.byte	0x0
 1233 00e0 00       		.byte	0x0
 1234              		.section	.debug_pubnames,"",%progbits
 1235 0000 34020000 		.4byte	0x234
 1236 0004 0200     		.2byte	0x2
 1237 0006 00000000 		.4byte	.Ldebug_info0
 1238 000a 3B020000 		.4byte	0x23b
 1239 000e A5000000 		.4byte	0xa5
 1240 0012 73646C6F 		.ascii	"sdlogger_1_sdspi_1_Timer_IRQ_Start\000"
 1240      67676572 
ARM GAS  C:\Users\SUZUKI~1\AppData\Local\Temp\cclMukjO.s 			page 29


 1240      5F315F73 
 1240      64737069 
 1240      5F315F54 
 1241 0035 BA000000 		.4byte	0xba
 1242 0039 73646C6F 		.ascii	"sdlogger_1_sdspi_1_Timer_IRQ_StartEx\000"
 1242      67676572 
 1242      5F315F73 
 1242      64737069 
 1242      5F315F54 
 1243 005e E2000000 		.4byte	0xe2
 1244 0062 73646C6F 		.ascii	"sdlogger_1_sdspi_1_Timer_IRQ_Stop\000"
 1244      67676572 
 1244      5F315F73 
 1244      64737069 
 1244      5F315F54 
 1245 0084 F7000000 		.4byte	0xf7
 1246 0088 73646C6F 		.ascii	"sdlogger_1_sdspi_1_Timer_IRQ_Interrupt\000"
 1246      67676572 
 1246      5F315F73 
 1246      64737069 
 1246      5F315F54 
 1247 00af 0C010000 		.4byte	0x10c
 1248 00b3 73646C6F 		.ascii	"sdlogger_1_sdspi_1_Timer_IRQ_SetVector\000"
 1248      67676572 
 1248      5F315F73 
 1248      64737069 
 1248      5F315F54 
 1249 00da 48010000 		.4byte	0x148
 1250 00de 73646C6F 		.ascii	"sdlogger_1_sdspi_1_Timer_IRQ_GetVector\000"
 1250      67676572 
 1250      5F315F73 
 1250      64737069 
 1250      5F315F54 
 1251 0105 74010000 		.4byte	0x174
 1252 0109 73646C6F 		.ascii	"sdlogger_1_sdspi_1_Timer_IRQ_SetPriority\000"
 1252      67676572 
 1252      5F315F73 
 1252      64737069 
 1252      5F315F54 
 1253 0132 9C010000 		.4byte	0x19c
 1254 0136 73646C6F 		.ascii	"sdlogger_1_sdspi_1_Timer_IRQ_GetPriority\000"
 1254      67676572 
 1254      5F315F73 
 1254      64737069 
 1254      5F315F54 
 1255 015f C8010000 		.4byte	0x1c8
 1256 0163 73646C6F 		.ascii	"sdlogger_1_sdspi_1_Timer_IRQ_Enable\000"
 1256      67676572 
 1256      5F315F73 
 1256      64737069 
 1256      5F315F54 
 1257 0187 DE010000 		.4byte	0x1de
 1258 018b 73646C6F 		.ascii	"sdlogger_1_sdspi_1_Timer_IRQ_GetState\000"
 1258      67676572 
 1258      5F315F73 
 1258      64737069 
 1258      5F315F54 
ARM GAS  C:\Users\SUZUKI~1\AppData\Local\Temp\cclMukjO.s 			page 30


 1259 01b1 F8010000 		.4byte	0x1f8
 1260 01b5 73646C6F 		.ascii	"sdlogger_1_sdspi_1_Timer_IRQ_Disable\000"
 1260      67676572 
 1260      5F315F73 
 1260      64737069 
 1260      5F315F54 
 1261 01da 0E020000 		.4byte	0x20e
 1262 01de 73646C6F 		.ascii	"sdlogger_1_sdspi_1_Timer_IRQ_SetPending\000"
 1262      67676572 
 1262      5F315F73 
 1262      64737069 
 1262      5F315F54 
 1263 0206 24020000 		.4byte	0x224
 1264 020a 73646C6F 		.ascii	"sdlogger_1_sdspi_1_Timer_IRQ_ClearPending\000"
 1264      67676572 
 1264      5F315F73 
 1264      64737069 
 1264      5F315F54 
 1265 0234 00000000 		.4byte	0x0
 1266              		.section	.debug_aranges,"",%progbits
 1267 0000 7C000000 		.4byte	0x7c
 1268 0004 0200     		.2byte	0x2
 1269 0006 00000000 		.4byte	.Ldebug_info0
 1270 000a 04       		.byte	0x4
 1271 000b 00       		.byte	0x0
 1272 000c 0000     		.2byte	0x0
 1273 000e 0000     		.2byte	0x0
 1274 0010 00000000 		.4byte	.LFB0
 1275 0014 22000000 		.4byte	.LFE0-.LFB0
 1276 0018 00000000 		.4byte	.LFB1
 1277 001c 26000000 		.4byte	.LFE1-.LFB1
 1278 0020 00000000 		.4byte	.LFB2
 1279 0024 16000000 		.4byte	.LFE2-.LFB2
 1280 0028 00000000 		.4byte	.LFB3
 1281 002c 0A000000 		.4byte	.LFE3-.LFB3
 1282 0030 00000000 		.4byte	.LFB4
 1283 0034 28000000 		.4byte	.LFE4-.LFB4
 1284 0038 00000000 		.4byte	.LFB5
 1285 003c 26000000 		.4byte	.LFE5-.LFB5
 1286 0040 00000000 		.4byte	.LFB6
 1287 0044 26000000 		.4byte	.LFE6-.LFB6
 1288 0048 00000000 		.4byte	.LFB7
 1289 004c 26000000 		.4byte	.LFE7-.LFB7
 1290 0050 00000000 		.4byte	.LFB8
 1291 0054 18000000 		.4byte	.LFE8-.LFB8
 1292 0058 00000000 		.4byte	.LFB9
 1293 005c 28000000 		.4byte	.LFE9-.LFB9
 1294 0060 00000000 		.4byte	.LFB10
 1295 0064 18000000 		.4byte	.LFE10-.LFB10
 1296 0068 00000000 		.4byte	.LFB11
 1297 006c 18000000 		.4byte	.LFE11-.LFB11
 1298 0070 00000000 		.4byte	.LFB12
 1299 0074 18000000 		.4byte	.LFE12-.LFB12
 1300 0078 00000000 		.4byte	0x0
 1301 007c 00000000 		.4byte	0x0
 1302              		.section	.debug_ranges,"",%progbits
 1303              	.Ldebug_ranges0:
ARM GAS  C:\Users\SUZUKI~1\AppData\Local\Temp\cclMukjO.s 			page 31


 1304 0000 00000000 		.4byte	.Ltext0
 1305 0004 00000000 		.4byte	.Letext0
 1306 0008 00000000 		.4byte	.LFB0
 1307 000c 22000000 		.4byte	.LFE0
 1308 0010 00000000 		.4byte	.LFB1
 1309 0014 26000000 		.4byte	.LFE1
 1310 0018 00000000 		.4byte	.LFB2
 1311 001c 16000000 		.4byte	.LFE2
 1312 0020 00000000 		.4byte	.LFB3
 1313 0024 0A000000 		.4byte	.LFE3
 1314 0028 00000000 		.4byte	.LFB4
 1315 002c 28000000 		.4byte	.LFE4
 1316 0030 00000000 		.4byte	.LFB5
 1317 0034 26000000 		.4byte	.LFE5
 1318 0038 00000000 		.4byte	.LFB6
 1319 003c 26000000 		.4byte	.LFE6
 1320 0040 00000000 		.4byte	.LFB7
 1321 0044 26000000 		.4byte	.LFE7
 1322 0048 00000000 		.4byte	.LFB8
 1323 004c 18000000 		.4byte	.LFE8
 1324 0050 00000000 		.4byte	.LFB9
 1325 0054 28000000 		.4byte	.LFE9
 1326 0058 00000000 		.4byte	.LFB10
 1327 005c 18000000 		.4byte	.LFE10
 1328 0060 00000000 		.4byte	.LFB11
 1329 0064 18000000 		.4byte	.LFE11
 1330 0068 00000000 		.4byte	.LFB12
 1331 006c 18000000 		.4byte	.LFE12
 1332 0070 00000000 		.4byte	0x0
 1333 0074 00000000 		.4byte	0x0
 1334              		.section	.debug_str,"MS",%progbits,1
 1335              	.LASF5:
 1336 0000 6C6F6E67 		.ascii	"long long int\000"
 1336      206C6F6E 
 1336      6720696E 
 1336      7400
 1337              	.LASF10:
 1338 000e 666C6F61 		.ascii	"float\000"
 1338      7400
 1339              	.LASF23:
 1340 0014 73646C6F 		.ascii	"sdlogger_1_sdspi_1_Timer_IRQ_GetVector\000"
 1340      67676572 
 1340      5F315F73 
 1340      64737069 
 1340      5F315F54 
 1341              	.LASF16:
 1342 003b 73646C6F 		.ascii	"sdlogger_1_sdspi_1_Timer_IRQ_Interrupt\000"
 1342      67676572 
 1342      5F315F73 
 1342      64737069 
 1342      5F315F54 
 1343              	.LASF3:
 1344 0062 73686F72 		.ascii	"short unsigned int\000"
 1344      7420756E 
 1344      7369676E 
 1344      65642069 
 1344      6E7400
ARM GAS  C:\Users\SUZUKI~1\AppData\Local\Temp\cclMukjO.s 			page 32


 1345              	.LASF24:
 1346 0075 73646C6F 		.ascii	"sdlogger_1_sdspi_1_Timer_IRQ_GetPriority\000"
 1346      67676572 
 1346      5F315F73 
 1346      64737069 
 1346      5F315F54 
 1347              	.LASF1:
 1348 009e 756E7369 		.ascii	"unsigned char\000"
 1348      676E6564 
 1348      20636861 
 1348      7200
 1349              	.LASF8:
 1350 00ac 6C6F6E67 		.ascii	"long unsigned int\000"
 1350      20756E73 
 1350      69676E65 
 1350      6420696E 
 1350      7400
 1351              	.LASF12:
 1352 00be 75696E74 		.ascii	"uint8\000"
 1352      3800
 1353              	.LASF22:
 1354 00c4 7072696F 		.ascii	"priority\000"
 1354      72697479 
 1354      00
 1355              	.LASF27:
 1356 00cd 73646C6F 		.ascii	"sdlogger_1_sdspi_1_Timer_IRQ_SetPending\000"
 1356      67676572 
 1356      5F315F73 
 1356      64737069 
 1356      5F315F54 
 1357              	.LASF11:
 1358 00f5 646F7562 		.ascii	"double\000"
 1358      6C6500
 1359              	.LASF28:
 1360 00fc 73646C6F 		.ascii	"sdlogger_1_sdspi_1_Timer_IRQ_ClearPending\000"
 1360      67676572 
 1360      5F315F73 
 1360      64737069 
 1360      5F315F54 
 1361              	.LASF31:
 1362 0126 463A5C44 		.ascii	"F:\\Documents\\PSoC_Creator\\tfexpbrd\\tfexpbrd.cyd"
 1362      6F63756D 
 1362      656E7473 
 1362      5C50536F 
 1362      435F4372 
 1363 0155 736E00   		.ascii	"sn\000"
 1364              	.LASF21:
 1365 0158 73646C6F 		.ascii	"sdlogger_1_sdspi_1_Timer_IRQ_SetPriority\000"
 1365      67676572 
 1365      5F315F73 
 1365      64737069 
 1365      5F315F54 
 1366              	.LASF4:
 1367 0181 756E7369 		.ascii	"unsigned int\000"
 1367      676E6564 
 1367      20696E74 
 1367      00
ARM GAS  C:\Users\SUZUKI~1\AppData\Local\Temp\cclMukjO.s 			page 33


 1368              	.LASF19:
 1369 018e 61646472 		.ascii	"address\000"
 1369      65737300 
 1370              	.LASF6:
 1371 0196 6C6F6E67 		.ascii	"long long unsigned int\000"
 1371      206C6F6E 
 1371      6720756E 
 1371      7369676E 
 1371      65642069 
 1372              	.LASF15:
 1373 01ad 73646C6F 		.ascii	"sdlogger_1_sdspi_1_Timer_IRQ_Stop\000"
 1373      67676572 
 1373      5F315F73 
 1373      64737069 
 1373      5F315F54 
 1374              	.LASF32:
 1375 01cf 73646C6F 		.ascii	"sdlogger_1_sdspi_1_Timer_IRQ_GetState\000"
 1375      67676572 
 1375      5F315F73 
 1375      64737069 
 1375      5F315F54 
 1376              	.LASF13:
 1377 01f5 63796973 		.ascii	"cyisraddress\000"
 1377      72616464 
 1377      72657373 
 1377      00
 1378              	.LASF29:
 1379 0202 474E5520 		.ascii	"GNU C 4.4.1\000"
 1379      4320342E 
 1379      342E3100 
 1380              	.LASF18:
 1381 020e 73646C6F 		.ascii	"sdlogger_1_sdspi_1_Timer_IRQ_SetVector\000"
 1381      67676572 
 1381      5F315F73 
 1381      64737069 
 1381      5F315F54 
 1382              	.LASF17:
 1383 0235 73646C6F 		.ascii	"sdlogger_1_sdspi_1_Timer_IRQ_StartEx\000"
 1383      67676572 
 1383      5F315F73 
 1383      64737069 
 1383      5F315F54 
 1384              	.LASF20:
 1385 025a 72616D56 		.ascii	"ramVectorTable\000"
 1385      6563746F 
 1385      72546162 
 1385      6C6500
 1386              	.LASF14:
 1387 0269 73646C6F 		.ascii	"sdlogger_1_sdspi_1_Timer_IRQ_Start\000"
 1387      67676572 
 1387      5F315F73 
 1387      64737069 
 1387      5F315F54 
 1388              	.LASF2:
 1389 028c 73686F72 		.ascii	"short int\000"
 1389      7420696E 
 1389      7400
ARM GAS  C:\Users\SUZUKI~1\AppData\Local\Temp\cclMukjO.s 			page 34


 1390              	.LASF25:
 1391 0296 73646C6F 		.ascii	"sdlogger_1_sdspi_1_Timer_IRQ_Enable\000"
 1391      67676572 
 1391      5F315F73 
 1391      64737069 
 1391      5F315F54 
 1392              	.LASF30:
 1393 02ba 2E5C4765 		.ascii	".\\Generated_Source\\PSoC5\\sdlogger_1_sdspi_1_Time"
 1393      6E657261 
 1393      7465645F 
 1393      536F7572 
 1393      63655C50 
 1394 02ea 725F4952 		.ascii	"r_IRQ.c\000"
 1394      512E6300 
 1395              	.LASF7:
 1396 02f2 6C6F6E67 		.ascii	"long int\000"
 1396      20696E74 
 1396      00
 1397              	.LASF9:
 1398 02fb 63686172 		.ascii	"char\000"
 1398      00
 1399              	.LASF26:
 1400 0300 73646C6F 		.ascii	"sdlogger_1_sdspi_1_Timer_IRQ_Disable\000"
 1400      67676572 
 1400      5F315F73 
 1400      64737069 
 1400      5F315F54 
 1401              	.LASF0:
 1402 0325 7369676E 		.ascii	"signed char\000"
 1402      65642063 
 1402      68617200 
 1403              		.ident	"GCC: (Sourcery G++ Lite 2010q1-188) 4.4.1"
