ARM GAS  C:\Users\SUZUKI~1\AppData\Local\Temp\cc1t1L7h.s 			page 1


   1              		.syntax unified
   2              		.cpu cortex-m3
   3              		.fpu softvfp
   4              		.eabi_attribute 20, 1
   5              		.eabi_attribute 21, 1
   6              		.eabi_attribute 23, 3
   7              		.eabi_attribute 24, 1
   8              		.eabi_attribute 25, 1
   9              		.eabi_attribute 26, 1
  10              		.eabi_attribute 30, 6
  11              		.eabi_attribute 18, 4
  12              		.thumb
  13              		.file	"sdlogger_1_sdspi_1_CS_Control.c"
  14              		.section	.debug_abbrev,"",%progbits
  15              	.Ldebug_abbrev0:
  16              		.section	.debug_info,"",%progbits
  17              	.Ldebug_info0:
  18              		.section	.debug_line,"",%progbits
  19              	.Ldebug_line0:
  20 0000 9E000000 		.text
  20      02007600 
  20      00000201 
  20      FB0E0D00 
  20      01010101 
  21              	.Ltext0:
  22              		.cfi_sections	.debug_frame
  23              		.section	.text.sdlogger_1_sdspi_1_CS_Control_Write,"ax",%progbits
  24              		.align	2
  25              		.global	sdlogger_1_sdspi_1_CS_Control_Write
  26              		.thumb
  27              		.thumb_func
  28              		.type	sdlogger_1_sdspi_1_CS_Control_Write, %function
  29              	sdlogger_1_sdspi_1_CS_Control_Write:
  30              	.LFB0:
  31              		.file 1 ".\\Generated_Source\\PSoC5\\sdlogger_1_sdspi_1_CS_Control.c"
   1:.\Generated_Source\PSoC5/sdlogger_1_sdspi_1_CS_Control.c **** /*******************************************************************************
   2:.\Generated_Source\PSoC5/sdlogger_1_sdspi_1_CS_Control.c **** * File Name: sdlogger_1_sdspi_1_CS_Control.c  
   3:.\Generated_Source\PSoC5/sdlogger_1_sdspi_1_CS_Control.c **** * Version 1.70
   4:.\Generated_Source\PSoC5/sdlogger_1_sdspi_1_CS_Control.c **** *
   5:.\Generated_Source\PSoC5/sdlogger_1_sdspi_1_CS_Control.c **** * Description:
   6:.\Generated_Source\PSoC5/sdlogger_1_sdspi_1_CS_Control.c **** *  This file contains API to enable firmware control of a Control Register.
   7:.\Generated_Source\PSoC5/sdlogger_1_sdspi_1_CS_Control.c **** *
   8:.\Generated_Source\PSoC5/sdlogger_1_sdspi_1_CS_Control.c **** * Note:
   9:.\Generated_Source\PSoC5/sdlogger_1_sdspi_1_CS_Control.c **** *
  10:.\Generated_Source\PSoC5/sdlogger_1_sdspi_1_CS_Control.c **** ********************************************************************************
  11:.\Generated_Source\PSoC5/sdlogger_1_sdspi_1_CS_Control.c **** * Copyright 2008-2012, Cypress Semiconductor Corporation.  All rights reserved.
  12:.\Generated_Source\PSoC5/sdlogger_1_sdspi_1_CS_Control.c **** * You may use this file only in accordance with the license, terms, conditions, 
  13:.\Generated_Source\PSoC5/sdlogger_1_sdspi_1_CS_Control.c **** * disclaimers, and limitations in the end user license agreement accompanying 
  14:.\Generated_Source\PSoC5/sdlogger_1_sdspi_1_CS_Control.c **** * the software package with which this file was provided.
  15:.\Generated_Source\PSoC5/sdlogger_1_sdspi_1_CS_Control.c **** *******************************************************************************/
  16:.\Generated_Source\PSoC5/sdlogger_1_sdspi_1_CS_Control.c **** 
  17:.\Generated_Source\PSoC5/sdlogger_1_sdspi_1_CS_Control.c **** #include "sdlogger_1_sdspi_1_CS_Control.h"
  18:.\Generated_Source\PSoC5/sdlogger_1_sdspi_1_CS_Control.c **** 
  19:.\Generated_Source\PSoC5/sdlogger_1_sdspi_1_CS_Control.c **** #if !defined(sdlogger_1_sdspi_1_CS_Control_Async_ctrl_reg__REMOVED) /* Check for removal by optimiz
  20:.\Generated_Source\PSoC5/sdlogger_1_sdspi_1_CS_Control.c **** 
  21:.\Generated_Source\PSoC5/sdlogger_1_sdspi_1_CS_Control.c **** /*******************************************************************************
  22:.\Generated_Source\PSoC5/sdlogger_1_sdspi_1_CS_Control.c **** * Function Name: sdlogger_1_sdspi_1_CS_Control_Write
ARM GAS  C:\Users\SUZUKI~1\AppData\Local\Temp\cc1t1L7h.s 			page 2


  23:.\Generated_Source\PSoC5/sdlogger_1_sdspi_1_CS_Control.c **** ********************************************************************************
  24:.\Generated_Source\PSoC5/sdlogger_1_sdspi_1_CS_Control.c **** *
  25:.\Generated_Source\PSoC5/sdlogger_1_sdspi_1_CS_Control.c **** * Summary:
  26:.\Generated_Source\PSoC5/sdlogger_1_sdspi_1_CS_Control.c **** *  Write a byte to the Control Register.
  27:.\Generated_Source\PSoC5/sdlogger_1_sdspi_1_CS_Control.c **** *
  28:.\Generated_Source\PSoC5/sdlogger_1_sdspi_1_CS_Control.c **** * Parameters:
  29:.\Generated_Source\PSoC5/sdlogger_1_sdspi_1_CS_Control.c **** *  control:  The value to be assigned to the Control Register.
  30:.\Generated_Source\PSoC5/sdlogger_1_sdspi_1_CS_Control.c **** *
  31:.\Generated_Source\PSoC5/sdlogger_1_sdspi_1_CS_Control.c **** * Return:
  32:.\Generated_Source\PSoC5/sdlogger_1_sdspi_1_CS_Control.c **** *  None.
  33:.\Generated_Source\PSoC5/sdlogger_1_sdspi_1_CS_Control.c **** *
  34:.\Generated_Source\PSoC5/sdlogger_1_sdspi_1_CS_Control.c **** *******************************************************************************/
  35:.\Generated_Source\PSoC5/sdlogger_1_sdspi_1_CS_Control.c **** void sdlogger_1_sdspi_1_CS_Control_Write(uint8 control) 
  36:.\Generated_Source\PSoC5/sdlogger_1_sdspi_1_CS_Control.c **** {
  32              		.loc 1 36 0
  33              		.cfi_startproc
  34              		@ args = 0, pretend = 0, frame = 8
  35              		@ frame_needed = 1, uses_anonymous_args = 0
  36              		@ link register save eliminated.
  37 0000 80B4     		push	{r7}
  38              	.LCFI0:
  39              		.cfi_def_cfa_offset 4
  40 0002 83B0     		sub	sp, sp, #12
  41              	.LCFI1:
  42              		.cfi_def_cfa_offset 16
  43 0004 00AF     		add	r7, sp, #0
  44              		.cfi_offset 7, -4
  45              	.LCFI2:
  46              		.cfi_def_cfa_register 7
  47 0006 0346     		mov	r3, r0
  48 0008 FB71     		strb	r3, [r7, #7]
  37:.\Generated_Source\PSoC5/sdlogger_1_sdspi_1_CS_Control.c ****     sdlogger_1_sdspi_1_CS_Control_Control = control;
  49              		.loc 1 37 0
  50 000a 46F27653 		movw	r3, #:lower16:1073767798
  51 000e C4F20003 		movt	r3, #:upper16:1073767798
  52 0012 FA79     		ldrb	r2, [r7, #7]
  53 0014 1A70     		strb	r2, [r3, #0]
  38:.\Generated_Source\PSoC5/sdlogger_1_sdspi_1_CS_Control.c **** }
  54              		.loc 1 38 0
  55 0016 07F10C07 		add	r7, r7, #12
  56 001a BD46     		mov	sp, r7
  57 001c 80BC     		pop	{r7}
  58 001e 7047     		bx	lr
  59              		.cfi_endproc
  60              	.LFE0:
  61              		.size	sdlogger_1_sdspi_1_CS_Control_Write, .-sdlogger_1_sdspi_1_CS_Control_Write
  62              		.section	.text.sdlogger_1_sdspi_1_CS_Control_Read,"ax",%progbits
  63              		.align	2
  64              		.global	sdlogger_1_sdspi_1_CS_Control_Read
  65              		.thumb
  66              		.thumb_func
  67              		.type	sdlogger_1_sdspi_1_CS_Control_Read, %function
  68              	sdlogger_1_sdspi_1_CS_Control_Read:
  69              	.LFB1:
  39:.\Generated_Source\PSoC5/sdlogger_1_sdspi_1_CS_Control.c **** 
  40:.\Generated_Source\PSoC5/sdlogger_1_sdspi_1_CS_Control.c **** 
  41:.\Generated_Source\PSoC5/sdlogger_1_sdspi_1_CS_Control.c **** /*******************************************************************************
ARM GAS  C:\Users\SUZUKI~1\AppData\Local\Temp\cc1t1L7h.s 			page 3


  42:.\Generated_Source\PSoC5/sdlogger_1_sdspi_1_CS_Control.c **** * Function Name: sdlogger_1_sdspi_1_CS_Control_Read
  43:.\Generated_Source\PSoC5/sdlogger_1_sdspi_1_CS_Control.c **** ********************************************************************************
  44:.\Generated_Source\PSoC5/sdlogger_1_sdspi_1_CS_Control.c **** *
  45:.\Generated_Source\PSoC5/sdlogger_1_sdspi_1_CS_Control.c **** * Summary:
  46:.\Generated_Source\PSoC5/sdlogger_1_sdspi_1_CS_Control.c **** *  Reads the current value assigned to the Control Register.
  47:.\Generated_Source\PSoC5/sdlogger_1_sdspi_1_CS_Control.c **** *
  48:.\Generated_Source\PSoC5/sdlogger_1_sdspi_1_CS_Control.c **** * Parameters:
  49:.\Generated_Source\PSoC5/sdlogger_1_sdspi_1_CS_Control.c **** *  None.
  50:.\Generated_Source\PSoC5/sdlogger_1_sdspi_1_CS_Control.c **** *
  51:.\Generated_Source\PSoC5/sdlogger_1_sdspi_1_CS_Control.c **** * Return:
  52:.\Generated_Source\PSoC5/sdlogger_1_sdspi_1_CS_Control.c **** *  Returns the current value in the Control Register.
  53:.\Generated_Source\PSoC5/sdlogger_1_sdspi_1_CS_Control.c **** *
  54:.\Generated_Source\PSoC5/sdlogger_1_sdspi_1_CS_Control.c **** *******************************************************************************/
  55:.\Generated_Source\PSoC5/sdlogger_1_sdspi_1_CS_Control.c **** uint8 sdlogger_1_sdspi_1_CS_Control_Read(void) 
  56:.\Generated_Source\PSoC5/sdlogger_1_sdspi_1_CS_Control.c **** {
  70              		.loc 1 56 0
  71              		.cfi_startproc
  72              		@ args = 0, pretend = 0, frame = 0
  73              		@ frame_needed = 1, uses_anonymous_args = 0
  74              		@ link register save eliminated.
  75 0000 80B4     		push	{r7}
  76              	.LCFI3:
  77              		.cfi_def_cfa_offset 4
  78 0002 00AF     		add	r7, sp, #0
  79              		.cfi_offset 7, -4
  80              	.LCFI4:
  81              		.cfi_def_cfa_register 7
  57:.\Generated_Source\PSoC5/sdlogger_1_sdspi_1_CS_Control.c ****     return sdlogger_1_sdspi_1_CS_Control_Control;
  82              		.loc 1 57 0
  83 0004 46F27653 		movw	r3, #:lower16:1073767798
  84 0008 C4F20003 		movt	r3, #:upper16:1073767798
  85 000c 1B78     		ldrb	r3, [r3, #0]
  86 000e DBB2     		uxtb	r3, r3
  58:.\Generated_Source\PSoC5/sdlogger_1_sdspi_1_CS_Control.c **** }
  87              		.loc 1 58 0
  88 0010 1846     		mov	r0, r3
  89 0012 BD46     		mov	sp, r7
  90 0014 80BC     		pop	{r7}
  91 0016 7047     		bx	lr
  92              		.cfi_endproc
  93              	.LFE1:
  94              		.size	sdlogger_1_sdspi_1_CS_Control_Read, .-sdlogger_1_sdspi_1_CS_Control_Read
  95              		.text
  96              	.Letext0:
  97              		.section	.debug_loc,"",%progbits
  98              	.Ldebug_loc0:
  99              	.LLST0:
 100 0000 00000000 		.4byte	.LFB0
 101 0004 02000000 		.4byte	.LCFI0
 102 0008 0100     		.2byte	0x1
 103 000a 5D       		.byte	0x5d
 104 000b 02000000 		.4byte	.LCFI0
 105 000f 04000000 		.4byte	.LCFI1
 106 0013 0200     		.2byte	0x2
 107 0015 7D       		.byte	0x7d
 108 0016 04       		.sleb128 4
 109 0017 04000000 		.4byte	.LCFI1
ARM GAS  C:\Users\SUZUKI~1\AppData\Local\Temp\cc1t1L7h.s 			page 4


 110 001b 06000000 		.4byte	.LCFI2
 111 001f 0200     		.2byte	0x2
 112 0021 7D       		.byte	0x7d
 113 0022 10       		.sleb128 16
 114 0023 06000000 		.4byte	.LCFI2
 115 0027 20000000 		.4byte	.LFE0
 116 002b 0200     		.2byte	0x2
 117 002d 77       		.byte	0x77
 118 002e 10       		.sleb128 16
 119 002f 00000000 		.4byte	0x0
 120 0033 00000000 		.4byte	0x0
 121              	.LLST1:
 122 0037 00000000 		.4byte	.LFB1
 123 003b 02000000 		.4byte	.LCFI3
 124 003f 0100     		.2byte	0x1
 125 0041 5D       		.byte	0x5d
 126 0042 02000000 		.4byte	.LCFI3
 127 0046 04000000 		.4byte	.LCFI4
 128 004a 0200     		.2byte	0x2
 129 004c 7D       		.byte	0x7d
 130 004d 04       		.sleb128 4
 131 004e 04000000 		.4byte	.LCFI4
 132 0052 18000000 		.4byte	.LFE1
 133 0056 0200     		.2byte	0x2
 134 0058 77       		.byte	0x77
 135 0059 04       		.sleb128 4
 136 005a 00000000 		.4byte	0x0
 137 005e 00000000 		.4byte	0x0
 138              		.file 2 ".\\Generated_Source\\PSoC5\\/cytypes.h"
 139              		.section	.debug_info
 140 0000 CD000000 		.4byte	0xcd
 141 0004 0200     		.2byte	0x2
 142 0006 00000000 		.4byte	.Ldebug_abbrev0
 143 000a 04       		.byte	0x4
 144 000b 01       		.uleb128 0x1
 145 000c 08010000 		.4byte	.LASF12
 146 0010 01       		.byte	0x1
 147 0011 79000000 		.4byte	.LASF13
 148 0015 B2000000 		.4byte	.LASF14
 149 0019 00000000 		.4byte	0x0
 150 001d 00000000 		.4byte	0x0
 151 0021 00000000 		.4byte	.Ldebug_ranges0+0x0
 152 0025 00000000 		.4byte	.Ldebug_line0
 153 0029 02       		.uleb128 0x2
 154 002a 01       		.byte	0x1
 155 002b 06       		.byte	0x6
 156 002c 32010000 		.4byte	.LASF0
 157 0030 02       		.uleb128 0x2
 158 0031 01       		.byte	0x1
 159 0032 08       		.byte	0x8
 160 0033 37000000 		.4byte	.LASF1
 161 0037 02       		.uleb128 0x2
 162 0038 02       		.byte	0x2
 163 0039 05       		.byte	0x5
 164 003a 19010000 		.4byte	.LASF2
 165 003e 02       		.uleb128 0x2
 166 003f 02       		.byte	0x2
ARM GAS  C:\Users\SUZUKI~1\AppData\Local\Temp\cc1t1L7h.s 			page 5


 167 0040 07       		.byte	0x7
 168 0041 57000000 		.4byte	.LASF3
 169 0045 02       		.uleb128 0x2
 170 0046 04       		.byte	0x4
 171 0047 05       		.byte	0x5
 172 0048 29010000 		.4byte	.LASF4
 173 004c 02       		.uleb128 0x2
 174 004d 04       		.byte	0x4
 175 004e 07       		.byte	0x7
 176 004f 45000000 		.4byte	.LASF5
 177 0053 02       		.uleb128 0x2
 178 0054 08       		.byte	0x8
 179 0055 05       		.byte	0x5
 180 0056 00000000 		.4byte	.LASF6
 181 005a 02       		.uleb128 0x2
 182 005b 08       		.byte	0x8
 183 005c 07       		.byte	0x7
 184 005d F1000000 		.4byte	.LASF7
 185 0061 03       		.uleb128 0x3
 186 0062 04       		.byte	0x4
 187 0063 05       		.byte	0x5
 188 0064 696E7400 		.ascii	"int\000"
 189 0068 02       		.uleb128 0x2
 190 0069 04       		.byte	0x4
 191 006a 07       		.byte	0x7
 192 006b E4000000 		.4byte	.LASF8
 193 006f 04       		.uleb128 0x4
 194 0070 23010000 		.4byte	.LASF15
 195 0074 02       		.byte	0x2
 196 0075 4C       		.byte	0x4c
 197 0076 30000000 		.4byte	0x30
 198 007a 02       		.uleb128 0x2
 199 007b 04       		.byte	0x4
 200 007c 04       		.byte	0x4
 201 007d 31000000 		.4byte	.LASF9
 202 0081 02       		.uleb128 0x2
 203 0082 08       		.byte	0x8
 204 0083 04       		.byte	0x4
 205 0084 72000000 		.4byte	.LASF10
 206 0088 02       		.uleb128 0x2
 207 0089 01       		.byte	0x1
 208 008a 08       		.byte	0x8
 209 008b 14010000 		.4byte	.LASF11
 210 008f 05       		.uleb128 0x5
 211 0090 01       		.byte	0x1
 212 0091 3E010000 		.4byte	.LASF16
 213 0095 01       		.byte	0x1
 214 0096 23       		.byte	0x23
 215 0097 01       		.byte	0x1
 216 0098 00000000 		.4byte	.LFB0
 217 009c 20000000 		.4byte	.LFE0
 218 00a0 00000000 		.4byte	.LLST0
 219 00a4 B7000000 		.4byte	0xb7
 220 00a8 06       		.uleb128 0x6
 221 00a9 6A000000 		.4byte	.LASF17
 222 00ad 01       		.byte	0x1
 223 00ae 23       		.byte	0x23
ARM GAS  C:\Users\SUZUKI~1\AppData\Local\Temp\cc1t1L7h.s 			page 6


 224 00af 6F000000 		.4byte	0x6f
 225 00b3 02       		.byte	0x2
 226 00b4 91       		.byte	0x91
 227 00b5 77       		.sleb128 -9
 228 00b6 00       		.byte	0x0
 229 00b7 07       		.uleb128 0x7
 230 00b8 01       		.byte	0x1
 231 00b9 0E000000 		.4byte	.LASF18
 232 00bd 01       		.byte	0x1
 233 00be 37       		.byte	0x37
 234 00bf 01       		.byte	0x1
 235 00c0 6F000000 		.4byte	0x6f
 236 00c4 00000000 		.4byte	.LFB1
 237 00c8 18000000 		.4byte	.LFE1
 238 00cc 37000000 		.4byte	.LLST1
 239 00d0 00       		.byte	0x0
 240              		.section	.debug_abbrev
 241 0000 01       		.uleb128 0x1
 242 0001 11       		.uleb128 0x11
 243 0002 01       		.byte	0x1
 244 0003 25       		.uleb128 0x25
 245 0004 0E       		.uleb128 0xe
 246 0005 13       		.uleb128 0x13
 247 0006 0B       		.uleb128 0xb
 248 0007 03       		.uleb128 0x3
 249 0008 0E       		.uleb128 0xe
 250 0009 1B       		.uleb128 0x1b
 251 000a 0E       		.uleb128 0xe
 252 000b 11       		.uleb128 0x11
 253 000c 01       		.uleb128 0x1
 254 000d 52       		.uleb128 0x52
 255 000e 01       		.uleb128 0x1
 256 000f 55       		.uleb128 0x55
 257 0010 06       		.uleb128 0x6
 258 0011 10       		.uleb128 0x10
 259 0012 06       		.uleb128 0x6
 260 0013 00       		.byte	0x0
 261 0014 00       		.byte	0x0
 262 0015 02       		.uleb128 0x2
 263 0016 24       		.uleb128 0x24
 264 0017 00       		.byte	0x0
 265 0018 0B       		.uleb128 0xb
 266 0019 0B       		.uleb128 0xb
 267 001a 3E       		.uleb128 0x3e
 268 001b 0B       		.uleb128 0xb
 269 001c 03       		.uleb128 0x3
 270 001d 0E       		.uleb128 0xe
 271 001e 00       		.byte	0x0
 272 001f 00       		.byte	0x0
 273 0020 03       		.uleb128 0x3
 274 0021 24       		.uleb128 0x24
 275 0022 00       		.byte	0x0
 276 0023 0B       		.uleb128 0xb
 277 0024 0B       		.uleb128 0xb
 278 0025 3E       		.uleb128 0x3e
 279 0026 0B       		.uleb128 0xb
 280 0027 03       		.uleb128 0x3
ARM GAS  C:\Users\SUZUKI~1\AppData\Local\Temp\cc1t1L7h.s 			page 7


 281 0028 08       		.uleb128 0x8
 282 0029 00       		.byte	0x0
 283 002a 00       		.byte	0x0
 284 002b 04       		.uleb128 0x4
 285 002c 16       		.uleb128 0x16
 286 002d 00       		.byte	0x0
 287 002e 03       		.uleb128 0x3
 288 002f 0E       		.uleb128 0xe
 289 0030 3A       		.uleb128 0x3a
 290 0031 0B       		.uleb128 0xb
 291 0032 3B       		.uleb128 0x3b
 292 0033 0B       		.uleb128 0xb
 293 0034 49       		.uleb128 0x49
 294 0035 13       		.uleb128 0x13
 295 0036 00       		.byte	0x0
 296 0037 00       		.byte	0x0
 297 0038 05       		.uleb128 0x5
 298 0039 2E       		.uleb128 0x2e
 299 003a 01       		.byte	0x1
 300 003b 3F       		.uleb128 0x3f
 301 003c 0C       		.uleb128 0xc
 302 003d 03       		.uleb128 0x3
 303 003e 0E       		.uleb128 0xe
 304 003f 3A       		.uleb128 0x3a
 305 0040 0B       		.uleb128 0xb
 306 0041 3B       		.uleb128 0x3b
 307 0042 0B       		.uleb128 0xb
 308 0043 27       		.uleb128 0x27
 309 0044 0C       		.uleb128 0xc
 310 0045 11       		.uleb128 0x11
 311 0046 01       		.uleb128 0x1
 312 0047 12       		.uleb128 0x12
 313 0048 01       		.uleb128 0x1
 314 0049 40       		.uleb128 0x40
 315 004a 06       		.uleb128 0x6
 316 004b 01       		.uleb128 0x1
 317 004c 13       		.uleb128 0x13
 318 004d 00       		.byte	0x0
 319 004e 00       		.byte	0x0
 320 004f 06       		.uleb128 0x6
 321 0050 05       		.uleb128 0x5
 322 0051 00       		.byte	0x0
 323 0052 03       		.uleb128 0x3
 324 0053 0E       		.uleb128 0xe
 325 0054 3A       		.uleb128 0x3a
 326 0055 0B       		.uleb128 0xb
 327 0056 3B       		.uleb128 0x3b
 328 0057 0B       		.uleb128 0xb
 329 0058 49       		.uleb128 0x49
 330 0059 13       		.uleb128 0x13
 331 005a 02       		.uleb128 0x2
 332 005b 0A       		.uleb128 0xa
 333 005c 00       		.byte	0x0
 334 005d 00       		.byte	0x0
 335 005e 07       		.uleb128 0x7
 336 005f 2E       		.uleb128 0x2e
 337 0060 00       		.byte	0x0
ARM GAS  C:\Users\SUZUKI~1\AppData\Local\Temp\cc1t1L7h.s 			page 8


 338 0061 3F       		.uleb128 0x3f
 339 0062 0C       		.uleb128 0xc
 340 0063 03       		.uleb128 0x3
 341 0064 0E       		.uleb128 0xe
 342 0065 3A       		.uleb128 0x3a
 343 0066 0B       		.uleb128 0xb
 344 0067 3B       		.uleb128 0x3b
 345 0068 0B       		.uleb128 0xb
 346 0069 27       		.uleb128 0x27
 347 006a 0C       		.uleb128 0xc
 348 006b 49       		.uleb128 0x49
 349 006c 13       		.uleb128 0x13
 350 006d 11       		.uleb128 0x11
 351 006e 01       		.uleb128 0x1
 352 006f 12       		.uleb128 0x12
 353 0070 01       		.uleb128 0x1
 354 0071 40       		.uleb128 0x40
 355 0072 06       		.uleb128 0x6
 356 0073 00       		.byte	0x0
 357 0074 00       		.byte	0x0
 358 0075 00       		.byte	0x0
 359              		.section	.debug_pubnames,"",%progbits
 360 0000 5D000000 		.4byte	0x5d
 361 0004 0200     		.2byte	0x2
 362 0006 00000000 		.4byte	.Ldebug_info0
 363 000a D1000000 		.4byte	0xd1
 364 000e 8F000000 		.4byte	0x8f
 365 0012 73646C6F 		.ascii	"sdlogger_1_sdspi_1_CS_Control_Write\000"
 365      67676572 
 365      5F315F73 
 365      64737069 
 365      5F315F43 
 366 0036 B7000000 		.4byte	0xb7
 367 003a 73646C6F 		.ascii	"sdlogger_1_sdspi_1_CS_Control_Read\000"
 367      67676572 
 367      5F315F73 
 367      64737069 
 367      5F315F43 
 368 005d 00000000 		.4byte	0x0
 369              		.section	.debug_aranges,"",%progbits
 370 0000 24000000 		.4byte	0x24
 371 0004 0200     		.2byte	0x2
 372 0006 00000000 		.4byte	.Ldebug_info0
 373 000a 04       		.byte	0x4
 374 000b 00       		.byte	0x0
 375 000c 0000     		.2byte	0x0
 376 000e 0000     		.2byte	0x0
 377 0010 00000000 		.4byte	.LFB0
 378 0014 20000000 		.4byte	.LFE0-.LFB0
 379 0018 00000000 		.4byte	.LFB1
 380 001c 18000000 		.4byte	.LFE1-.LFB1
 381 0020 00000000 		.4byte	0x0
 382 0024 00000000 		.4byte	0x0
 383              		.section	.debug_ranges,"",%progbits
 384              	.Ldebug_ranges0:
 385 0000 00000000 		.4byte	.Ltext0
 386 0004 00000000 		.4byte	.Letext0
ARM GAS  C:\Users\SUZUKI~1\AppData\Local\Temp\cc1t1L7h.s 			page 9


 387 0008 00000000 		.4byte	.LFB0
 388 000c 20000000 		.4byte	.LFE0
 389 0010 00000000 		.4byte	.LFB1
 390 0014 18000000 		.4byte	.LFE1
 391 0018 00000000 		.4byte	0x0
 392 001c 00000000 		.4byte	0x0
 393              		.section	.debug_str,"MS",%progbits,1
 394              	.LASF6:
 395 0000 6C6F6E67 		.ascii	"long long int\000"
 395      206C6F6E 
 395      6720696E 
 395      7400
 396              	.LASF18:
 397 000e 73646C6F 		.ascii	"sdlogger_1_sdspi_1_CS_Control_Read\000"
 397      67676572 
 397      5F315F73 
 397      64737069 
 397      5F315F43 
 398              	.LASF9:
 399 0031 666C6F61 		.ascii	"float\000"
 399      7400
 400              	.LASF1:
 401 0037 756E7369 		.ascii	"unsigned char\000"
 401      676E6564 
 401      20636861 
 401      7200
 402              	.LASF5:
 403 0045 6C6F6E67 		.ascii	"long unsigned int\000"
 403      20756E73 
 403      69676E65 
 403      6420696E 
 403      7400
 404              	.LASF3:
 405 0057 73686F72 		.ascii	"short unsigned int\000"
 405      7420756E 
 405      7369676E 
 405      65642069 
 405      6E7400
 406              	.LASF17:
 407 006a 636F6E74 		.ascii	"control\000"
 407      726F6C00 
 408              	.LASF10:
 409 0072 646F7562 		.ascii	"double\000"
 409      6C6500
 410              	.LASF13:
 411 0079 2E5C4765 		.ascii	".\\Generated_Source\\PSoC5\\sdlogger_1_sdspi_1_CS_C"
 411      6E657261 
 411      7465645F 
 411      536F7572 
 411      63655C50 
 412 00a9 6F6E7472 		.ascii	"ontrol.c\000"
 412      6F6C2E63 
 412      00
 413              	.LASF14:
 414 00b2 463A5C44 		.ascii	"F:\\Documents\\PSoC_Creator\\tfexpbrd\\tfexpbrd.cyd"
 414      6F63756D 
 414      656E7473 
ARM GAS  C:\Users\SUZUKI~1\AppData\Local\Temp\cc1t1L7h.s 			page 10


 414      5C50536F 
 414      435F4372 
 415 00e1 736E00   		.ascii	"sn\000"
 416              	.LASF8:
 417 00e4 756E7369 		.ascii	"unsigned int\000"
 417      676E6564 
 417      20696E74 
 417      00
 418              	.LASF7:
 419 00f1 6C6F6E67 		.ascii	"long long unsigned int\000"
 419      206C6F6E 
 419      6720756E 
 419      7369676E 
 419      65642069 
 420              	.LASF12:
 421 0108 474E5520 		.ascii	"GNU C 4.4.1\000"
 421      4320342E 
 421      342E3100 
 422              	.LASF11:
 423 0114 63686172 		.ascii	"char\000"
 423      00
 424              	.LASF2:
 425 0119 73686F72 		.ascii	"short int\000"
 425      7420696E 
 425      7400
 426              	.LASF15:
 427 0123 75696E74 		.ascii	"uint8\000"
 427      3800
 428              	.LASF4:
 429 0129 6C6F6E67 		.ascii	"long int\000"
 429      20696E74 
 429      00
 430              	.LASF0:
 431 0132 7369676E 		.ascii	"signed char\000"
 431      65642063 
 431      68617200 
 432              	.LASF16:
 433 013e 73646C6F 		.ascii	"sdlogger_1_sdspi_1_CS_Control_Write\000"
 433      67676572 
 433      5F315F73 
 433      64737069 
 433      5F315F43 
 434              		.ident	"GCC: (Sourcery G++ Lite 2010q1-188) 4.4.1"
