ARM GAS  C:\Users\SUZUKI~1\AppData\Local\Temp\ccNeYqdh.s 			page 1


   1              		.syntax unified
   2              		.cpu cortex-m3
   3              		.fpu softvfp
   4              		.eabi_attribute 20, 1
   5              		.eabi_attribute 21, 1
   6              		.eabi_attribute 23, 3
   7              		.eabi_attribute 24, 1
   8              		.eabi_attribute 25, 1
   9              		.eabi_attribute 26, 1
  10              		.eabi_attribute 30, 6
  11              		.eabi_attribute 18, 4
  12              		.thumb
  13              		.file	"UART_TF_PM.c"
  14              		.section	.debug_abbrev,"",%progbits
  15              	.Ldebug_abbrev0:
  16              		.section	.debug_info,"",%progbits
  17              	.Ldebug_info0:
  18              		.section	.debug_line,"",%progbits
  19              	.Ldebug_line0:
  20 0000 CE000000 		.text
  20      02007000 
  20      00000201 
  20      FB0E0D00 
  20      01010101 
  21              	.Ltext0:
  22              		.cfi_sections	.debug_frame
  23              		.bss
  24              		.align	2
  25              	UART_TF_backup:
  26 0000 000000   		.space	3
  27 0003 00       		.section	.text.UART_TF_SaveConfig,"ax",%progbits
  28              		.align	2
  29              		.global	UART_TF_SaveConfig
  30              		.thumb
  31              		.thumb_func
  32              		.type	UART_TF_SaveConfig, %function
  33              	UART_TF_SaveConfig:
  34              	.LFB0:
  35              		.file 1 ".\\Generated_Source\\PSoC5\\UART_TF_PM.c"
   1:.\Generated_Source\PSoC5/UART_TF_PM.c **** /*******************************************************************************
   2:.\Generated_Source\PSoC5/UART_TF_PM.c **** * File Name: UART_TF_PM.c
   3:.\Generated_Source\PSoC5/UART_TF_PM.c **** * Version 2.30
   4:.\Generated_Source\PSoC5/UART_TF_PM.c **** *
   5:.\Generated_Source\PSoC5/UART_TF_PM.c **** * Description:
   6:.\Generated_Source\PSoC5/UART_TF_PM.c **** *  This file provides Sleep/WakeUp APIs functionality.
   7:.\Generated_Source\PSoC5/UART_TF_PM.c **** *
   8:.\Generated_Source\PSoC5/UART_TF_PM.c **** * Note:
   9:.\Generated_Source\PSoC5/UART_TF_PM.c **** *
  10:.\Generated_Source\PSoC5/UART_TF_PM.c **** ********************************************************************************
  11:.\Generated_Source\PSoC5/UART_TF_PM.c **** * Copyright 2008-2012, Cypress Semiconductor Corporation.  All rights reserved.
  12:.\Generated_Source\PSoC5/UART_TF_PM.c **** * You may use this file only in accordance with the license, terms, conditions,
  13:.\Generated_Source\PSoC5/UART_TF_PM.c **** * disclaimers, and limitations in the end user license agreement accompanying
  14:.\Generated_Source\PSoC5/UART_TF_PM.c **** * the software package with which this file was provided.
  15:.\Generated_Source\PSoC5/UART_TF_PM.c **** *******************************************************************************/
  16:.\Generated_Source\PSoC5/UART_TF_PM.c **** 
  17:.\Generated_Source\PSoC5/UART_TF_PM.c **** #include "UART_TF.h"
  18:.\Generated_Source\PSoC5/UART_TF_PM.c **** 
ARM GAS  C:\Users\SUZUKI~1\AppData\Local\Temp\ccNeYqdh.s 			page 2


  19:.\Generated_Source\PSoC5/UART_TF_PM.c **** 
  20:.\Generated_Source\PSoC5/UART_TF_PM.c **** /***************************************
  21:.\Generated_Source\PSoC5/UART_TF_PM.c **** * Local data allocation
  22:.\Generated_Source\PSoC5/UART_TF_PM.c **** ***************************************/
  23:.\Generated_Source\PSoC5/UART_TF_PM.c **** 
  24:.\Generated_Source\PSoC5/UART_TF_PM.c **** static UART_TF_BACKUP_STRUCT  UART_TF_backup =
  25:.\Generated_Source\PSoC5/UART_TF_PM.c **** {
  26:.\Generated_Source\PSoC5/UART_TF_PM.c ****     /* enableState - disabled */
  27:.\Generated_Source\PSoC5/UART_TF_PM.c ****     0u,
  28:.\Generated_Source\PSoC5/UART_TF_PM.c **** };
  29:.\Generated_Source\PSoC5/UART_TF_PM.c **** 
  30:.\Generated_Source\PSoC5/UART_TF_PM.c **** 
  31:.\Generated_Source\PSoC5/UART_TF_PM.c **** 
  32:.\Generated_Source\PSoC5/UART_TF_PM.c **** /*******************************************************************************
  33:.\Generated_Source\PSoC5/UART_TF_PM.c **** * Function Name: UART_TF_SaveConfig
  34:.\Generated_Source\PSoC5/UART_TF_PM.c **** ********************************************************************************
  35:.\Generated_Source\PSoC5/UART_TF_PM.c **** *
  36:.\Generated_Source\PSoC5/UART_TF_PM.c **** * Summary:
  37:.\Generated_Source\PSoC5/UART_TF_PM.c **** *  Saves the current user configuration.
  38:.\Generated_Source\PSoC5/UART_TF_PM.c **** *
  39:.\Generated_Source\PSoC5/UART_TF_PM.c **** * Parameters:
  40:.\Generated_Source\PSoC5/UART_TF_PM.c **** *  None.
  41:.\Generated_Source\PSoC5/UART_TF_PM.c **** *
  42:.\Generated_Source\PSoC5/UART_TF_PM.c **** * Return:
  43:.\Generated_Source\PSoC5/UART_TF_PM.c **** *  None.
  44:.\Generated_Source\PSoC5/UART_TF_PM.c **** *
  45:.\Generated_Source\PSoC5/UART_TF_PM.c **** * Global Variables:
  46:.\Generated_Source\PSoC5/UART_TF_PM.c **** *  UART_TF_backup - modified when non-retention registers are saved.
  47:.\Generated_Source\PSoC5/UART_TF_PM.c **** *
  48:.\Generated_Source\PSoC5/UART_TF_PM.c **** * Reentrant:
  49:.\Generated_Source\PSoC5/UART_TF_PM.c **** *  No.
  50:.\Generated_Source\PSoC5/UART_TF_PM.c **** *
  51:.\Generated_Source\PSoC5/UART_TF_PM.c **** *******************************************************************************/
  52:.\Generated_Source\PSoC5/UART_TF_PM.c **** void UART_TF_SaveConfig(void)
  53:.\Generated_Source\PSoC5/UART_TF_PM.c **** {
  36              		.loc 1 53 0
  37              		.cfi_startproc
  38              		@ args = 0, pretend = 0, frame = 0
  39              		@ frame_needed = 1, uses_anonymous_args = 0
  40              		@ link register save eliminated.
  41 0000 80B4     		push	{r7}
  42              	.LCFI0:
  43              		.cfi_def_cfa_offset 4
  44 0002 00AF     		add	r7, sp, #0
  45              		.cfi_offset 7, -4
  46              	.LCFI1:
  47              		.cfi_def_cfa_register 7
  54:.\Generated_Source\PSoC5/UART_TF_PM.c ****     #if (CY_UDB_V0)
  55:.\Generated_Source\PSoC5/UART_TF_PM.c **** 
  56:.\Generated_Source\PSoC5/UART_TF_PM.c ****         #if(UART_TF_CONTROL_REG_REMOVED == 0u)
  57:.\Generated_Source\PSoC5/UART_TF_PM.c ****             UART_TF_backup.cr = UART_TF_CONTROL_REG;
  58:.\Generated_Source\PSoC5/UART_TF_PM.c ****         #endif /* End UART_TF_CONTROL_REG_REMOVED */
  59:.\Generated_Source\PSoC5/UART_TF_PM.c **** 
  60:.\Generated_Source\PSoC5/UART_TF_PM.c ****         #if( (UART_TF_RX_ENABLED) || (UART_TF_HD_ENABLED) )
  61:.\Generated_Source\PSoC5/UART_TF_PM.c ****             UART_TF_backup.rx_period = UART_TF_RXBITCTR_PERIOD_REG;
  48              		.loc 1 61 0
  49 0004 46F28943 		movw	r3, #:lower16:1073767561
ARM GAS  C:\Users\SUZUKI~1\AppData\Local\Temp\ccNeYqdh.s 			page 3


  50 0008 C4F20003 		movt	r3, #:upper16:1073767561
  51 000c 1B78     		ldrb	r3, [r3, #0]
  52 000e DAB2     		uxtb	r2, r3
  53 0010 40F20003 		movw	r3, #:lower16:UART_TF_backup
  54 0014 C0F20003 		movt	r3, #:upper16:UART_TF_backup
  55 0018 5A70     		strb	r2, [r3, #1]
  62:.\Generated_Source\PSoC5/UART_TF_PM.c ****             UART_TF_backup.rx_mask = UART_TF_RXSTATUS_MASK_REG;
  56              		.loc 1 62 0
  57 001a 46F28953 		movw	r3, #:lower16:1073767817
  58 001e C4F20003 		movt	r3, #:upper16:1073767817
  59 0022 1B78     		ldrb	r3, [r3, #0]
  60 0024 DAB2     		uxtb	r2, r3
  61 0026 40F20003 		movw	r3, #:lower16:UART_TF_backup
  62 002a C0F20003 		movt	r3, #:upper16:UART_TF_backup
  63 002e 9A70     		strb	r2, [r3, #2]
  63:.\Generated_Source\PSoC5/UART_TF_PM.c ****             #if (UART_TF_RXHW_ADDRESS_ENABLED)
  64:.\Generated_Source\PSoC5/UART_TF_PM.c ****                 UART_TF_backup.rx_addr1 = UART_TF_RXADDRESS1_REG;
  65:.\Generated_Source\PSoC5/UART_TF_PM.c ****                 UART_TF_backup.rx_addr2 = UART_TF_RXADDRESS2_REG;
  66:.\Generated_Source\PSoC5/UART_TF_PM.c ****             #endif /* End UART_TF_RXHW_ADDRESS_ENABLED */
  67:.\Generated_Source\PSoC5/UART_TF_PM.c ****         #endif /* End UART_TF_RX_ENABLED | UART_TF_HD_ENABLED*/
  68:.\Generated_Source\PSoC5/UART_TF_PM.c **** 
  69:.\Generated_Source\PSoC5/UART_TF_PM.c ****         #if(UART_TF_TX_ENABLED)
  70:.\Generated_Source\PSoC5/UART_TF_PM.c ****             #if(UART_TF_TXCLKGEN_DP)
  71:.\Generated_Source\PSoC5/UART_TF_PM.c ****                 UART_TF_backup.tx_clk_ctr = UART_TF_TXBITCLKGEN_CTR_REG;
  72:.\Generated_Source\PSoC5/UART_TF_PM.c ****                 UART_TF_backup.tx_clk_compl = UART_TF_TXBITCLKTX_COMPLETE_REG;
  73:.\Generated_Source\PSoC5/UART_TF_PM.c ****             #else
  74:.\Generated_Source\PSoC5/UART_TF_PM.c ****                 UART_TF_backup.tx_period = UART_TF_TXBITCTR_PERIOD_REG;
  75:.\Generated_Source\PSoC5/UART_TF_PM.c ****             #endif /*End UART_TF_TXCLKGEN_DP */
  76:.\Generated_Source\PSoC5/UART_TF_PM.c ****             UART_TF_backup.tx_mask = UART_TF_TXSTATUS_MASK_REG;
  77:.\Generated_Source\PSoC5/UART_TF_PM.c ****         #endif /*End UART_TF_TX_ENABLED */
  78:.\Generated_Source\PSoC5/UART_TF_PM.c **** 
  79:.\Generated_Source\PSoC5/UART_TF_PM.c **** 
  80:.\Generated_Source\PSoC5/UART_TF_PM.c ****     #else /* CY_UDB_V1 */
  81:.\Generated_Source\PSoC5/UART_TF_PM.c **** 
  82:.\Generated_Source\PSoC5/UART_TF_PM.c ****         #if(UART_TF_CONTROL_REG_REMOVED == 0u)
  83:.\Generated_Source\PSoC5/UART_TF_PM.c ****             UART_TF_backup.cr = UART_TF_CONTROL_REG;
  84:.\Generated_Source\PSoC5/UART_TF_PM.c ****         #endif /* End UART_TF_CONTROL_REG_REMOVED */
  85:.\Generated_Source\PSoC5/UART_TF_PM.c **** 
  86:.\Generated_Source\PSoC5/UART_TF_PM.c ****     #endif  /* End CY_UDB_V0 */
  87:.\Generated_Source\PSoC5/UART_TF_PM.c **** }
  64              		.loc 1 87 0
  65 0030 BD46     		mov	sp, r7
  66 0032 80BC     		pop	{r7}
  67 0034 7047     		bx	lr
  68              		.cfi_endproc
  69              	.LFE0:
  70              		.size	UART_TF_SaveConfig, .-UART_TF_SaveConfig
  71 0036 00BF     		.section	.text.UART_TF_RestoreConfig,"ax",%progbits
  72              		.align	2
  73              		.global	UART_TF_RestoreConfig
  74              		.thumb
  75              		.thumb_func
  76              		.type	UART_TF_RestoreConfig, %function
  77              	UART_TF_RestoreConfig:
  78              	.LFB1:
  88:.\Generated_Source\PSoC5/UART_TF_PM.c **** 
  89:.\Generated_Source\PSoC5/UART_TF_PM.c **** 
ARM GAS  C:\Users\SUZUKI~1\AppData\Local\Temp\ccNeYqdh.s 			page 4


  90:.\Generated_Source\PSoC5/UART_TF_PM.c **** /*******************************************************************************
  91:.\Generated_Source\PSoC5/UART_TF_PM.c **** * Function Name: UART_TF_RestoreConfig
  92:.\Generated_Source\PSoC5/UART_TF_PM.c **** ********************************************************************************
  93:.\Generated_Source\PSoC5/UART_TF_PM.c **** *
  94:.\Generated_Source\PSoC5/UART_TF_PM.c **** * Summary:
  95:.\Generated_Source\PSoC5/UART_TF_PM.c **** *  Restores the current user configuration.
  96:.\Generated_Source\PSoC5/UART_TF_PM.c **** *
  97:.\Generated_Source\PSoC5/UART_TF_PM.c **** * Parameters:
  98:.\Generated_Source\PSoC5/UART_TF_PM.c **** *  None.
  99:.\Generated_Source\PSoC5/UART_TF_PM.c **** *
 100:.\Generated_Source\PSoC5/UART_TF_PM.c **** * Return:
 101:.\Generated_Source\PSoC5/UART_TF_PM.c **** *  None.
 102:.\Generated_Source\PSoC5/UART_TF_PM.c **** *
 103:.\Generated_Source\PSoC5/UART_TF_PM.c **** * Global Variables:
 104:.\Generated_Source\PSoC5/UART_TF_PM.c **** *  UART_TF_backup - used when non-retention registers are restored.
 105:.\Generated_Source\PSoC5/UART_TF_PM.c **** *
 106:.\Generated_Source\PSoC5/UART_TF_PM.c **** * Reentrant:
 107:.\Generated_Source\PSoC5/UART_TF_PM.c **** *  No.
 108:.\Generated_Source\PSoC5/UART_TF_PM.c **** *
 109:.\Generated_Source\PSoC5/UART_TF_PM.c **** *******************************************************************************/
 110:.\Generated_Source\PSoC5/UART_TF_PM.c **** void UART_TF_RestoreConfig(void)
 111:.\Generated_Source\PSoC5/UART_TF_PM.c **** {
  79              		.loc 1 111 0
  80              		.cfi_startproc
  81              		@ args = 0, pretend = 0, frame = 0
  82              		@ frame_needed = 1, uses_anonymous_args = 0
  83              		@ link register save eliminated.
  84 0000 80B4     		push	{r7}
  85              	.LCFI2:
  86              		.cfi_def_cfa_offset 4
  87 0002 00AF     		add	r7, sp, #0
  88              		.cfi_offset 7, -4
  89              	.LCFI3:
  90              		.cfi_def_cfa_register 7
 112:.\Generated_Source\PSoC5/UART_TF_PM.c **** 
 113:.\Generated_Source\PSoC5/UART_TF_PM.c ****     #if (CY_UDB_V0)
 114:.\Generated_Source\PSoC5/UART_TF_PM.c **** 
 115:.\Generated_Source\PSoC5/UART_TF_PM.c ****         #if(UART_TF_CONTROL_REG_REMOVED == 0u)
 116:.\Generated_Source\PSoC5/UART_TF_PM.c ****             UART_TF_CONTROL_REG = UART_TF_backup.cr;
 117:.\Generated_Source\PSoC5/UART_TF_PM.c ****         #endif /* End UART_TF_CONTROL_REG_REMOVED */
 118:.\Generated_Source\PSoC5/UART_TF_PM.c **** 
 119:.\Generated_Source\PSoC5/UART_TF_PM.c ****         #if( (UART_TF_RX_ENABLED) || (UART_TF_HD_ENABLED) )
 120:.\Generated_Source\PSoC5/UART_TF_PM.c ****             UART_TF_RXBITCTR_PERIOD_REG = UART_TF_backup.rx_period;
  91              		.loc 1 120 0
  92 0004 46F28943 		movw	r3, #:lower16:1073767561
  93 0008 C4F20003 		movt	r3, #:upper16:1073767561
  94 000c 40F20002 		movw	r2, #:lower16:UART_TF_backup
  95 0010 C0F20002 		movt	r2, #:upper16:UART_TF_backup
  96 0014 5278     		ldrb	r2, [r2, #1]	@ zero_extendqisi2
  97 0016 1A70     		strb	r2, [r3, #0]
 121:.\Generated_Source\PSoC5/UART_TF_PM.c ****             UART_TF_RXSTATUS_MASK_REG = UART_TF_backup.rx_mask;
  98              		.loc 1 121 0
  99 0018 46F28953 		movw	r3, #:lower16:1073767817
 100 001c C4F20003 		movt	r3, #:upper16:1073767817
 101 0020 40F20002 		movw	r2, #:lower16:UART_TF_backup
 102 0024 C0F20002 		movt	r2, #:upper16:UART_TF_backup
 103 0028 9278     		ldrb	r2, [r2, #2]	@ zero_extendqisi2
ARM GAS  C:\Users\SUZUKI~1\AppData\Local\Temp\ccNeYqdh.s 			page 5


 104 002a 1A70     		strb	r2, [r3, #0]
 122:.\Generated_Source\PSoC5/UART_TF_PM.c ****             #if (UART_TF_RXHW_ADDRESS_ENABLED)
 123:.\Generated_Source\PSoC5/UART_TF_PM.c ****                 UART_TF_RXADDRESS1_REG = UART_TF_backup.rx_addr1;
 124:.\Generated_Source\PSoC5/UART_TF_PM.c ****                 UART_TF_RXADDRESS2_REG = UART_TF_backup.rx_addr2;
 125:.\Generated_Source\PSoC5/UART_TF_PM.c ****             #endif /* End UART_TF_RXHW_ADDRESS_ENABLED */
 126:.\Generated_Source\PSoC5/UART_TF_PM.c ****         #endif  /* End (UART_TF_RX_ENABLED) || (UART_TF_HD_ENABLED) */
 127:.\Generated_Source\PSoC5/UART_TF_PM.c **** 
 128:.\Generated_Source\PSoC5/UART_TF_PM.c ****         #if(UART_TF_TX_ENABLED)
 129:.\Generated_Source\PSoC5/UART_TF_PM.c ****             #if(UART_TF_TXCLKGEN_DP)
 130:.\Generated_Source\PSoC5/UART_TF_PM.c ****                 UART_TF_TXBITCLKGEN_CTR_REG = UART_TF_backup.tx_clk_ctr;
 131:.\Generated_Source\PSoC5/UART_TF_PM.c ****                 UART_TF_TXBITCLKTX_COMPLETE_REG = UART_TF_backup.tx_clk_compl;
 132:.\Generated_Source\PSoC5/UART_TF_PM.c ****             #else
 133:.\Generated_Source\PSoC5/UART_TF_PM.c ****                 UART_TF_TXBITCTR_PERIOD_REG = UART_TF_backup.tx_period;
 134:.\Generated_Source\PSoC5/UART_TF_PM.c ****             #endif /*End UART_TF_TXCLKGEN_DP */
 135:.\Generated_Source\PSoC5/UART_TF_PM.c ****             UART_TF_TXSTATUS_MASK_REG = UART_TF_backup.tx_mask;
 136:.\Generated_Source\PSoC5/UART_TF_PM.c ****         #endif /*End UART_TF_TX_ENABLED */
 137:.\Generated_Source\PSoC5/UART_TF_PM.c **** 
 138:.\Generated_Source\PSoC5/UART_TF_PM.c ****     #else /* CY_UDB_V1 */
 139:.\Generated_Source\PSoC5/UART_TF_PM.c **** 
 140:.\Generated_Source\PSoC5/UART_TF_PM.c ****         #if(UART_TF_CONTROL_REG_REMOVED == 0u)
 141:.\Generated_Source\PSoC5/UART_TF_PM.c ****             UART_TF_CONTROL_REG = UART_TF_backup.cr;
 142:.\Generated_Source\PSoC5/UART_TF_PM.c ****         #endif /* End UART_TF_CONTROL_REG_REMOVED */
 143:.\Generated_Source\PSoC5/UART_TF_PM.c **** 
 144:.\Generated_Source\PSoC5/UART_TF_PM.c ****     #endif  /* End CY_UDB_V0 */
 145:.\Generated_Source\PSoC5/UART_TF_PM.c **** }
 105              		.loc 1 145 0
 106 002c BD46     		mov	sp, r7
 107 002e 80BC     		pop	{r7}
 108 0030 7047     		bx	lr
 109              		.cfi_endproc
 110              	.LFE1:
 111              		.size	UART_TF_RestoreConfig, .-UART_TF_RestoreConfig
 112 0032 00BF     		.section	.text.UART_TF_Sleep,"ax",%progbits
 113              		.align	2
 114              		.global	UART_TF_Sleep
 115              		.thumb
 116              		.thumb_func
 117              		.type	UART_TF_Sleep, %function
 118              	UART_TF_Sleep:
 119              	.LFB2:
 146:.\Generated_Source\PSoC5/UART_TF_PM.c **** 
 147:.\Generated_Source\PSoC5/UART_TF_PM.c **** 
 148:.\Generated_Source\PSoC5/UART_TF_PM.c **** /*******************************************************************************
 149:.\Generated_Source\PSoC5/UART_TF_PM.c **** * Function Name: UART_TF_Sleep
 150:.\Generated_Source\PSoC5/UART_TF_PM.c **** ********************************************************************************
 151:.\Generated_Source\PSoC5/UART_TF_PM.c **** *
 152:.\Generated_Source\PSoC5/UART_TF_PM.c **** * Summary:
 153:.\Generated_Source\PSoC5/UART_TF_PM.c **** *  Stops and saves the user configuration. Should be called
 154:.\Generated_Source\PSoC5/UART_TF_PM.c **** *  just prior to entering sleep.
 155:.\Generated_Source\PSoC5/UART_TF_PM.c **** *
 156:.\Generated_Source\PSoC5/UART_TF_PM.c **** *
 157:.\Generated_Source\PSoC5/UART_TF_PM.c **** * Parameters:
 158:.\Generated_Source\PSoC5/UART_TF_PM.c **** *  None.
 159:.\Generated_Source\PSoC5/UART_TF_PM.c **** *
 160:.\Generated_Source\PSoC5/UART_TF_PM.c **** * Return:
 161:.\Generated_Source\PSoC5/UART_TF_PM.c **** *  None.
 162:.\Generated_Source\PSoC5/UART_TF_PM.c **** *
ARM GAS  C:\Users\SUZUKI~1\AppData\Local\Temp\ccNeYqdh.s 			page 6


 163:.\Generated_Source\PSoC5/UART_TF_PM.c **** * Global Variables:
 164:.\Generated_Source\PSoC5/UART_TF_PM.c **** *  UART_TF_backup - modified when non-retention registers are saved.
 165:.\Generated_Source\PSoC5/UART_TF_PM.c **** *
 166:.\Generated_Source\PSoC5/UART_TF_PM.c **** * Reentrant:
 167:.\Generated_Source\PSoC5/UART_TF_PM.c **** *  No.
 168:.\Generated_Source\PSoC5/UART_TF_PM.c **** *
 169:.\Generated_Source\PSoC5/UART_TF_PM.c **** *******************************************************************************/
 170:.\Generated_Source\PSoC5/UART_TF_PM.c **** void UART_TF_Sleep(void)
 171:.\Generated_Source\PSoC5/UART_TF_PM.c **** {
 120              		.loc 1 171 0
 121              		.cfi_startproc
 122              		@ args = 0, pretend = 0, frame = 0
 123              		@ frame_needed = 1, uses_anonymous_args = 0
 124 0000 80B5     		push	{r7, lr}
 125              	.LCFI4:
 126              		.cfi_def_cfa_offset 8
 127 0002 00AF     		add	r7, sp, #0
 128              		.cfi_offset 14, -4
 129              		.cfi_offset 7, -8
 130              	.LCFI5:
 131              		.cfi_def_cfa_register 7
 172:.\Generated_Source\PSoC5/UART_TF_PM.c **** 
 173:.\Generated_Source\PSoC5/UART_TF_PM.c ****     #if(UART_TF_RX_ENABLED || UART_TF_HD_ENABLED)
 174:.\Generated_Source\PSoC5/UART_TF_PM.c ****         if((UART_TF_RXSTATUS_ACTL_REG  & UART_TF_INT_ENABLE) != 0u)
 132              		.loc 1 174 0
 133 0004 46F29953 		movw	r3, #:lower16:1073767833
 134 0008 C4F20003 		movt	r3, #:upper16:1073767833
 135 000c 1B78     		ldrb	r3, [r3, #0]
 136 000e DBB2     		uxtb	r3, r3
 137 0010 03F01003 		and	r3, r3, #16
 138 0014 002B     		cmp	r3, #0
 139 0016 07D0     		beq	.L6
 175:.\Generated_Source\PSoC5/UART_TF_PM.c ****         {
 176:.\Generated_Source\PSoC5/UART_TF_PM.c ****             UART_TF_backup.enableState = 1u;
 140              		.loc 1 176 0
 141 0018 40F20003 		movw	r3, #:lower16:UART_TF_backup
 142 001c C0F20003 		movt	r3, #:upper16:UART_TF_backup
 143 0020 4FF00102 		mov	r2, #1
 144 0024 1A70     		strb	r2, [r3, #0]
 145 0026 06E0     		b	.L7
 146              	.L6:
 177:.\Generated_Source\PSoC5/UART_TF_PM.c ****         }
 178:.\Generated_Source\PSoC5/UART_TF_PM.c ****         else
 179:.\Generated_Source\PSoC5/UART_TF_PM.c ****         {
 180:.\Generated_Source\PSoC5/UART_TF_PM.c ****             UART_TF_backup.enableState = 0u;
 147              		.loc 1 180 0
 148 0028 40F20003 		movw	r3, #:lower16:UART_TF_backup
 149 002c C0F20003 		movt	r3, #:upper16:UART_TF_backup
 150 0030 4FF00002 		mov	r2, #0
 151 0034 1A70     		strb	r2, [r3, #0]
 152              	.L7:
 181:.\Generated_Source\PSoC5/UART_TF_PM.c ****         }
 182:.\Generated_Source\PSoC5/UART_TF_PM.c ****     #else
 183:.\Generated_Source\PSoC5/UART_TF_PM.c ****         if((UART_TF_TXSTATUS_ACTL_REG  & UART_TF_INT_ENABLE) !=0u)
 184:.\Generated_Source\PSoC5/UART_TF_PM.c ****         {
 185:.\Generated_Source\PSoC5/UART_TF_PM.c ****             UART_TF_backup.enableState = 1u;
 186:.\Generated_Source\PSoC5/UART_TF_PM.c ****         }
ARM GAS  C:\Users\SUZUKI~1\AppData\Local\Temp\ccNeYqdh.s 			page 7


 187:.\Generated_Source\PSoC5/UART_TF_PM.c ****         else
 188:.\Generated_Source\PSoC5/UART_TF_PM.c ****         {
 189:.\Generated_Source\PSoC5/UART_TF_PM.c ****             UART_TF_backup.enableState = 0u;
 190:.\Generated_Source\PSoC5/UART_TF_PM.c ****         }
 191:.\Generated_Source\PSoC5/UART_TF_PM.c ****     #endif /* End UART_TF_RX_ENABLED || UART_TF_HD_ENABLED*/
 192:.\Generated_Source\PSoC5/UART_TF_PM.c **** 
 193:.\Generated_Source\PSoC5/UART_TF_PM.c ****     UART_TF_Stop();
 153              		.loc 1 193 0
 154 0036 FFF7FEFF 		bl	UART_TF_Stop
 194:.\Generated_Source\PSoC5/UART_TF_PM.c ****     UART_TF_SaveConfig();
 155              		.loc 1 194 0
 156 003a FFF7FEFF 		bl	UART_TF_SaveConfig
 195:.\Generated_Source\PSoC5/UART_TF_PM.c **** }
 157              		.loc 1 195 0
 158 003e 80BD     		pop	{r7, pc}
 159              		.cfi_endproc
 160              	.LFE2:
 161              		.size	UART_TF_Sleep, .-UART_TF_Sleep
 162              		.section	.text.UART_TF_Wakeup,"ax",%progbits
 163              		.align	2
 164              		.global	UART_TF_Wakeup
 165              		.thumb
 166              		.thumb_func
 167              		.type	UART_TF_Wakeup, %function
 168              	UART_TF_Wakeup:
 169              	.LFB3:
 196:.\Generated_Source\PSoC5/UART_TF_PM.c **** 
 197:.\Generated_Source\PSoC5/UART_TF_PM.c **** 
 198:.\Generated_Source\PSoC5/UART_TF_PM.c **** /*******************************************************************************
 199:.\Generated_Source\PSoC5/UART_TF_PM.c **** * Function Name: UART_TF_Wakeup
 200:.\Generated_Source\PSoC5/UART_TF_PM.c **** ********************************************************************************
 201:.\Generated_Source\PSoC5/UART_TF_PM.c **** *
 202:.\Generated_Source\PSoC5/UART_TF_PM.c **** * Summary:
 203:.\Generated_Source\PSoC5/UART_TF_PM.c **** *  Restores and enables the user configuration. Should be called
 204:.\Generated_Source\PSoC5/UART_TF_PM.c **** *  just after awaking from sleep.
 205:.\Generated_Source\PSoC5/UART_TF_PM.c **** *
 206:.\Generated_Source\PSoC5/UART_TF_PM.c **** * Parameters:
 207:.\Generated_Source\PSoC5/UART_TF_PM.c **** *  None.
 208:.\Generated_Source\PSoC5/UART_TF_PM.c **** *
 209:.\Generated_Source\PSoC5/UART_TF_PM.c **** * Return:
 210:.\Generated_Source\PSoC5/UART_TF_PM.c **** *  None.
 211:.\Generated_Source\PSoC5/UART_TF_PM.c **** *
 212:.\Generated_Source\PSoC5/UART_TF_PM.c **** * Global Variables:
 213:.\Generated_Source\PSoC5/UART_TF_PM.c **** *  UART_TF_backup - used when non-retention registers are restored.
 214:.\Generated_Source\PSoC5/UART_TF_PM.c **** *
 215:.\Generated_Source\PSoC5/UART_TF_PM.c **** * Reentrant:
 216:.\Generated_Source\PSoC5/UART_TF_PM.c **** *  No.
 217:.\Generated_Source\PSoC5/UART_TF_PM.c **** *
 218:.\Generated_Source\PSoC5/UART_TF_PM.c **** *******************************************************************************/
 219:.\Generated_Source\PSoC5/UART_TF_PM.c **** void UART_TF_Wakeup(void)
 220:.\Generated_Source\PSoC5/UART_TF_PM.c **** {
 170              		.loc 1 220 0
 171              		.cfi_startproc
 172              		@ args = 0, pretend = 0, frame = 0
 173              		@ frame_needed = 1, uses_anonymous_args = 0
 174 0000 80B5     		push	{r7, lr}
 175              	.LCFI6:
ARM GAS  C:\Users\SUZUKI~1\AppData\Local\Temp\ccNeYqdh.s 			page 8


 176              		.cfi_def_cfa_offset 8
 177 0002 00AF     		add	r7, sp, #0
 178              		.cfi_offset 14, -4
 179              		.cfi_offset 7, -8
 180              	.LCFI7:
 181              		.cfi_def_cfa_register 7
 221:.\Generated_Source\PSoC5/UART_TF_PM.c ****     UART_TF_RestoreConfig();
 182              		.loc 1 221 0
 183 0004 FFF7FEFF 		bl	UART_TF_RestoreConfig
 222:.\Generated_Source\PSoC5/UART_TF_PM.c ****     #if( (UART_TF_RX_ENABLED) || (UART_TF_HD_ENABLED) )
 223:.\Generated_Source\PSoC5/UART_TF_PM.c ****         UART_TF_ClearRxBuffer();
 184              		.loc 1 223 0
 185 0008 FFF7FEFF 		bl	UART_TF_ClearRxBuffer
 224:.\Generated_Source\PSoC5/UART_TF_PM.c ****     #endif /* End (UART_TF_RX_ENABLED) || (UART_TF_HD_ENABLED) */
 225:.\Generated_Source\PSoC5/UART_TF_PM.c ****     #if(UART_TF_TX_ENABLED || UART_TF_HD_ENABLED)
 226:.\Generated_Source\PSoC5/UART_TF_PM.c ****         UART_TF_ClearTxBuffer();
 227:.\Generated_Source\PSoC5/UART_TF_PM.c ****     #endif /* End UART_TF_TX_ENABLED || UART_TF_HD_ENABLED */
 228:.\Generated_Source\PSoC5/UART_TF_PM.c **** 
 229:.\Generated_Source\PSoC5/UART_TF_PM.c ****     if(UART_TF_backup.enableState != 0u)
 186              		.loc 1 229 0
 187 000c 40F20003 		movw	r3, #:lower16:UART_TF_backup
 188 0010 C0F20003 		movt	r3, #:upper16:UART_TF_backup
 189 0014 1B78     		ldrb	r3, [r3, #0]	@ zero_extendqisi2
 190 0016 002B     		cmp	r3, #0
 191 0018 01D0     		beq	.L11
 230:.\Generated_Source\PSoC5/UART_TF_PM.c ****     {
 231:.\Generated_Source\PSoC5/UART_TF_PM.c ****         UART_TF_Enable();
 192              		.loc 1 231 0
 193 001a FFF7FEFF 		bl	UART_TF_Enable
 194              	.L11:
 232:.\Generated_Source\PSoC5/UART_TF_PM.c ****     }
 233:.\Generated_Source\PSoC5/UART_TF_PM.c **** }
 195              		.loc 1 233 0
 196 001e 80BD     		pop	{r7, pc}
 197              		.cfi_endproc
 198              	.LFE3:
 199              		.size	UART_TF_Wakeup, .-UART_TF_Wakeup
 200              		.text
 201              	.Letext0:
 202              		.section	.debug_loc,"",%progbits
 203              	.Ldebug_loc0:
 204              	.LLST0:
 205 0000 00000000 		.4byte	.LFB0
 206 0004 02000000 		.4byte	.LCFI0
 207 0008 0100     		.2byte	0x1
 208 000a 5D       		.byte	0x5d
 209 000b 02000000 		.4byte	.LCFI0
 210 000f 04000000 		.4byte	.LCFI1
 211 0013 0200     		.2byte	0x2
 212 0015 7D       		.byte	0x7d
 213 0016 04       		.sleb128 4
 214 0017 04000000 		.4byte	.LCFI1
 215 001b 36000000 		.4byte	.LFE0
 216 001f 0200     		.2byte	0x2
 217 0021 77       		.byte	0x77
 218 0022 04       		.sleb128 4
 219 0023 00000000 		.4byte	0x0
ARM GAS  C:\Users\SUZUKI~1\AppData\Local\Temp\ccNeYqdh.s 			page 9


 220 0027 00000000 		.4byte	0x0
 221              	.LLST1:
 222 002b 00000000 		.4byte	.LFB1
 223 002f 02000000 		.4byte	.LCFI2
 224 0033 0100     		.2byte	0x1
 225 0035 5D       		.byte	0x5d
 226 0036 02000000 		.4byte	.LCFI2
 227 003a 04000000 		.4byte	.LCFI3
 228 003e 0200     		.2byte	0x2
 229 0040 7D       		.byte	0x7d
 230 0041 04       		.sleb128 4
 231 0042 04000000 		.4byte	.LCFI3
 232 0046 32000000 		.4byte	.LFE1
 233 004a 0200     		.2byte	0x2
 234 004c 77       		.byte	0x77
 235 004d 04       		.sleb128 4
 236 004e 00000000 		.4byte	0x0
 237 0052 00000000 		.4byte	0x0
 238              	.LLST2:
 239 0056 00000000 		.4byte	.LFB2
 240 005a 02000000 		.4byte	.LCFI4
 241 005e 0100     		.2byte	0x1
 242 0060 5D       		.byte	0x5d
 243 0061 02000000 		.4byte	.LCFI4
 244 0065 04000000 		.4byte	.LCFI5
 245 0069 0200     		.2byte	0x2
 246 006b 7D       		.byte	0x7d
 247 006c 08       		.sleb128 8
 248 006d 04000000 		.4byte	.LCFI5
 249 0071 40000000 		.4byte	.LFE2
 250 0075 0200     		.2byte	0x2
 251 0077 77       		.byte	0x77
 252 0078 08       		.sleb128 8
 253 0079 00000000 		.4byte	0x0
 254 007d 00000000 		.4byte	0x0
 255              	.LLST3:
 256 0081 00000000 		.4byte	.LFB3
 257 0085 02000000 		.4byte	.LCFI6
 258 0089 0100     		.2byte	0x1
 259 008b 5D       		.byte	0x5d
 260 008c 02000000 		.4byte	.LCFI6
 261 0090 04000000 		.4byte	.LCFI7
 262 0094 0200     		.2byte	0x2
 263 0096 7D       		.byte	0x7d
 264 0097 08       		.sleb128 8
 265 0098 04000000 		.4byte	.LCFI7
 266 009c 20000000 		.4byte	.LFE3
 267 00a0 0200     		.2byte	0x2
 268 00a2 77       		.byte	0x77
 269 00a3 08       		.sleb128 8
 270 00a4 00000000 		.4byte	0x0
 271 00a8 00000000 		.4byte	0x0
 272              		.file 2 ".\\Generated_Source\\PSoC5\\/UART_TF.h"
 273              		.file 3 ".\\Generated_Source\\PSoC5\\/cytypes.h"
 274              		.section	.debug_info
 275 0000 36010000 		.4byte	0x136
 276 0004 0200     		.2byte	0x2
ARM GAS  C:\Users\SUZUKI~1\AppData\Local\Temp\ccNeYqdh.s 			page 10


 277 0006 00000000 		.4byte	.Ldebug_abbrev0
 278 000a 04       		.byte	0x4
 279 000b 01       		.uleb128 0x1
 280 000c F2000000 		.4byte	.LASF21
 281 0010 01       		.byte	0x1
 282 0011 CC000000 		.4byte	.LASF22
 283 0015 3D000000 		.4byte	.LASF23
 284 0019 00000000 		.4byte	0x0
 285 001d 00000000 		.4byte	0x0
 286 0021 00000000 		.4byte	.Ldebug_ranges0+0x0
 287 0025 00000000 		.4byte	.Ldebug_line0
 288 0029 02       		.uleb128 0x2
 289 002a 01       		.byte	0x1
 290 002b 06       		.byte	0x6
 291 002c 59010000 		.4byte	.LASF0
 292 0030 02       		.uleb128 0x2
 293 0031 01       		.byte	0x1
 294 0032 08       		.byte	0x8
 295 0033 FE000000 		.4byte	.LASF1
 296 0037 02       		.uleb128 0x2
 297 0038 02       		.byte	0x2
 298 0039 05       		.byte	0x5
 299 003a 95010000 		.4byte	.LASF2
 300 003e 02       		.uleb128 0x2
 301 003f 02       		.byte	0x2
 302 0040 07       		.byte	0x7
 303 0041 46010000 		.4byte	.LASF3
 304 0045 02       		.uleb128 0x2
 305 0046 04       		.byte	0x4
 306 0047 05       		.byte	0x5
 307 0048 20010000 		.4byte	.LASF4
 308 004c 02       		.uleb128 0x2
 309 004d 04       		.byte	0x4
 310 004e 07       		.byte	0x7
 311 004f 99000000 		.4byte	.LASF5
 312 0053 02       		.uleb128 0x2
 313 0054 08       		.byte	0x8
 314 0055 05       		.byte	0x5
 315 0056 00000000 		.4byte	.LASF6
 316 005a 02       		.uleb128 0x2
 317 005b 08       		.byte	0x8
 318 005c 07       		.byte	0x7
 319 005d B5000000 		.4byte	.LASF7
 320 0061 03       		.uleb128 0x3
 321 0062 04       		.byte	0x4
 322 0063 05       		.byte	0x5
 323 0064 696E7400 		.ascii	"int\000"
 324 0068 02       		.uleb128 0x2
 325 0069 04       		.byte	0x4
 326 006a 07       		.byte	0x7
 327 006b 1A000000 		.4byte	.LASF8
 328 006f 04       		.uleb128 0x4
 329 0070 93000000 		.4byte	.LASF15
 330 0074 03       		.byte	0x3
 331 0075 4C       		.byte	0x4c
 332 0076 30000000 		.4byte	0x30
 333 007a 02       		.uleb128 0x2
ARM GAS  C:\Users\SUZUKI~1\AppData\Local\Temp\ccNeYqdh.s 			page 11


 334 007b 04       		.byte	0x4
 335 007c 04       		.byte	0x4
 336 007d 80010000 		.4byte	.LASF9
 337 0081 02       		.uleb128 0x2
 338 0082 08       		.byte	0x8
 339 0083 04       		.byte	0x4
 340 0084 29010000 		.4byte	.LASF10
 341 0088 02       		.uleb128 0x2
 342 0089 01       		.byte	0x1
 343 008a 08       		.byte	0x8
 344 008b 1B010000 		.4byte	.LASF11
 345 008f 05       		.uleb128 0x5
 346 0090 04       		.byte	0x4
 347 0091 07       		.byte	0x7
 348 0092 06       		.uleb128 0x6
 349 0093 6F000000 		.4byte	.LASF24
 350 0097 03       		.byte	0x3
 351 0098 02       		.byte	0x2
 352 0099 46       		.byte	0x46
 353 009a C9000000 		.4byte	0xc9
 354 009e 07       		.uleb128 0x7
 355 009f 0E000000 		.4byte	.LASF12
 356 00a3 02       		.byte	0x2
 357 00a4 47       		.byte	0x47
 358 00a5 6F000000 		.4byte	0x6f
 359 00a9 02       		.byte	0x2
 360 00aa 23       		.byte	0x23
 361 00ab 00       		.uleb128 0x0
 362 00ac 07       		.uleb128 0x7
 363 00ad AB000000 		.4byte	.LASF13
 364 00b1 02       		.byte	0x2
 365 00b2 4D       		.byte	0x4d
 366 00b3 6F000000 		.4byte	0x6f
 367 00b7 02       		.byte	0x2
 368 00b8 23       		.byte	0x23
 369 00b9 01       		.uleb128 0x1
 370 00ba 07       		.uleb128 0x7
 371 00bb 65010000 		.4byte	.LASF14
 372 00bf 02       		.byte	0x2
 373 00c0 4F       		.byte	0x4f
 374 00c1 6F000000 		.4byte	0x6f
 375 00c5 02       		.byte	0x2
 376 00c6 23       		.byte	0x23
 377 00c7 02       		.uleb128 0x2
 378 00c8 00       		.byte	0x0
 379 00c9 04       		.uleb128 0x4
 380 00ca 30010000 		.4byte	.LASF16
 381 00ce 02       		.byte	0x2
 382 00cf 64       		.byte	0x64
 383 00d0 92000000 		.4byte	0x92
 384 00d4 08       		.uleb128 0x8
 385 00d5 01       		.byte	0x1
 386 00d6 6D010000 		.4byte	.LASF17
 387 00da 01       		.byte	0x1
 388 00db 34       		.byte	0x34
 389 00dc 01       		.byte	0x1
 390 00dd 00000000 		.4byte	.LFB0
ARM GAS  C:\Users\SUZUKI~1\AppData\Local\Temp\ccNeYqdh.s 			page 12


 391 00e1 36000000 		.4byte	.LFE0
 392 00e5 00000000 		.4byte	.LLST0
 393 00e9 08       		.uleb128 0x8
 394 00ea 01       		.byte	0x1
 395 00eb 27000000 		.4byte	.LASF18
 396 00ef 01       		.byte	0x1
 397 00f0 6E       		.byte	0x6e
 398 00f1 01       		.byte	0x1
 399 00f2 00000000 		.4byte	.LFB1
 400 00f6 32000000 		.4byte	.LFE1
 401 00fa 2B000000 		.4byte	.LLST1
 402 00fe 08       		.uleb128 0x8
 403 00ff 01       		.byte	0x1
 404 0100 85000000 		.4byte	.LASF19
 405 0104 01       		.byte	0x1
 406 0105 AA       		.byte	0xaa
 407 0106 01       		.byte	0x1
 408 0107 00000000 		.4byte	.LFB2
 409 010b 40000000 		.4byte	.LFE2
 410 010f 56000000 		.4byte	.LLST2
 411 0113 08       		.uleb128 0x8
 412 0114 01       		.byte	0x1
 413 0115 86010000 		.4byte	.LASF20
 414 0119 01       		.byte	0x1
 415 011a DB       		.byte	0xdb
 416 011b 01       		.byte	0x1
 417 011c 00000000 		.4byte	.LFB3
 418 0120 20000000 		.4byte	.LFE3
 419 0124 81000000 		.4byte	.LLST3
 420 0128 09       		.uleb128 0x9
 421 0129 0C010000 		.4byte	.LASF25
 422 012d 01       		.byte	0x1
 423 012e 18       		.byte	0x18
 424 012f C9000000 		.4byte	0xc9
 425 0133 05       		.byte	0x5
 426 0134 03       		.byte	0x3
 427 0135 00000000 		.4byte	UART_TF_backup
 428 0139 00       		.byte	0x0
 429              		.section	.debug_abbrev
 430 0000 01       		.uleb128 0x1
 431 0001 11       		.uleb128 0x11
 432 0002 01       		.byte	0x1
 433 0003 25       		.uleb128 0x25
 434 0004 0E       		.uleb128 0xe
 435 0005 13       		.uleb128 0x13
 436 0006 0B       		.uleb128 0xb
 437 0007 03       		.uleb128 0x3
 438 0008 0E       		.uleb128 0xe
 439 0009 1B       		.uleb128 0x1b
 440 000a 0E       		.uleb128 0xe
 441 000b 11       		.uleb128 0x11
 442 000c 01       		.uleb128 0x1
 443 000d 52       		.uleb128 0x52
 444 000e 01       		.uleb128 0x1
 445 000f 55       		.uleb128 0x55
 446 0010 06       		.uleb128 0x6
 447 0011 10       		.uleb128 0x10
ARM GAS  C:\Users\SUZUKI~1\AppData\Local\Temp\ccNeYqdh.s 			page 13


 448 0012 06       		.uleb128 0x6
 449 0013 00       		.byte	0x0
 450 0014 00       		.byte	0x0
 451 0015 02       		.uleb128 0x2
 452 0016 24       		.uleb128 0x24
 453 0017 00       		.byte	0x0
 454 0018 0B       		.uleb128 0xb
 455 0019 0B       		.uleb128 0xb
 456 001a 3E       		.uleb128 0x3e
 457 001b 0B       		.uleb128 0xb
 458 001c 03       		.uleb128 0x3
 459 001d 0E       		.uleb128 0xe
 460 001e 00       		.byte	0x0
 461 001f 00       		.byte	0x0
 462 0020 03       		.uleb128 0x3
 463 0021 24       		.uleb128 0x24
 464 0022 00       		.byte	0x0
 465 0023 0B       		.uleb128 0xb
 466 0024 0B       		.uleb128 0xb
 467 0025 3E       		.uleb128 0x3e
 468 0026 0B       		.uleb128 0xb
 469 0027 03       		.uleb128 0x3
 470 0028 08       		.uleb128 0x8
 471 0029 00       		.byte	0x0
 472 002a 00       		.byte	0x0
 473 002b 04       		.uleb128 0x4
 474 002c 16       		.uleb128 0x16
 475 002d 00       		.byte	0x0
 476 002e 03       		.uleb128 0x3
 477 002f 0E       		.uleb128 0xe
 478 0030 3A       		.uleb128 0x3a
 479 0031 0B       		.uleb128 0xb
 480 0032 3B       		.uleb128 0x3b
 481 0033 0B       		.uleb128 0xb
 482 0034 49       		.uleb128 0x49
 483 0035 13       		.uleb128 0x13
 484 0036 00       		.byte	0x0
 485 0037 00       		.byte	0x0
 486 0038 05       		.uleb128 0x5
 487 0039 24       		.uleb128 0x24
 488 003a 00       		.byte	0x0
 489 003b 0B       		.uleb128 0xb
 490 003c 0B       		.uleb128 0xb
 491 003d 3E       		.uleb128 0x3e
 492 003e 0B       		.uleb128 0xb
 493 003f 00       		.byte	0x0
 494 0040 00       		.byte	0x0
 495 0041 06       		.uleb128 0x6
 496 0042 13       		.uleb128 0x13
 497 0043 01       		.byte	0x1
 498 0044 03       		.uleb128 0x3
 499 0045 0E       		.uleb128 0xe
 500 0046 0B       		.uleb128 0xb
 501 0047 0B       		.uleb128 0xb
 502 0048 3A       		.uleb128 0x3a
 503 0049 0B       		.uleb128 0xb
 504 004a 3B       		.uleb128 0x3b
ARM GAS  C:\Users\SUZUKI~1\AppData\Local\Temp\ccNeYqdh.s 			page 14


 505 004b 0B       		.uleb128 0xb
 506 004c 01       		.uleb128 0x1
 507 004d 13       		.uleb128 0x13
 508 004e 00       		.byte	0x0
 509 004f 00       		.byte	0x0
 510 0050 07       		.uleb128 0x7
 511 0051 0D       		.uleb128 0xd
 512 0052 00       		.byte	0x0
 513 0053 03       		.uleb128 0x3
 514 0054 0E       		.uleb128 0xe
 515 0055 3A       		.uleb128 0x3a
 516 0056 0B       		.uleb128 0xb
 517 0057 3B       		.uleb128 0x3b
 518 0058 0B       		.uleb128 0xb
 519 0059 49       		.uleb128 0x49
 520 005a 13       		.uleb128 0x13
 521 005b 38       		.uleb128 0x38
 522 005c 0A       		.uleb128 0xa
 523 005d 00       		.byte	0x0
 524 005e 00       		.byte	0x0
 525 005f 08       		.uleb128 0x8
 526 0060 2E       		.uleb128 0x2e
 527 0061 00       		.byte	0x0
 528 0062 3F       		.uleb128 0x3f
 529 0063 0C       		.uleb128 0xc
 530 0064 03       		.uleb128 0x3
 531 0065 0E       		.uleb128 0xe
 532 0066 3A       		.uleb128 0x3a
 533 0067 0B       		.uleb128 0xb
 534 0068 3B       		.uleb128 0x3b
 535 0069 0B       		.uleb128 0xb
 536 006a 27       		.uleb128 0x27
 537 006b 0C       		.uleb128 0xc
 538 006c 11       		.uleb128 0x11
 539 006d 01       		.uleb128 0x1
 540 006e 12       		.uleb128 0x12
 541 006f 01       		.uleb128 0x1
 542 0070 40       		.uleb128 0x40
 543 0071 06       		.uleb128 0x6
 544 0072 00       		.byte	0x0
 545 0073 00       		.byte	0x0
 546 0074 09       		.uleb128 0x9
 547 0075 34       		.uleb128 0x34
 548 0076 00       		.byte	0x0
 549 0077 03       		.uleb128 0x3
 550 0078 0E       		.uleb128 0xe
 551 0079 3A       		.uleb128 0x3a
 552 007a 0B       		.uleb128 0xb
 553 007b 3B       		.uleb128 0x3b
 554 007c 0B       		.uleb128 0xb
 555 007d 49       		.uleb128 0x49
 556 007e 13       		.uleb128 0x13
 557 007f 02       		.uleb128 0x2
 558 0080 0A       		.uleb128 0xa
 559 0081 00       		.byte	0x0
 560 0082 00       		.byte	0x0
 561 0083 00       		.byte	0x0
ARM GAS  C:\Users\SUZUKI~1\AppData\Local\Temp\ccNeYqdh.s 			page 15


 562              		.section	.debug_pubnames,"",%progbits
 563 0000 64000000 		.4byte	0x64
 564 0004 0200     		.2byte	0x2
 565 0006 00000000 		.4byte	.Ldebug_info0
 566 000a 3A010000 		.4byte	0x13a
 567 000e D4000000 		.4byte	0xd4
 568 0012 55415254 		.ascii	"UART_TF_SaveConfig\000"
 568      5F54465F 
 568      53617665 
 568      436F6E66 
 568      696700
 569 0025 E9000000 		.4byte	0xe9
 570 0029 55415254 		.ascii	"UART_TF_RestoreConfig\000"
 570      5F54465F 
 570      52657374 
 570      6F726543 
 570      6F6E6669 
 571 003f FE000000 		.4byte	0xfe
 572 0043 55415254 		.ascii	"UART_TF_Sleep\000"
 572      5F54465F 
 572      536C6565 
 572      7000
 573 0051 13010000 		.4byte	0x113
 574 0055 55415254 		.ascii	"UART_TF_Wakeup\000"
 574      5F54465F 
 574      57616B65 
 574      757000
 575 0064 00000000 		.4byte	0x0
 576              		.section	.debug_aranges,"",%progbits
 577 0000 34000000 		.4byte	0x34
 578 0004 0200     		.2byte	0x2
 579 0006 00000000 		.4byte	.Ldebug_info0
 580 000a 04       		.byte	0x4
 581 000b 00       		.byte	0x0
 582 000c 0000     		.2byte	0x0
 583 000e 0000     		.2byte	0x0
 584 0010 00000000 		.4byte	.LFB0
 585 0014 36000000 		.4byte	.LFE0-.LFB0
 586 0018 00000000 		.4byte	.LFB1
 587 001c 32000000 		.4byte	.LFE1-.LFB1
 588 0020 00000000 		.4byte	.LFB2
 589 0024 40000000 		.4byte	.LFE2-.LFB2
 590 0028 00000000 		.4byte	.LFB3
 591 002c 20000000 		.4byte	.LFE3-.LFB3
 592 0030 00000000 		.4byte	0x0
 593 0034 00000000 		.4byte	0x0
 594              		.section	.debug_ranges,"",%progbits
 595              	.Ldebug_ranges0:
 596 0000 00000000 		.4byte	.Ltext0
 597 0004 00000000 		.4byte	.Letext0
 598 0008 00000000 		.4byte	.LFB0
 599 000c 36000000 		.4byte	.LFE0
 600 0010 00000000 		.4byte	.LFB1
 601 0014 32000000 		.4byte	.LFE1
 602 0018 00000000 		.4byte	.LFB2
 603 001c 40000000 		.4byte	.LFE2
 604 0020 00000000 		.4byte	.LFB3
ARM GAS  C:\Users\SUZUKI~1\AppData\Local\Temp\ccNeYqdh.s 			page 16


 605 0024 20000000 		.4byte	.LFE3
 606 0028 00000000 		.4byte	0x0
 607 002c 00000000 		.4byte	0x0
 608              		.section	.debug_str,"MS",%progbits,1
 609              	.LASF6:
 610 0000 6C6F6E67 		.ascii	"long long int\000"
 610      206C6F6E 
 610      6720696E 
 610      7400
 611              	.LASF12:
 612 000e 656E6162 		.ascii	"enableState\000"
 612      6C655374 
 612      61746500 
 613              	.LASF8:
 614 001a 756E7369 		.ascii	"unsigned int\000"
 614      676E6564 
 614      20696E74 
 614      00
 615              	.LASF18:
 616 0027 55415254 		.ascii	"UART_TF_RestoreConfig\000"
 616      5F54465F 
 616      52657374 
 616      6F726543 
 616      6F6E6669 
 617              	.LASF23:
 618 003d 463A5C44 		.ascii	"F:\\Documents\\PSoC_Creator\\tfexpbrd\\tfexpbrd.cyd"
 618      6F63756D 
 618      656E7473 
 618      5C50536F 
 618      435F4372 
 619 006c 736E00   		.ascii	"sn\000"
 620              	.LASF24:
 621 006f 55415254 		.ascii	"UART_TF_backupStruct_\000"
 621      5F54465F 
 621      6261636B 
 621      75705374 
 621      72756374 
 622              	.LASF19:
 623 0085 55415254 		.ascii	"UART_TF_Sleep\000"
 623      5F54465F 
 623      536C6565 
 623      7000
 624              	.LASF15:
 625 0093 75696E74 		.ascii	"uint8\000"
 625      3800
 626              	.LASF5:
 627 0099 6C6F6E67 		.ascii	"long unsigned int\000"
 627      20756E73 
 627      69676E65 
 627      6420696E 
 627      7400
 628              	.LASF13:
 629 00ab 72785F70 		.ascii	"rx_period\000"
 629      6572696F 
 629      6400
 630              	.LASF7:
 631 00b5 6C6F6E67 		.ascii	"long long unsigned int\000"
ARM GAS  C:\Users\SUZUKI~1\AppData\Local\Temp\ccNeYqdh.s 			page 17


 631      206C6F6E 
 631      6720756E 
 631      7369676E 
 631      65642069 
 632              	.LASF22:
 633 00cc 2E5C4765 		.ascii	".\\Generated_Source\\PSoC5\\UART_TF_PM.c\000"
 633      6E657261 
 633      7465645F 
 633      536F7572 
 633      63655C50 
 634              	.LASF21:
 635 00f2 474E5520 		.ascii	"GNU C 4.4.1\000"
 635      4320342E 
 635      342E3100 
 636              	.LASF1:
 637 00fe 756E7369 		.ascii	"unsigned char\000"
 637      676E6564 
 637      20636861 
 637      7200
 638              	.LASF25:
 639 010c 55415254 		.ascii	"UART_TF_backup\000"
 639      5F54465F 
 639      6261636B 
 639      757000
 640              	.LASF11:
 641 011b 63686172 		.ascii	"char\000"
 641      00
 642              	.LASF4:
 643 0120 6C6F6E67 		.ascii	"long int\000"
 643      20696E74 
 643      00
 644              	.LASF10:
 645 0129 646F7562 		.ascii	"double\000"
 645      6C6500
 646              	.LASF16:
 647 0130 55415254 		.ascii	"UART_TF_BACKUP_STRUCT\000"
 647      5F54465F 
 647      4241434B 
 647      55505F53 
 647      54525543 
 648              	.LASF3:
 649 0146 73686F72 		.ascii	"short unsigned int\000"
 649      7420756E 
 649      7369676E 
 649      65642069 
 649      6E7400
 650              	.LASF0:
 651 0159 7369676E 		.ascii	"signed char\000"
 651      65642063 
 651      68617200 
 652              	.LASF14:
 653 0165 72785F6D 		.ascii	"rx_mask\000"
 653      61736B00 
 654              	.LASF17:
 655 016d 55415254 		.ascii	"UART_TF_SaveConfig\000"
 655      5F54465F 
 655      53617665 
ARM GAS  C:\Users\SUZUKI~1\AppData\Local\Temp\ccNeYqdh.s 			page 18


 655      436F6E66 
 655      696700
 656              	.LASF9:
 657 0180 666C6F61 		.ascii	"float\000"
 657      7400
 658              	.LASF20:
 659 0186 55415254 		.ascii	"UART_TF_Wakeup\000"
 659      5F54465F 
 659      57616B65 
 659      757000
 660              	.LASF2:
 661 0195 73686F72 		.ascii	"short int\000"
 661      7420696E 
 661      7400
 662              		.ident	"GCC: (Sourcery G++ Lite 2010q1-188) 4.4.1"
